%!PS-Adobe-3.0 EPSF-3.0
%%Creator: (MATLAB, The Mathworks, Inc. Version 9.4.0.813654 \(R2018a\). Operating System: Linux)
%%Title: /home/isidro/google-drive/TFG/tilt-rotor-matlab/figuras/memoria/comparacion/euler.eps
%%CreationDate: 2019-09-07T20:20:00
%%Pages: (atend)
%%BoundingBox: 0 0 521 309
%%LanguageLevel: 3
%%EndComments
%%BeginProlog
%%BeginResource: procset (Apache XML Graphics Std ProcSet) 1.2 0
%%Version: 1.2 0
%%Copyright: (Copyright 2001-2003,2010 The Apache Software Foundation. License terms: http://www.apache.org/licenses/LICENSE-2.0)
/bd{bind def}bind def
/ld{load def}bd
/GR/grestore ld
/GS/gsave ld
/RM/rmoveto ld
/C/curveto ld
/t/show ld
/L/lineto ld
/ML/setmiterlimit ld
/CT/concat ld
/f/fill ld
/N/newpath ld
/S/stroke ld
/CC/setcmykcolor ld
/A/ashow ld
/cp/closepath ld
/RC/setrgbcolor ld
/LJ/setlinejoin ld
/GC/setgray ld
/LW/setlinewidth ld
/M/moveto ld
/re {4 2 roll M
1 index 0 rlineto
0 exch rlineto
neg 0 rlineto
cp } bd
/_ctm matrix def
/_tm matrix def
/BT { _ctm currentmatrix pop matrix _tm copy pop 0 0 moveto } bd
/ET { _ctm setmatrix } bd
/iTm { _ctm setmatrix _tm concat } bd
/Tm { _tm astore pop iTm 0 0 moveto } bd
/ux 0.0 def
/uy 0.0 def
/F {
  /Tp exch def
  /Tf exch def
  Tf findfont Tp scalefont setfont
  /cf Tf def  /cs Tp def
} bd
/ULS {currentpoint /uy exch def /ux exch def} bd
/ULE {
  /Tcx currentpoint pop def
  gsave
  newpath
  cf findfont cs scalefont dup
  /FontMatrix get 0 get /Ts exch def /FontInfo get dup
  /UnderlinePosition get Ts mul /To exch def
  /UnderlineThickness get Ts mul /Tt exch def
  ux uy To add moveto  Tcx uy To add lineto
  Tt setlinewidth stroke
  grestore
} bd
/OLE {
  /Tcx currentpoint pop def
  gsave
  newpath
  cf findfont cs scalefont dup
  /FontMatrix get 0 get /Ts exch def /FontInfo get dup
  /UnderlinePosition get Ts mul /To exch def
  /UnderlineThickness get Ts mul /Tt exch def
  ux uy To add cs add moveto Tcx uy To add cs add lineto
  Tt setlinewidth stroke
  grestore
} bd
/SOE {
  /Tcx currentpoint pop def
  gsave
  newpath
  cf findfont cs scalefont dup
  /FontMatrix get 0 get /Ts exch def /FontInfo get dup
  /UnderlinePosition get Ts mul /To exch def
  /UnderlineThickness get Ts mul /Tt exch def
  ux uy To add cs 10 mul 26 idiv add moveto Tcx uy To add cs 10 mul 26 idiv add lineto
  Tt setlinewidth stroke
  grestore
} bd
/QT {
/Y22 exch store
/X22 exch store
/Y21 exch store
/X21 exch store
currentpoint
/Y21 load 2 mul add 3 div exch
/X21 load 2 mul add 3 div exch
/X21 load 2 mul /X22 load add 3 div
/Y21 load 2 mul /Y22 load add 3 div
/X22 load /Y22 load curveto
} bd
/SSPD {
dup length /d exch dict def
{
/v exch def
/k exch def
currentpagedevice k known {
/cpdv currentpagedevice k get def
v cpdv ne {
/upd false def
/nullv v type /nulltype eq def
/nullcpdv cpdv type /nulltype eq def
nullv nullcpdv or
{
/upd true def
} {
/sametype v type cpdv type eq def
sametype {
v type /arraytype eq {
/vlen v length def
/cpdvlen cpdv length def
vlen cpdvlen eq {
0 1 vlen 1 sub {
/i exch def
/obj v i get def
/cpdobj cpdv i get def
obj cpdobj ne {
/upd true def
exit
} if
} for
} {
/upd true def
} ifelse
} {
v type /dicttype eq {
v {
/dv exch def
/dk exch def
/cpddv cpdv dk get def
dv cpddv ne {
/upd true def
exit
} if
} forall
} {
/upd true def
} ifelse
} ifelse
} if
} ifelse
upd true eq {
d k v put
} if
} if
} if
} forall
d length 0 gt {
d setpagedevice
} if
} bd
/RE { % /NewFontName [NewEncodingArray] /FontName RE -
  findfont dup length dict begin
  {
    1 index /FID ne
    {def} {pop pop} ifelse
  } forall
  /Encoding exch def
  /FontName 1 index def
  currentdict definefont pop
  end
} bind def
%%EndResource
%%BeginResource: procset (Apache XML Graphics EPS ProcSet) 1.0 0
%%Version: 1.0 0
%%Copyright: (Copyright 2002-2003 The Apache Software Foundation. License terms: http://www.apache.org/licenses/LICENSE-2.0)
/BeginEPSF { %def
/b4_Inc_state save def         % Save state for cleanup
/dict_count countdictstack def % Count objects on dict stack
/op_count count 1 sub def      % Count objects on operand stack
userdict begin                 % Push userdict on dict stack
/showpage { } def              % Redefine showpage, { } = null proc
0 setgray 0 setlinecap         % Prepare graphics state
1 setlinewidth 0 setlinejoin
10 setmiterlimit [ ] 0 setdash newpath
/languagelevel where           % If level not equal to 1 then
{pop languagelevel             % set strokeadjust and
1 ne                           % overprint to their defaults.
{false setstrokeadjust false setoverprint
} if
} if
} bd
/EndEPSF { %def
count op_count sub {pop} repeat            % Clean up stacks
countdictstack dict_count sub {end} repeat
b4_Inc_state restore
} bd
%%EndResource
%FOPBeginFontDict
%%IncludeResource: font Courier-Oblique
%%IncludeResource: font Courier-BoldOblique
%%IncludeResource: font Courier-Bold
%%IncludeResource: font ZapfDingbats
%%IncludeResource: font Symbol
%%IncludeResource: font Helvetica
%%IncludeResource: font Helvetica-Oblique
%%IncludeResource: font Helvetica-Bold
%%IncludeResource: font Helvetica-BoldOblique
%%IncludeResource: font Times-Roman
%%IncludeResource: font Times-Italic
%%IncludeResource: font Times-Bold
%%IncludeResource: font Times-BoldItalic
%%IncludeResource: font Courier
%FOPEndFontDict
%%BeginResource: encoding WinAnsiEncoding
/WinAnsiEncoding [
/.notdef /.notdef /.notdef /.notdef /.notdef
/.notdef /.notdef /.notdef /.notdef /.notdef
/.notdef /.notdef /.notdef /.notdef /.notdef
/.notdef /.notdef /.notdef /.notdef /.notdef
/.notdef /.notdef /.notdef /.notdef /.notdef
/.notdef /.notdef /.notdef /.notdef /.notdef
/.notdef /.notdef /space /exclam /quotedbl
/numbersign /dollar /percent /ampersand /quotesingle
/parenleft /parenright /asterisk /plus /comma
/hyphen /period /slash /zero /one
/two /three /four /five /six
/seven /eight /nine /colon /semicolon
/less /equal /greater /question /at
/A /B /C /D /E
/F /G /H /I /J
/K /L /M /N /O
/P /Q /R /S /T
/U /V /W /X /Y
/Z /bracketleft /backslash /bracketright /asciicircum
/underscore /quoteleft /a /b /c
/d /e /f /g /h
/i /j /k /l /m
/n /o /p /q /r
/s /t /u /v /w
/x /y /z /braceleft /bar
/braceright /asciitilde /bullet /Euro /bullet
/quotesinglbase /florin /quotedblbase /ellipsis /dagger
/daggerdbl /circumflex /perthousand /Scaron /guilsinglleft
/OE /bullet /Zcaron /bullet /bullet
/quoteleft /quoteright /quotedblleft /quotedblright /bullet
/endash /emdash /asciitilde /trademark /scaron
/guilsinglright /oe /bullet /zcaron /Ydieresis
/space /exclamdown /cent /sterling /currency
/yen /brokenbar /section /dieresis /copyright
/ordfeminine /guillemotleft /logicalnot /sfthyphen /registered
/macron /degree /plusminus /twosuperior /threesuperior
/acute /mu /paragraph /middot /cedilla
/onesuperior /ordmasculine /guillemotright /onequarter /onehalf
/threequarters /questiondown /Agrave /Aacute /Acircumflex
/Atilde /Adieresis /Aring /AE /Ccedilla
/Egrave /Eacute /Ecircumflex /Edieresis /Igrave
/Iacute /Icircumflex /Idieresis /Eth /Ntilde
/Ograve /Oacute /Ocircumflex /Otilde /Odieresis
/multiply /Oslash /Ugrave /Uacute /Ucircumflex
/Udieresis /Yacute /Thorn /germandbls /agrave
/aacute /acircumflex /atilde /adieresis /aring
/ae /ccedilla /egrave /eacute /ecircumflex
/edieresis /igrave /iacute /icircumflex /idieresis
/eth /ntilde /ograve /oacute /ocircumflex
/otilde /odieresis /divide /oslash /ugrave
/uacute /ucircumflex /udieresis /yacute /thorn
/ydieresis
] def
%%EndResource
%FOPBeginFontReencode
/Courier-Oblique findfont
dup length dict begin
  {1 index /FID ne {def} {pop pop} ifelse} forall
  /Encoding WinAnsiEncoding def
  currentdict
end
/Courier-Oblique exch definefont pop
/Courier-BoldOblique findfont
dup length dict begin
  {1 index /FID ne {def} {pop pop} ifelse} forall
  /Encoding WinAnsiEncoding def
  currentdict
end
/Courier-BoldOblique exch definefont pop
/Courier-Bold findfont
dup length dict begin
  {1 index /FID ne {def} {pop pop} ifelse} forall
  /Encoding WinAnsiEncoding def
  currentdict
end
/Courier-Bold exch definefont pop
/Helvetica findfont
dup length dict begin
  {1 index /FID ne {def} {pop pop} ifelse} forall
  /Encoding WinAnsiEncoding def
  currentdict
end
/Helvetica exch definefont pop
/Helvetica-Oblique findfont
dup length dict begin
  {1 index /FID ne {def} {pop pop} ifelse} forall
  /Encoding WinAnsiEncoding def
  currentdict
end
/Helvetica-Oblique exch definefont pop
/Helvetica-Bold findfont
dup length dict begin
  {1 index /FID ne {def} {pop pop} ifelse} forall
  /Encoding WinAnsiEncoding def
  currentdict
end
/Helvetica-Bold exch definefont pop
/Helvetica-BoldOblique findfont
dup length dict begin
  {1 index /FID ne {def} {pop pop} ifelse} forall
  /Encoding WinAnsiEncoding def
  currentdict
end
/Helvetica-BoldOblique exch definefont pop
/Times-Roman findfont
dup length dict begin
  {1 index /FID ne {def} {pop pop} ifelse} forall
  /Encoding WinAnsiEncoding def
  currentdict
end
/Times-Roman exch definefont pop
/Times-Italic findfont
dup length dict begin
  {1 index /FID ne {def} {pop pop} ifelse} forall
  /Encoding WinAnsiEncoding def
  currentdict
end
/Times-Italic exch definefont pop
/Times-Bold findfont
dup length dict begin
  {1 index /FID ne {def} {pop pop} ifelse} forall
  /Encoding WinAnsiEncoding def
  currentdict
end
/Times-Bold exch definefont pop
/Times-BoldItalic findfont
dup length dict begin
  {1 index /FID ne {def} {pop pop} ifelse} forall
  /Encoding WinAnsiEncoding def
  currentdict
end
/Times-BoldItalic exch definefont pop
/Courier findfont
dup length dict begin
  {1 index /FID ne {def} {pop pop} ifelse} forall
  /Encoding WinAnsiEncoding def
  currentdict
end
/Courier exch definefont pop
%FOPEndFontReencode
%%EndProlog
%%Page: 1 1
%%PageBoundingBox: 0 0 521 309
%%BeginPageSetup
[1 0 0 -1 0 309] CT
%%EndPageSetup
GS
[0.75 0 0 0.75 0 0] CT
1 GC
N
0 0 695 412 re
f
GR
GS
[0.75 0 0 0.75 0 0] CT
1 GC
N
0 0 695 412 re
f
GR
GS
[0.75 0 0 0.75 0 0] CT
1 GC
N
90 356 M
629 356 L
629 31 L
90 31 L
cp
f
GR
GS
[0.75 0 0 0.75 0 0] CT
0.873 GC
1 LJ
0.667 LW
N
123.763 356 M
123.763 31 L
S
GR
GS
[0.75 0 0 0.75 0 0] CT
0.873 GC
1 LJ
0.667 LW
N
210.578 356 M
210.578 31 L
S
GR
GS
[0.75 0 0 0.75 0 0] CT
0.873 GC
1 LJ
0.667 LW
N
297.394 356 M
297.394 31 L
S
GR
GS
[0.75 0 0 0.75 0 0] CT
0.873 GC
1 LJ
0.667 LW
N
384.209 356 M
384.209 31 L
S
GR
GS
[0.75 0 0 0.75 0 0] CT
0.873 GC
1 LJ
0.667 LW
N
471.025 356 M
471.025 31 L
S
GR
GS
[0.75 0 0 0.75 0 0] CT
0.873 GC
1 LJ
0.667 LW
N
557.84 356 M
557.84 31 L
S
GR
GS
[0.75 0 0 0.75 0 0] CT
0.873 GC
1 LJ
0.667 LW
N
629 345.082 M
90 345.082 L
S
GR
GS
[0.75 0 0 0.75 0 0] CT
0.873 GC
1 LJ
0.667 LW
N
629 274.361 M
90 274.361 L
S
GR
GS
[0.75 0 0 0.75 0 0] CT
0.873 GC
1 LJ
0.667 LW
N
629 203.639 M
90 203.639 L
S
GR
GS
[0.75 0 0 0.75 0 0] CT
0.873 GC
1 LJ
0.667 LW
N
629 132.918 M
90 132.918 L
S
GR
GS
[0.75 0 0 0.75 0 0] CT
0.873 GC
1 LJ
0.667 LW
N
629 62.197 M
90 62.197 L
S
GR
GS
[0.75 0 0 0.75 0 0] CT
0.149 GC
2 setlinecap
1 LJ
0.667 LW
N
90 356 M
629 356 L
S
GR
GS
[0.75 0 0 0.75 0 0] CT
0.149 GC
2 setlinecap
1 LJ
0.667 LW
N
123.763 356 M
123.763 350.61 L
S
GR
GS
[0.75 0 0 0.75 0 0] CT
0.149 GC
2 setlinecap
1 LJ
0.667 LW
N
210.578 356 M
210.578 350.61 L
S
GR
GS
[0.75 0 0 0.75 0 0] CT
0.149 GC
2 setlinecap
1 LJ
0.667 LW
N
297.394 356 M
297.394 350.61 L
S
GR
GS
[0.75 0 0 0.75 0 0] CT
0.149 GC
2 setlinecap
1 LJ
0.667 LW
N
384.209 356 M
384.209 350.61 L
S
GR
GS
[0.75 0 0 0.75 0 0] CT
0.149 GC
2 setlinecap
1 LJ
0.667 LW
N
471.025 356 M
471.025 350.61 L
S
GR
GS
[0.75 0 0 0.75 0 0] CT
0.149 GC
2 setlinecap
1 LJ
0.667 LW
N
557.84 356 M
557.84 350.61 L
S
GR
GS
[0.75 0 0 0.75 92.82206 271.8] CT
0.149 GC
/Helvetica 18.667 F
GS
[1 0 0 1 0 0] CT
-15 18 moveto 
1 -1 scale
(0.1) t 
GR
GR
GS
[0.75 0 0 0.75 157.93364 271.8] CT
0.149 GC
/Helvetica 18.667 F
GS
[1 0 0 1 0 0] CT
-21 18 moveto 
1 -1 scale
(0.15) t 
GR
GR
GS
[0.75 0 0 0.75 223.04521 271.8] CT
0.149 GC
/Helvetica 18.667 F
GS
[1 0 0 1 0 0] CT
-15 18 moveto 
1 -1 scale
(0.2) t 
GR
GR
GS
[0.75 0 0 0.75 288.15678 271.8] CT
0.149 GC
/Helvetica 18.667 F
GS
[1 0 0 1 0 0] CT
-21 18 moveto 
1 -1 scale
(0.25) t 
GR
GR
GS
[0.75 0 0 0.75 353.26838 271.8] CT
0.149 GC
/Helvetica 18.667 F
GS
[1 0 0 1 0 0] CT
-15 18 moveto 
1 -1 scale
(0.3) t 
GR
GR
GS
[0.75 0 0 0.75 418.37993 271.8] CT
0.149 GC
/Helvetica 18.667 F
GS
[1 0 0 1 0 0] CT
-21 18 moveto 
1 -1 scale
(0.35) t 
GR
GR
GS
[0.75 0 0 0.75 269.62518 290.04998] CT
0.149 GC
/Helvetica 20.533 F
GS
[1 0 0 1 0 0] CT
-21 20 moveto 
1 -1 scale
(t \(s\)) t 
GR
GR
GS
[0.75 0 0 0.75 0 0] CT
0.149 GC
2 setlinecap
1 LJ
0.667 LW
N
90 356 M
90 31 L
S
GR
GS
[0.75 0 0 0.75 0 0] CT
0.149 GC
2 setlinecap
1 LJ
0.667 LW
N
90 345.082 M
95.39 345.082 L
S
GR
GS
[0.75 0 0 0.75 0 0] CT
0.149 GC
2 setlinecap
1 LJ
0.667 LW
N
90 274.361 M
95.39 274.361 L
S
GR
GS
[0.75 0 0 0.75 0 0] CT
0.149 GC
2 setlinecap
1 LJ
0.667 LW
N
90 203.639 M
95.39 203.639 L
S
GR
GS
[0.75 0 0 0.75 0 0] CT
0.149 GC
2 setlinecap
1 LJ
0.667 LW
N
90 132.918 M
95.39 132.918 L
S
GR
GS
[0.75 0 0 0.75 0 0] CT
0.149 GC
2 setlinecap
1 LJ
0.667 LW
N
90 62.197 M
95.39 62.197 L
S
GR
GS
[0.75 0 0 0.75 62.7 258.81136] CT
0.149 GC
/Helvetica 18.667 F
GS
[1 0 0 1 0 0] CT
-37 6.5 moveto 
1 -1 scale
(-0.8) t 
GR
GR
GS
[0.75 0 0 0.75 62.7 205.7704] CT
0.149 GC
/Helvetica 18.667 F
GS
[1 0 0 1 0 0] CT
-37 6.5 moveto 
1 -1 scale
(-0.6) t 
GR
GR
GS
[0.75 0 0 0.75 62.7 152.72944] CT
0.149 GC
/Helvetica 18.667 F
GS
[1 0 0 1 0 0] CT
-37 6.5 moveto 
1 -1 scale
(-0.4) t 
GR
GR
GS
[0.75 0 0 0.75 62.7 99.68848] CT
0.149 GC
/Helvetica 18.667 F
GS
[1 0 0 1 0 0] CT
-37 6.5 moveto 
1 -1 scale
(-0.2) t 
GR
GR
GS
[0.75 0 0 0.75 62.7 46.64752] CT
0.149 GC
/Helvetica 18.667 F
GS
[1 0 0 1 0 0] CT
-12 6.5 moveto 
1 -1 scale
(0) t 
GR
GR
GS
[0 -0.75 0.75 0 28.5 169.5] CT
0.149 GC
N
3.422 3.266 M
3.453 3.031 3.719 3.031 QT
3.734 3.031 4.109 3.234 QT
4.484 3.438 4.938 3.602 QT
5.391 3.766 5.828 3.766 QT
6.219 3.766 6.484 3.43 QT
6.75 3.094 6.75 2.703 QT
6.75 2.156 6.172 1.922 QT
2.609 0.547 L
1.688 0.188 1.086 -0.523 QT
0.484 -1.234 0.484 -2.141 QT
0.484 -2.953 0.914 -3.828 QT
1.344 -4.703 2.023 -5.414 QT
2.703 -6.125 3.469 -6.578 QT
2.844 -6.938 2.5 -7.516 QT
2.156 -8.094 2.156 -8.797 QT
2.156 -9.531 2.461 -10.172 QT
2.766 -10.813 3.289 -11.336 QT
3.813 -11.859 4.461 -12.219 QT
5.109 -12.578 5.766 -12.766 QT
5.672 -13.203 5.672 -13.547 QT
5.672 -14.688 6.109 -14.688 QT
6.219 -14.688 6.305 -14.602 QT
6.391 -14.516 6.391 -14.406 QT
6.391 -14.297 6.336 -13.953 QT
6.281 -13.609 6.281 -13.531 QT
6.281 -13.172 6.375 -12.891 QT
6.906 -13 7.406 -13 QT
9.344 -13 9.344 -12.406 QT
9.344 -11.703 7.203 -11.703 QT
6.547 -11.703 6.125 -12.141 QT
5.531 -11.828 5.016 -11.266 QT
4.5 -10.703 4.211 -10.016 QT
3.922 -9.328 3.922 -8.609 QT
3.922 -7.625 4.484 -7.031 QT
5.234 -7.297 5.984 -7.297 QT
7.922 -7.297 7.922 -6.703 QT
7.922 -5.984 5.766 -5.984 QT
4.906 -5.984 4.125 -6.25 QT
3.203 -5.75 2.422 -4.727 QT
1.641 -3.703 1.641 -2.75 QT
1.641 -2.141 2.086 -1.672 QT
2.531 -1.203 3.188 -0.922 QT
6.906 0.516 L
7.391 0.703 7.695 1.109 QT
8 1.516 8 2.047 QT
8 2.906 7.336 3.609 QT
6.672 4.313 5.813 4.313 QT
5.547 4.313 4.945 4.164 QT
4.344 4.016 3.883 3.781 QT
3.422 3.547 3.422 3.266 QT
cp
5.125 -6.641 M
5.406 -6.531 5.813 -6.531 QT
6.828 -6.531 7.266 -6.656 QT
6.875 -6.734 5.969 -6.734 QT
5.609 -6.734 5.125 -6.641 QT
cp
6.734 -12.359 M
6.922 -12.25 7.25 -12.25 QT
8.25 -12.25 8.703 -12.359 QT
6.734 -12.359 L
cp
f
GR
GS
[0 -0.75 0.75 0 28.5 162.75] CT
0.149 GC
/Helvetica 20.533 F
GS
[1 0 0 1 0 0] CT
0 0 moveto 
1 -1 scale
( \(rad\)) t 
GR
GR
GS
[0.75 0 0 0.75 269.62527 20.3625] CT
/Helvetica-Bold 20.533 F
GS
[1 0 0 1 0 0] CT
-226 -5 moveto 
1 -1 scale
(Comparaci\363n del seguimiento a \341ngulo) t 
GR
GR
GS
[0.75 0 0 0.75 0 0] CT
0.851 0.325 0.098 RC
1 LJ
2.667 LW
N
89.936 62.197 M
95.982 62.197 L
102.927 62.197 L
109.872 62.197 L
116.818 62.197 L
123.763 62.197 L
123.763 62.197 L
123.763 62.197 L
126.501 62.197 L
127.008 62.197 L
127.152 62.197 L
127.204 62.197 L
127.257 62.197 L
127.304 62.197 L
127.539 62.197 L
128.714 62.197 L
130.708 62.2 L
137.653 62.267 L
141.063 62.352 L
141.063 62.352 L
144.598 62.488 L
148.134 62.68 L
151.544 62.921 L
158.489 63.599 L
165.434 64.542 L
172.379 65.762 L
179.325 67.268 L
186.27 69.065 L
193.215 71.155 L
200.16 73.541 L
207.106 76.225 L
214.051 79.206 L
220.996 82.487 L
227.941 86.067 L
234.887 89.946 L
241.832 94.125 L
248.777 98.604 L
255.722 103.383 L
262.667 108.462 L
269.613 113.841 L
276.558 119.52 L
283.503 125.5 L
290.448 131.779 L
297.394 138.358 L
304.339 145.237 L
311.284 152.417 L
318.229 159.886 L
325.175 167.612 L
328.647 171.553 L
328.647 171.553 L
332.12 175.533 L
334.844 178.675 L
337.569 181.828 L
339.065 183.56 L
341.784 186.709 L
346.01 191.588 L
352.955 199.519 L
359.901 207.279 L
366.846 214.822 L
373.791 222.117 L
380.736 229.151 L
387.682 235.917 L
394.627 242.416 L
401.572 248.649 L
408.517 254.616 L
415.463 260.318 L
422.408 265.752 L
429.353 270.915 L
436.298 275.805 L
443.244 280.42 L
450.189 284.759 L
457.134 288.824 L
464.079 292.619 L
471.025 296.149 L
477.97 299.422 L
484.915 302.446 L
486.278 303.012 L
486.278 303.012 L
491.86 305.232 L
497.442 307.307 L
498.805 307.792 L
505.751 310.139 L
512.696 312.288 L
519.641 314.254 L
526.586 316.053 L
533.532 317.698 L
540.477 319.203 L
547.422 320.579 L
554.367 321.837 L
561.313 322.985 L
568.258 324.031 L
575.203 324.983 L
582.148 325.847 L
589.093 326.63 L
596.039 327.339 L
602.984 327.978 L
609.929 328.555 L
616.874 329.075 L
623.82 329.543 L
627.292 329.759 L
627.292 329.759 L
629.064 329.864 L
S
GR
GS
[0.75 0 0 0.75 0 0] CT
0.467 0.675 0.188 RC
[8 8] 0 setdash
2 LJ
2.667 LW
N
89.936 62.197 M
95.982 62.197 L
102.927 62.197 L
109.872 62.197 L
116.818 62.197 L
123.763 62.197 L
123.763 339.778 L
123.763 339.778 L
126.501 339.778 L
127.008 339.778 L
127.152 339.778 L
127.204 339.778 L
127.257 339.778 L
127.304 339.778 L
127.539 339.778 L
128.714 339.778 L
130.708 339.778 L
137.653 339.778 L
141.063 339.778 L
141.063 339.778 L
144.598 339.778 L
148.134 339.778 L
151.544 339.778 L
158.489 339.778 L
165.434 339.778 L
172.379 339.778 L
179.325 339.778 L
186.27 339.778 L
193.215 339.778 L
200.16 339.778 L
207.106 339.778 L
214.051 339.778 L
220.996 339.778 L
227.941 339.778 L
234.887 339.778 L
241.832 339.778 L
248.777 339.778 L
255.722 339.778 L
262.667 339.778 L
269.613 339.778 L
276.558 339.778 L
283.503 339.778 L
290.448 339.778 L
297.394 339.778 L
304.339 339.778 L
311.284 339.778 L
318.229 339.778 L
325.175 339.778 L
328.647 339.778 L
328.647 339.778 L
332.12 339.778 L
334.844 339.778 L
337.569 339.778 L
339.065 339.778 L
341.784 339.778 L
346.01 339.778 L
352.955 339.778 L
359.901 339.778 L
366.846 339.778 L
373.791 339.778 L
380.736 339.778 L
387.682 339.778 L
394.627 339.778 L
401.572 339.778 L
408.517 339.778 L
415.463 339.778 L
422.408 339.778 L
429.353 339.778 L
436.298 339.778 L
443.244 339.778 L
450.189 339.778 L
457.134 339.778 L
464.079 339.778 L
471.025 339.778 L
477.97 339.778 L
484.915 339.778 L
486.278 339.778 L
486.278 339.778 L
491.86 339.778 L
497.442 339.778 L
498.805 339.778 L
505.751 339.778 L
512.696 339.778 L
519.641 339.778 L
526.586 339.778 L
533.532 339.778 L
540.477 339.778 L
547.422 339.778 L
554.367 339.778 L
561.313 339.778 L
568.258 339.778 L
575.203 339.778 L
582.148 339.778 L
589.093 339.778 L
596.039 339.778 L
602.984 339.778 L
609.929 339.778 L
616.874 339.778 L
623.82 339.778 L
627.292 339.778 L
627.292 339.778 L
629.064 339.778 L
S
GR
GS
[0.75 0 0 0.75 0 0] CT
0 0.447 0.741 RC
[8 8] 0 setdash
2 LJ
2.667 LW
N
89.936 62.623 M
95.982 62.623 L
102.927 62.623 L
109.872 62.623 L
116.818 62.624 L
123.763 62.624 L
130.708 62.624 L
144.598 62.741 L
151.544 63.047 L
158.489 63.585 L
165.434 64.38 L
172.379 65.448 L
179.325 66.798 L
186.27 68.436 L
193.215 70.367 L
200.16 72.593 L
207.106 75.115 L
214.051 77.935 L
220.996 81.054 L
227.941 84.472 L
234.887 88.19 L
241.832 92.207 L
248.777 96.524 L
255.722 101.141 L
262.667 106.058 L
269.613 111.274 L
276.558 116.791 L
283.503 122.608 L
290.448 128.725 L
297.394 135.142 L
304.339 141.859 L
311.284 148.876 L
318.229 156.193 L
325.175 163.797 L
332.12 171.647 L
339.065 179.676 L
346.01 187.789 L
352.955 195.884 L
359.901 203.871 L
366.846 211.679 L
373.791 219.264 L
380.736 226.597 L
387.682 233.669 L
394.627 240.475 L
401.572 247.015 L
408.517 253.289 L
415.463 259.284 L
422.408 264.999 L
429.353 270.428 L
436.298 275.565 L
443.244 280.41 L
450.189 284.969 L
457.134 289.246 L
464.079 293.238 L
471.025 296.951 L
477.97 300.383 L
484.915 303.535 L
491.86 306.422 L
498.805 309.06 L
505.751 311.457 L
512.696 313.636 L
519.641 315.619 L
526.586 317.424 L
533.532 319.064 L
540.477 320.554 L
547.422 321.911 L
554.367 323.139 L
561.313 324.245 L
568.258 325.237 L
575.203 326.127 L
582.148 326.922 L
589.093 327.631 L
596.039 328.265 L
602.984 328.831 L
609.929 329.338 L
616.874 329.792 L
623.82 330.2 L
629.064 330.475 L
S
GR
GS
[0.75 0 0 0.75 0 0] CT
0.929 0.694 0.125 RC
1 LJ
1.333 LW
N
89.936 62.613 M
95.982 62.613 L
102.927 62.613 L
109.872 62.613 L
116.818 62.614 L
123.763 62.614 L
144.598 62.672 L
151.544 62.884 L
158.489 63.306 L
172.379 64.904 L
179.325 66.112 L
186.27 67.606 L
193.215 69.391 L
200.16 71.469 L
207.106 73.843 L
214.051 76.515 L
220.996 79.484 L
234.887 86.32 L
241.832 90.188 L
248.777 94.355 L
255.722 98.822 L
262.667 103.588 L
269.613 108.655 L
276.558 114.022 L
283.503 119.689 L
290.448 125.656 L
297.394 131.923 L
304.339 138.49 L
311.284 145.357 L
318.229 152.524 L
325.175 159.985 L
332.12 167.712 L
339.065 175.651 L
346.01 183.722 L
359.901 199.868 L
366.846 207.766 L
373.791 215.462 L
380.736 222.922 L
387.682 230.124 L
401.572 243.736 L
408.517 250.143 L
415.463 256.417 L
422.408 262.411 L
429.353 267.983 L
436.298 273.266 L
443.244 278.259 L
450.189 282.962 L
457.134 287.381 L
464.079 291.517 L
471.025 295.37 L
484.915 302.237 L
491.86 305.258 L
498.805 308.021 L
512.696 312.829 L
519.641 314.911 L
533.532 318.529 L
540.477 320.095 L
547.422 321.52 L
561.313 323.982 L
568.258 325.032 L
575.203 325.974 L
582.148 326.818 L
596.039 328.243 L
609.929 329.382 L
623.82 330.297 L
629.064 330.591 L
S
GR
GS
[0.75 0 0 0.75 0 0] CT
1 GC
N
614 203 M
614 44 L
386 44 L
386 203 L
cp
f
GR
GS
[0.75 0 0 0.75 324.78726 48.89001] CT
N
5.156 8.039 M
3.703 8.039 2.828 6.977 QT
1.953 5.914 1.617 4.414 QT
1.281 2.914 1.281 1.446 QT
1.281 1.414 L
1.281 -0.179 1.586 -1.898 QT
1.891 -3.617 2.469 -5.328 QT
3.047 -7.039 3.719 -8.383 QT
4.188 -9.32 4.93 -10.476 QT
5.672 -11.633 6.586 -12.64 QT
7.5 -13.648 8.555 -14.265 QT
9.609 -14.883 10.688 -14.883 QT
10.719 -14.883 L
11.875 -14.883 12.648 -14.242 QT
13.422 -13.601 13.852 -12.601 QT
14.281 -11.601 14.453 -10.461 QT
14.625 -9.32 14.625 -8.289 QT
14.625 -5.867 13.969 -3.344 QT
13.313 -0.82 12.156 1.539 QT
11.719 2.43 10.945 3.633 QT
10.172 4.836 9.305 5.789 QT
8.438 6.742 7.359 7.391 QT
6.281 8.039 5.188 8.039 QT
5.156 8.039 L
cp
5.219 7.196 M
6.281 7.196 7.258 6.063 QT
8.234 4.93 8.969 3.313 QT
9.703 1.696 10.258 0 QT
10.813 -1.695 11.078 -2.883 QT
4.547 -2.883 L
4.047 -0.867 3.766 0.594 QT
3.484 2.055 3.484 3.461 QT
3.484 7.196 5.219 7.196 QT
cp
4.797 -4.008 M
11.359 -4.008 L
11.703 -5.414 11.906 -6.359 QT
12.109 -7.304 12.25 -8.351 QT
12.391 -9.398 12.391 -10.304 QT
12.391 -14.054 10.688 -14.054 QT
8.656 -14.054 7.18 -10.781 QT
5.703 -7.508 4.797 -4.008 QT
cp
f
GR
GS
[0.75 0 0 0.75 324.78726 48.89001] CT
N
36.5 15.617 M
34.718 14.211 33.429 12.391 QT
32.14 10.571 31.32 8.508 QT
30.5 6.446 30.093 4.196 QT
29.687 1.946 29.687 -0.32 QT
29.687 -2.617 30.093 -4.867 QT
30.5 -7.117 31.336 -9.195 QT
32.172 -11.273 33.468 -13.086 QT
34.765 -14.898 36.5 -16.258 QT
36.5 -16.32 36.656 -16.32 QT
36.953 -16.32 L
37.047 -16.32 37.125 -16.234 QT
37.203 -16.148 37.203 -16.039 QT
37.203 -15.898 37.14 -15.836 QT
35.578 -14.304 34.539 -12.554 QT
33.5 -10.804 32.867 -8.828 QT
32.234 -6.851 31.953 -4.734 QT
31.672 -2.617 31.672 -0.32 QT
31.672 9.852 37.109 15.133 QT
37.203 15.227 37.203 15.399 QT
37.203 15.477 37.117 15.578 QT
37.031 15.68 36.953 15.68 QT
36.656 15.68 L
36.5 15.68 36.5 15.617 QT
cp
f
GR
GS
[0.75 0 0 0.75 324.78726 48.89001] CT
N
41.647 8.383 M
41.554 8.383 41.475 8.274 QT
41.397 8.164 41.397 8.071 QT
43.241 0.602 L
43.304 0.414 43.507 0.414 QT
44.085 0.414 L
44.335 0.414 44.335 0.742 QT
44.054 1.883 44.054 2.883 QT
44.054 5.039 45.358 6.149 QT
46.663 7.258 48.85 7.258 QT
50.21 7.258 51.389 6.321 QT
52.569 5.383 53.264 3.969 QT
53.96 2.555 53.96 1.242 QT
53.96 0.164 53.468 -0.664 QT
52.975 -1.492 52.007 -1.758 QT
48.491 -2.789 L
47.038 -3.211 46.218 -4.429 QT
45.397 -5.648 45.397 -7.195 QT
45.397 -9.054 46.444 -10.859 QT
47.491 -12.664 49.21 -13.773 QT
50.929 -14.883 52.757 -14.883 QT
54.085 -14.883 55.21 -14.351 QT
56.335 -13.82 56.913 -12.742 QT
58.569 -14.789 L
58.757 -14.883 58.804 -14.883 QT
58.991 -14.883 L
59.116 -14.883 59.194 -14.773 QT
59.272 -14.664 59.272 -14.554 QT
57.429 -7.133 L
57.382 -6.914 57.163 -6.914 QT
56.585 -6.914 L
56.304 -6.914 56.304 -7.258 QT
56.522 -8.57 56.522 -9.414 QT
56.522 -11.476 55.608 -12.664 QT
54.694 -13.851 52.647 -13.851 QT
51.679 -13.851 50.788 -13.398 QT
49.897 -12.945 49.186 -12.133 QT
48.475 -11.32 48.085 -10.375 QT
47.694 -9.429 47.694 -8.476 QT
47.694 -7.445 48.186 -6.664 QT
48.679 -5.883 49.616 -5.633 QT
53.132 -4.601 L
54.647 -4.195 55.444 -2.929 QT
56.241 -1.664 56.241 -0.008 QT
56.241 1.461 55.663 2.93 QT
55.085 4.399 54.022 5.656 QT
52.96 6.914 51.593 7.649 QT
50.225 8.383 48.725 8.383 QT
47.21 8.383 45.882 7.867 QT
44.554 7.352 43.788 6.211 QT
42.1 8.289 L
41.913 8.383 41.866 8.383 QT
41.647 8.383 L
cp
f
GR
GS
[0.75 0 0 0.75 324.78726 48.89001] CT
N
61.076 5.446 M
61.076 4.696 61.295 4.133 QT
63.857 -2.758 L
64.31 -3.992 64.31 -4.804 QT
64.31 -5.633 63.701 -5.633 QT
61.716 -5.633 60.701 -1.414 QT
60.607 -1.211 60.435 -1.211 QT
59.857 -1.211 L
59.607 -1.211 59.607 -1.508 QT
59.607 -1.601 L
60.123 -3.523 61.13 -4.992 QT
62.138 -6.461 63.763 -6.461 QT
64.857 -6.461 65.545 -5.726 QT
66.232 -4.992 66.232 -3.867 QT
66.232 -3.258 65.998 -2.554 QT
63.451 4.321 L
62.998 5.555 62.998 6.367 QT
62.998 7.196 63.607 7.196 QT
65.56 7.196 66.576 2.977 QT
66.638 2.789 66.841 2.789 QT
67.42 2.789 L
67.545 2.789 67.623 2.875 QT
67.701 2.961 67.701 3.071 QT
67.701 3.102 67.67 3.164 QT
67.404 4.274 66.873 5.399 QT
66.341 6.524 65.498 7.281 QT
64.654 8.039 63.545 8.039 QT
62.466 8.039 61.771 7.297 QT
61.076 6.555 61.076 5.446 QT
cp
64.732 -11.679 M
64.732 -12.32 65.24 -12.812 QT
65.748 -13.304 66.388 -13.304 QT
66.873 -13.304 67.193 -13 QT
67.513 -12.695 67.513 -12.226 QT
67.513 -11.82 67.287 -11.437 QT
67.06 -11.054 66.662 -10.82 QT
66.263 -10.586 65.841 -10.586 QT
65.404 -10.586 65.068 -10.906 QT
64.732 -11.226 64.732 -11.679 QT
cp
f
GR
GS
[0.75 0 0 0.75 324.78726 48.89001] CT
N
70.827 7.164 M
70.827 7.008 70.858 6.914 QT
73.264 -2.695 L
73.514 -3.883 73.514 -4.414 QT
73.514 -5.633 72.717 -5.633 QT
71.905 -5.633 71.428 -4.398 QT
70.952 -3.164 70.514 -1.414 QT
70.42 -1.211 70.248 -1.211 QT
69.67 -1.211 L
69.577 -1.211 69.498 -1.328 QT
69.42 -1.445 69.42 -1.539 QT
69.795 -3.07 70.084 -3.961 QT
70.373 -4.851 71.053 -5.656 QT
71.733 -6.461 72.748 -6.461 QT
73.842 -6.461 74.616 -5.797 QT
75.389 -5.133 75.53 -4.039 QT
77.42 -6.461 80.108 -6.461 QT
81.483 -6.461 82.381 -5.773 QT
83.28 -5.086 83.467 -3.742 QT
84.358 -4.992 85.592 -5.726 QT
86.827 -6.461 88.264 -6.461 QT
89.28 -6.461 90.053 -6.062 QT
90.827 -5.664 91.241 -4.914 QT
91.655 -4.164 91.655 -3.133 QT
91.655 -1.789 91.061 0.125 QT
90.467 2.039 89.608 4.321 QT
89.123 5.555 89.123 6.367 QT
89.123 7.196 89.764 7.196 QT
90.967 7.196 91.663 5.891 QT
92.358 4.586 92.748 2.977 QT
92.811 2.789 92.998 2.789 QT
93.577 2.789 L
93.702 2.789 93.788 2.867 QT
93.873 2.946 93.873 3.071 QT
93.873 3.102 93.842 3.164 QT
93.405 4.992 92.35 6.516 QT
91.295 8.039 89.702 8.039 QT
88.592 8.039 87.905 7.289 QT
87.217 6.539 87.217 5.446 QT
87.217 4.789 87.467 4.133 QT
88.358 1.758 88.967 -0.195 QT
89.577 -2.148 89.577 -3.586 QT
89.577 -5.633 88.202 -5.633 QT
86.53 -5.633 85.334 -4.437 QT
84.139 -3.242 83.28 -1.383 QT
83.28 -1.351 83.272 -1.32 QT
83.264 -1.289 83.248 -1.242 QT
81.17 7.039 L
81.077 7.461 80.709 7.75 QT
80.342 8.039 79.92 8.039 QT
79.545 8.039 79.264 7.789 QT
78.983 7.539 78.983 7.164 QT
78.983 7.008 79.014 6.914 QT
81.061 -1.304 L
81.42 -2.679 81.42 -3.586 QT
81.42 -5.633 80.045 -5.633 QT
78.373 -5.633 77.163 -4.422 QT
75.952 -3.211 75.108 -1.383 QT
72.998 7.039 L
72.905 7.446 72.545 7.742 QT
72.186 8.039 71.748 8.039 QT
71.373 8.039 71.1 7.781 QT
70.827 7.524 70.827 7.164 QT
cp
f
GR
GS
[0.75 0 0 0.75 324.78726 48.89001] CT
N
97.917 4.321 M
97.917 3.274 98.206 2.11 QT
98.495 0.946 98.98 -0.398 QT
99.464 -1.742 99.839 -2.758 QT
100.323 -3.929 100.323 -4.804 QT
100.323 -5.633 99.683 -5.633 QT
97.698 -5.633 96.683 -1.414 QT
96.589 -1.211 96.417 -1.211 QT
95.839 -1.211 L
95.589 -1.211 95.589 -1.508 QT
95.589 -1.601 L
96.105 -3.539 97.12 -5 QT
98.136 -6.461 99.745 -6.461 QT
100.855 -6.461 101.55 -5.726 QT
102.245 -4.992 102.245 -3.867 QT
102.245 -3.211 101.98 -2.554 QT
101.652 -1.679 101.3 -0.703 QT
100.948 0.274 100.659 1.227 QT
100.37 2.18 100.191 3.086 QT
100.011 3.992 100.011 4.805 QT
100.011 5.805 100.37 6.5 QT
100.73 7.196 101.636 7.196 QT
103.589 7.196 104.933 4.742 QT
104.933 4.477 105.027 4.196 QT
107.37 -5.117 L
107.448 -5.414 107.62 -5.633 QT
107.792 -5.851 108.066 -5.984 QT
108.339 -6.117 108.605 -6.117 QT
109.011 -6.117 109.277 -5.875 QT
109.542 -5.633 109.542 -5.242 QT
109.542 -5.086 109.511 -4.992 QT
107.198 4.258 L
106.948 5.227 106.948 5.977 QT
106.948 7.196 107.745 7.196 QT
108.558 7.196 109.05 5.93 QT
109.542 4.664 109.917 2.977 QT
109.98 2.789 110.183 2.789 QT
110.761 2.789 L
110.886 2.789 110.964 2.899 QT
111.042 3.008 111.042 3.102 QT
110.667 4.539 110.519 5.055 QT
110.37 5.571 110.003 6.321 QT
109.636 7.071 109.066 7.555 QT
108.495 8.039 107.683 8.039 QT
106.792 8.039 106.081 7.531 QT
105.37 7.024 105.058 6.18 QT
103.527 8.039 101.573 8.039 QT
99.855 8.039 98.886 7.039 QT
97.917 6.039 97.917 4.321 QT
cp
f
GR
GS
[0.75 0 0 0.75 324.78726 48.89001] CT
N
115.903 8.039 M
115.106 8.039 114.465 7.664 QT
113.825 7.289 113.465 6.625 QT
113.106 5.961 113.106 5.149 QT
113.106 4.977 113.176 4.68 QT
113.247 4.383 113.247 4.164 QT
117.215 -11.679 L
117.34 -12.226 117.372 -12.539 QT
117.372 -13.054 115.294 -13.054 QT
114.965 -13.054 114.965 -13.476 QT
114.981 -13.554 115.036 -13.758 QT
115.09 -13.961 115.176 -14.07 QT
115.262 -14.179 115.419 -14.179 QT
119.637 -14.523 L
120.028 -14.523 120.028 -14.117 QT
115.419 4.289 L
115.153 5.024 115.153 5.977 QT
115.153 7.196 115.965 7.196 QT
116.778 7.196 117.239 5.946 QT
117.7 4.696 118.106 2.977 QT
118.169 2.789 118.356 2.789 QT
118.934 2.789 L
119.059 2.789 119.145 2.891 QT
119.231 2.992 119.231 3.102 QT
118.84 4.711 118.551 5.578 QT
118.262 6.446 117.606 7.242 QT
116.95 8.039 115.903 8.039 QT
cp
f
GR
GS
[0.75 0 0 0.75 324.78726 48.89001] CT
N
122.409 5.446 M
122.409 4.696 122.628 4.133 QT
125.19 -2.758 L
125.643 -3.992 125.643 -4.804 QT
125.643 -5.633 125.034 -5.633 QT
123.049 -5.633 122.034 -1.414 QT
121.94 -1.211 121.768 -1.211 QT
121.19 -1.211 L
120.94 -1.211 120.94 -1.508 QT
120.94 -1.601 L
121.456 -3.523 122.463 -4.992 QT
123.471 -6.461 125.096 -6.461 QT
126.19 -6.461 126.878 -5.726 QT
127.565 -4.992 127.565 -3.867 QT
127.565 -3.258 127.331 -2.554 QT
124.784 4.321 L
124.331 5.555 124.331 6.367 QT
124.331 7.196 124.94 7.196 QT
126.893 7.196 127.909 2.977 QT
127.971 2.789 128.174 2.789 QT
128.753 2.789 L
128.878 2.789 128.956 2.875 QT
129.034 2.961 129.034 3.071 QT
129.034 3.102 129.003 3.164 QT
128.737 4.274 128.206 5.399 QT
127.674 6.524 126.831 7.281 QT
125.987 8.039 124.878 8.039 QT
123.799 8.039 123.104 7.297 QT
122.409 6.555 122.409 5.446 QT
cp
126.065 -11.679 M
126.065 -12.32 126.573 -12.812 QT
127.081 -13.304 127.721 -13.304 QT
128.206 -13.304 128.526 -13 QT
128.846 -12.695 128.846 -12.226 QT
128.846 -11.82 128.62 -11.437 QT
128.393 -11.054 127.995 -10.82 QT
127.596 -10.586 127.174 -10.586 QT
126.737 -10.586 126.401 -10.906 QT
126.065 -11.226 126.065 -11.679 QT
cp
f
GR
GS
[0.75 0 0 0.75 324.78726 48.89001] CT
N
132.16 7.164 M
132.16 7.008 132.191 6.914 QT
134.597 -2.695 L
134.847 -3.883 134.847 -4.414 QT
134.847 -5.633 134.05 -5.633 QT
133.238 -5.633 132.761 -4.398 QT
132.285 -3.164 131.847 -1.414 QT
131.753 -1.211 131.581 -1.211 QT
131.003 -1.211 L
130.91 -1.211 130.831 -1.328 QT
130.753 -1.445 130.753 -1.539 QT
131.128 -3.07 131.417 -3.961 QT
131.706 -4.851 132.386 -5.656 QT
133.066 -6.461 134.081 -6.461 QT
135.16 -6.461 135.925 -5.797 QT
136.691 -5.133 136.863 -4.039 QT
138.753 -6.461 141.441 -6.461 QT
142.441 -6.461 143.206 -6.062 QT
143.972 -5.664 144.386 -4.906 QT
144.8 -4.148 144.8 -3.133 QT
144.8 -1.789 144.206 0.125 QT
143.613 2.039 142.753 4.321 QT
142.269 5.555 142.269 6.367 QT
142.269 7.196 142.91 7.196 QT
144.113 7.196 144.808 5.891 QT
145.503 4.586 145.894 2.977 QT
145.956 2.789 146.144 2.789 QT
146.722 2.789 L
146.847 2.789 146.925 2.875 QT
147.003 2.961 147.003 3.071 QT
147.003 3.102 146.972 3.164 QT
146.706 4.274 146.175 5.399 QT
145.644 6.524 144.785 7.281 QT
143.925 8.039 142.847 8.039 QT
141.738 8.039 141.042 7.297 QT
140.347 6.555 140.347 5.446 QT
140.347 4.758 140.613 4.133 QT
141.503 1.742 142.113 -0.211 QT
142.722 -2.164 142.722 -3.617 QT
142.722 -4.429 142.417 -5.031 QT
142.113 -5.633 141.378 -5.633 QT
138.441 -5.633 136.441 -1.414 QT
134.331 7.039 L
134.238 7.446 133.878 7.742 QT
133.519 8.039 133.081 8.039 QT
132.706 8.039 132.433 7.781 QT
132.16 7.524 132.16 7.164 QT
cp
f
GR
GS
[0.75 0 0 0.75 324.78726 48.89001] CT
N
148.526 7.133 M
148.526 6.977 148.557 6.883 QT
153.197 -11.679 L
153.322 -12.226 153.354 -12.539 QT
153.354 -13.054 151.276 -13.054 QT
150.947 -13.054 150.947 -13.476 QT
150.963 -13.554 151.018 -13.758 QT
151.072 -13.961 151.158 -14.07 QT
151.244 -14.179 151.401 -14.179 QT
155.619 -14.523 L
155.713 -14.523 L
155.713 -14.492 155.822 -14.437 QT
155.932 -14.383 155.947 -14.367 QT
156.01 -14.211 156.01 -14.117 QT
152.651 -0.742 L
153.76 -1.226 155.362 -3.062 QT
156.963 -4.898 157.869 -5.679 QT
158.776 -6.461 160.229 -6.461 QT
161.072 -6.461 161.627 -5.883 QT
162.182 -5.304 162.182 -4.445 QT
162.182 -3.648 161.705 -3.07 QT
161.229 -2.492 160.447 -2.492 QT
159.994 -2.492 159.666 -2.789 QT
159.338 -3.086 159.338 -3.554 QT
159.338 -3.961 159.557 -4.351 QT
159.776 -4.742 160.135 -4.976 QT
160.494 -5.211 160.901 -5.211 QT
160.651 -5.633 160.166 -5.633 QT
159.291 -5.633 158.432 -5.062 QT
157.572 -4.492 156.697 -3.539 QT
155.822 -2.586 154.971 -1.664 QT
154.119 -0.742 153.479 -0.32 QT
155.213 -0.054 156.44 0.735 QT
157.666 1.524 157.666 3.008 QT
157.666 3.461 157.572 3.836 QT
157.26 5.305 157.26 5.946 QT
157.26 7.196 158.119 7.196 QT
158.869 7.196 159.362 6.477 QT
159.854 5.758 160.127 4.844 QT
160.401 3.93 160.619 2.977 QT
160.682 2.789 160.869 2.789 QT
161.447 2.789 L
161.572 2.789 161.651 2.875 QT
161.729 2.961 161.729 3.071 QT
161.729 3.102 161.697 3.164 QT
161.432 4.305 161.01 5.391 QT
160.588 6.477 159.854 7.258 QT
159.119 8.039 158.057 8.039 QT
156.776 8.039 156.026 7.141 QT
155.276 6.242 155.276 4.93 QT
155.276 4.289 155.401 3.774 QT
155.494 3.399 155.494 3.071 QT
155.494 1.93 154.557 1.274 QT
153.619 0.617 152.354 0.446 QT
150.729 7.008 L
150.604 7.446 150.26 7.742 QT
149.916 8.039 149.447 8.039 QT
149.072 8.039 148.799 7.781 QT
148.526 7.524 148.526 7.133 QT
cp
f
GR
GS
[0.75 0 0 0.75 324.78726 48.89001] CT
N
166.393 15.68 M
166.112 15.68 166.112 15.399 QT
166.112 15.258 166.174 15.196 QT
171.643 9.852 171.643 -0.32 QT
171.643 -10.492 166.237 -15.773 QT
166.112 -15.851 166.112 -16.039 QT
166.112 -16.148 166.198 -16.234 QT
166.284 -16.32 166.393 -16.32 QT
166.69 -16.32 L
166.784 -16.32 166.846 -16.258 QT
169.143 -14.445 170.674 -11.851 QT
172.205 -9.258 172.916 -6.32 QT
173.627 -3.383 173.627 -0.32 QT
173.627 1.946 173.245 4.141 QT
172.862 6.336 172.026 8.469 QT
171.19 10.602 169.909 12.406 QT
168.627 14.211 166.846 15.617 QT
166.784 15.68 166.69 15.68 QT
166.393 15.68 L
cp
f
GR
GS
[0.75 0 0 0.75 0 0] CT
0.851 0.325 0.098 RC
1 LJ
2.667 LW
N
390.004 65.187 M
430.047 65.187 L
S
GR
GS
[0.75 0 0 0.75 324.78726 78.04667] CT
N
/f452433835{5.156 8.039 M
3.703 8.039 2.828 6.977 QT
1.953 5.914 1.617 4.414 QT
1.281 2.914 1.281 1.446 QT
1.281 1.414 L
1.281 -0.179 1.586 -1.898 QT
1.891 -3.617 2.469 -5.328 QT
3.047 -7.039 3.719 -8.383 QT
4.188 -9.32 4.93 -10.476 QT
5.672 -11.633 6.586 -12.64 QT
7.5 -13.648 8.555 -14.265 QT
9.609 -14.883 10.688 -14.883 QT
10.719 -14.883 L
11.875 -14.883 12.648 -14.242 QT
13.422 -13.601 13.852 -12.601 QT
14.281 -11.601 14.453 -10.461 QT
14.625 -9.32 14.625 -8.289 QT
14.625 -5.867 13.969 -3.344 QT
13.313 -0.82 12.156 1.539 QT
11.719 2.43 10.945 3.633 QT
10.172 4.836 9.305 5.789 QT
8.438 6.742 7.359 7.391 QT
6.281 8.039 5.188 8.039 QT
5.156 8.039 L
cp
5.219 7.196 M
6.281 7.196 7.258 6.063 QT
8.234 4.93 8.969 3.313 QT
9.703 1.696 10.258 0 QT
10.813 -1.695 11.078 -2.883 QT
4.547 -2.883 L
4.047 -0.867 3.766 0.594 QT
3.484 2.055 3.484 3.461 QT
3.484 7.196 5.219 7.196 QT
cp
4.797 -4.008 M
11.359 -4.008 L
11.703 -5.414 11.906 -6.359 QT
12.109 -7.304 12.25 -8.351 QT
12.391 -9.398 12.391 -10.304 QT
12.391 -14.054 10.688 -14.054 QT
8.656 -14.054 7.18 -10.781 QT
5.703 -7.508 4.797 -4.008 QT
cp}def
f452433835
f
GR
GS
[0.75 0 0 0.75 324.78726 78.04667] CT
N
/f-1017896043{16.928 11.136 M
17.522 12.152 19.303 12.152 QT
20.085 12.152 20.78 11.886 QT
21.475 11.62 21.936 11.097 QT
22.397 10.574 22.397 9.808 QT
22.397 9.245 21.983 8.878 QT
21.569 8.511 20.991 8.386 QT
19.788 8.152 L
18.975 7.949 18.452 7.386 QT
17.928 6.824 17.928 6.027 QT
17.928 5.058 18.46 4.308 QT
18.991 3.558 19.858 3.16 QT
20.725 2.761 21.663 2.761 QT
22.663 2.761 23.452 3.238 QT
24.241 3.714 24.241 4.652 QT
24.241 5.152 23.952 5.542 QT
23.663 5.933 23.163 5.933 QT
22.882 5.933 22.671 5.745 QT
22.46 5.558 22.46 5.261 QT
22.46 4.995 22.6 4.761 QT
22.741 4.527 22.983 4.378 QT
23.225 4.23 23.491 4.23 QT
23.288 3.761 22.757 3.542 QT
22.225 3.324 21.616 3.324 QT
21.053 3.324 20.499 3.55 QT
19.944 3.777 19.608 4.214 QT
19.272 4.652 19.272 5.245 QT
19.272 5.636 19.546 5.941 QT
19.819 6.245 20.225 6.37 QT
21.507 6.62 L
22.116 6.761 22.632 7.081 QT
23.147 7.402 23.444 7.902 QT
23.741 8.402 23.741 9.058 QT
23.741 9.87 23.28 10.667 QT
22.819 11.464 22.163 11.933 QT
20.991 12.73 19.288 12.73 QT
18.116 12.73 17.139 12.191 QT
16.163 11.652 16.163 10.589 QT
16.163 9.98 16.514 9.535 QT
16.866 9.089 17.46 9.089 QT
17.819 9.089 18.061 9.308 QT
18.303 9.527 18.303 9.886 QT
18.303 10.386 17.928 10.761 QT
17.553 11.136 17.038 11.136 QT
16.928 11.136 L
cp}def
f-1017896043
f
GR
GS
[0.75 0 0 0.75 324.78726 78.04667] CT
N
/f551489417{24.975 16.745 M
24.772 16.745 24.772 16.464 QT
24.85 15.98 25.053 15.98 QT
25.741 15.98 26.022 15.855 QT
26.303 15.73 26.444 15.23 QT
28.928 5.324 L
29.085 4.917 29.085 4.277 QT
29.085 3.324 28.444 3.324 QT
27.757 3.324 27.421 4.144 QT
27.085 4.964 26.772 6.23 QT
26.772 6.37 26.6 6.37 QT
26.335 6.37 L
26.288 6.37 26.225 6.285 QT
26.163 6.199 26.163 6.136 QT
26.397 5.183 26.616 4.519 QT
26.835 3.855 27.303 3.308 QT
27.772 2.761 28.46 2.761 QT
29.225 2.761 29.788 3.183 QT
30.35 3.605 30.522 4.339 QT
31.116 3.636 31.85 3.199 QT
32.585 2.761 33.35 2.761 QT
34.272 2.761 34.96 3.253 QT
35.647 3.745 35.991 4.542 QT
36.335 5.339 36.335 6.277 QT
36.335 7.683 35.608 9.199 QT
34.882 10.714 33.639 11.722 QT
32.397 12.73 30.975 12.73 QT
30.335 12.73 29.811 12.363 QT
29.288 11.995 29.007 11.402 QT
28.007 15.324 L
27.944 15.636 27.944 15.699 QT
27.944 15.98 29.397 15.98 QT
29.616 15.98 29.616 16.261 QT
29.538 16.558 29.491 16.652 QT
29.444 16.745 29.241 16.745 QT
24.975 16.745 L
cp
31.007 12.152 M
31.757 12.152 32.413 11.519 QT
33.069 10.886 33.475 10.105 QT
33.788 9.511 34.046 8.66 QT
34.303 7.808 34.499 6.839 QT
34.694 5.87 34.694 5.308 QT
34.694 4.792 34.561 4.355 QT
34.428 3.917 34.124 3.62 QT
33.819 3.324 33.303 3.324 QT
32.507 3.324 31.788 3.902 QT
31.069 4.48 30.491 5.324 QT
30.491 5.402 L
29.288 10.261 L
29.428 11.042 29.858 11.597 QT
30.288 12.152 31.007 12.152 QT
cp}def
f551489417
f
GR
GS
[0.75 0 0 0.75 0 0] CT
0.467 0.675 0.188 RC
[8 8] 0 setdash
2 LJ
2.667 LW
N
390.004 104.062 M
430.047 104.062 L
S
GR
GS
[0.75 0 0 0.75 324.78726 107.20333] CT
N
f452433835
f
GR
GS
[0.75 0 0 0.75 324.78726 107.20333] CT
N
/f391701045{15.335 15.62 M
15.335 15.089 15.702 14.691 QT
16.069 14.292 16.6 14.292 QT
16.96 14.292 17.202 14.511 QT
17.444 14.73 17.444 15.074 QT
17.444 15.48 17.218 15.792 QT
16.991 16.105 16.632 16.245 QT
17.225 16.417 18.475 16.417 QT
19.491 16.417 20.327 15.644 QT
21.163 14.87 21.428 13.839 QT
22.053 11.261 L
20.866 12.48 19.585 12.48 QT
18.632 12.48 17.96 11.995 QT
17.288 11.511 16.936 10.706 QT
16.585 9.902 16.585 8.995 QT
16.585 7.995 16.999 6.886 QT
17.413 5.777 18.155 4.831 QT
18.897 3.886 19.866 3.324 QT
20.835 2.761 21.913 2.761 QT
22.553 2.761 23.069 3.113 QT
23.585 3.464 23.882 4.058 QT
24.1 3.199 24.835 3.199 QT
25.116 3.199 25.303 3.363 QT
25.491 3.527 25.491 3.808 QT
25.491 3.87 25.491 3.902 QT
25.491 3.933 25.475 3.98 QT
22.96 13.98 L
22.788 14.667 22.327 15.23 QT
21.866 15.792 21.241 16.175 QT
20.616 16.558 19.874 16.777 QT
19.132 16.995 18.444 16.995 QT
17.194 16.995 16.264 16.753 QT
15.335 16.511 15.335 15.62 QT
cp
19.616 11.917 M
21.022 11.917 22.397 9.98 QT
23.6 5.167 L
23.46 4.417 23.007 3.87 QT
22.553 3.324 21.866 3.324 QT
21.132 3.324 20.483 3.925 QT
19.835 4.527 19.413 5.339 QT
18.991 6.136 18.616 7.628 QT
18.241 9.12 18.241 9.98 QT
18.241 10.73 18.585 11.324 QT
18.928 11.917 19.616 11.917 QT
cp}def
f391701045
f
GR
GS
[0.75 0 0 0.75 324.78726 107.20333] CT
N
/f515103581{27.869 10.699 M
27.869 10.37 27.932 10.089 QT
29.526 3.761 L
27.213 3.761 L
26.994 3.761 26.994 3.48 QT
27.072 2.995 27.291 2.995 QT
29.729 2.995 L
30.604 -0.598 L
30.682 -0.88 30.94 -1.083 QT
31.197 -1.286 31.526 -1.286 QT
31.807 -1.286 31.994 -1.122 QT
32.182 -0.958 32.182 -0.676 QT
32.182 -0.614 32.174 -0.575 QT
32.166 -0.536 32.166 -0.505 QT
31.276 2.995 L
33.541 2.995 L
33.776 2.995 33.776 3.277 QT
33.76 3.339 33.729 3.464 QT
33.697 3.589 33.643 3.675 QT
33.588 3.761 33.479 3.761 QT
31.088 3.761 L
29.51 10.12 L
29.354 10.745 29.354 11.199 QT
29.354 12.152 29.994 12.152 QT
30.963 12.152 31.705 11.238 QT
32.447 10.324 32.854 9.245 QT
32.932 9.12 33.026 9.12 QT
33.291 9.12 L
33.369 9.12 33.424 9.175 QT
33.479 9.23 33.479 9.308 QT
33.479 9.355 33.463 9.37 QT
32.979 10.714 32.057 11.722 QT
31.135 12.73 29.932 12.73 QT
29.072 12.73 28.471 12.16 QT
27.869 11.589 27.869 10.699 QT
cp}def
f515103581
f
GR
GS
[0.75 0 0 0.75 324.78726 107.20333] CT
N
/f2089348518{56.787 15.617 M
55.006 14.211 53.717 12.391 QT
52.428 10.571 51.608 8.508 QT
50.787 6.446 50.381 4.196 QT
49.975 1.946 49.975 -0.32 QT
49.975 -2.617 50.381 -4.867 QT
50.787 -7.117 51.623 -9.195 QT
52.459 -11.273 53.756 -13.086 QT
55.053 -14.898 56.787 -16.258 QT
56.787 -16.32 56.944 -16.32 QT
57.241 -16.32 L
57.334 -16.32 57.412 -16.234 QT
57.491 -16.148 57.491 -16.039 QT
57.491 -15.898 57.428 -15.836 QT
55.866 -14.304 54.826 -12.554 QT
53.787 -10.804 53.155 -8.828 QT
52.522 -6.851 52.241 -4.734 QT
51.959 -2.617 51.959 -0.32 QT
51.959 9.852 57.397 15.133 QT
57.491 15.227 57.491 15.399 QT
57.491 15.477 57.405 15.578 QT
57.319 15.68 57.241 15.68 QT
56.944 15.68 L
56.787 15.68 56.787 15.617 QT
cp}def
f2089348518
f
GR
GS
[0.75 0 0 0.75 324.78726 107.20333] CT
N
/f2027712694{71.951 8.383 M
70.216 8.383 68.724 7.727 QT
67.232 7.071 66.208 5.883 QT
65.185 4.696 64.646 3.149 QT
64.107 1.602 64.107 -0.133 QT
64.107 -2.711 65.208 -5.359 QT
66.31 -8.008 68.193 -10.148 QT
70.076 -12.289 72.537 -13.586 QT
74.998 -14.883 77.607 -14.883 QT
78.591 -14.883 79.482 -14.578 QT
80.373 -14.273 81.107 -13.664 QT
81.841 -13.054 82.326 -12.195 QT
84.623 -14.789 L
84.81 -14.883 84.841 -14.883 QT
85.044 -14.883 L
85.169 -14.883 85.248 -14.773 QT
85.326 -14.664 85.326 -14.554 QT
83.154 -5.914 L
83.154 -5.695 82.888 -5.695 QT
82.326 -5.695 L
82.06 -5.695 82.06 -6.054 QT
82.216 -7.179 82.216 -8.039 QT
82.216 -10.398 81.177 -12.078 QT
80.138 -13.758 77.904 -13.758 QT
75.419 -13.758 73.388 -12.367 QT
71.357 -10.976 69.943 -8.734 QT
68.529 -6.492 67.779 -3.883 QT
67.029 -1.273 67.029 0.992 QT
67.029 2.758 67.685 4.188 QT
68.341 5.617 69.623 6.438 QT
70.904 7.258 72.716 7.258 QT
74.451 7.258 76.021 6.305 QT
77.591 5.352 77.998 3.774 QT
78.701 1.024 L
78.732 0.899 78.732 0.633 QT
78.732 0.289 78.326 0.196 QT
77.654 0.071 75.669 0.071 QT
75.341 0.071 75.341 -0.351 QT
75.435 -0.742 75.513 -0.898 QT
75.591 -1.054 75.888 -1.054 QT
83.591 -1.054 L
83.888 -1.054 83.888 -0.633 QT
83.763 0.071 83.466 0.071 QT
82.466 0.071 82.052 0.235 QT
81.638 0.399 81.419 1.149 QT
80.716 3.899 L
79.826 7.461 L
79.779 7.68 79.529 7.68 QT
79.248 7.68 78.779 6.961 QT
78.31 6.242 78.123 5.789 QT
77.451 6.617 76.419 7.211 QT
75.388 7.805 74.24 8.094 QT
73.091 8.383 71.951 8.383 QT
cp}def
f2027712694
f
GR
GS
[0.75 0 0 0.75 324.78726 107.20333] CT
N
/f1566222167{91.425 8.039 M
89.534 8.039 88.511 6.531 QT
87.487 5.024 87.487 3.039 QT
87.487 1.071 88.472 -1.172 QT
89.456 -3.414 91.167 -4.937 QT
92.878 -6.461 94.878 -6.461 QT
95.706 -6.461 96.417 -5.976 QT
97.128 -5.492 97.503 -4.742 QT
97.597 -5.211 97.94 -5.515 QT
98.284 -5.82 98.784 -5.82 QT
99.175 -5.82 99.44 -5.586 QT
99.706 -5.351 99.706 -4.961 QT
99.706 -4.804 99.675 -4.711 QT
97.44 4.258 L
97.19 5.227 97.19 5.977 QT
97.19 7.196 97.987 7.196 QT
98.8 7.196 99.292 5.93 QT
99.784 4.664 100.159 2.977 QT
100.222 2.789 100.425 2.789 QT
100.987 2.789 L
101.097 2.789 101.19 2.899 QT
101.284 3.008 101.284 3.102 QT
100.909 4.539 100.761 5.055 QT
100.612 5.571 100.245 6.321 QT
99.878 7.071 99.308 7.555 QT
98.737 8.039 97.925 8.039 QT
96.956 8.039 96.198 7.43 QT
95.44 6.821 95.237 5.883 QT
93.331 8.039 91.425 8.039 QT
cp
91.456 7.196 M
92.565 7.196 93.597 6.227 QT
94.628 5.258 95.3 4.102 QT
96.987 -2.695 L
96.862 -3.836 96.347 -4.734 QT
95.831 -5.633 94.815 -5.633 QT
93.659 -5.633 92.722 -4.492 QT
91.784 -3.351 91.12 -1.625 QT
90.456 0.102 90.112 1.781 QT
89.769 3.461 89.769 4.508 QT
89.769 5.524 90.159 6.36 QT
90.55 7.196 91.456 7.196 QT
cp}def
f1566222167
f
GR
GS
[0.75 0 0 0.75 324.78726 107.20333] CT
N
/f-1639586543{102.593 8.039 M
102.343 8.039 102.343 7.742 QT
102.343 7.711 102.405 7.524 QT
103.249 6.008 104.366 4.68 QT
105.483 3.352 106.89 1.977 QT
108.296 0.602 109.655 -0.711 QT
111.015 -2.023 112.108 -3.289 QT
111.671 -3.289 111.304 -3.398 QT
110.937 -3.508 110.296 -3.773 QT
109.655 -4.039 109.249 -4.164 QT
108.843 -4.289 108.421 -4.289 QT
107.655 -4.289 106.952 -3.844 QT
106.249 -3.398 106.046 -2.695 QT
105.999 -2.461 105.796 -2.461 QT
105.218 -2.461 L
104.968 -2.461 104.968 -2.789 QT
104.968 -2.883 L
105.187 -3.758 105.741 -4.594 QT
106.296 -5.429 107.085 -5.945 QT
107.874 -6.461 108.812 -6.461 QT
109.421 -6.461 109.812 -6.172 QT
110.202 -5.883 110.718 -5.25 QT
111.233 -4.617 111.507 -4.375 QT
111.78 -4.133 112.265 -4.133 QT
112.827 -4.133 113.288 -4.765 QT
113.749 -5.398 114.249 -6.367 QT
114.343 -6.461 114.468 -6.461 QT
115.046 -6.461 L
115.155 -6.461 115.226 -6.383 QT
115.296 -6.304 115.296 -6.179 QT
115.296 -6.133 115.233 -5.976 QT
114.452 -4.523 113.358 -3.211 QT
112.265 -1.898 110.71 -0.383 QT
109.155 1.133 107.796 2.461 QT
106.437 3.789 105.515 4.899 QT
105.671 4.867 105.983 4.867 QT
106.546 4.867 107.218 5.11 QT
107.89 5.352 108.562 5.602 QT
109.233 5.852 109.796 5.852 QT
110.937 5.852 111.952 4.992 QT
112.968 4.133 113.249 3.008 QT
113.327 2.789 113.515 2.789 QT
114.077 2.789 L
114.374 2.789 114.374 3.102 QT
114.374 3.133 114.343 3.196 QT
113.905 5.039 112.522 6.539 QT
111.14 8.039 109.374 8.039 QT
108.796 8.039 108.397 7.742 QT
107.999 7.446 107.538 6.86 QT
107.077 6.274 106.741 5.985 QT
106.405 5.696 105.921 5.696 QT
104.608 5.696 103.39 7.93 QT
103.28 8.039 103.171 8.039 QT
102.593 8.039 L
cp}def
f-1639586543
f
GR
GS
[0.75 0 0 0.75 324.78726 107.20333] CT
N
/f1195272770{121.662 8.039 M
120.568 8.039 119.701 7.571 QT
118.833 7.102 118.24 6.25 QT
117.646 5.399 117.365 4.422 QT
117.083 3.446 117.083 2.399 QT
117.083 0.742 117.685 -0.844 QT
118.287 -2.429 119.38 -3.711 QT
120.474 -4.992 121.966 -5.726 QT
123.458 -6.461 125.146 -6.461 QT
125.974 -6.461 126.716 -6.148 QT
127.458 -5.836 127.919 -5.219 QT
128.38 -4.601 128.38 -3.742 QT
128.38 -1.148 125.904 -0.398 QT
123.427 0.352 120.068 0.352 QT
119.974 0.352 L
119.427 2.477 119.427 3.805 QT
119.427 5.086 119.982 6.141 QT
120.537 7.196 121.724 7.196 QT
123.412 7.196 124.997 6.281 QT
126.583 5.367 127.646 3.899 QT
127.693 3.805 127.88 3.805 QT
128.068 3.805 128.412 4.258 QT
128.474 4.289 128.474 4.446 QT
128.474 4.571 128.412 4.633 QT
127.677 5.68 126.599 6.453 QT
125.521 7.227 124.24 7.633 QT
122.958 8.039 121.662 8.039 QT
cp
120.162 -0.476 M
121.927 -0.476 123.349 -0.656 QT
124.771 -0.836 125.904 -1.562 QT
127.037 -2.289 127.037 -3.742 QT
127.037 -4.57 126.474 -5.101 QT
125.912 -5.633 125.083 -5.633 QT
123.224 -5.633 121.997 -4.125 QT
120.771 -2.617 120.162 -0.476 QT
cp}def
f1195272770
f
GR
GS
[0.75 0 0 0.75 324.78726 107.20333] CT
N
/f-1909581974{135.585 8.039 M
133.756 8.039 132.795 6.547 QT
131.835 5.055 131.835 3.133 QT
131.835 2.664 131.999 1.844 QT
132.163 1.024 132.163 0.742 QT
135.272 -11.679 L
135.397 -12.226 135.428 -12.539 QT
135.428 -13.054 133.35 -13.054 QT
133.022 -13.054 133.022 -13.476 QT
133.038 -13.554 133.092 -13.758 QT
133.147 -13.961 133.233 -14.07 QT
133.319 -14.179 133.475 -14.179 QT
137.694 -14.523 L
138.085 -14.523 138.085 -14.117 QT
135.772 -4.867 L
137.397 -6.461 139.038 -6.461 QT
140.335 -6.461 141.225 -5.734 QT
142.116 -5.008 142.545 -3.851 QT
142.975 -2.695 142.975 -1.476 QT
142.975 0.008 142.405 1.688 QT
141.835 3.367 140.819 4.805 QT
139.803 6.242 138.46 7.141 QT
137.116 8.039 135.585 8.039 QT
cp
135.616 7.196 M
136.772 7.196 137.733 6.055 QT
138.694 4.914 139.35 3.203 QT
140.006 1.492 140.358 -0.211 QT
140.71 -1.914 140.71 -2.945 QT
140.71 -3.976 140.319 -4.804 QT
139.928 -5.633 138.975 -5.633 QT
137.897 -5.633 136.905 -4.695 QT
135.913 -3.758 135.163 -2.554 QT
134.335 0.867 L
133.788 2.914 133.756 4.258 QT
133.756 5.399 134.186 6.297 QT
134.616 7.196 135.616 7.196 QT
cp}def
f-1909581974
f
GR
GS
[0.75 0 0 0.75 324.78726 107.20333] CT
N
/f-1131012517{149.466 8.039 M
148.044 8.039 146.966 7.321 QT
145.888 6.602 145.325 5.399 QT
144.763 4.196 144.763 2.758 QT
144.763 1.196 145.411 -0.429 QT
146.059 -2.054 147.223 -3.453 QT
148.388 -4.851 149.856 -5.656 QT
151.325 -6.461 152.95 -6.461 QT
154.388 -6.461 155.458 -5.75 QT
156.528 -5.039 157.098 -3.844 QT
157.669 -2.648 157.669 -1.179 QT
157.669 0.367 157.036 1.992 QT
156.403 3.617 155.247 5.008 QT
154.091 6.399 152.606 7.219 QT
151.122 8.039 149.466 8.039 QT
cp
149.528 7.196 M
150.856 7.196 151.95 6.196 QT
153.044 5.196 153.802 3.61 QT
154.559 2.024 154.927 0.367 QT
155.294 -1.289 155.294 -2.461 QT
155.294 -3.242 155.044 -3.976 QT
154.794 -4.711 154.239 -5.172 QT
153.684 -5.633 152.888 -5.633 QT
151.544 -5.633 150.45 -4.617 QT
149.356 -3.601 148.638 -2.062 QT
147.919 -0.523 147.528 1.164 QT
147.138 2.852 147.138 4.039 QT
147.138 5.289 147.747 6.242 QT
148.356 7.196 149.528 7.196 QT
cp}def
f-1131012517
f
GR
GS
[0.75 0 0 0.75 324.78726 107.20333] CT
N
/f-1119430525{161.763 15.68 M
161.482 15.68 161.482 15.399 QT
161.482 15.258 161.544 15.196 QT
167.013 9.852 167.013 -0.32 QT
167.013 -10.492 161.607 -15.773 QT
161.482 -15.851 161.482 -16.039 QT
161.482 -16.148 161.568 -16.234 QT
161.654 -16.32 161.763 -16.32 QT
162.06 -16.32 L
162.154 -16.32 162.216 -16.258 QT
164.513 -14.445 166.044 -11.851 QT
167.575 -9.258 168.286 -6.32 QT
168.997 -3.383 168.997 -0.32 QT
168.997 1.946 168.615 4.141 QT
168.232 6.336 167.396 8.469 QT
166.56 10.602 165.279 12.406 QT
163.997 14.211 162.216 15.617 QT
162.154 15.68 162.06 15.68 QT
161.763 15.68 L
cp}def
f-1119430525
f
GR
GS
[0.75 0 0 0.75 0 0] CT
0 0.447 0.741 RC
[8 8] 0 setdash
2 LJ
2.667 LW
N
390.004 142.938 M
430.047 142.938 L
S
GR
GS
[0.75 0 0 0.75 324.78726 136.35999] CT
N
f452433835
f
GR
GS
[0.75 0 0 0.75 324.78726 136.35999] CT
N
/f-552534907{36.5 15.617 M
34.718 14.211 33.429 12.391 QT
32.14 10.571 31.32 8.508 QT
30.5 6.446 30.093 4.196 QT
29.687 1.946 29.687 -0.32 QT
29.687 -2.617 30.093 -4.867 QT
30.5 -7.117 31.336 -9.195 QT
32.172 -11.273 33.468 -13.086 QT
34.765 -14.898 36.5 -16.258 QT
36.5 -16.32 36.656 -16.32 QT
36.953 -16.32 L
37.047 -16.32 37.125 -16.234 QT
37.203 -16.148 37.203 -16.039 QT
37.203 -15.898 37.14 -15.836 QT
35.578 -14.304 34.539 -12.554 QT
33.5 -10.804 32.867 -8.828 QT
32.234 -6.851 31.953 -4.734 QT
31.672 -2.617 31.672 -0.32 QT
31.672 9.852 37.109 15.133 QT
37.203 15.227 37.203 15.399 QT
37.203 15.477 37.117 15.578 QT
37.031 15.68 36.953 15.68 QT
36.656 15.68 L
36.5 15.68 36.5 15.617 QT
cp}def
f-552534907
f
GR
GS
[0.75 0 0 0.75 324.78726 136.35999] CT
N
/f-1946131846{51.663 8.383 M
49.929 8.383 48.436 7.727 QT
46.944 7.071 45.921 5.883 QT
44.897 4.696 44.358 3.149 QT
43.819 1.602 43.819 -0.133 QT
43.819 -2.711 44.921 -5.359 QT
46.022 -8.008 47.905 -10.148 QT
49.788 -12.289 52.249 -13.586 QT
54.71 -14.883 57.319 -14.883 QT
58.304 -14.883 59.194 -14.578 QT
60.085 -14.273 60.819 -13.664 QT
61.554 -13.054 62.038 -12.195 QT
64.335 -14.789 L
64.522 -14.883 64.554 -14.883 QT
64.757 -14.883 L
64.882 -14.883 64.96 -14.773 QT
65.038 -14.664 65.038 -14.554 QT
62.866 -5.914 L
62.866 -5.695 62.6 -5.695 QT
62.038 -5.695 L
61.772 -5.695 61.772 -6.054 QT
61.929 -7.179 61.929 -8.039 QT
61.929 -10.398 60.889 -12.078 QT
59.85 -13.758 57.616 -13.758 QT
55.132 -13.758 53.1 -12.367 QT
51.069 -10.976 49.655 -8.734 QT
48.241 -6.492 47.491 -3.883 QT
46.741 -1.273 46.741 0.992 QT
46.741 2.758 47.397 4.188 QT
48.054 5.617 49.335 6.438 QT
50.616 7.258 52.429 7.258 QT
54.163 7.258 55.733 6.305 QT
57.304 5.352 57.71 3.774 QT
58.413 1.024 L
58.444 0.899 58.444 0.633 QT
58.444 0.289 58.038 0.196 QT
57.366 0.071 55.382 0.071 QT
55.054 0.071 55.054 -0.351 QT
55.147 -0.742 55.225 -0.898 QT
55.304 -1.054 55.6 -1.054 QT
63.304 -1.054 L
63.6 -1.054 63.6 -0.633 QT
63.475 0.071 63.179 0.071 QT
62.179 0.071 61.764 0.235 QT
61.35 0.399 61.132 1.149 QT
60.429 3.899 L
59.538 7.461 L
59.491 7.68 59.241 7.68 QT
58.96 7.68 58.491 6.961 QT
58.022 6.242 57.835 5.789 QT
57.163 6.617 56.132 7.211 QT
55.1 7.805 53.952 8.094 QT
52.804 8.383 51.663 8.383 QT
cp}def
f-1946131846
f
GR
GS
[0.75 0 0 0.75 324.78726 136.35999] CT
N
/f-1630912114{71.137 8.039 M
69.246 8.039 68.223 6.531 QT
67.2 5.024 67.2 3.039 QT
67.2 1.071 68.184 -1.172 QT
69.168 -3.414 70.879 -4.937 QT
72.59 -6.461 74.59 -6.461 QT
75.418 -6.461 76.129 -5.976 QT
76.84 -5.492 77.215 -4.742 QT
77.309 -5.211 77.653 -5.515 QT
77.996 -5.82 78.496 -5.82 QT
78.887 -5.82 79.153 -5.586 QT
79.418 -5.351 79.418 -4.961 QT
79.418 -4.804 79.387 -4.711 QT
77.153 4.258 L
76.903 5.227 76.903 5.977 QT
76.903 7.196 77.7 7.196 QT
78.512 7.196 79.004 5.93 QT
79.496 4.664 79.871 2.977 QT
79.934 2.789 80.137 2.789 QT
80.7 2.789 L
80.809 2.789 80.903 2.899 QT
80.996 3.008 80.996 3.102 QT
80.621 4.539 80.473 5.055 QT
80.325 5.571 79.957 6.321 QT
79.59 7.071 79.02 7.555 QT
78.45 8.039 77.637 8.039 QT
76.668 8.039 75.911 7.43 QT
75.153 6.821 74.95 5.883 QT
73.043 8.039 71.137 8.039 QT
cp
71.168 7.196 M
72.278 7.196 73.309 6.227 QT
74.34 5.258 75.012 4.102 QT
76.7 -2.695 L
76.575 -3.836 76.059 -4.734 QT
75.543 -5.633 74.528 -5.633 QT
73.371 -5.633 72.434 -4.492 QT
71.496 -3.351 70.832 -1.625 QT
70.168 0.102 69.825 1.781 QT
69.481 3.461 69.481 4.508 QT
69.481 5.524 69.871 6.36 QT
70.262 7.196 71.168 7.196 QT
cp}def
f-1630912114
f
GR
GS
[0.75 0 0 0.75 324.78726 136.35999] CT
N
/f-1987538164{82.305 8.039 M
82.055 8.039 82.055 7.742 QT
82.055 7.711 82.118 7.524 QT
82.961 6.008 84.078 4.68 QT
85.196 3.352 86.602 1.977 QT
88.008 0.602 89.368 -0.711 QT
90.727 -2.023 91.821 -3.289 QT
91.383 -3.289 91.016 -3.398 QT
90.649 -3.508 90.008 -3.773 QT
89.368 -4.039 88.961 -4.164 QT
88.555 -4.289 88.133 -4.289 QT
87.368 -4.289 86.664 -3.844 QT
85.961 -3.398 85.758 -2.695 QT
85.711 -2.461 85.508 -2.461 QT
84.93 -2.461 L
84.68 -2.461 84.68 -2.789 QT
84.68 -2.883 L
84.899 -3.758 85.453 -4.594 QT
86.008 -5.429 86.797 -5.945 QT
87.586 -6.461 88.524 -6.461 QT
89.133 -6.461 89.524 -6.172 QT
89.914 -5.883 90.43 -5.25 QT
90.946 -4.617 91.219 -4.375 QT
91.493 -4.133 91.977 -4.133 QT
92.539 -4.133 93 -4.765 QT
93.461 -5.398 93.961 -6.367 QT
94.055 -6.461 94.18 -6.461 QT
94.758 -6.461 L
94.868 -6.461 94.938 -6.383 QT
95.008 -6.304 95.008 -6.179 QT
95.008 -6.133 94.946 -5.976 QT
94.164 -4.523 93.071 -3.211 QT
91.977 -1.898 90.422 -0.383 QT
88.868 1.133 87.508 2.461 QT
86.149 3.789 85.227 4.899 QT
85.383 4.867 85.696 4.867 QT
86.258 4.867 86.93 5.11 QT
87.602 5.352 88.274 5.602 QT
88.946 5.852 89.508 5.852 QT
90.649 5.852 91.664 4.992 QT
92.68 4.133 92.961 3.008 QT
93.039 2.789 93.227 2.789 QT
93.789 2.789 L
94.086 2.789 94.086 3.102 QT
94.086 3.133 94.055 3.196 QT
93.618 5.039 92.235 6.539 QT
90.852 8.039 89.086 8.039 QT
88.508 8.039 88.11 7.742 QT
87.711 7.446 87.25 6.86 QT
86.789 6.274 86.453 5.985 QT
86.118 5.696 85.633 5.696 QT
84.321 5.696 83.102 7.93 QT
82.993 8.039 82.883 8.039 QT
82.305 8.039 L
cp}def
f-1987538164
f
GR
GS
[0.75 0 0 0.75 324.78726 136.35999] CT
N
/f-183010152{101.374 8.039 M
100.28 8.039 99.413 7.571 QT
98.546 7.102 97.952 6.25 QT
97.358 5.399 97.077 4.422 QT
96.796 3.446 96.796 2.399 QT
96.796 0.742 97.397 -0.844 QT
97.999 -2.429 99.093 -3.711 QT
100.186 -4.992 101.678 -5.726 QT
103.171 -6.461 104.858 -6.461 QT
105.686 -6.461 106.428 -6.148 QT
107.171 -5.836 107.632 -5.219 QT
108.093 -4.601 108.093 -3.742 QT
108.093 -1.148 105.616 -0.398 QT
103.139 0.352 99.78 0.352 QT
99.686 0.352 L
99.139 2.477 99.139 3.805 QT
99.139 5.086 99.694 6.141 QT
100.249 7.196 101.436 7.196 QT
103.124 7.196 104.71 6.281 QT
106.296 5.367 107.358 3.899 QT
107.405 3.805 107.593 3.805 QT
107.78 3.805 108.124 4.258 QT
108.186 4.289 108.186 4.446 QT
108.186 4.571 108.124 4.633 QT
107.389 5.68 106.311 6.453 QT
105.233 7.227 103.952 7.633 QT
102.671 8.039 101.374 8.039 QT
cp
99.874 -0.476 M
101.639 -0.476 103.061 -0.656 QT
104.483 -0.836 105.616 -1.562 QT
106.749 -2.289 106.749 -3.742 QT
106.749 -4.57 106.186 -5.101 QT
105.624 -5.633 104.796 -5.633 QT
102.936 -5.633 101.71 -4.125 QT
100.483 -2.617 99.874 -0.476 QT
cp}def
f-183010152
f
GR
GS
[0.75 0 0 0.75 324.78726 136.35999] CT
N
/f1557423424{115.297 8.039 M
113.469 8.039 112.508 6.547 QT
111.547 5.055 111.547 3.133 QT
111.547 2.664 111.711 1.844 QT
111.875 1.024 111.875 0.742 QT
114.984 -11.679 L
115.109 -12.226 115.141 -12.539 QT
115.141 -13.054 113.062 -13.054 QT
112.734 -13.054 112.734 -13.476 QT
112.75 -13.554 112.805 -13.758 QT
112.859 -13.961 112.945 -14.07 QT
113.031 -14.179 113.187 -14.179 QT
117.406 -14.523 L
117.797 -14.523 117.797 -14.117 QT
115.484 -4.867 L
117.109 -6.461 118.75 -6.461 QT
120.047 -6.461 120.937 -5.734 QT
121.828 -5.008 122.258 -3.851 QT
122.687 -2.695 122.687 -1.476 QT
122.687 0.008 122.117 1.688 QT
121.547 3.367 120.531 4.805 QT
119.516 6.242 118.172 7.141 QT
116.828 8.039 115.297 8.039 QT
cp
115.328 7.196 M
116.484 7.196 117.445 6.055 QT
118.406 4.914 119.062 3.203 QT
119.719 1.492 120.07 -0.211 QT
120.422 -1.914 120.422 -2.945 QT
120.422 -3.976 120.031 -4.804 QT
119.641 -5.633 118.687 -5.633 QT
117.609 -5.633 116.617 -4.695 QT
115.625 -3.758 114.875 -2.554 QT
114.047 0.867 L
113.5 2.914 113.469 4.258 QT
113.469 5.399 113.898 6.297 QT
114.328 7.196 115.328 7.196 QT
cp}def
f1557423424
f
GR
GS
[0.75 0 0 0.75 324.78726 136.35999] CT
N
/f1938342772{129.178 8.039 M
127.756 8.039 126.678 7.321 QT
125.6 6.602 125.037 5.399 QT
124.475 4.196 124.475 2.758 QT
124.475 1.196 125.123 -0.429 QT
125.772 -2.054 126.936 -3.453 QT
128.1 -4.851 129.569 -5.656 QT
131.037 -6.461 132.662 -6.461 QT
134.1 -6.461 135.17 -5.75 QT
136.24 -5.039 136.811 -3.844 QT
137.381 -2.648 137.381 -1.179 QT
137.381 0.367 136.748 1.992 QT
136.115 3.617 134.959 5.008 QT
133.803 6.399 132.319 7.219 QT
130.834 8.039 129.178 8.039 QT
cp
129.24 7.196 M
130.569 7.196 131.662 6.196 QT
132.756 5.196 133.514 3.61 QT
134.272 2.024 134.639 0.367 QT
135.006 -1.289 135.006 -2.461 QT
135.006 -3.242 134.756 -3.976 QT
134.506 -4.711 133.951 -5.172 QT
133.397 -5.633 132.6 -5.633 QT
131.256 -5.633 130.162 -4.617 QT
129.069 -3.601 128.35 -2.062 QT
127.631 -0.523 127.24 1.164 QT
126.85 2.852 126.85 4.039 QT
126.85 5.289 127.459 6.242 QT
128.069 7.196 129.24 7.196 QT
cp}def
f1938342772
f
GR
GS
[0.75 0 0 0.75 324.78726 136.35999] CT
N
/f-129904867{141.475 15.68 M
141.194 15.68 141.194 15.399 QT
141.194 15.258 141.256 15.196 QT
146.725 9.852 146.725 -0.32 QT
146.725 -10.492 141.319 -15.773 QT
141.194 -15.851 141.194 -16.039 QT
141.194 -16.148 141.28 -16.234 QT
141.366 -16.32 141.475 -16.32 QT
141.772 -16.32 L
141.866 -16.32 141.928 -16.258 QT
144.225 -14.445 145.756 -11.851 QT
147.288 -9.258 147.999 -6.32 QT
148.71 -3.383 148.71 -0.32 QT
148.71 1.946 148.327 4.141 QT
147.944 6.336 147.108 8.469 QT
146.272 10.602 144.991 12.406 QT
143.71 14.211 141.928 15.617 QT
141.866 15.68 141.772 15.68 QT
141.475 15.68 L
cp}def
f-129904867
f
GR
GS
[0.75 0 0 0.75 0 0] CT
0.929 0.694 0.125 RC
1 LJ
1.333 LW
N
390.004 181.813 M
430.047 181.813 L
S
GR
GS
[0.75 0 0 0.75 0 0] CT
0.149 GC
10.0 ML
0.667 LW
N
386 203 M
386 44 L
614 44 L
614 203 L
cp
S
GR
%%Trailer
%%Pages: 1
%%EOF
