%!PS-Adobe-3.0 EPSF-3.0
%%Creator: (MATLAB, The Mathworks, Inc. Version 9.4.0.813654 \(R2018a\). Operating System: Linux)
%%Title: /home/isidro/google-drive/TFG/tilt-rotor-matlab/figuras/memoria/comparacion/omega.eps
%%CreationDate: 2019-09-07T20:02:29
%%Pages: (atend)
%%BoundingBox: 0 0 555 323
%%LanguageLevel: 3
%%EndComments
%%BeginProlog
%%BeginResource: procset (Apache XML Graphics Std ProcSet) 1.2 0
%%Version: 1.2 0
%%Copyright: (Copyright 2001-2003,2010 The Apache Software Foundation. License terms: http://www.apache.org/licenses/LICENSE-2.0)
/bd{bind def}bind def
/ld{load def}bd
/GR/grestore ld
/GS/gsave ld
/RM/rmoveto ld
/C/curveto ld
/t/show ld
/L/lineto ld
/ML/setmiterlimit ld
/CT/concat ld
/f/fill ld
/N/newpath ld
/S/stroke ld
/CC/setcmykcolor ld
/A/ashow ld
/cp/closepath ld
/RC/setrgbcolor ld
/LJ/setlinejoin ld
/GC/setgray ld
/LW/setlinewidth ld
/M/moveto ld
/re {4 2 roll M
1 index 0 rlineto
0 exch rlineto
neg 0 rlineto
cp } bd
/_ctm matrix def
/_tm matrix def
/BT { _ctm currentmatrix pop matrix _tm copy pop 0 0 moveto } bd
/ET { _ctm setmatrix } bd
/iTm { _ctm setmatrix _tm concat } bd
/Tm { _tm astore pop iTm 0 0 moveto } bd
/ux 0.0 def
/uy 0.0 def
/F {
  /Tp exch def
  /Tf exch def
  Tf findfont Tp scalefont setfont
  /cf Tf def  /cs Tp def
} bd
/ULS {currentpoint /uy exch def /ux exch def} bd
/ULE {
  /Tcx currentpoint pop def
  gsave
  newpath
  cf findfont cs scalefont dup
  /FontMatrix get 0 get /Ts exch def /FontInfo get dup
  /UnderlinePosition get Ts mul /To exch def
  /UnderlineThickness get Ts mul /Tt exch def
  ux uy To add moveto  Tcx uy To add lineto
  Tt setlinewidth stroke
  grestore
} bd
/OLE {
  /Tcx currentpoint pop def
  gsave
  newpath
  cf findfont cs scalefont dup
  /FontMatrix get 0 get /Ts exch def /FontInfo get dup
  /UnderlinePosition get Ts mul /To exch def
  /UnderlineThickness get Ts mul /Tt exch def
  ux uy To add cs add moveto Tcx uy To add cs add lineto
  Tt setlinewidth stroke
  grestore
} bd
/SOE {
  /Tcx currentpoint pop def
  gsave
  newpath
  cf findfont cs scalefont dup
  /FontMatrix get 0 get /Ts exch def /FontInfo get dup
  /UnderlinePosition get Ts mul /To exch def
  /UnderlineThickness get Ts mul /Tt exch def
  ux uy To add cs 10 mul 26 idiv add moveto Tcx uy To add cs 10 mul 26 idiv add lineto
  Tt setlinewidth stroke
  grestore
} bd
/QT {
/Y22 exch store
/X22 exch store
/Y21 exch store
/X21 exch store
currentpoint
/Y21 load 2 mul add 3 div exch
/X21 load 2 mul add 3 div exch
/X21 load 2 mul /X22 load add 3 div
/Y21 load 2 mul /Y22 load add 3 div
/X22 load /Y22 load curveto
} bd
/SSPD {
dup length /d exch dict def
{
/v exch def
/k exch def
currentpagedevice k known {
/cpdv currentpagedevice k get def
v cpdv ne {
/upd false def
/nullv v type /nulltype eq def
/nullcpdv cpdv type /nulltype eq def
nullv nullcpdv or
{
/upd true def
} {
/sametype v type cpdv type eq def
sametype {
v type /arraytype eq {
/vlen v length def
/cpdvlen cpdv length def
vlen cpdvlen eq {
0 1 vlen 1 sub {
/i exch def
/obj v i get def
/cpdobj cpdv i get def
obj cpdobj ne {
/upd true def
exit
} if
} for
} {
/upd true def
} ifelse
} {
v type /dicttype eq {
v {
/dv exch def
/dk exch def
/cpddv cpdv dk get def
dv cpddv ne {
/upd true def
exit
} if
} forall
} {
/upd true def
} ifelse
} ifelse
} if
} ifelse
upd true eq {
d k v put
} if
} if
} if
} forall
d length 0 gt {
d setpagedevice
} if
} bd
/RE { % /NewFontName [NewEncodingArray] /FontName RE -
  findfont dup length dict begin
  {
    1 index /FID ne
    {def} {pop pop} ifelse
  } forall
  /Encoding exch def
  /FontName 1 index def
  currentdict definefont pop
  end
} bind def
%%EndResource
%%BeginResource: procset (Apache XML Graphics EPS ProcSet) 1.0 0
%%Version: 1.0 0
%%Copyright: (Copyright 2002-2003 The Apache Software Foundation. License terms: http://www.apache.org/licenses/LICENSE-2.0)
/BeginEPSF { %def
/b4_Inc_state save def         % Save state for cleanup
/dict_count countdictstack def % Count objects on dict stack
/op_count count 1 sub def      % Count objects on operand stack
userdict begin                 % Push userdict on dict stack
/showpage { } def              % Redefine showpage, { } = null proc
0 setgray 0 setlinecap         % Prepare graphics state
1 setlinewidth 0 setlinejoin
10 setmiterlimit [ ] 0 setdash newpath
/languagelevel where           % If level not equal to 1 then
{pop languagelevel             % set strokeadjust and
1 ne                           % overprint to their defaults.
{false setstrokeadjust false setoverprint
} if
} if
} bd
/EndEPSF { %def
count op_count sub {pop} repeat            % Clean up stacks
countdictstack dict_count sub {end} repeat
b4_Inc_state restore
} bd
%%EndResource
%FOPBeginFontDict
%%IncludeResource: font Courier-Oblique
%%IncludeResource: font Courier-BoldOblique
%%IncludeResource: font Courier-Bold
%%IncludeResource: font ZapfDingbats
%%IncludeResource: font Symbol
%%IncludeResource: font Helvetica
%%IncludeResource: font Helvetica-Oblique
%%IncludeResource: font Helvetica-Bold
%%IncludeResource: font Helvetica-BoldOblique
%%IncludeResource: font Times-Roman
%%IncludeResource: font Times-Italic
%%IncludeResource: font Times-Bold
%%IncludeResource: font Times-BoldItalic
%%IncludeResource: font Courier
%FOPEndFontDict
%%BeginResource: encoding WinAnsiEncoding
/WinAnsiEncoding [
/.notdef /.notdef /.notdef /.notdef /.notdef
/.notdef /.notdef /.notdef /.notdef /.notdef
/.notdef /.notdef /.notdef /.notdef /.notdef
/.notdef /.notdef /.notdef /.notdef /.notdef
/.notdef /.notdef /.notdef /.notdef /.notdef
/.notdef /.notdef /.notdef /.notdef /.notdef
/.notdef /.notdef /space /exclam /quotedbl
/numbersign /dollar /percent /ampersand /quotesingle
/parenleft /parenright /asterisk /plus /comma
/hyphen /period /slash /zero /one
/two /three /four /five /six
/seven /eight /nine /colon /semicolon
/less /equal /greater /question /at
/A /B /C /D /E
/F /G /H /I /J
/K /L /M /N /O
/P /Q /R /S /T
/U /V /W /X /Y
/Z /bracketleft /backslash /bracketright /asciicircum
/underscore /quoteleft /a /b /c
/d /e /f /g /h
/i /j /k /l /m
/n /o /p /q /r
/s /t /u /v /w
/x /y /z /braceleft /bar
/braceright /asciitilde /bullet /Euro /bullet
/quotesinglbase /florin /quotedblbase /ellipsis /dagger
/daggerdbl /circumflex /perthousand /Scaron /guilsinglleft
/OE /bullet /Zcaron /bullet /bullet
/quoteleft /quoteright /quotedblleft /quotedblright /bullet
/endash /emdash /asciitilde /trademark /scaron
/guilsinglright /oe /bullet /zcaron /Ydieresis
/space /exclamdown /cent /sterling /currency
/yen /brokenbar /section /dieresis /copyright
/ordfeminine /guillemotleft /logicalnot /sfthyphen /registered
/macron /degree /plusminus /twosuperior /threesuperior
/acute /mu /paragraph /middot /cedilla
/onesuperior /ordmasculine /guillemotright /onequarter /onehalf
/threequarters /questiondown /Agrave /Aacute /Acircumflex
/Atilde /Adieresis /Aring /AE /Ccedilla
/Egrave /Eacute /Ecircumflex /Edieresis /Igrave
/Iacute /Icircumflex /Idieresis /Eth /Ntilde
/Ograve /Oacute /Ocircumflex /Otilde /Odieresis
/multiply /Oslash /Ugrave /Uacute /Ucircumflex
/Udieresis /Yacute /Thorn /germandbls /agrave
/aacute /acircumflex /atilde /adieresis /aring
/ae /ccedilla /egrave /eacute /ecircumflex
/edieresis /igrave /iacute /icircumflex /idieresis
/eth /ntilde /ograve /oacute /ocircumflex
/otilde /odieresis /divide /oslash /ugrave
/uacute /ucircumflex /udieresis /yacute /thorn
/ydieresis
] def
%%EndResource
%FOPBeginFontReencode
/Courier-Oblique findfont
dup length dict begin
  {1 index /FID ne {def} {pop pop} ifelse} forall
  /Encoding WinAnsiEncoding def
  currentdict
end
/Courier-Oblique exch definefont pop
/Courier-BoldOblique findfont
dup length dict begin
  {1 index /FID ne {def} {pop pop} ifelse} forall
  /Encoding WinAnsiEncoding def
  currentdict
end
/Courier-BoldOblique exch definefont pop
/Courier-Bold findfont
dup length dict begin
  {1 index /FID ne {def} {pop pop} ifelse} forall
  /Encoding WinAnsiEncoding def
  currentdict
end
/Courier-Bold exch definefont pop
/Helvetica findfont
dup length dict begin
  {1 index /FID ne {def} {pop pop} ifelse} forall
  /Encoding WinAnsiEncoding def
  currentdict
end
/Helvetica exch definefont pop
/Helvetica-Oblique findfont
dup length dict begin
  {1 index /FID ne {def} {pop pop} ifelse} forall
  /Encoding WinAnsiEncoding def
  currentdict
end
/Helvetica-Oblique exch definefont pop
/Helvetica-Bold findfont
dup length dict begin
  {1 index /FID ne {def} {pop pop} ifelse} forall
  /Encoding WinAnsiEncoding def
  currentdict
end
/Helvetica-Bold exch definefont pop
/Helvetica-BoldOblique findfont
dup length dict begin
  {1 index /FID ne {def} {pop pop} ifelse} forall
  /Encoding WinAnsiEncoding def
  currentdict
end
/Helvetica-BoldOblique exch definefont pop
/Times-Roman findfont
dup length dict begin
  {1 index /FID ne {def} {pop pop} ifelse} forall
  /Encoding WinAnsiEncoding def
  currentdict
end
/Times-Roman exch definefont pop
/Times-Italic findfont
dup length dict begin
  {1 index /FID ne {def} {pop pop} ifelse} forall
  /Encoding WinAnsiEncoding def
  currentdict
end
/Times-Italic exch definefont pop
/Times-Bold findfont
dup length dict begin
  {1 index /FID ne {def} {pop pop} ifelse} forall
  /Encoding WinAnsiEncoding def
  currentdict
end
/Times-Bold exch definefont pop
/Times-BoldItalic findfont
dup length dict begin
  {1 index /FID ne {def} {pop pop} ifelse} forall
  /Encoding WinAnsiEncoding def
  currentdict
end
/Times-BoldItalic exch definefont pop
/Courier findfont
dup length dict begin
  {1 index /FID ne {def} {pop pop} ifelse} forall
  /Encoding WinAnsiEncoding def
  currentdict
end
/Courier exch definefont pop
%FOPEndFontReencode
%%EndProlog
%%Page: 1 1
%%PageBoundingBox: 0 0 555 323
%%BeginPageSetup
[1 0 0 -1 0 323] CT
%%EndPageSetup
GS
[0.75 0 0 0.75 0 -0.25] CT
N
0 0 M
740 0 L
740 431 L
0 431 L
0 0 L
cp
clip
1 GC
N
0 0 740 431 re
f
GR
GS
[0.75 0 0 0.75 0 -0.25] CT
1 GC
N
0 0 740 431 re
f
GR
GS
[0.75 0 0 0.75 0 -0.25] CT
1 GC
N
96 375 M
670 375 L
670 32 L
96 32 L
cp
f
GR
GS
[0.75 0 0 0.75 0 -0.25] CT
0.873 GC
1 LJ
0.667 LW
N
133.005 375 M
133.005 32 L
S
GR
GS
[0.75 0 0 0.75 0 -0.25] CT
0.873 GC
1 LJ
0.667 LW
N
234.948 375 M
234.948 32 L
S
GR
GS
[0.75 0 0 0.75 0 -0.25] CT
0.873 GC
1 LJ
0.667 LW
N
336.89 375 M
336.89 32 L
S
GR
GS
[0.75 0 0 0.75 0 -0.25] CT
0.873 GC
1 LJ
0.667 LW
N
438.833 375 M
438.833 32 L
S
GR
GS
[0.75 0 0 0.75 0 -0.25] CT
0.873 GC
1 LJ
0.667 LW
N
540.775 375 M
540.775 32 L
S
GR
GS
[0.75 0 0 0.75 0 -0.25] CT
0.873 GC
1 LJ
0.667 LW
N
642.718 375 M
642.718 32 L
S
GR
GS
[0.75 0 0 0.75 0 -0.25] CT
0.873 GC
1 LJ
0.667 LW
N
670 358.322 M
96 358.322 L
S
GR
GS
[0.75 0 0 0.75 0 -0.25] CT
0.873 GC
1 LJ
0.667 LW
N
670 316.271 M
96 316.271 L
S
GR
GS
[0.75 0 0 0.75 0 -0.25] CT
0.873 GC
1 LJ
0.667 LW
N
670 274.22 M
96 274.22 L
S
GR
GS
[0.75 0 0 0.75 0 -0.25] CT
0.873 GC
1 LJ
0.667 LW
N
670 232.169 M
96 232.169 L
S
GR
GS
[0.75 0 0 0.75 0 -0.25] CT
0.873 GC
1 LJ
0.667 LW
N
670 190.117 M
96 190.117 L
S
GR
GS
[0.75 0 0 0.75 0 -0.25] CT
0.873 GC
1 LJ
0.667 LW
N
670 148.066 M
96 148.066 L
S
GR
GS
[0.75 0 0 0.75 0 -0.25] CT
0.873 GC
1 LJ
0.667 LW
N
670 106.015 M
96 106.015 L
S
GR
GS
[0.75 0 0 0.75 0 -0.25] CT
0.873 GC
1 LJ
0.667 LW
N
670 63.964 M
96 63.964 L
S
GR
GS
[0.75 0 0 0.75 0 -0.25] CT
0.149 GC
2 setlinecap
1 LJ
0.667 LW
N
96 375 M
670 375 L
S
GR
GS
[0.75 0 0 0.75 0 -0.25] CT
0.149 GC
2 setlinecap
1 LJ
0.667 LW
N
133.005 375 M
133.005 369.26 L
S
GR
GS
[0.75 0 0 0.75 0 -0.25] CT
0.149 GC
2 setlinecap
1 LJ
0.667 LW
N
234.948 375 M
234.948 369.26 L
S
GR
GS
[0.75 0 0 0.75 0 -0.25] CT
0.149 GC
2 setlinecap
1 LJ
0.667 LW
N
336.89 375 M
336.89 369.26 L
S
GR
GS
[0.75 0 0 0.75 0 -0.25] CT
0.149 GC
2 setlinecap
1 LJ
0.667 LW
N
438.833 375 M
438.833 369.26 L
S
GR
GS
[0.75 0 0 0.75 0 -0.25] CT
0.149 GC
2 setlinecap
1 LJ
0.667 LW
N
540.775 375 M
540.775 369.26 L
S
GR
GS
[0.75 0 0 0.75 0 -0.25] CT
0.149 GC
2 setlinecap
1 LJ
0.667 LW
N
642.718 375 M
642.718 369.26 L
S
GR
GS
[0.75 0 0 0.75 99.75381 285.8] CT
0.149 GC
/Helvetica 18.667 F
GS
[1 0 0 1 0 0] CT
-15 18 moveto 
1 -1 scale
(0.1) t 
GR
GR
GS
[0.75 0 0 0.75 176.21068 285.8] CT
0.149 GC
/Helvetica 18.667 F
GS
[1 0 0 1 0 0] CT
-15 18 moveto 
1 -1 scale
(0.2) t 
GR
GR
GS
[0.75 0 0 0.75 252.66756 285.8] CT
0.149 GC
/Helvetica 18.667 F
GS
[1 0 0 1 0 0] CT
-15 18 moveto 
1 -1 scale
(0.3) t 
GR
GR
GS
[0.75 0 0 0.75 329.12441 285.8] CT
0.149 GC
/Helvetica 18.667 F
GS
[1 0 0 1 0 0] CT
-15 18 moveto 
1 -1 scale
(0.4) t 
GR
GR
GS
[0.75 0 0 0.75 405.58127 285.8] CT
0.149 GC
/Helvetica 18.667 F
GS
[1 0 0 1 0 0] CT
-15 18 moveto 
1 -1 scale
(0.5) t 
GR
GR
GS
[0.75 0 0 0.75 482.03819 285.8] CT
0.149 GC
/Helvetica 18.667 F
GS
[1 0 0 1 0 0] CT
-15 18 moveto 
1 -1 scale
(0.6) t 
GR
GR
GS
[0.75 0 0 0.75 287.25018 304.05] CT
0.149 GC
/Helvetica 20.533 F
GS
[1 0 0 1 0 0] CT
-24 20 moveto 
1 -1 scale
( t \(s\)) t 
GR
GR
GS
[0.75 0 0 0.75 0 -0.25] CT
0.149 GC
2 setlinecap
1 LJ
0.667 LW
N
96 375 M
96 32 L
S
GR
GS
[0.75 0 0 0.75 0 -0.25] CT
0.149 GC
2 setlinecap
1 LJ
0.667 LW
N
96 358.322 M
101.74 358.322 L
S
GR
GS
[0.75 0 0 0.75 0 -0.25] CT
0.149 GC
2 setlinecap
1 LJ
0.667 LW
N
96 316.271 M
101.74 316.271 L
S
GR
GS
[0.75 0 0 0.75 0 -0.25] CT
0.149 GC
2 setlinecap
1 LJ
0.667 LW
N
96 274.22 M
101.74 274.22 L
S
GR
GS
[0.75 0 0 0.75 0 -0.25] CT
0.149 GC
2 setlinecap
1 LJ
0.667 LW
N
96 232.169 M
101.74 232.169 L
S
GR
GS
[0.75 0 0 0.75 0 -0.25] CT
0.149 GC
2 setlinecap
1 LJ
0.667 LW
N
96 190.117 M
101.74 190.117 L
S
GR
GS
[0.75 0 0 0.75 0 -0.25] CT
0.149 GC
2 setlinecap
1 LJ
0.667 LW
N
96 148.066 M
101.74 148.066 L
S
GR
GS
[0.75 0 0 0.75 0 -0.25] CT
0.149 GC
2 setlinecap
1 LJ
0.667 LW
N
96 106.015 M
101.74 106.015 L
S
GR
GS
[0.75 0 0 0.75 0 -0.25] CT
0.149 GC
2 setlinecap
1 LJ
0.667 LW
N
96 63.964 M
101.74 63.964 L
S
GR
GS
[0.75 0 0 0.75 67.2 268.49163] CT
0.149 GC
/Helvetica 18.667 F
GS
[1 0 0 1 0 0] CT
-12 6.5 moveto 
1 -1 scale
(0) t 
GR
GR
GS
[0.75 0 0 0.75 67.2 236.95322] CT
0.149 GC
/Helvetica 18.667 F
GS
[1 0 0 1 0 0] CT
-30 6.5 moveto 
1 -1 scale
(0.5) t 
GR
GR
GS
[0.75 0 0 0.75 67.2 205.41482] CT
0.149 GC
/Helvetica 18.667 F
GS
[1 0 0 1 0 0] CT
-12 6.5 moveto 
1 -1 scale
(1) t 
GR
GR
GS
[0.75 0 0 0.75 67.2 173.87641] CT
0.149 GC
/Helvetica 18.667 F
GS
[1 0 0 1 0 0] CT
-30 6.5 moveto 
1 -1 scale
(1.5) t 
GR
GR
GS
[0.75 0 0 0.75 67.2 142.33799] CT
0.149 GC
/Helvetica 18.667 F
GS
[1 0 0 1 0 0] CT
-12 6.5 moveto 
1 -1 scale
(2) t 
GR
GR
GS
[0.75 0 0 0.75 67.2 110.79959] CT
0.149 GC
/Helvetica 18.667 F
GS
[1 0 0 1 0 0] CT
-30 6.5 moveto 
1 -1 scale
(2.5) t 
GR
GR
GS
[0.75 0 0 0.75 67.2 79.26118] CT
0.149 GC
/Helvetica 18.667 F
GS
[1 0 0 1 0 0] CT
-12 6.5 moveto 
1 -1 scale
(3) t 
GR
GR
GS
[0.75 0 0 0.75 67.2 47.72277] CT
0.149 GC
/Helvetica 18.667 F
GS
[1 0 0 1 0 0] CT
-30 6.5 moveto 
1 -1 scale
(3.5) t 
GR
GR
GS
[0 -0.75 0.75 0 38.25 188.75] CT
0.149 GC
/Helvetica 20.533 F
GS
[1 0 0 1 0 0] CT
0 0 moveto 
1 -1 scale
( ) t 
GR
GR
GS
[0 -0.75 0.75 0 38.25 183.5] CT
0.149 GC
N
1.625 0 M
0.922 -3.484 L
1.531 -3.484 L
1.656 -2.875 1.742 -2.414 QT
1.828 -1.953 1.984 -1.758 QT
2.141 -1.563 2.469 -1.508 QT
2.797 -1.453 3.547 -1.453 QT
4.828 -1.453 L
4.516 -2.641 3.297 -4.547 QT
2.078 -6.453 1.625 -7.32 QT
1.172 -8.188 1.172 -9.563 QT
1.172 -11.141 2.117 -12.336 QT
3.063 -13.531 4.555 -14.172 QT
6.047 -14.813 7.578 -14.813 QT
9.094 -14.813 10.586 -14.172 QT
12.078 -13.531 13.023 -12.328 QT
13.969 -11.125 13.969 -9.563 QT
13.969 -8.484 13.578 -7.547 QT
13.188 -6.609 12.586 -5.664 QT
11.984 -4.719 11.281 -3.563 QT
10.578 -2.406 10.313 -1.453 QT
11.594 -1.453 L
12.359 -1.453 12.695 -1.508 QT
13.031 -1.563 13.172 -1.758 QT
13.313 -1.953 13.406 -2.414 QT
13.5 -2.875 13.609 -3.484 QT
14.219 -3.484 L
13.531 0 L
9.797 0 L
9.594 0 9.594 -0.281 QT
9.594 -1.344 9.859 -2.367 QT
10.125 -3.391 10.633 -4.852 QT
11.141 -6.313 11.43 -7.422 QT
11.719 -8.531 11.719 -9.563 QT
11.719 -10.813 11.227 -11.891 QT
10.734 -12.969 9.789 -13.617 QT
8.844 -14.266 7.578 -14.266 QT
5.656 -14.266 4.539 -12.898 QT
3.422 -11.531 3.422 -9.563 QT
3.438 -8.484 3.68 -7.531 QT
3.922 -6.578 4.477 -4.984 QT
5.031 -3.391 5.289 -2.367 QT
5.547 -1.344 5.547 -0.281 QT
5.547 0 5.328 0 QT
1.625 0 L
cp
f
GR
GS
[0 -0.75 0.75 0 38.25 172.25] CT
0.149 GC
/Helvetica 20.533 F
GS
[1 0 0 1 0 0] CT
0 0 moveto 
1 -1 scale
( \(rad/s\)) t 
GR
GR
GS
[0.75 0 0 0.75 287.25025 20.8625] CT
/Helvetica-Bold 20.533 F
GS
[1 0 0 1 0 0] CT
-344.5 -5 moveto 
1 -1 scale
(Comparaci\363n del seguimiento a la velocidad angular \(eje y\)) t 
GR
GR
GS
[0.75 0 0 0.75 0 -0.25] CT
0.851 0.325 0.098 RC
1 LJ
2.667 LW
N
95.932 358.322 M
96.306 358.322 L
100.383 358.322 L
104.461 358.322 L
108.539 358.322 L
112.617 358.322 L
116.694 358.322 L
120.772 358.322 L
124.85 358.322 L
128.927 358.322 L
133.005 358.322 L
133.005 358.322 L
133.005 358.322 L
134.613 358.322 L
134.91 358.322 L
135.005 358.322 L
135.1 358.322 L
135.177 358.319 L
135.558 358.258 L
137.083 357.327 L
141.16 350.485 L
145.238 339.332 L
149.316 325.611 L
149.898 323.511 L
149.898 323.511 L
153.394 310.354 L
156.889 296.514 L
157.471 294.161 L
160.381 282.235 L
161.549 277.384 L
163.816 267.886 L
165.627 260.238 L
169.704 242.853 L
173.782 225.313 L
177.86 207.671 L
181.937 189.962 L
186.015 172.207 L
190.093 154.436 L
194.171 136.829 L
198.248 120.07 L
202.326 104.86 L
206.404 91.823 L
210.481 81.398 L
214.559 73.717 L
218.637 68.564 L
222.714 65.433 L
226.792 63.663 L
228.831 63.077 L
228.831 63.077 L
230.87 62.591 L
232.909 62.14 L
234.948 61.67 L
239.025 60.528 L
243.103 59.005 L
247.181 57.135 L
251.258 55.08 L
255.336 53.065 L
259.414 51.306 L
263.491 49.961 L
267.569 49.104 L
271.647 48.717 L
275.725 48.713 L
279.802 48.959 L
283.88 49.314 L
287.958 49.655 L
292.035 49.901 L
296.113 50.016 L
300.191 50.009 L
304.268 49.918 L
308.346 49.799 L
312.424 49.707 L
316.502 49.685 L
320.579 49.755 L
324.657 49.918 L
328.735 50.158 L
332.812 50.446 L
336.89 50.751 L
340.968 51.047 L
345.045 51.313 L
349.123 51.541 L
353.201 51.732 L
357.279 51.895 L
361.356 52.045 L
365.434 52.193 L
369.512 52.351 L
373.589 52.525 L
377.667 52.717 L
381.745 52.923 L
385.822 53.137 L
389.9 53.352 L
393.978 53.563 L
398.056 53.763 L
402.133 53.952 L
406.211 54.13 L
410.289 54.297 L
414.366 54.459 L
418.444 54.617 L
422.522 54.775 L
426.599 54.934 L
430.677 55.094 L
434.755 55.256 L
438.833 55.418 L
442.91 55.577 L
446.988 55.734 L
451.066 55.887 L
455.143 56.035 L
459.221 56.178 L
463.299 56.318 L
467.376 56.453 L
471.454 56.586 L
475.532 56.718 L
479.61 56.847 L
483.687 56.975 L
487.765 57.102 L
491.843 57.228 L
495.92 57.351 L
499.998 57.472 L
504.076 57.591 L
508.153 57.707 L
512.231 57.82 L
516.309 57.931 L
520.387 58.04 L
524.464 58.147 L
528.542 58.251 L
532.62 58.355 L
536.697 58.456 L
540.775 58.556 L
544.853 58.654 L
548.93 58.751 L
553.008 58.846 L
557.086 58.939 L
561.164 59.03 L
565.241 59.119 L
569.319 59.207 L
573.397 59.293 L
577.474 59.378 L
581.552 59.461 L
585.63 59.542 L
589.707 59.622 L
593.785 59.701 L
597.863 59.778 L
601.941 59.854 L
606.018 59.929 L
610.096 60.002 L
614.174 60.074 L
618.251 60.144 L
622.329 60.214 L
626.407 60.282 L
630.484 60.348 L
634.562 60.414 L
638.64 60.478 L
642.718 60.541 L
646.795 60.603 L
650.873 60.664 L
654.951 60.724 L
659.028 60.783 L
663.106 60.84 L
667.184 60.897 L
670.068 60.936 L
S
GR
GS
[0.75 0 0 0.75 0 -0.25] CT
0.467 0.675 0.188 RC
[8 8] 0 setdash
2 LJ
2.667 LW
N
95.932 358.322 M
96.306 358.322 L
100.383 358.322 L
104.461 358.322 L
108.539 358.322 L
112.617 358.322 L
116.694 358.322 L
120.772 358.322 L
124.85 358.322 L
128.927 358.322 L
133.005 358.322 L
133.005 63.964 L
133.005 63.964 L
134.613 63.964 L
134.91 63.964 L
135.005 63.964 L
135.1 63.964 L
135.177 63.964 L
135.558 63.964 L
137.083 63.964 L
141.16 63.964 L
145.238 63.964 L
149.316 63.964 L
149.898 63.964 L
149.898 63.964 L
153.394 63.964 L
156.889 63.964 L
157.471 63.964 L
160.381 63.964 L
161.549 63.964 L
163.816 63.964 L
165.627 63.964 L
169.704 63.964 L
173.782 63.964 L
177.86 63.964 L
181.937 63.964 L
186.015 63.964 L
190.093 63.964 L
194.171 63.964 L
198.248 63.964 L
202.326 63.964 L
206.404 63.964 L
210.481 63.964 L
214.559 63.964 L
218.637 63.964 L
222.714 63.964 L
226.792 63.964 L
228.831 63.964 L
228.831 63.964 L
230.87 63.964 L
232.909 63.964 L
234.948 63.964 L
239.025 63.964 L
243.103 63.964 L
247.181 63.964 L
251.258 63.964 L
255.336 63.964 L
259.414 63.964 L
263.491 63.964 L
267.569 63.964 L
271.647 63.964 L
275.725 63.964 L
279.802 63.964 L
283.88 63.964 L
287.958 63.964 L
292.035 63.964 L
296.113 63.964 L
300.191 63.964 L
304.268 63.964 L
308.346 63.964 L
312.424 63.964 L
316.502 63.964 L
320.579 63.964 L
324.657 63.964 L
328.735 63.964 L
332.812 63.964 L
336.89 63.964 L
340.968 63.964 L
345.045 63.964 L
349.123 63.964 L
353.201 63.964 L
357.279 63.964 L
361.356 63.964 L
365.434 63.964 L
369.512 63.964 L
373.589 63.964 L
377.667 63.964 L
381.745 63.964 L
385.822 63.964 L
389.9 63.964 L
393.978 63.964 L
398.056 63.964 L
402.133 63.964 L
406.211 63.964 L
410.289 63.964 L
414.366 63.964 L
418.444 63.964 L
422.522 63.964 L
426.599 63.964 L
430.677 63.964 L
434.755 63.964 L
438.833 63.964 L
442.91 63.964 L
446.988 63.964 L
451.066 63.964 L
455.143 63.964 L
459.221 63.964 L
463.299 63.964 L
467.376 63.964 L
471.454 63.964 L
475.532 63.964 L
479.61 63.964 L
483.687 63.964 L
487.765 63.964 L
491.843 63.964 L
495.92 63.964 L
499.998 63.964 L
504.076 63.964 L
508.153 63.964 L
512.231 63.964 L
516.309 63.964 L
520.387 63.964 L
524.464 63.964 L
528.542 63.964 L
532.62 63.964 L
536.697 63.964 L
540.775 63.964 L
544.853 63.964 L
548.93 63.964 L
553.008 63.964 L
557.086 63.964 L
561.164 63.964 L
565.241 63.964 L
569.319 63.964 L
573.397 63.964 L
577.474 63.964 L
581.552 63.964 L
585.63 63.964 L
589.707 63.964 L
593.785 63.964 L
597.863 63.964 L
601.941 63.964 L
606.018 63.964 L
610.096 63.964 L
614.174 63.964 L
618.251 63.964 L
622.329 63.964 L
626.407 63.964 L
630.484 63.964 L
634.562 63.964 L
638.64 63.964 L
642.718 63.964 L
646.795 63.964 L
650.873 63.964 L
654.951 63.964 L
659.028 63.964 L
663.106 63.964 L
667.184 63.964 L
670.068 63.964 L
S
GR
GS
[0.75 0 0 0.75 0 -0.25] CT
0 0.447 0.741 RC
[8 8] 0 setdash
2 LJ
2.667 LW
N
95.932 358.323 M
96.306 358.323 L
100.383 358.323 L
104.46 358.323 L
108.539 358.323 L
112.617 358.323 L
116.693 358.323 L
120.772 358.323 L
124.85 358.323 L
128.926 358.323 L
133.005 358.323 L
137.083 358.323 L
141.159 351.35 L
145.238 340.115 L
149.316 326.347 L
153.394 311.062 L
157.471 294.851 L
161.549 278.064 L
165.627 260.912 L
169.703 243.523 L
173.782 225.981 L
177.86 208.337 L
181.936 190.626 L
186.015 172.871 L
190.093 155.086 L
194.17 137.388 L
198.248 120.544 L
202.326 105.255 L
206.403 92.155 L
210.481 81.673 L
214.559 73.909 L
218.637 68.607 L
226.792 63.116 L
230.87 61.633 L
234.947 60.3 L
239.025 58.835 L
243.103 57.153 L
247.18 55.323 L
251.258 53.504 L
255.336 51.871 L
259.413 50.563 L
263.491 49.653 L
267.569 49.138 L
271.646 48.952 L
275.725 48.993 L
279.802 49.15 L
283.88 49.33 L
287.958 49.47 L
292.035 49.544 L
296.113 49.559 L
300.19 49.541 L
304.268 49.525 L
308.346 49.542 L
312.423 49.615 L
316.502 49.749 L
320.579 49.939 L
324.656 50.169 L
328.735 50.419 L
332.812 50.672 L
336.889 50.914 L
340.968 51.139 L
345.045 51.345 L
349.123 51.537 L
353.201 51.722 L
357.279 51.906 L
361.356 52.094 L
365.433 52.289 L
369.512 52.49 L
373.589 52.696 L
377.666 52.904 L
381.745 53.111 L
385.822 53.312 L
389.899 53.508 L
393.978 53.697 L
398.056 53.88 L
402.132 54.059 L
406.211 54.233 L
410.289 54.406 L
414.366 54.577 L
418.444 54.746 L
422.522 54.914 L
426.599 55.081 L
430.676 55.244 L
434.755 55.405 L
438.833 55.562 L
442.909 55.716 L
446.988 55.866 L
451.066 56.014 L
455.142 56.158 L
459.221 56.3 L
463.299 56.44 L
467.376 56.577 L
471.454 56.713 L
475.532 56.846 L
479.61 56.976 L
483.687 57.104 L
487.765 57.23 L
491.843 57.354 L
495.919 57.475 L
499.998 57.594 L
504.076 57.71 L
508.152 57.824 L
512.231 57.937 L
516.309 58.047 L
520.386 58.156 L
524.464 58.262 L
528.542 58.367 L
532.62 58.47 L
536.697 58.571 L
540.775 58.67 L
544.853 58.767 L
548.929 58.863 L
553.008 58.956 L
557.086 59.048 L
561.163 59.138 L
565.241 59.226 L
569.319 59.313 L
573.396 59.398 L
577.474 59.482 L
581.552 59.564 L
585.629 59.645 L
589.707 59.724 L
593.785 59.802 L
597.863 59.878 L
601.941 59.953 L
610.096 60.099 L
614.174 60.17 L
618.251 60.239 L
622.329 60.308 L
626.406 60.375 L
630.484 60.44 L
634.562 60.505 L
638.639 60.569 L
642.718 60.632 L
646.795 60.694 L
650.872 60.754 L
654.951 60.814 L
659.028 60.872 L
663.106 60.929 L
667.184 60.985 L
670.068 61.023 L
S
GR
GS
[0.75 0 0 0.75 0 -0.25] CT
0.929 0.694 0.125 RC
1 LJ
1.333 LW
N
95.932 358.318 M
96.306 358.318 L
100.383 358.318 L
104.46 358.318 L
108.539 358.318 L
112.617 358.318 L
120.772 358.318 L
124.85 358.318 L
128.926 358.318 L
137.083 358.318 L
141.159 358.318 L
149.316 345.727 L
153.394 333.226 L
157.471 318.699 L
161.549 302.951 L
165.627 286.453 L
169.703 269.483 L
173.782 252.212 L
177.86 234.747 L
181.936 217.153 L
186.015 199.476 L
190.093 181.743 L
194.17 163.974 L
198.248 146.232 L
202.326 128.961 L
206.403 112.894 L
214.559 86.909 L
218.637 77.786 L
226.792 66.915 L
230.87 64.169 L
234.947 62.369 L
239.025 60.961 L
247.18 57.989 L
251.258 56.233 L
255.336 54.409 L
263.491 51.212 L
267.569 50.103 L
275.725 49.04 L
279.802 48.968 L
287.958 49.235 L
296.113 49.502 L
300.19 49.546 L
304.268 49.545 L
308.346 49.527 L
312.423 49.528 L
316.502 49.574 L
324.656 49.839 L
328.735 50.049 L
332.812 50.288 L
340.968 50.788 L
349.123 51.237 L
353.201 51.436 L
357.279 51.625 L
361.356 51.809 L
365.433 51.995 L
369.512 52.186 L
373.589 52.384 L
377.666 52.588 L
381.745 52.795 L
385.822 53.002 L
389.899 53.206 L
393.978 53.405 L
402.132 53.784 L
410.289 54.141 L
414.366 54.314 L
418.444 54.486 L
426.599 54.826 L
430.676 54.993 L
434.755 55.158 L
438.833 55.32 L
442.909 55.479 L
446.988 55.634 L
451.066 55.787 L
455.142 55.935 L
459.221 56.081 L
463.299 56.225 L
467.376 56.365 L
471.454 56.504 L
475.532 56.64 L
479.61 56.774 L
483.687 56.906 L
491.843 57.163 L
495.919 57.287 L
499.998 57.41 L
508.152 57.647 L
516.309 57.876 L
524.464 58.095 L
532.62 58.308 L
536.697 58.412 L
544.853 58.614 L
548.929 58.713 L
557.086 58.903 L
561.163 58.996 L
565.241 59.087 L
569.319 59.176 L
573.396 59.264 L
577.474 59.349 L
581.552 59.434 L
589.707 59.598 L
593.785 59.678 L
601.941 59.834 L
610.096 59.984 L
614.174 60.057 L
618.251 60.128 L
626.406 60.267 L
630.484 60.332 L
638.639 60.464 L
642.718 60.528 L
646.795 60.591 L
650.872 60.654 L
654.951 60.715 L
659.028 60.775 L
667.184 60.892 L
670.068 60.931 L
S
GR
GS
[0.75 0 0 0.75 0 -0.25] CT
1 GC
N
641 268 M
641 109 L
409 109 L
409 268 L
cp
f
GR
GS
[0.75 0 0 0.75 342.02515 97.39001] CT
N
9.594 13.883 M
9.594 12.774 L
10.688 12.774 11.391 12.586 QT
12.094 12.399 12.094 11.742 QT
12.094 5.821 L
11.344 6.821 10.203 7.43 QT
9.063 8.039 7.813 8.039 QT
6.375 8.039 5.141 7.446 QT
3.906 6.852 2.992 5.836 QT
2.078 4.821 1.57 3.485 QT
1.063 2.149 1.063 0.774 QT
1.063 -1.133 2 -2.812 QT
2.938 -4.492 4.57 -5.476 QT
6.203 -6.461 8.094 -6.461 QT
9.453 -6.461 10.609 -5.695 QT
11.766 -4.929 12.453 -3.648 QT
13.594 -6.461 L
14.438 -6.461 L
14.438 11.742 L
14.438 12.399 15.141 12.586 QT
15.844 12.774 16.922 12.774 QT
16.922 13.883 L
9.594 13.883 L
cp
8 7.196 M
9.422 7.196 10.539 6.25 QT
11.656 5.305 12.188 3.867 QT
12.188 -1.758 L
11.859 -3.289 10.828 -4.414 QT
9.797 -5.539 8.359 -5.539 QT
7.266 -5.539 6.406 -4.961 QT
5.547 -4.383 4.977 -3.414 QT
4.406 -2.445 4.125 -1.32 QT
3.844 -0.195 3.844 0.805 QT
3.844 2.086 4.297 3.594 QT
4.75 5.102 5.688 6.149 QT
6.625 7.196 8 7.196 QT
cp
f
GR
GS
[0.75 0 0 0.75 342.02515 97.39001] CT
N
37.477 15.617 M
35.696 14.211 34.407 12.391 QT
33.118 10.571 32.298 8.508 QT
31.477 6.446 31.071 4.196 QT
30.665 1.946 30.665 -0.32 QT
30.665 -2.617 31.071 -4.867 QT
31.477 -7.117 32.313 -9.195 QT
33.149 -11.273 34.446 -13.086 QT
35.743 -14.898 37.477 -16.258 QT
37.477 -16.32 37.634 -16.32 QT
37.931 -16.32 L
38.024 -16.32 38.102 -16.234 QT
38.181 -16.148 38.181 -16.039 QT
38.181 -15.898 38.118 -15.836 QT
36.556 -14.304 35.517 -12.554 QT
34.477 -10.804 33.845 -8.828 QT
33.212 -6.851 32.931 -4.734 QT
32.649 -2.617 32.649 -0.32 QT
32.649 9.852 38.087 15.133 QT
38.181 15.227 38.181 15.399 QT
38.181 15.477 38.095 15.578 QT
38.009 15.68 37.931 15.68 QT
37.634 15.68 L
37.477 15.68 37.477 15.617 QT
cp
f
GR
GS
[0.75 0 0 0.75 342.02515 97.39001] CT
N
42.625 8.383 M
42.531 8.383 42.453 8.274 QT
42.375 8.164 42.375 8.071 QT
44.219 0.602 L
44.281 0.414 44.484 0.414 QT
45.063 0.414 L
45.313 0.414 45.313 0.742 QT
45.031 1.883 45.031 2.883 QT
45.031 5.039 46.336 6.149 QT
47.641 7.258 49.828 7.258 QT
51.188 7.258 52.367 6.321 QT
53.547 5.383 54.242 3.969 QT
54.938 2.555 54.938 1.242 QT
54.938 0.164 54.445 -0.664 QT
53.953 -1.492 52.984 -1.758 QT
49.469 -2.789 L
48.016 -3.211 47.195 -4.429 QT
46.375 -5.648 46.375 -7.195 QT
46.375 -9.054 47.422 -10.859 QT
48.469 -12.664 50.188 -13.773 QT
51.906 -14.883 53.734 -14.883 QT
55.063 -14.883 56.188 -14.351 QT
57.313 -13.82 57.891 -12.742 QT
59.547 -14.789 L
59.734 -14.883 59.781 -14.883 QT
59.969 -14.883 L
60.094 -14.883 60.172 -14.773 QT
60.25 -14.664 60.25 -14.554 QT
58.406 -7.133 L
58.359 -6.914 58.141 -6.914 QT
57.563 -6.914 L
57.281 -6.914 57.281 -7.258 QT
57.5 -8.57 57.5 -9.414 QT
57.5 -11.476 56.586 -12.664 QT
55.672 -13.851 53.625 -13.851 QT
52.656 -13.851 51.766 -13.398 QT
50.875 -12.945 50.164 -12.133 QT
49.453 -11.32 49.063 -10.375 QT
48.672 -9.429 48.672 -8.476 QT
48.672 -7.445 49.164 -6.664 QT
49.656 -5.883 50.594 -5.633 QT
54.109 -4.601 L
55.625 -4.195 56.422 -2.929 QT
57.219 -1.664 57.219 -0.008 QT
57.219 1.461 56.641 2.93 QT
56.063 4.399 55 5.656 QT
53.938 6.914 52.57 7.649 QT
51.203 8.383 49.703 8.383 QT
48.188 8.383 46.859 7.867 QT
45.531 7.352 44.766 6.211 QT
43.078 8.289 L
42.891 8.383 42.844 8.383 QT
42.625 8.383 L
cp
f
GR
GS
[0.75 0 0 0.75 342.02515 97.39001] CT
N
62.054 5.446 M
62.054 4.696 62.272 4.133 QT
64.835 -2.758 L
65.288 -3.992 65.288 -4.804 QT
65.288 -5.633 64.679 -5.633 QT
62.694 -5.633 61.679 -1.414 QT
61.585 -1.211 61.413 -1.211 QT
60.835 -1.211 L
60.585 -1.211 60.585 -1.508 QT
60.585 -1.601 L
61.1 -3.523 62.108 -4.992 QT
63.116 -6.461 64.741 -6.461 QT
65.835 -6.461 66.522 -5.726 QT
67.21 -4.992 67.21 -3.867 QT
67.21 -3.258 66.975 -2.554 QT
64.429 4.321 L
63.975 5.555 63.975 6.367 QT
63.975 7.196 64.585 7.196 QT
66.538 7.196 67.554 2.977 QT
67.616 2.789 67.819 2.789 QT
68.397 2.789 L
68.522 2.789 68.6 2.875 QT
68.679 2.961 68.679 3.071 QT
68.679 3.102 68.647 3.164 QT
68.382 4.274 67.85 5.399 QT
67.319 6.524 66.475 7.281 QT
65.632 8.039 64.522 8.039 QT
63.444 8.039 62.749 7.297 QT
62.054 6.555 62.054 5.446 QT
cp
65.71 -11.679 M
65.71 -12.32 66.218 -12.812 QT
66.725 -13.304 67.366 -13.304 QT
67.85 -13.304 68.171 -13 QT
68.491 -12.695 68.491 -12.226 QT
68.491 -11.82 68.265 -11.437 QT
68.038 -11.054 67.64 -10.82 QT
67.241 -10.586 66.819 -10.586 QT
66.382 -10.586 66.046 -10.906 QT
65.71 -11.226 65.71 -11.679 QT
cp
f
GR
GS
[0.75 0 0 0.75 342.02515 97.39001] CT
N
71.804 7.164 M
71.804 7.008 71.836 6.914 QT
74.242 -2.695 L
74.492 -3.883 74.492 -4.414 QT
74.492 -5.633 73.695 -5.633 QT
72.882 -5.633 72.406 -4.398 QT
71.929 -3.164 71.492 -1.414 QT
71.398 -1.211 71.226 -1.211 QT
70.648 -1.211 L
70.554 -1.211 70.476 -1.328 QT
70.398 -1.445 70.398 -1.539 QT
70.773 -3.07 71.062 -3.961 QT
71.351 -4.851 72.031 -5.656 QT
72.711 -6.461 73.726 -6.461 QT
74.82 -6.461 75.593 -5.797 QT
76.367 -5.133 76.507 -4.039 QT
78.398 -6.461 81.086 -6.461 QT
82.461 -6.461 83.359 -5.773 QT
84.257 -5.086 84.445 -3.742 QT
85.336 -4.992 86.57 -5.726 QT
87.804 -6.461 89.242 -6.461 QT
90.257 -6.461 91.031 -6.062 QT
91.804 -5.664 92.218 -4.914 QT
92.632 -4.164 92.632 -3.133 QT
92.632 -1.789 92.039 0.125 QT
91.445 2.039 90.586 4.321 QT
90.101 5.555 90.101 6.367 QT
90.101 7.196 90.742 7.196 QT
91.945 7.196 92.64 5.891 QT
93.336 4.586 93.726 2.977 QT
93.789 2.789 93.976 2.789 QT
94.554 2.789 L
94.679 2.789 94.765 2.867 QT
94.851 2.946 94.851 3.071 QT
94.851 3.102 94.82 3.164 QT
94.382 4.992 93.328 6.516 QT
92.273 8.039 90.679 8.039 QT
89.57 8.039 88.882 7.289 QT
88.195 6.539 88.195 5.446 QT
88.195 4.789 88.445 4.133 QT
89.336 1.758 89.945 -0.195 QT
90.554 -2.148 90.554 -3.586 QT
90.554 -5.633 89.179 -5.633 QT
87.507 -5.633 86.312 -4.437 QT
85.117 -3.242 84.257 -1.383 QT
84.257 -1.351 84.25 -1.32 QT
84.242 -1.289 84.226 -1.242 QT
82.148 7.039 L
82.054 7.461 81.687 7.75 QT
81.32 8.039 80.898 8.039 QT
80.523 8.039 80.242 7.789 QT
79.961 7.539 79.961 7.164 QT
79.961 7.008 79.992 6.914 QT
82.039 -1.304 L
82.398 -2.679 82.398 -3.586 QT
82.398 -5.633 81.023 -5.633 QT
79.351 -5.633 78.14 -4.422 QT
76.929 -3.211 76.086 -1.383 QT
73.976 7.039 L
73.882 7.446 73.523 7.742 QT
73.164 8.039 72.726 8.039 QT
72.351 8.039 72.078 7.781 QT
71.804 7.524 71.804 7.164 QT
cp
f
GR
GS
[0.75 0 0 0.75 342.02515 97.39001] CT
N
98.895 4.321 M
98.895 3.274 99.184 2.11 QT
99.473 0.946 99.957 -0.398 QT
100.442 -1.742 100.817 -2.758 QT
101.301 -3.929 101.301 -4.804 QT
101.301 -5.633 100.661 -5.633 QT
98.676 -5.633 97.661 -1.414 QT
97.567 -1.211 97.395 -1.211 QT
96.817 -1.211 L
96.567 -1.211 96.567 -1.508 QT
96.567 -1.601 L
97.082 -3.539 98.098 -5 QT
99.114 -6.461 100.723 -6.461 QT
101.832 -6.461 102.528 -5.726 QT
103.223 -4.992 103.223 -3.867 QT
103.223 -3.211 102.957 -2.554 QT
102.629 -1.679 102.278 -0.703 QT
101.926 0.274 101.637 1.227 QT
101.348 2.18 101.168 3.086 QT
100.989 3.992 100.989 4.805 QT
100.989 5.805 101.348 6.5 QT
101.707 7.196 102.614 7.196 QT
104.567 7.196 105.911 4.742 QT
105.911 4.477 106.004 4.196 QT
108.348 -5.117 L
108.426 -5.414 108.598 -5.633 QT
108.77 -5.851 109.043 -5.984 QT
109.317 -6.117 109.582 -6.117 QT
109.989 -6.117 110.254 -5.875 QT
110.52 -5.633 110.52 -5.242 QT
110.52 -5.086 110.489 -4.992 QT
108.176 4.258 L
107.926 5.227 107.926 5.977 QT
107.926 7.196 108.723 7.196 QT
109.536 7.196 110.028 5.93 QT
110.52 4.664 110.895 2.977 QT
110.957 2.789 111.161 2.789 QT
111.739 2.789 L
111.864 2.789 111.942 2.899 QT
112.02 3.008 112.02 3.102 QT
111.645 4.539 111.497 5.055 QT
111.348 5.571 110.981 6.321 QT
110.614 7.071 110.043 7.555 QT
109.473 8.039 108.661 8.039 QT
107.77 8.039 107.059 7.531 QT
106.348 7.024 106.036 6.18 QT
104.504 8.039 102.551 8.039 QT
100.832 8.039 99.864 7.039 QT
98.895 6.039 98.895 4.321 QT
cp
f
GR
GS
[0.75 0 0 0.75 342.02515 97.39001] CT
N
116.881 8.039 M
116.084 8.039 115.443 7.664 QT
114.803 7.289 114.443 6.625 QT
114.084 5.961 114.084 5.149 QT
114.084 4.977 114.154 4.68 QT
114.224 4.383 114.224 4.164 QT
118.193 -11.679 L
118.318 -12.226 118.349 -12.539 QT
118.349 -13.054 116.271 -13.054 QT
115.943 -13.054 115.943 -13.476 QT
115.959 -13.554 116.014 -13.758 QT
116.068 -13.961 116.154 -14.07 QT
116.24 -14.179 116.396 -14.179 QT
120.615 -14.523 L
121.006 -14.523 121.006 -14.117 QT
116.396 4.289 L
116.131 5.024 116.131 5.977 QT
116.131 7.196 116.943 7.196 QT
117.756 7.196 118.217 5.946 QT
118.678 4.696 119.084 2.977 QT
119.146 2.789 119.334 2.789 QT
119.912 2.789 L
120.037 2.789 120.123 2.891 QT
120.209 2.992 120.209 3.102 QT
119.818 4.711 119.529 5.578 QT
119.24 6.446 118.584 7.242 QT
117.928 8.039 116.881 8.039 QT
cp
f
GR
GS
[0.75 0 0 0.75 342.02515 97.39001] CT
N
123.387 5.446 M
123.387 4.696 123.605 4.133 QT
126.168 -2.758 L
126.621 -3.992 126.621 -4.804 QT
126.621 -5.633 126.012 -5.633 QT
124.027 -5.633 123.012 -1.414 QT
122.918 -1.211 122.746 -1.211 QT
122.168 -1.211 L
121.918 -1.211 121.918 -1.508 QT
121.918 -1.601 L
122.433 -3.523 123.441 -4.992 QT
124.449 -6.461 126.074 -6.461 QT
127.168 -6.461 127.855 -5.726 QT
128.543 -4.992 128.543 -3.867 QT
128.543 -3.258 128.308 -2.554 QT
125.762 4.321 L
125.308 5.555 125.308 6.367 QT
125.308 7.196 125.918 7.196 QT
127.871 7.196 128.887 2.977 QT
128.949 2.789 129.152 2.789 QT
129.73 2.789 L
129.855 2.789 129.933 2.875 QT
130.012 2.961 130.012 3.071 QT
130.012 3.102 129.98 3.164 QT
129.715 4.274 129.183 5.399 QT
128.652 6.524 127.808 7.281 QT
126.965 8.039 125.855 8.039 QT
124.777 8.039 124.082 7.297 QT
123.387 6.555 123.387 5.446 QT
cp
127.043 -11.679 M
127.043 -12.32 127.551 -12.812 QT
128.058 -13.304 128.699 -13.304 QT
129.183 -13.304 129.504 -13 QT
129.824 -12.695 129.824 -12.226 QT
129.824 -11.82 129.598 -11.437 QT
129.371 -11.054 128.973 -10.82 QT
128.574 -10.586 128.152 -10.586 QT
127.715 -10.586 127.379 -10.906 QT
127.043 -11.226 127.043 -11.679 QT
cp
f
GR
GS
[0.75 0 0 0.75 342.02515 97.39001] CT
N
133.137 7.164 M
133.137 7.008 133.169 6.914 QT
135.575 -2.695 L
135.825 -3.883 135.825 -4.414 QT
135.825 -5.633 135.028 -5.633 QT
134.215 -5.633 133.739 -4.398 QT
133.262 -3.164 132.825 -1.414 QT
132.731 -1.211 132.559 -1.211 QT
131.981 -1.211 L
131.887 -1.211 131.809 -1.328 QT
131.731 -1.445 131.731 -1.539 QT
132.106 -3.07 132.395 -3.961 QT
132.684 -4.851 133.364 -5.656 QT
134.044 -6.461 135.059 -6.461 QT
136.137 -6.461 136.903 -5.797 QT
137.669 -5.133 137.84 -4.039 QT
139.731 -6.461 142.419 -6.461 QT
143.419 -6.461 144.184 -6.062 QT
144.95 -5.664 145.364 -4.906 QT
145.778 -4.148 145.778 -3.133 QT
145.778 -1.789 145.184 0.125 QT
144.59 2.039 143.731 4.321 QT
143.247 5.555 143.247 6.367 QT
143.247 7.196 143.887 7.196 QT
145.09 7.196 145.786 5.891 QT
146.481 4.586 146.872 2.977 QT
146.934 2.789 147.122 2.789 QT
147.7 2.789 L
147.825 2.789 147.903 2.875 QT
147.981 2.961 147.981 3.071 QT
147.981 3.102 147.95 3.164 QT
147.684 4.274 147.153 5.399 QT
146.622 6.524 145.762 7.281 QT
144.903 8.039 143.825 8.039 QT
142.715 8.039 142.02 7.297 QT
141.325 6.555 141.325 5.446 QT
141.325 4.758 141.59 4.133 QT
142.481 1.742 143.09 -0.211 QT
143.7 -2.164 143.7 -3.617 QT
143.7 -4.429 143.395 -5.031 QT
143.09 -5.633 142.356 -5.633 QT
139.419 -5.633 137.419 -1.414 QT
135.309 7.039 L
135.215 7.446 134.856 7.742 QT
134.497 8.039 134.059 8.039 QT
133.684 8.039 133.411 7.781 QT
133.137 7.524 133.137 7.164 QT
cp
f
GR
GS
[0.75 0 0 0.75 342.02515 97.39001] CT
N
149.503 7.133 M
149.503 6.977 149.535 6.883 QT
154.175 -11.679 L
154.3 -12.226 154.332 -12.539 QT
154.332 -13.054 152.253 -13.054 QT
151.925 -13.054 151.925 -13.476 QT
151.941 -13.554 151.996 -13.758 QT
152.05 -13.961 152.136 -14.07 QT
152.222 -14.179 152.378 -14.179 QT
156.597 -14.523 L
156.691 -14.523 L
156.691 -14.492 156.8 -14.437 QT
156.91 -14.383 156.925 -14.367 QT
156.988 -14.211 156.988 -14.117 QT
153.628 -0.742 L
154.738 -1.226 156.339 -3.062 QT
157.941 -4.898 158.847 -5.679 QT
159.753 -6.461 161.207 -6.461 QT
162.05 -6.461 162.605 -5.883 QT
163.16 -5.304 163.16 -4.445 QT
163.16 -3.648 162.683 -3.07 QT
162.207 -2.492 161.425 -2.492 QT
160.972 -2.492 160.644 -2.789 QT
160.316 -3.086 160.316 -3.554 QT
160.316 -3.961 160.535 -4.351 QT
160.753 -4.742 161.113 -4.976 QT
161.472 -5.211 161.878 -5.211 QT
161.628 -5.633 161.144 -5.633 QT
160.269 -5.633 159.41 -5.062 QT
158.55 -4.492 157.675 -3.539 QT
156.8 -2.586 155.949 -1.664 QT
155.097 -0.742 154.457 -0.32 QT
156.191 -0.054 157.417 0.735 QT
158.644 1.524 158.644 3.008 QT
158.644 3.461 158.55 3.836 QT
158.238 5.305 158.238 5.946 QT
158.238 7.196 159.097 7.196 QT
159.847 7.196 160.339 6.477 QT
160.832 5.758 161.105 4.844 QT
161.378 3.93 161.597 2.977 QT
161.66 2.789 161.847 2.789 QT
162.425 2.789 L
162.55 2.789 162.628 2.875 QT
162.707 2.961 162.707 3.071 QT
162.707 3.102 162.675 3.164 QT
162.41 4.305 161.988 5.391 QT
161.566 6.477 160.832 7.258 QT
160.097 8.039 159.035 8.039 QT
157.753 8.039 157.003 7.141 QT
156.253 6.242 156.253 4.93 QT
156.253 4.289 156.378 3.774 QT
156.472 3.399 156.472 3.071 QT
156.472 1.93 155.535 1.274 QT
154.597 0.617 153.332 0.446 QT
151.707 7.008 L
151.582 7.446 151.238 7.742 QT
150.894 8.039 150.425 8.039 QT
150.05 8.039 149.777 7.781 QT
149.503 7.524 149.503 7.133 QT
cp
f
GR
GS
[0.75 0 0 0.75 342.02515 97.39001] CT
N
167.371 15.68 M
167.09 15.68 167.09 15.399 QT
167.09 15.258 167.152 15.196 QT
172.621 9.852 172.621 -0.32 QT
172.621 -10.492 167.215 -15.773 QT
167.09 -15.851 167.09 -16.039 QT
167.09 -16.148 167.175 -16.234 QT
167.261 -16.32 167.371 -16.32 QT
167.668 -16.32 L
167.761 -16.32 167.824 -16.258 QT
170.121 -14.445 171.652 -11.851 QT
173.183 -9.258 173.894 -6.32 QT
174.605 -3.383 174.605 -0.32 QT
174.605 1.946 174.222 4.141 QT
173.84 6.336 173.004 8.469 QT
172.168 10.602 170.886 12.406 QT
169.605 14.211 167.824 15.617 QT
167.761 15.68 167.668 15.68 QT
167.371 15.68 L
cp
f
GR
GS
[0.75 0 0 0.75 0 -0.25] CT
0.851 0.325 0.098 RC
1 LJ
2.667 LW
N
413.003 130.187 M
453.031 130.187 L
S
GR
GS
[0.75 0 0 0.75 342.02515 126.54667] CT
N
4.703 13.477 M
4.813 12.774 5.125 12.774 QT
6.281 12.774 6.945 12.586 QT
7.609 12.399 7.813 11.68 QT
9.188 6.242 L
7.359 8.039 5.531 8.039 QT
3.516 8.039 2.367 6.516 QT
1.219 4.992 1.219 2.914 QT
1.219 0.867 2.273 -1.336 QT
3.328 -3.539 5.133 -5 QT
6.938 -6.461 9.031 -6.461 QT
10 -6.461 10.781 -5.883 QT
11.563 -5.304 11.969 -4.351 QT
12.156 -4.726 13.008 -5.594 QT
13.859 -6.461 14.203 -6.461 QT
14.563 -6.461 14.563 -6.054 QT
10.078 11.805 L
10 12.274 9.984 12.352 QT
9.984 12.774 12.094 12.774 QT
12.25 12.774 12.336 12.899 QT
12.422 13.024 12.422 13.18 QT
12.313 13.602 12.242 13.742 QT
12.172 13.883 11.875 13.883 QT
5.031 13.883 L
4.703 13.883 4.703 13.477 QT
cp
5.594 7.196 M
6.719 7.196 7.789 6.344 QT
8.859 5.492 9.656 4.321 QT
11.453 -2.883 L
11.266 -4.008 10.633 -4.82 QT
10 -5.633 8.953 -5.633 QT
7.875 -5.633 6.945 -4.75 QT
6.016 -3.867 5.375 -2.664 QT
4.75 -1.383 4.18 0.852 QT
3.609 3.086 3.609 4.321 QT
3.609 5.43 4.086 6.313 QT
4.563 7.196 5.594 7.196 QT
cp
f
GR
GS
[0.75 0 0 0.75 342.02515 126.54667] CT
N
16.191 11.136 M
16.785 12.152 18.566 12.152 QT
19.348 12.152 20.043 11.886 QT
20.738 11.62 21.199 11.097 QT
21.66 10.574 21.66 9.808 QT
21.66 9.245 21.246 8.878 QT
20.832 8.511 20.254 8.386 QT
19.051 8.152 L
18.238 7.949 17.715 7.386 QT
17.191 6.824 17.191 6.027 QT
17.191 5.058 17.723 4.308 QT
18.254 3.558 19.121 3.16 QT
19.988 2.761 20.926 2.761 QT
21.926 2.761 22.715 3.238 QT
23.504 3.714 23.504 4.652 QT
23.504 5.152 23.215 5.542 QT
22.926 5.933 22.426 5.933 QT
22.145 5.933 21.934 5.745 QT
21.723 5.558 21.723 5.261 QT
21.723 4.995 21.863 4.761 QT
22.004 4.527 22.246 4.378 QT
22.488 4.23 22.754 4.23 QT
22.551 3.761 22.02 3.542 QT
21.488 3.324 20.879 3.324 QT
20.316 3.324 19.762 3.55 QT
19.207 3.777 18.871 4.214 QT
18.535 4.652 18.535 5.245 QT
18.535 5.636 18.809 5.941 QT
19.082 6.245 19.488 6.37 QT
20.77 6.62 L
21.379 6.761 21.895 7.081 QT
22.41 7.402 22.707 7.902 QT
23.004 8.402 23.004 9.058 QT
23.004 9.87 22.543 10.667 QT
22.082 11.464 21.426 11.933 QT
20.254 12.73 18.551 12.73 QT
17.379 12.73 16.402 12.191 QT
15.426 11.652 15.426 10.589 QT
15.426 9.98 15.777 9.535 QT
16.129 9.089 16.723 9.089 QT
17.082 9.089 17.324 9.308 QT
17.566 9.527 17.566 9.886 QT
17.566 10.386 17.191 10.761 QT
16.816 11.136 16.301 11.136 QT
16.191 11.136 L
cp
f
GR
GS
[0.75 0 0 0.75 342.02515 126.54667] CT
N
24.238 16.745 M
24.035 16.745 24.035 16.464 QT
24.113 15.98 24.316 15.98 QT
25.004 15.98 25.285 15.855 QT
25.566 15.73 25.707 15.23 QT
28.191 5.324 L
28.348 4.917 28.348 4.277 QT
28.348 3.324 27.707 3.324 QT
27.02 3.324 26.684 4.144 QT
26.348 4.964 26.035 6.23 QT
26.035 6.37 25.863 6.37 QT
25.598 6.37 L
25.551 6.37 25.488 6.285 QT
25.426 6.199 25.426 6.136 QT
25.66 5.183 25.879 4.519 QT
26.098 3.855 26.566 3.308 QT
27.035 2.761 27.723 2.761 QT
28.488 2.761 29.051 3.183 QT
29.613 3.605 29.785 4.339 QT
30.379 3.636 31.113 3.199 QT
31.848 2.761 32.613 2.761 QT
33.535 2.761 34.223 3.253 QT
34.91 3.745 35.254 4.542 QT
35.598 5.339 35.598 6.277 QT
35.598 7.683 34.871 9.199 QT
34.145 10.714 32.902 11.722 QT
31.66 12.73 30.238 12.73 QT
29.598 12.73 29.074 12.363 QT
28.551 11.995 28.27 11.402 QT
27.27 15.324 L
27.207 15.636 27.207 15.699 QT
27.207 15.98 28.66 15.98 QT
28.879 15.98 28.879 16.261 QT
28.801 16.558 28.754 16.652 QT
28.707 16.745 28.504 16.745 QT
24.238 16.745 L
cp
30.27 12.152 M
31.02 12.152 31.676 11.519 QT
32.332 10.886 32.738 10.105 QT
33.051 9.511 33.309 8.66 QT
33.566 7.808 33.762 6.839 QT
33.957 5.87 33.957 5.308 QT
33.957 4.792 33.824 4.355 QT
33.691 3.917 33.387 3.62 QT
33.082 3.324 32.566 3.324 QT
31.77 3.324 31.051 3.902 QT
30.332 4.48 29.754 5.324 QT
29.754 5.402 L
28.551 10.261 L
28.691 11.042 29.121 11.597 QT
29.551 12.152 30.27 12.152 QT
cp
f
GR
GS
[0.75 0 0 0.75 0 -0.25] CT
0.467 0.675 0.188 RC
[8 8] 0 setdash
2 LJ
2.667 LW
N
413.003 169.062 M
453.031 169.062 L
S
GR
GS
[0.75 0 0 0.75 342.02515 155.70333] CT
N
/f-1170048473{4.703 13.477 M
4.813 12.774 5.125 12.774 QT
6.281 12.774 6.945 12.586 QT
7.609 12.399 7.813 11.68 QT
9.188 6.242 L
7.359 8.039 5.531 8.039 QT
3.516 8.039 2.367 6.516 QT
1.219 4.992 1.219 2.914 QT
1.219 0.867 2.273 -1.336 QT
3.328 -3.539 5.133 -5 QT
6.938 -6.461 9.031 -6.461 QT
10 -6.461 10.781 -5.883 QT
11.563 -5.304 11.969 -4.351 QT
12.156 -4.726 13.008 -5.594 QT
13.859 -6.461 14.203 -6.461 QT
14.563 -6.461 14.563 -6.054 QT
10.078 11.805 L
10 12.274 9.984 12.352 QT
9.984 12.774 12.094 12.774 QT
12.25 12.774 12.336 12.899 QT
12.422 13.024 12.422 13.18 QT
12.313 13.602 12.242 13.742 QT
12.172 13.883 11.875 13.883 QT
5.031 13.883 L
4.703 13.883 4.703 13.477 QT
cp
5.594 7.196 M
6.719 7.196 7.789 6.344 QT
8.859 5.492 9.656 4.321 QT
11.453 -2.883 L
11.266 -4.008 10.633 -4.82 QT
10 -5.633 8.953 -5.633 QT
7.875 -5.633 6.945 -4.75 QT
6.016 -3.867 5.375 -2.664 QT
4.75 -1.383 4.18 0.852 QT
3.609 3.086 3.609 4.321 QT
3.609 5.43 4.086 6.313 QT
4.563 7.196 5.594 7.196 QT
cp}def
f-1170048473
f
GR
GS
[0.75 0 0 0.75 342.02515 155.70333] CT
N
/f1980881588{14.598 15.62 M
14.598 15.089 14.965 14.691 QT
15.332 14.292 15.863 14.292 QT
16.223 14.292 16.465 14.511 QT
16.707 14.73 16.707 15.074 QT
16.707 15.48 16.481 15.792 QT
16.254 16.105 15.895 16.245 QT
16.488 16.417 17.738 16.417 QT
18.754 16.417 19.59 15.644 QT
20.426 14.87 20.691 13.839 QT
21.316 11.261 L
20.129 12.48 18.848 12.48 QT
17.895 12.48 17.223 11.995 QT
16.551 11.511 16.199 10.706 QT
15.848 9.902 15.848 8.995 QT
15.848 7.995 16.262 6.886 QT
16.676 5.777 17.418 4.831 QT
18.16 3.886 19.129 3.324 QT
20.098 2.761 21.176 2.761 QT
21.816 2.761 22.332 3.113 QT
22.848 3.464 23.145 4.058 QT
23.363 3.199 24.098 3.199 QT
24.379 3.199 24.566 3.363 QT
24.754 3.527 24.754 3.808 QT
24.754 3.87 24.754 3.902 QT
24.754 3.933 24.738 3.98 QT
22.223 13.98 L
22.051 14.667 21.59 15.23 QT
21.129 15.792 20.504 16.175 QT
19.879 16.558 19.137 16.777 QT
18.395 16.995 17.707 16.995 QT
16.457 16.995 15.527 16.753 QT
14.598 16.511 14.598 15.62 QT
cp
18.879 11.917 M
20.285 11.917 21.66 9.98 QT
22.863 5.167 L
22.723 4.417 22.27 3.87 QT
21.816 3.324 21.129 3.324 QT
20.395 3.324 19.746 3.925 QT
19.098 4.527 18.676 5.339 QT
18.254 6.136 17.879 7.628 QT
17.504 9.12 17.504 9.98 QT
17.504 10.73 17.848 11.324 QT
18.191 11.917 18.879 11.917 QT
cp}def
f1980881588
f
GR
GS
[0.75 0 0 0.75 342.02515 155.70333] CT
N
/f-240160496{27.132 10.699 M
27.132 10.37 27.195 10.089 QT
28.789 3.761 L
26.476 3.761 L
26.257 3.761 26.257 3.48 QT
26.335 2.995 26.554 2.995 QT
28.992 2.995 L
29.867 -0.598 L
29.945 -0.88 30.203 -1.083 QT
30.46 -1.286 30.789 -1.286 QT
31.07 -1.286 31.257 -1.122 QT
31.445 -0.958 31.445 -0.676 QT
31.445 -0.614 31.437 -0.575 QT
31.429 -0.536 31.429 -0.505 QT
30.539 2.995 L
32.804 2.995 L
33.039 2.995 33.039 3.277 QT
33.023 3.339 32.992 3.464 QT
32.96 3.589 32.906 3.675 QT
32.851 3.761 32.742 3.761 QT
30.351 3.761 L
28.773 10.12 L
28.617 10.745 28.617 11.199 QT
28.617 12.152 29.257 12.152 QT
30.226 12.152 30.968 11.238 QT
31.71 10.324 32.117 9.245 QT
32.195 9.12 32.289 9.12 QT
32.554 9.12 L
32.632 9.12 32.687 9.175 QT
32.742 9.23 32.742 9.308 QT
32.742 9.355 32.726 9.37 QT
32.242 10.714 31.32 11.722 QT
30.398 12.73 29.195 12.73 QT
28.335 12.73 27.734 12.16 QT
27.132 11.589 27.132 10.699 QT
cp}def
f-240160496
f
GR
GS
[0.75 0 0 0.75 342.02515 155.70333] CT
N
/f2979360{56.05 15.617 M
54.269 14.211 52.98 12.391 QT
51.691 10.571 50.871 8.508 QT
50.05 6.446 49.644 4.196 QT
49.238 1.946 49.238 -0.32 QT
49.238 -2.617 49.644 -4.867 QT
50.05 -7.117 50.886 -9.195 QT
51.722 -11.273 53.019 -13.086 QT
54.316 -14.898 56.05 -16.258 QT
56.05 -16.32 56.207 -16.32 QT
56.504 -16.32 L
56.597 -16.32 56.675 -16.234 QT
56.754 -16.148 56.754 -16.039 QT
56.754 -15.898 56.691 -15.836 QT
55.129 -14.304 54.089 -12.554 QT
53.05 -10.804 52.418 -8.828 QT
51.785 -6.851 51.504 -4.734 QT
51.222 -2.617 51.222 -0.32 QT
51.222 9.852 56.66 15.133 QT
56.754 15.227 56.754 15.399 QT
56.754 15.477 56.668 15.578 QT
56.582 15.68 56.504 15.68 QT
56.207 15.68 L
56.05 15.68 56.05 15.617 QT
cp}def
f2979360
f
GR
GS
[0.75 0 0 0.75 342.02515 155.70333] CT
N
/f316147000{71.214 8.383 M
69.479 8.383 67.987 7.727 QT
66.495 7.071 65.471 5.883 QT
64.448 4.696 63.909 3.149 QT
63.37 1.602 63.37 -0.133 QT
63.37 -2.711 64.471 -5.359 QT
65.573 -8.008 67.456 -10.148 QT
69.339 -12.289 71.8 -13.586 QT
74.26 -14.883 76.87 -14.883 QT
77.854 -14.883 78.745 -14.578 QT
79.635 -14.273 80.37 -13.664 QT
81.104 -13.054 81.589 -12.195 QT
83.885 -14.789 L
84.073 -14.883 84.104 -14.883 QT
84.307 -14.883 L
84.432 -14.883 84.51 -14.773 QT
84.589 -14.664 84.589 -14.554 QT
82.417 -5.914 L
82.417 -5.695 82.151 -5.695 QT
81.589 -5.695 L
81.323 -5.695 81.323 -6.054 QT
81.479 -7.179 81.479 -8.039 QT
81.479 -10.398 80.44 -12.078 QT
79.401 -13.758 77.167 -13.758 QT
74.682 -13.758 72.651 -12.367 QT
70.62 -10.976 69.206 -8.734 QT
67.792 -6.492 67.042 -3.883 QT
66.292 -1.273 66.292 0.992 QT
66.292 2.758 66.948 4.188 QT
67.604 5.617 68.885 6.438 QT
70.167 7.258 71.979 7.258 QT
73.714 7.258 75.284 6.305 QT
76.854 5.352 77.26 3.774 QT
77.964 1.024 L
77.995 0.899 77.995 0.633 QT
77.995 0.289 77.589 0.196 QT
76.917 0.071 74.932 0.071 QT
74.604 0.071 74.604 -0.351 QT
74.698 -0.742 74.776 -0.898 QT
74.854 -1.054 75.151 -1.054 QT
82.854 -1.054 L
83.151 -1.054 83.151 -0.633 QT
83.026 0.071 82.729 0.071 QT
81.729 0.071 81.315 0.235 QT
80.901 0.399 80.682 1.149 QT
79.979 3.899 L
79.089 7.461 L
79.042 7.68 78.792 7.68 QT
78.51 7.68 78.042 6.961 QT
77.573 6.242 77.385 5.789 QT
76.714 6.617 75.682 7.211 QT
74.651 7.805 73.503 8.094 QT
72.354 8.383 71.214 8.383 QT
cp}def
f316147000
f
GR
GS
[0.75 0 0 0.75 342.02515 155.70333] CT
N
/f-930541352{90.688 8.039 M
88.797 8.039 87.774 6.531 QT
86.75 5.024 86.75 3.039 QT
86.75 1.071 87.735 -1.172 QT
88.719 -3.414 90.43 -4.937 QT
92.141 -6.461 94.141 -6.461 QT
94.969 -6.461 95.68 -5.976 QT
96.391 -5.492 96.766 -4.742 QT
96.86 -5.211 97.203 -5.515 QT
97.547 -5.82 98.047 -5.82 QT
98.438 -5.82 98.703 -5.586 QT
98.969 -5.351 98.969 -4.961 QT
98.969 -4.804 98.938 -4.711 QT
96.703 4.258 L
96.453 5.227 96.453 5.977 QT
96.453 7.196 97.25 7.196 QT
98.063 7.196 98.555 5.93 QT
99.047 4.664 99.422 2.977 QT
99.485 2.789 99.688 2.789 QT
100.25 2.789 L
100.36 2.789 100.453 2.899 QT
100.547 3.008 100.547 3.102 QT
100.172 4.539 100.024 5.055 QT
99.875 5.571 99.508 6.321 QT
99.141 7.071 98.571 7.555 QT
98 8.039 97.188 8.039 QT
96.219 8.039 95.461 7.43 QT
94.703 6.821 94.5 5.883 QT
92.594 8.039 90.688 8.039 QT
cp
90.719 7.196 M
91.828 7.196 92.86 6.227 QT
93.891 5.258 94.563 4.102 QT
96.25 -2.695 L
96.125 -3.836 95.61 -4.734 QT
95.094 -5.633 94.078 -5.633 QT
92.922 -5.633 91.985 -4.492 QT
91.047 -3.351 90.383 -1.625 QT
89.719 0.102 89.375 1.781 QT
89.032 3.461 89.032 4.508 QT
89.032 5.524 89.422 6.36 QT
89.813 7.196 90.719 7.196 QT
cp}def
f-930541352
f
GR
GS
[0.75 0 0 0.75 342.02515 155.70333] CT
N
/f1549091365{101.856 8.039 M
101.606 8.039 101.606 7.742 QT
101.606 7.711 101.668 7.524 QT
102.512 6.008 103.629 4.68 QT
104.746 3.352 106.153 1.977 QT
107.559 0.602 108.918 -0.711 QT
110.278 -2.023 111.371 -3.289 QT
110.934 -3.289 110.567 -3.398 QT
110.2 -3.508 109.559 -3.773 QT
108.918 -4.039 108.512 -4.164 QT
108.106 -4.289 107.684 -4.289 QT
106.918 -4.289 106.215 -3.844 QT
105.512 -3.398 105.309 -2.695 QT
105.262 -2.461 105.059 -2.461 QT
104.481 -2.461 L
104.231 -2.461 104.231 -2.789 QT
104.231 -2.883 L
104.45 -3.758 105.004 -4.594 QT
105.559 -5.429 106.348 -5.945 QT
107.137 -6.461 108.075 -6.461 QT
108.684 -6.461 109.075 -6.172 QT
109.465 -5.883 109.981 -5.25 QT
110.496 -4.617 110.77 -4.375 QT
111.043 -4.133 111.528 -4.133 QT
112.09 -4.133 112.551 -4.765 QT
113.012 -5.398 113.512 -6.367 QT
113.606 -6.461 113.731 -6.461 QT
114.309 -6.461 L
114.418 -6.461 114.489 -6.383 QT
114.559 -6.304 114.559 -6.179 QT
114.559 -6.133 114.496 -5.976 QT
113.715 -4.523 112.621 -3.211 QT
111.528 -1.898 109.973 -0.383 QT
108.418 1.133 107.059 2.461 QT
105.7 3.789 104.778 4.899 QT
104.934 4.867 105.246 4.867 QT
105.809 4.867 106.481 5.11 QT
107.153 5.352 107.825 5.602 QT
108.496 5.852 109.059 5.852 QT
110.2 5.852 111.215 4.992 QT
112.231 4.133 112.512 3.008 QT
112.59 2.789 112.778 2.789 QT
113.34 2.789 L
113.637 2.789 113.637 3.102 QT
113.637 3.133 113.606 3.196 QT
113.168 5.039 111.785 6.539 QT
110.403 8.039 108.637 8.039 QT
108.059 8.039 107.66 7.742 QT
107.262 7.446 106.801 6.86 QT
106.34 6.274 106.004 5.985 QT
105.668 5.696 105.184 5.696 QT
103.871 5.696 102.653 7.93 QT
102.543 8.039 102.434 8.039 QT
101.856 8.039 L
cp}def
f1549091365
f
GR
GS
[0.75 0 0 0.75 342.02515 155.70333] CT
N
/f1677390553{120.925 8.039 M
119.831 8.039 118.964 7.571 QT
118.096 7.102 117.503 6.25 QT
116.909 5.399 116.628 4.422 QT
116.346 3.446 116.346 2.399 QT
116.346 0.742 116.948 -0.844 QT
117.55 -2.429 118.643 -3.711 QT
119.737 -4.992 121.229 -5.726 QT
122.721 -6.461 124.409 -6.461 QT
125.237 -6.461 125.979 -6.148 QT
126.721 -5.836 127.182 -5.219 QT
127.643 -4.601 127.643 -3.742 QT
127.643 -1.148 125.167 -0.398 QT
122.69 0.352 119.331 0.352 QT
119.237 0.352 L
118.69 2.477 118.69 3.805 QT
118.69 5.086 119.245 6.141 QT
119.8 7.196 120.987 7.196 QT
122.675 7.196 124.26 6.281 QT
125.846 5.367 126.909 3.899 QT
126.956 3.805 127.143 3.805 QT
127.331 3.805 127.675 4.258 QT
127.737 4.289 127.737 4.446 QT
127.737 4.571 127.675 4.633 QT
126.94 5.68 125.862 6.453 QT
124.784 7.227 123.503 7.633 QT
122.221 8.039 120.925 8.039 QT
cp
119.425 -0.476 M
121.19 -0.476 122.612 -0.656 QT
124.034 -0.836 125.167 -1.562 QT
126.3 -2.289 126.3 -3.742 QT
126.3 -4.57 125.737 -5.101 QT
125.175 -5.633 124.346 -5.633 QT
122.487 -5.633 121.26 -4.125 QT
120.034 -2.617 119.425 -0.476 QT
cp}def
f1677390553
f
GR
GS
[0.75 0 0 0.75 342.02515 155.70333] CT
N
/f-142499658{134.848 8.039 M
133.019 8.039 132.058 6.547 QT
131.098 5.055 131.098 3.133 QT
131.098 2.664 131.262 1.844 QT
131.426 1.024 131.426 0.742 QT
134.535 -11.679 L
134.66 -12.226 134.691 -12.539 QT
134.691 -13.054 132.613 -13.054 QT
132.285 -13.054 132.285 -13.476 QT
132.301 -13.554 132.355 -13.758 QT
132.41 -13.961 132.496 -14.07 QT
132.582 -14.179 132.738 -14.179 QT
136.957 -14.523 L
137.348 -14.523 137.348 -14.117 QT
135.035 -4.867 L
136.66 -6.461 138.301 -6.461 QT
139.598 -6.461 140.488 -5.734 QT
141.379 -5.008 141.808 -3.851 QT
142.238 -2.695 142.238 -1.476 QT
142.238 0.008 141.668 1.688 QT
141.098 3.367 140.082 4.805 QT
139.066 6.242 137.723 7.141 QT
136.379 8.039 134.848 8.039 QT
cp
134.879 7.196 M
136.035 7.196 136.996 6.055 QT
137.957 4.914 138.613 3.203 QT
139.269 1.492 139.621 -0.211 QT
139.973 -1.914 139.973 -2.945 QT
139.973 -3.976 139.582 -4.804 QT
139.191 -5.633 138.238 -5.633 QT
137.16 -5.633 136.168 -4.695 QT
135.176 -3.758 134.426 -2.554 QT
133.598 0.867 L
133.051 2.914 133.019 4.258 QT
133.019 5.399 133.449 6.297 QT
133.879 7.196 134.879 7.196 QT
cp}def
f-142499658
f
GR
GS
[0.75 0 0 0.75 342.02515 155.70333] CT
N
/f-1145014436{148.729 8.039 M
147.307 8.039 146.229 7.321 QT
145.151 6.602 144.588 5.399 QT
144.026 4.196 144.026 2.758 QT
144.026 1.196 144.674 -0.429 QT
145.322 -2.054 146.486 -3.453 QT
147.651 -4.851 149.119 -5.656 QT
150.588 -6.461 152.213 -6.461 QT
153.651 -6.461 154.721 -5.75 QT
155.791 -5.039 156.361 -3.844 QT
156.932 -2.648 156.932 -1.179 QT
156.932 0.367 156.299 1.992 QT
155.666 3.617 154.51 5.008 QT
153.354 6.399 151.869 7.219 QT
150.385 8.039 148.729 8.039 QT
cp
148.791 7.196 M
150.119 7.196 151.213 6.196 QT
152.307 5.196 153.065 3.61 QT
153.822 2.024 154.19 0.367 QT
154.557 -1.289 154.557 -2.461 QT
154.557 -3.242 154.307 -3.976 QT
154.057 -4.711 153.502 -5.172 QT
152.947 -5.633 152.151 -5.633 QT
150.807 -5.633 149.713 -4.617 QT
148.619 -3.601 147.901 -2.062 QT
147.182 -0.523 146.791 1.164 QT
146.401 2.852 146.401 4.039 QT
146.401 5.289 147.01 6.242 QT
147.619 7.196 148.791 7.196 QT
cp}def
f-1145014436
f
GR
GS
[0.75 0 0 0.75 342.02515 155.70333] CT
N
/f-1400148691{161.026 15.68 M
160.745 15.68 160.745 15.399 QT
160.745 15.258 160.807 15.196 QT
166.276 9.852 166.276 -0.32 QT
166.276 -10.492 160.87 -15.773 QT
160.745 -15.851 160.745 -16.039 QT
160.745 -16.148 160.831 -16.234 QT
160.917 -16.32 161.026 -16.32 QT
161.323 -16.32 L
161.417 -16.32 161.479 -16.258 QT
163.776 -14.445 165.307 -11.851 QT
166.838 -9.258 167.549 -6.32 QT
168.26 -3.383 168.26 -0.32 QT
168.26 1.946 167.878 4.141 QT
167.495 6.336 166.659 8.469 QT
165.823 10.602 164.542 12.406 QT
163.26 14.211 161.479 15.617 QT
161.417 15.68 161.323 15.68 QT
161.026 15.68 L
cp}def
f-1400148691
f
GR
GS
[0.75 0 0 0.75 0 -0.25] CT
0 0.447 0.741 RC
[8 8] 0 setdash
2 LJ
2.667 LW
N
413.003 207.938 M
453.031 207.938 L
S
GR
GS
[0.75 0 0 0.75 342.02515 184.85999] CT
N
f-1170048473
f
GR
GS
[0.75 0 0 0.75 342.02515 184.85999] CT
N
/f846323096{18.707 12.73 M
17.66 12.73 16.871 12.183 QT
16.082 11.636 15.668 10.706 QT
15.254 9.777 15.254 8.745 QT
15.254 7.167 16.043 5.792 QT
16.832 4.417 18.184 3.589 QT
19.535 2.761 21.082 2.761 QT
22.035 2.761 22.738 3.245 QT
23.441 3.73 23.441 4.652 QT
23.441 5.917 22.434 6.535 QT
21.426 7.152 20.152 7.3 QT
18.879 7.449 17.348 7.449 QT
17.285 7.449 L
16.926 8.745 16.926 9.683 QT
16.926 10.667 17.379 11.41 QT
17.832 12.152 18.754 12.152 QT
20.066 12.152 21.277 11.55 QT
22.488 10.949 23.238 9.886 QT
23.316 9.808 23.41 9.808 QT
23.52 9.808 23.637 9.933 QT
23.754 10.058 23.754 10.167 QT
23.754 10.261 23.707 10.292 QT
22.895 11.433 21.535 12.081 QT
20.176 12.73 18.707 12.73 QT
cp
17.41 6.87 M
18.691 6.87 19.777 6.753 QT
20.863 6.636 21.746 6.16 QT
22.629 5.683 22.629 4.667 QT
22.629 4.261 22.402 3.956 QT
22.176 3.652 21.816 3.488 QT
21.457 3.324 21.066 3.324 QT
20.129 3.324 19.379 3.831 QT
18.629 4.339 18.152 5.152 QT
17.676 5.964 17.41 6.87 QT
cp}def
f846323096
f
GR
GS
[0.75 0 0 0.75 342.02515 184.85999] CT
N
/f579309599{26.621 11.136 M
27.215 12.152 28.996 12.152 QT
29.778 12.152 30.473 11.886 QT
31.168 11.62 31.629 11.097 QT
32.09 10.574 32.09 9.808 QT
32.09 9.245 31.676 8.878 QT
31.262 8.511 30.684 8.386 QT
29.481 8.152 L
28.668 7.949 28.145 7.386 QT
27.621 6.824 27.621 6.027 QT
27.621 5.058 28.153 4.308 QT
28.684 3.558 29.551 3.16 QT
30.418 2.761 31.356 2.761 QT
32.356 2.761 33.145 3.238 QT
33.934 3.714 33.934 4.652 QT
33.934 5.152 33.645 5.542 QT
33.356 5.933 32.856 5.933 QT
32.575 5.933 32.364 5.745 QT
32.153 5.558 32.153 5.261 QT
32.153 4.995 32.293 4.761 QT
32.434 4.527 32.676 4.378 QT
32.918 4.23 33.184 4.23 QT
32.981 3.761 32.45 3.542 QT
31.918 3.324 31.309 3.324 QT
30.746 3.324 30.192 3.55 QT
29.637 3.777 29.301 4.214 QT
28.965 4.652 28.965 5.245 QT
28.965 5.636 29.239 5.941 QT
29.512 6.245 29.918 6.37 QT
31.2 6.62 L
31.809 6.761 32.325 7.081 QT
32.84 7.402 33.137 7.902 QT
33.434 8.402 33.434 9.058 QT
33.434 9.87 32.973 10.667 QT
32.512 11.464 31.856 11.933 QT
30.684 12.73 28.981 12.73 QT
27.809 12.73 26.832 12.191 QT
25.856 11.652 25.856 10.589 QT
25.856 9.98 26.207 9.535 QT
26.559 9.089 27.153 9.089 QT
27.512 9.089 27.754 9.308 QT
27.996 9.527 27.996 9.886 QT
27.996 10.386 27.621 10.761 QT
27.246 11.136 26.731 11.136 QT
26.621 11.136 L
cp}def
f579309599
f
GR
GS
[0.75 0 0 0.75 342.02515 184.85999] CT
N
/f-1797619456{36.575 10.699 M
36.575 10.37 36.637 10.089 QT
38.231 3.761 L
35.918 3.761 L
35.7 3.761 35.7 3.48 QT
35.778 2.995 35.996 2.995 QT
38.434 2.995 L
39.309 -0.598 L
39.387 -0.88 39.645 -1.083 QT
39.903 -1.286 40.231 -1.286 QT
40.512 -1.286 40.7 -1.122 QT
40.887 -0.958 40.887 -0.676 QT
40.887 -0.614 40.879 -0.575 QT
40.871 -0.536 40.871 -0.505 QT
39.981 2.995 L
42.246 2.995 L
42.481 2.995 42.481 3.277 QT
42.465 3.339 42.434 3.464 QT
42.403 3.589 42.348 3.675 QT
42.293 3.761 42.184 3.761 QT
39.793 3.761 L
38.215 10.12 L
38.059 10.745 38.059 11.199 QT
38.059 12.152 38.7 12.152 QT
39.668 12.152 40.411 11.238 QT
41.153 10.324 41.559 9.245 QT
41.637 9.12 41.731 9.12 QT
41.996 9.12 L
42.075 9.12 42.129 9.175 QT
42.184 9.23 42.184 9.308 QT
42.184 9.355 42.168 9.37 QT
41.684 10.714 40.762 11.722 QT
39.84 12.73 38.637 12.73 QT
37.778 12.73 37.176 12.16 QT
36.575 11.589 36.575 10.699 QT
cp}def
f-1797619456
f
GR
GS
[0.75 0 0 0.75 342.02515 184.85999] CT
N
/f-934491275{65.493 15.617 M
63.711 14.211 62.422 12.391 QT
61.133 10.571 60.313 8.508 QT
59.493 6.446 59.086 4.196 QT
58.68 1.946 58.68 -0.32 QT
58.68 -2.617 59.086 -4.867 QT
59.493 -7.117 60.329 -9.195 QT
61.165 -11.273 62.461 -13.086 QT
63.758 -14.898 65.493 -16.258 QT
65.493 -16.32 65.649 -16.32 QT
65.946 -16.32 L
66.04 -16.32 66.118 -16.234 QT
66.196 -16.148 66.196 -16.039 QT
66.196 -15.898 66.133 -15.836 QT
64.571 -14.304 63.532 -12.554 QT
62.493 -10.804 61.86 -8.828 QT
61.227 -6.851 60.946 -4.734 QT
60.665 -2.617 60.665 -0.32 QT
60.665 9.852 66.102 15.133 QT
66.196 15.227 66.196 15.399 QT
66.196 15.477 66.11 15.578 QT
66.024 15.68 65.946 15.68 QT
65.649 15.68 L
65.493 15.68 65.493 15.617 QT
cp}def
f-934491275
f
GR
GS
[0.75 0 0 0.75 342.02515 184.85999] CT
N
/f1423311487{80.656 8.383 M
78.922 8.383 77.429 7.727 QT
75.937 7.071 74.914 5.883 QT
73.89 4.696 73.351 3.149 QT
72.812 1.602 72.812 -0.133 QT
72.812 -2.711 73.914 -5.359 QT
75.015 -8.008 76.898 -10.148 QT
78.781 -12.289 81.242 -13.586 QT
83.703 -14.883 86.312 -14.883 QT
87.297 -14.883 88.187 -14.578 QT
89.078 -14.273 89.812 -13.664 QT
90.547 -13.054 91.031 -12.195 QT
93.328 -14.789 L
93.515 -14.883 93.547 -14.883 QT
93.75 -14.883 L
93.875 -14.883 93.953 -14.773 QT
94.031 -14.664 94.031 -14.554 QT
91.859 -5.914 L
91.859 -5.695 91.593 -5.695 QT
91.031 -5.695 L
90.765 -5.695 90.765 -6.054 QT
90.922 -7.179 90.922 -8.039 QT
90.922 -10.398 89.882 -12.078 QT
88.843 -13.758 86.609 -13.758 QT
84.125 -13.758 82.093 -12.367 QT
80.062 -10.976 78.648 -8.734 QT
77.234 -6.492 76.484 -3.883 QT
75.734 -1.273 75.734 0.992 QT
75.734 2.758 76.39 4.188 QT
77.047 5.617 78.328 6.438 QT
79.609 7.258 81.422 7.258 QT
83.156 7.258 84.726 6.305 QT
86.297 5.352 86.703 3.774 QT
87.406 1.024 L
87.437 0.899 87.437 0.633 QT
87.437 0.289 87.031 0.196 QT
86.359 0.071 84.375 0.071 QT
84.047 0.071 84.047 -0.351 QT
84.14 -0.742 84.218 -0.898 QT
84.297 -1.054 84.593 -1.054 QT
92.297 -1.054 L
92.593 -1.054 92.593 -0.633 QT
92.468 0.071 92.172 0.071 QT
91.172 0.071 90.757 0.235 QT
90.343 0.399 90.125 1.149 QT
89.422 3.899 L
88.531 7.461 L
88.484 7.68 88.234 7.68 QT
87.953 7.68 87.484 6.961 QT
87.015 6.242 86.828 5.789 QT
86.156 6.617 85.125 7.211 QT
84.093 7.805 82.945 8.094 QT
81.797 8.383 80.656 8.383 QT
cp}def
f1423311487
f
GR
GS
[0.75 0 0 0.75 342.02515 184.85999] CT
N
/f-536727646{100.13 8.039 M
98.239 8.039 97.216 6.531 QT
96.193 5.024 96.193 3.039 QT
96.193 1.071 97.177 -1.172 QT
98.161 -3.414 99.872 -4.937 QT
101.583 -6.461 103.583 -6.461 QT
104.411 -6.461 105.122 -5.976 QT
105.833 -5.492 106.208 -4.742 QT
106.302 -5.211 106.646 -5.515 QT
106.989 -5.82 107.489 -5.82 QT
107.88 -5.82 108.146 -5.586 QT
108.411 -5.351 108.411 -4.961 QT
108.411 -4.804 108.38 -4.711 QT
106.146 4.258 L
105.896 5.227 105.896 5.977 QT
105.896 7.196 106.693 7.196 QT
107.505 7.196 107.997 5.93 QT
108.489 4.664 108.864 2.977 QT
108.927 2.789 109.13 2.789 QT
109.693 2.789 L
109.802 2.789 109.896 2.899 QT
109.989 3.008 109.989 3.102 QT
109.614 4.539 109.466 5.055 QT
109.318 5.571 108.95 6.321 QT
108.583 7.071 108.013 7.555 QT
107.443 8.039 106.63 8.039 QT
105.661 8.039 104.904 7.43 QT
104.146 6.821 103.943 5.883 QT
102.036 8.039 100.13 8.039 QT
cp
100.161 7.196 M
101.271 7.196 102.302 6.227 QT
103.333 5.258 104.005 4.102 QT
105.693 -2.695 L
105.568 -3.836 105.052 -4.734 QT
104.536 -5.633 103.521 -5.633 QT
102.364 -5.633 101.427 -4.492 QT
100.489 -3.351 99.825 -1.625 QT
99.161 0.102 98.818 1.781 QT
98.474 3.461 98.474 4.508 QT
98.474 5.524 98.864 6.36 QT
99.255 7.196 100.161 7.196 QT
cp}def
f-536727646
f
GR
GS
[0.75 0 0 0.75 342.02515 184.85999] CT
N
/f-315762217{111.298 8.039 M
111.048 8.039 111.048 7.742 QT
111.048 7.711 111.111 7.524 QT
111.954 6.008 113.071 4.68 QT
114.189 3.352 115.595 1.977 QT
117.001 0.602 118.361 -0.711 QT
119.72 -2.023 120.814 -3.289 QT
120.376 -3.289 120.009 -3.398 QT
119.642 -3.508 119.001 -3.773 QT
118.361 -4.039 117.954 -4.164 QT
117.548 -4.289 117.126 -4.289 QT
116.361 -4.289 115.657 -3.844 QT
114.954 -3.398 114.751 -2.695 QT
114.704 -2.461 114.501 -2.461 QT
113.923 -2.461 L
113.673 -2.461 113.673 -2.789 QT
113.673 -2.883 L
113.892 -3.758 114.446 -4.594 QT
115.001 -5.429 115.79 -5.945 QT
116.579 -6.461 117.517 -6.461 QT
118.126 -6.461 118.517 -6.172 QT
118.907 -5.883 119.423 -5.25 QT
119.939 -4.617 120.212 -4.375 QT
120.486 -4.133 120.97 -4.133 QT
121.532 -4.133 121.993 -4.765 QT
122.454 -5.398 122.954 -6.367 QT
123.048 -6.461 123.173 -6.461 QT
123.751 -6.461 L
123.861 -6.461 123.931 -6.383 QT
124.001 -6.304 124.001 -6.179 QT
124.001 -6.133 123.939 -5.976 QT
123.157 -4.523 122.064 -3.211 QT
120.97 -1.898 119.415 -0.383 QT
117.861 1.133 116.501 2.461 QT
115.142 3.789 114.22 4.899 QT
114.376 4.867 114.689 4.867 QT
115.251 4.867 115.923 5.11 QT
116.595 5.352 117.267 5.602 QT
117.939 5.852 118.501 5.852 QT
119.642 5.852 120.657 4.992 QT
121.673 4.133 121.954 3.008 QT
122.032 2.789 122.22 2.789 QT
122.782 2.789 L
123.079 2.789 123.079 3.102 QT
123.079 3.133 123.048 3.196 QT
122.611 5.039 121.228 6.539 QT
119.845 8.039 118.079 8.039 QT
117.501 8.039 117.103 7.742 QT
116.704 7.446 116.243 6.86 QT
115.782 6.274 115.446 5.985 QT
115.111 5.696 114.626 5.696 QT
113.314 5.696 112.095 7.93 QT
111.986 8.039 111.876 8.039 QT
111.298 8.039 L
cp}def
f-315762217
f
GR
GS
[0.75 0 0 0.75 342.02515 184.85999] CT
N
/f-2627720{130.367 8.039 M
129.273 8.039 128.406 7.571 QT
127.539 7.102 126.945 6.25 QT
126.351 5.399 126.07 4.422 QT
125.789 3.446 125.789 2.399 QT
125.789 0.742 126.39 -0.844 QT
126.992 -2.429 128.086 -3.711 QT
129.179 -4.992 130.671 -5.726 QT
132.164 -6.461 133.851 -6.461 QT
134.679 -6.461 135.421 -6.148 QT
136.164 -5.836 136.625 -5.219 QT
137.086 -4.601 137.086 -3.742 QT
137.086 -1.148 134.609 -0.398 QT
132.132 0.352 128.773 0.352 QT
128.679 0.352 L
128.132 2.477 128.132 3.805 QT
128.132 5.086 128.687 6.141 QT
129.242 7.196 130.429 7.196 QT
132.117 7.196 133.703 6.281 QT
135.289 5.367 136.351 3.899 QT
136.398 3.805 136.586 3.805 QT
136.773 3.805 137.117 4.258 QT
137.179 4.289 137.179 4.446 QT
137.179 4.571 137.117 4.633 QT
136.382 5.68 135.304 6.453 QT
134.226 7.227 132.945 7.633 QT
131.664 8.039 130.367 8.039 QT
cp
128.867 -0.476 M
130.632 -0.476 132.054 -0.656 QT
133.476 -0.836 134.609 -1.562 QT
135.742 -2.289 135.742 -3.742 QT
135.742 -4.57 135.179 -5.101 QT
134.617 -5.633 133.789 -5.633 QT
131.929 -5.633 130.703 -4.125 QT
129.476 -2.617 128.867 -0.476 QT
cp}def
f-2627720
f
GR
GS
[0.75 0 0 0.75 342.02515 184.85999] CT
N
/f1964966082{144.29 8.039 M
142.462 8.039 141.501 6.547 QT
140.54 5.055 140.54 3.133 QT
140.54 2.664 140.704 1.844 QT
140.868 1.024 140.868 0.742 QT
143.977 -11.679 L
144.102 -12.226 144.134 -12.539 QT
144.134 -13.054 142.055 -13.054 QT
141.727 -13.054 141.727 -13.476 QT
141.743 -13.554 141.798 -13.758 QT
141.852 -13.961 141.938 -14.07 QT
142.024 -14.179 142.18 -14.179 QT
146.399 -14.523 L
146.79 -14.523 146.79 -14.117 QT
144.477 -4.867 L
146.102 -6.461 147.743 -6.461 QT
149.04 -6.461 149.93 -5.734 QT
150.821 -5.008 151.251 -3.851 QT
151.68 -2.695 151.68 -1.476 QT
151.68 0.008 151.11 1.688 QT
150.54 3.367 149.524 4.805 QT
148.509 6.242 147.165 7.141 QT
145.821 8.039 144.29 8.039 QT
cp
144.321 7.196 M
145.477 7.196 146.438 6.055 QT
147.399 4.914 148.055 3.203 QT
148.712 1.492 149.063 -0.211 QT
149.415 -1.914 149.415 -2.945 QT
149.415 -3.976 149.024 -4.804 QT
148.634 -5.633 147.68 -5.633 QT
146.602 -5.633 145.61 -4.695 QT
144.618 -3.758 143.868 -2.554 QT
143.04 0.867 L
142.493 2.914 142.462 4.258 QT
142.462 5.399 142.891 6.297 QT
143.321 7.196 144.321 7.196 QT
cp}def
f1964966082
f
GR
GS
[0.75 0 0 0.75 342.02515 184.85999] CT
N
/f-1610863940{158.171 8.039 M
156.749 8.039 155.671 7.321 QT
154.593 6.602 154.03 5.399 QT
153.468 4.196 153.468 2.758 QT
153.468 1.196 154.116 -0.429 QT
154.765 -2.054 155.929 -3.453 QT
157.093 -4.851 158.562 -5.656 QT
160.03 -6.461 161.655 -6.461 QT
163.093 -6.461 164.163 -5.75 QT
165.233 -5.039 165.804 -3.844 QT
166.374 -2.648 166.374 -1.179 QT
166.374 0.367 165.741 1.992 QT
165.108 3.617 163.952 5.008 QT
162.796 6.399 161.312 7.219 QT
159.827 8.039 158.171 8.039 QT
cp
158.233 7.196 M
159.562 7.196 160.655 6.196 QT
161.749 5.196 162.507 3.61 QT
163.265 2.024 163.632 0.367 QT
163.999 -1.289 163.999 -2.461 QT
163.999 -3.242 163.749 -3.976 QT
163.499 -4.711 162.944 -5.172 QT
162.39 -5.633 161.593 -5.633 QT
160.249 -5.633 159.155 -4.617 QT
158.062 -3.601 157.343 -2.062 QT
156.624 -0.523 156.233 1.164 QT
155.843 2.852 155.843 4.039 QT
155.843 5.289 156.452 6.242 QT
157.062 7.196 158.233 7.196 QT
cp}def
f-1610863940
f
GR
GS
[0.75 0 0 0.75 342.02515 184.85999] CT
N
/f841021110{170.468 15.68 M
170.187 15.68 170.187 15.399 QT
170.187 15.258 170.249 15.196 QT
175.718 9.852 175.718 -0.32 QT
175.718 -10.492 170.312 -15.773 QT
170.187 -15.851 170.187 -16.039 QT
170.187 -16.148 170.273 -16.234 QT
170.359 -16.32 170.468 -16.32 QT
170.765 -16.32 L
170.859 -16.32 170.921 -16.258 QT
173.218 -14.445 174.749 -11.851 QT
176.281 -9.258 176.992 -6.32 QT
177.703 -3.383 177.703 -0.32 QT
177.703 1.946 177.32 4.141 QT
176.937 6.336 176.101 8.469 QT
175.265 10.602 173.984 12.406 QT
172.703 14.211 170.921 15.617 QT
170.859 15.68 170.765 15.68 QT
170.468 15.68 L
cp}def
f841021110
f
GR
GS
[0.75 0 0 0.75 0 -0.25] CT
0.929 0.694 0.125 RC
1 LJ
1.333 LW
N
413.003 246.813 M
453.031 246.813 L
S
GR
GS
[0.75 0 0 0.75 0 -0.25] CT
0.149 GC
10.0 ML
0.667 LW
N
409 268 M
409 109 L
641 109 L
641 268 L
cp
S
GR
%%Trailer
%%Pages: 1
%%EOF
