%!PS-Adobe-3.0 EPSF-3.0
%%Creator: (MATLAB, The Mathworks, Inc. Version 9.4.0.813654 \(R2018a\). Operating System: Linux)
%%Title: /home/isidro/google-drive/TFG/tilt-rotor-matlab/figuras/memoria/analitico/alfa.eps
%%CreationDate: 2019-09-04T13:57:37
%%Pages: (atend)
%%BoundingBox: 0 0 432 341
%%LanguageLevel: 3
%%EndComments
%%BeginProlog
%%BeginResource: procset (Apache XML Graphics Std ProcSet) 1.2 0
%%Version: 1.2 0
%%Copyright: (Copyright 2001-2003,2010 The Apache Software Foundation. License terms: http://www.apache.org/licenses/LICENSE-2.0)
/bd{bind def}bind def
/ld{load def}bd
/GR/grestore ld
/GS/gsave ld
/RM/rmoveto ld
/C/curveto ld
/t/show ld
/L/lineto ld
/ML/setmiterlimit ld
/CT/concat ld
/f/fill ld
/N/newpath ld
/S/stroke ld
/CC/setcmykcolor ld
/A/ashow ld
/cp/closepath ld
/RC/setrgbcolor ld
/LJ/setlinejoin ld
/GC/setgray ld
/LW/setlinewidth ld
/M/moveto ld
/re {4 2 roll M
1 index 0 rlineto
0 exch rlineto
neg 0 rlineto
cp } bd
/_ctm matrix def
/_tm matrix def
/BT { _ctm currentmatrix pop matrix _tm copy pop 0 0 moveto } bd
/ET { _ctm setmatrix } bd
/iTm { _ctm setmatrix _tm concat } bd
/Tm { _tm astore pop iTm 0 0 moveto } bd
/ux 0.0 def
/uy 0.0 def
/F {
  /Tp exch def
  /Tf exch def
  Tf findfont Tp scalefont setfont
  /cf Tf def  /cs Tp def
} bd
/ULS {currentpoint /uy exch def /ux exch def} bd
/ULE {
  /Tcx currentpoint pop def
  gsave
  newpath
  cf findfont cs scalefont dup
  /FontMatrix get 0 get /Ts exch def /FontInfo get dup
  /UnderlinePosition get Ts mul /To exch def
  /UnderlineThickness get Ts mul /Tt exch def
  ux uy To add moveto  Tcx uy To add lineto
  Tt setlinewidth stroke
  grestore
} bd
/OLE {
  /Tcx currentpoint pop def
  gsave
  newpath
  cf findfont cs scalefont dup
  /FontMatrix get 0 get /Ts exch def /FontInfo get dup
  /UnderlinePosition get Ts mul /To exch def
  /UnderlineThickness get Ts mul /Tt exch def
  ux uy To add cs add moveto Tcx uy To add cs add lineto
  Tt setlinewidth stroke
  grestore
} bd
/SOE {
  /Tcx currentpoint pop def
  gsave
  newpath
  cf findfont cs scalefont dup
  /FontMatrix get 0 get /Ts exch def /FontInfo get dup
  /UnderlinePosition get Ts mul /To exch def
  /UnderlineThickness get Ts mul /Tt exch def
  ux uy To add cs 10 mul 26 idiv add moveto Tcx uy To add cs 10 mul 26 idiv add lineto
  Tt setlinewidth stroke
  grestore
} bd
/QT {
/Y22 exch store
/X22 exch store
/Y21 exch store
/X21 exch store
currentpoint
/Y21 load 2 mul add 3 div exch
/X21 load 2 mul add 3 div exch
/X21 load 2 mul /X22 load add 3 div
/Y21 load 2 mul /Y22 load add 3 div
/X22 load /Y22 load curveto
} bd
/SSPD {
dup length /d exch dict def
{
/v exch def
/k exch def
currentpagedevice k known {
/cpdv currentpagedevice k get def
v cpdv ne {
/upd false def
/nullv v type /nulltype eq def
/nullcpdv cpdv type /nulltype eq def
nullv nullcpdv or
{
/upd true def
} {
/sametype v type cpdv type eq def
sametype {
v type /arraytype eq {
/vlen v length def
/cpdvlen cpdv length def
vlen cpdvlen eq {
0 1 vlen 1 sub {
/i exch def
/obj v i get def
/cpdobj cpdv i get def
obj cpdobj ne {
/upd true def
exit
} if
} for
} {
/upd true def
} ifelse
} {
v type /dicttype eq {
v {
/dv exch def
/dk exch def
/cpddv cpdv dk get def
dv cpddv ne {
/upd true def
exit
} if
} forall
} {
/upd true def
} ifelse
} ifelse
} if
} ifelse
upd true eq {
d k v put
} if
} if
} if
} forall
d length 0 gt {
d setpagedevice
} if
} bd
/RE { % /NewFontName [NewEncodingArray] /FontName RE -
  findfont dup length dict begin
  {
    1 index /FID ne
    {def} {pop pop} ifelse
  } forall
  /Encoding exch def
  /FontName 1 index def
  currentdict definefont pop
  end
} bind def
%%EndResource
%%BeginResource: procset (Apache XML Graphics EPS ProcSet) 1.0 0
%%Version: 1.0 0
%%Copyright: (Copyright 2002-2003 The Apache Software Foundation. License terms: http://www.apache.org/licenses/LICENSE-2.0)
/BeginEPSF { %def
/b4_Inc_state save def         % Save state for cleanup
/dict_count countdictstack def % Count objects on dict stack
/op_count count 1 sub def      % Count objects on operand stack
userdict begin                 % Push userdict on dict stack
/showpage { } def              % Redefine showpage, { } = null proc
0 setgray 0 setlinecap         % Prepare graphics state
1 setlinewidth 0 setlinejoin
10 setmiterlimit [ ] 0 setdash newpath
/languagelevel where           % If level not equal to 1 then
{pop languagelevel             % set strokeadjust and
1 ne                           % overprint to their defaults.
{false setstrokeadjust false setoverprint
} if
} if
} bd
/EndEPSF { %def
count op_count sub {pop} repeat            % Clean up stacks
countdictstack dict_count sub {end} repeat
b4_Inc_state restore
} bd
%%EndResource
%FOPBeginFontDict
%%IncludeResource: font Courier-Oblique
%%IncludeResource: font Courier-BoldOblique
%%IncludeResource: font Courier-Bold
%%IncludeResource: font ZapfDingbats
%%IncludeResource: font Symbol
%%IncludeResource: font Helvetica
%%IncludeResource: font Helvetica-Oblique
%%IncludeResource: font Helvetica-Bold
%%IncludeResource: font Helvetica-BoldOblique
%%IncludeResource: font Times-Roman
%%IncludeResource: font Times-Italic
%%IncludeResource: font Times-Bold
%%IncludeResource: font Times-BoldItalic
%%IncludeResource: font Courier
%FOPEndFontDict
%%BeginResource: encoding WinAnsiEncoding
/WinAnsiEncoding [
/.notdef /.notdef /.notdef /.notdef /.notdef
/.notdef /.notdef /.notdef /.notdef /.notdef
/.notdef /.notdef /.notdef /.notdef /.notdef
/.notdef /.notdef /.notdef /.notdef /.notdef
/.notdef /.notdef /.notdef /.notdef /.notdef
/.notdef /.notdef /.notdef /.notdef /.notdef
/.notdef /.notdef /space /exclam /quotedbl
/numbersign /dollar /percent /ampersand /quotesingle
/parenleft /parenright /asterisk /plus /comma
/hyphen /period /slash /zero /one
/two /three /four /five /six
/seven /eight /nine /colon /semicolon
/less /equal /greater /question /at
/A /B /C /D /E
/F /G /H /I /J
/K /L /M /N /O
/P /Q /R /S /T
/U /V /W /X /Y
/Z /bracketleft /backslash /bracketright /asciicircum
/underscore /quoteleft /a /b /c
/d /e /f /g /h
/i /j /k /l /m
/n /o /p /q /r
/s /t /u /v /w
/x /y /z /braceleft /bar
/braceright /asciitilde /bullet /Euro /bullet
/quotesinglbase /florin /quotedblbase /ellipsis /dagger
/daggerdbl /circumflex /perthousand /Scaron /guilsinglleft
/OE /bullet /Zcaron /bullet /bullet
/quoteleft /quoteright /quotedblleft /quotedblright /bullet
/endash /emdash /asciitilde /trademark /scaron
/guilsinglright /oe /bullet /zcaron /Ydieresis
/space /exclamdown /cent /sterling /currency
/yen /brokenbar /section /dieresis /copyright
/ordfeminine /guillemotleft /logicalnot /sfthyphen /registered
/macron /degree /plusminus /twosuperior /threesuperior
/acute /mu /paragraph /middot /cedilla
/onesuperior /ordmasculine /guillemotright /onequarter /onehalf
/threequarters /questiondown /Agrave /Aacute /Acircumflex
/Atilde /Adieresis /Aring /AE /Ccedilla
/Egrave /Eacute /Ecircumflex /Edieresis /Igrave
/Iacute /Icircumflex /Idieresis /Eth /Ntilde
/Ograve /Oacute /Ocircumflex /Otilde /Odieresis
/multiply /Oslash /Ugrave /Uacute /Ucircumflex
/Udieresis /Yacute /Thorn /germandbls /agrave
/aacute /acircumflex /atilde /adieresis /aring
/ae /ccedilla /egrave /eacute /ecircumflex
/edieresis /igrave /iacute /icircumflex /idieresis
/eth /ntilde /ograve /oacute /ocircumflex
/otilde /odieresis /divide /oslash /ugrave
/uacute /ucircumflex /udieresis /yacute /thorn
/ydieresis
] def
%%EndResource
%FOPBeginFontReencode
/Courier-Oblique findfont
dup length dict begin
  {1 index /FID ne {def} {pop pop} ifelse} forall
  /Encoding WinAnsiEncoding def
  currentdict
end
/Courier-Oblique exch definefont pop
/Courier-BoldOblique findfont
dup length dict begin
  {1 index /FID ne {def} {pop pop} ifelse} forall
  /Encoding WinAnsiEncoding def
  currentdict
end
/Courier-BoldOblique exch definefont pop
/Courier-Bold findfont
dup length dict begin
  {1 index /FID ne {def} {pop pop} ifelse} forall
  /Encoding WinAnsiEncoding def
  currentdict
end
/Courier-Bold exch definefont pop
/Helvetica findfont
dup length dict begin
  {1 index /FID ne {def} {pop pop} ifelse} forall
  /Encoding WinAnsiEncoding def
  currentdict
end
/Helvetica exch definefont pop
/Helvetica-Oblique findfont
dup length dict begin
  {1 index /FID ne {def} {pop pop} ifelse} forall
  /Encoding WinAnsiEncoding def
  currentdict
end
/Helvetica-Oblique exch definefont pop
/Helvetica-Bold findfont
dup length dict begin
  {1 index /FID ne {def} {pop pop} ifelse} forall
  /Encoding WinAnsiEncoding def
  currentdict
end
/Helvetica-Bold exch definefont pop
/Helvetica-BoldOblique findfont
dup length dict begin
  {1 index /FID ne {def} {pop pop} ifelse} forall
  /Encoding WinAnsiEncoding def
  currentdict
end
/Helvetica-BoldOblique exch definefont pop
/Times-Roman findfont
dup length dict begin
  {1 index /FID ne {def} {pop pop} ifelse} forall
  /Encoding WinAnsiEncoding def
  currentdict
end
/Times-Roman exch definefont pop
/Times-Italic findfont
dup length dict begin
  {1 index /FID ne {def} {pop pop} ifelse} forall
  /Encoding WinAnsiEncoding def
  currentdict
end
/Times-Italic exch definefont pop
/Times-Bold findfont
dup length dict begin
  {1 index /FID ne {def} {pop pop} ifelse} forall
  /Encoding WinAnsiEncoding def
  currentdict
end
/Times-Bold exch definefont pop
/Times-BoldItalic findfont
dup length dict begin
  {1 index /FID ne {def} {pop pop} ifelse} forall
  /Encoding WinAnsiEncoding def
  currentdict
end
/Times-BoldItalic exch definefont pop
/Courier findfont
dup length dict begin
  {1 index /FID ne {def} {pop pop} ifelse} forall
  /Encoding WinAnsiEncoding def
  currentdict
end
/Courier exch definefont pop
%FOPEndFontReencode
%%EndProlog
%%Page: 1 1
%%PageBoundingBox: 0 0 432 341
%%BeginPageSetup
[1 0 0 -1 0 341] CT
%%EndPageSetup
GS
[0.75789 0 0 0.75789 0 -0.05264] CT
N
0 0 M
570 0 L
570 450 L
0 450 L
0 0 L
cp
clip
1 GC
N
0 0 570 450 re
f
GR
GS
[0.75789 0 0 0.75789 0 -0.05264] CT
1 GC
N
0 0 570 450 re
f
GR
GS
[0.75789 0 0 0.75789 0 -0.05264] CT
1 GC
N
74 396 M
516 396 L
516 34 L
74 34 L
cp
f
GR
GS
[0.75789 0 0 0.75789 0 -0.05264] CT
0.873 GC
1 LJ
0.66 LW
N
74.564 396 M
74.564 34 L
S
GR
GS
[0.75789 0 0 0.75789 0 -0.05264] CT
0.873 GC
1 LJ
0.66 LW
N
160.013 396 M
160.013 34 L
S
GR
GS
[0.75789 0 0 0.75789 0 -0.05264] CT
0.873 GC
1 LJ
0.66 LW
N
245.463 396 M
245.463 34 L
S
GR
GS
[0.75789 0 0 0.75789 0 -0.05264] CT
0.873 GC
1 LJ
0.66 LW
N
330.912 396 M
330.912 34 L
S
GR
GS
[0.75789 0 0 0.75789 0 -0.05264] CT
0.873 GC
1 LJ
0.66 LW
N
416.361 396 M
416.361 34 L
S
GR
GS
[0.75789 0 0 0.75789 0 -0.05264] CT
0.873 GC
1 LJ
0.66 LW
N
501.811 396 M
501.811 34 L
S
GR
GS
[0.75789 0 0 0.75789 0 -0.05264] CT
0.873 GC
1 LJ
0.66 LW
N
516 380.103 M
74 380.103 L
S
GR
GS
[0.75789 0 0 0.75789 0 -0.05264] CT
0.873 GC
1 LJ
0.66 LW
N
516 332.502 M
74 332.502 L
S
GR
GS
[0.75789 0 0 0.75789 0 -0.05264] CT
0.873 GC
1 LJ
0.66 LW
N
516 284.901 M
74 284.901 L
S
GR
GS
[0.75789 0 0 0.75789 0 -0.05264] CT
0.873 GC
1 LJ
0.66 LW
N
516 237.3 M
74 237.3 L
S
GR
GS
[0.75789 0 0 0.75789 0 -0.05264] CT
0.873 GC
1 LJ
0.66 LW
N
516 189.7 M
74 189.7 L
S
GR
GS
[0.75789 0 0 0.75789 0 -0.05264] CT
0.873 GC
1 LJ
0.66 LW
N
516 142.099 M
74 142.099 L
S
GR
GS
[0.75789 0 0 0.75789 0 -0.05264] CT
0.873 GC
1 LJ
0.66 LW
N
516 94.498 M
74 94.498 L
S
GR
GS
[0.75789 0 0 0.75789 0 -0.05264] CT
0.873 GC
1 LJ
0.66 LW
N
516 46.897 M
74 46.897 L
S
GR
GS
[0.75789 0 0 0.75789 0 -0.05264] CT
0.149 GC
2 setlinecap
1 LJ
0.66 LW
N
74 396 M
516 396 L
S
GR
GS
[0.75789 0 0 0.75789 0 -0.05264] CT
0.149 GC
2 setlinecap
1 LJ
0.66 LW
N
74.564 396 M
74.564 391.58 L
S
GR
GS
[0.75789 0 0 0.75789 0 -0.05264] CT
0.149 GC
2 setlinecap
1 LJ
0.66 LW
N
160.013 396 M
160.013 391.58 L
S
GR
GS
[0.75789 0 0 0.75789 0 -0.05264] CT
0.149 GC
2 setlinecap
1 LJ
0.66 LW
N
245.463 396 M
245.463 391.58 L
S
GR
GS
[0.75789 0 0 0.75789 0 -0.05264] CT
0.149 GC
2 setlinecap
1 LJ
0.66 LW
N
330.912 396 M
330.912 391.58 L
S
GR
GS
[0.75789 0 0 0.75789 0 -0.05264] CT
0.149 GC
2 setlinecap
1 LJ
0.66 LW
N
416.361 396 M
416.361 391.58 L
S
GR
GS
[0.75789 0 0 0.75789 0 -0.05264] CT
0.149 GC
2 setlinecap
1 LJ
0.66 LW
N
501.811 396 M
501.811 391.58 L
S
GR
GS
[0.75789 0 0 0.75789 56.5116 304.87369] CT
0.149 GC
/Helvetica 18.472 F
GS
[1 0 0 1 0 0] CT
-6 18 moveto 
1 -1 scale
(0) t 
GR
GR
GS
[0.75789 0 0 0.75789 121.27324 304.87369] CT
0.149 GC
/Helvetica 18.472 F
GS
[1 0 0 1 0 0] CT
-15 18 moveto 
1 -1 scale
(0.1) t 
GR
GR
GS
[0.75789 0 0 0.75789 186.03488 304.87369] CT
0.149 GC
/Helvetica 18.472 F
GS
[1 0 0 1 0 0] CT
-15 18 moveto 
1 -1 scale
(0.2) t 
GR
GR
GS
[0.75789 0 0 0.75789 250.79652 304.87369] CT
0.149 GC
/Helvetica 18.472 F
GS
[1 0 0 1 0 0] CT
-15 18 moveto 
1 -1 scale
(0.3) t 
GR
GR
GS
[0.75789 0 0 0.75789 315.55815 304.87369] CT
0.149 GC
/Helvetica 18.472 F
GS
[1 0 0 1 0 0] CT
-15 18 moveto 
1 -1 scale
(0.4) t 
GR
GR
GS
[0.75789 0 0 0.75789 380.31978 304.87369] CT
0.149 GC
/Helvetica 18.472 F
GS
[1 0 0 1 0 0] CT
-15 18 moveto 
1 -1 scale
(0.5) t 
GR
GR
GS
[0.75789 0 0 0.75789 223.57911 322.54736] CT
0.149 GC
/Helvetica 20.319 F
GS
[1 0 0 1 0 0] CT
-17.5 19 moveto 
1 -1 scale
(t\(s\)) t 
GR
GR
GS
[0.75789 0 0 0.75789 0 -0.05264] CT
0.149 GC
2 setlinecap
1 LJ
0.66 LW
N
74 396 M
74 34 L
S
GR
GS
[0.75789 0 0 0.75789 0 -0.05264] CT
0.149 GC
2 setlinecap
1 LJ
0.66 LW
N
74 380.103 M
78.42 380.103 L
S
GR
GS
[0.75789 0 0 0.75789 0 -0.05264] CT
0.149 GC
2 setlinecap
1 LJ
0.66 LW
N
74 332.502 M
78.42 332.502 L
S
GR
GS
[0.75789 0 0 0.75789 0 -0.05264] CT
0.149 GC
2 setlinecap
1 LJ
0.66 LW
N
74 284.901 M
78.42 284.901 L
S
GR
GS
[0.75789 0 0 0.75789 0 -0.05264] CT
0.149 GC
2 setlinecap
1 LJ
0.66 LW
N
74 237.3 M
78.42 237.3 L
S
GR
GS
[0.75789 0 0 0.75789 0 -0.05264] CT
0.149 GC
2 setlinecap
1 LJ
0.66 LW
N
74 189.7 M
78.42 189.7 L
S
GR
GS
[0.75789 0 0 0.75789 0 -0.05264] CT
0.149 GC
2 setlinecap
1 LJ
0.66 LW
N
74 142.099 M
78.42 142.099 L
S
GR
GS
[0.75789 0 0 0.75789 0 -0.05264] CT
0.149 GC
2 setlinecap
1 LJ
0.66 LW
N
74 94.498 M
78.42 94.498 L
S
GR
GS
[0.75789 0 0 0.75789 0 -0.05264] CT
0.149 GC
2 setlinecap
1 LJ
0.66 LW
N
74 46.897 M
78.42 46.897 L
S
GR
GS
[0.75789 0 0 0.75789 51.28421 288.02533] CT
0.149 GC
/Helvetica 18.472 F
GS
[1 0 0 1 0 0] CT
-37 6.5 moveto 
1 -1 scale
(-0.2) t 
GR
GR
GS
[0.75789 0 0 0.75789 51.28421 251.94894] CT
0.149 GC
/Helvetica 18.472 F
GS
[1 0 0 1 0 0] CT
-12 6.5 moveto 
1 -1 scale
(0) t 
GR
GR
GS
[0.75789 0 0 0.75789 51.28421 215.87252] CT
0.149 GC
/Helvetica 18.472 F
GS
[1 0 0 1 0 0] CT
-30 6.5 moveto 
1 -1 scale
(0.2) t 
GR
GR
GS
[0.75789 0 0 0.75789 51.28421 179.79612] CT
0.149 GC
/Helvetica 18.472 F
GS
[1 0 0 1 0 0] CT
-30 6.5 moveto 
1 -1 scale
(0.4) t 
GR
GR
GS
[0.75789 0 0 0.75789 51.28421 143.71971] CT
0.149 GC
/Helvetica 18.472 F
GS
[1 0 0 1 0 0] CT
-30 6.5 moveto 
1 -1 scale
(0.6) t 
GR
GR
GS
[0.75789 0 0 0.75789 51.28421 107.64331] CT
0.149 GC
/Helvetica 18.472 F
GS
[1 0 0 1 0 0] CT
-30 6.5 moveto 
1 -1 scale
(0.8) t 
GR
GR
GS
[0.75789 0 0 0.75789 51.28421 71.5669] CT
0.149 GC
/Helvetica 18.472 F
GS
[1 0 0 1 0 0] CT
-12 6.5 moveto 
1 -1 scale
(1) t 
GR
GR
GS
[0.75789 0 0 0.75789 51.28421 35.49049] CT
0.149 GC
/Helvetica 18.472 F
GS
[1 0 0 1 0 0] CT
-30 6.5 moveto 
1 -1 scale
(1.2) t 
GR
GR
GS
[0 -0.75789 0.75789 0 16.67368 189.42105] CT
0.149 GC
N
4.031 0.219 M
3.078 0.219 2.344 -0.227 QT
1.609 -0.672 1.203 -1.438 QT
0.797 -2.203 0.797 -3.172 QT
0.797 -4.516 1.555 -5.844 QT
2.313 -7.172 3.57 -8.008 QT
4.828 -8.844 6.203 -8.844 QT
7.219 -8.844 7.992 -8.313 QT
8.766 -7.781 9.164 -6.891 QT
9.563 -6 9.563 -5 QT
9.578 -3.656 L
10.266 -4.609 10.742 -5.633 QT
11.219 -6.656 11.469 -7.75 QT
11.5 -7.859 11.625 -7.859 QT
11.859 -7.859 L
12.047 -7.859 12.047 -7.672 QT
12.047 -7.656 12.016 -7.625 QT
11.781 -6.703 11.43 -5.859 QT
11.078 -5.016 10.609 -4.219 QT
10.141 -3.422 9.578 -2.781 QT
9.578 -0.297 10.156 -0.297 QT
10.531 -0.297 10.766 -0.523 QT
11 -0.75 11.188 -1.07 QT
11.375 -1.391 11.422 -1.391 QT
11.656 -1.391 L
11.813 -1.391 11.813 -1.203 QT
11.813 -0.703 11.242 -0.242 QT
10.672 0.219 10.125 0.219 QT
9.391 0.219 8.914 -0.25 QT
8.438 -0.719 8.266 -1.469 QT
7.328 -0.672 6.234 -0.227 QT
5.141 0.219 4.031 0.219 QT
cp
4.063 -0.297 M
6.203 -0.297 8.172 -2.063 QT
8.156 -2.172 8.133 -2.344 QT
8.109 -2.516 8.109 -2.547 QT
8.109 -4.703 L
8.109 -8.328 6.156 -8.328 QT
4.984 -8.328 4.109 -7.32 QT
3.234 -6.313 2.789 -4.922 QT
2.344 -3.531 2.344 -2.391 QT
2.344 -1.516 2.789 -0.906 QT
3.234 -0.297 4.063 -0.297 QT
cp
f
GR
GS
[0 -0.75789 0.75789 0 16.67368 179.56842] CT
0.149 GC
/Helvetica 20.319 F
GS
[1 0 0 1 0 0] CT
0 0 moveto 
1 -1 scale
( \(rad\)) t 
GR
GR
GS
[0.75789 0 0 0.75789 223.57918 22.78979] CT
/Helvetica-Bold 20.319 F
GS
[1 0 0 1 0 0] CT
-145 -5 moveto 
1 -1 scale
(Inclinaci\363n de los rotores) t 
GR
GR
GS
[0.75789 0 0 0.75789 0 -0.05264] CT
0 0.447 0.741 RC
1 LJ
2.639 LW
N
74.564 332.502 M
74.564 332.502 L
74.565 332.502 L
74.571 332.502 L
74.598 332.502 L
74.736 332.502 L
75.426 332.502 L
77.982 332.502 L
81.4 332.502 L
84.818 332.502 L
88.236 332.502 L
91.654 332.502 L
93.664 332.502 L
94.653 332.502 L
95.072 332.502 L
95.447 332.502 L
97.321 332.502 L
98.49 332.502 L
100.724 332.502 L
101.908 332.502 L
102.864 332.502 L
105.326 332.502 L
108.744 332.502 L
111.51 332.502 L
112.162 332.502 L
115.58 332.502 L
118.998 332.502 L
122.416 332.502 L
125.834 332.502 L
129.252 332.502 L
132.669 332.502 L
136.087 332.502 L
139.505 332.502 L
142.923 332.502 L
146.341 332.502 L
149.759 332.502 L
153.177 332.502 L
156.595 332.502 L
160.013 332.502 L
160.013 332.502 L
160.013 332.502 L
161.361 332.502 L
161.61 332.502 L
161.69 332.502 L
161.77 83.265 L
161.833 83.265 L
162.153 83.265 L
163.431 83.265 L
166.849 83.265 L
170.267 83.265 L
173.685 83.265 L
177.103 83.265 L
180.521 83.265 L
183.939 83.265 L
187.357 83.265 L
190.775 83.265 L
194.193 83.265 L
197.611 83.265 L
201.029 83.265 L
204.447 89.539 L
207.865 140.399 L
211.283 190.769 L
214.701 238.108 L
218.119 279.121 L
221.537 310.654 L
224.955 330.724 L
228.373 339.132 L
231.791 337.601 L
235.209 329.374 L
238.627 318.386 L
242.045 308.312 L
245.463 301.815 L
248.881 300.159 L
252.299 303.223 L
255.717 309.816 L
259.135 318.162 L
262.553 326.411 L
265.971 333.06 L
269.389 337.212 L
272.806 338.649 L
276.224 337.75 L
279.642 335.294 L
283.06 332.221 L
286.478 329.395 L
289.896 327.444 L
293.314 326.669 L
296.732 327.05 L
300.15 328.313 L
303.568 330.046 L
306.986 331.811 L
310.404 333.247 L
313.822 334.133 L
317.24 334.405 L
320.658 334.142 L
324.076 333.52 L
327.494 332.754 L
330.912 332.045 L
334.33 331.541 L
337.748 331.315 L
341.166 331.364 L
344.584 331.626 L
348.002 332.007 L
351.42 332.402 L
354.838 332.728 L
358.256 332.93 L
361.674 332.991 L
365.092 332.928 L
368.51 332.78 L
371.928 332.597 L
375.346 332.427 L
378.764 332.303 L
382.182 332.244 L
385.6 332.249 L
389.018 332.306 L
392.436 332.392 L
395.854 332.482 L
399.272 332.558 L
402.69 332.605 L
406.108 332.62 L
409.525 332.606 L
412.943 332.572 L
416.361 332.529 L
419.779 332.489 L
423.197 332.459 L
426.615 332.444 L
430.033 332.444 L
433.451 332.457 L
436.869 332.476 L
440.287 332.497 L
443.705 332.515 L
447.123 332.526 L
450.541 332.53 L
453.959 332.527 L
457.377 332.519 L
460.795 332.509 L
464.213 332.5 L
467.631 332.493 L
471.049 332.489 L
474.467 332.489 L
477.885 332.491 L
481.303 332.496 L
484.721 332.501 L
488.139 332.505 L
491.557 332.508 L
494.975 332.509 L
498.393 332.508 L
501.811 332.506 L
505.229 332.504 L
508.647 332.502 L
512.065 332.5 L
515.483 332.499 L
516.053 332.499 L
S
GR
GS
[0.75789 0 0 0.75789 0 -0.05264] CT
0.851 0.325 0.098 RC
1 LJ
2.639 LW
N
74.564 332.502 M
74.564 332.502 L
74.565 332.502 L
74.571 332.502 L
74.598 332.502 L
74.736 332.502 L
75.426 332.502 L
77.982 332.502 L
81.4 332.502 L
84.818 332.502 L
88.236 332.502 L
91.654 332.502 L
93.664 332.502 L
94.653 332.502 L
95.072 332.502 L
95.447 332.502 L
97.321 332.502 L
98.49 332.502 L
100.724 332.502 L
101.908 332.502 L
102.864 332.502 L
105.326 332.502 L
108.744 332.502 L
111.51 332.502 L
112.162 332.502 L
115.58 332.502 L
118.998 332.502 L
122.416 332.502 L
125.834 332.502 L
129.252 332.502 L
132.669 332.502 L
136.087 332.502 L
139.505 332.502 L
142.923 332.502 L
146.341 332.502 L
149.759 332.502 L
153.177 332.502 L
156.595 332.502 L
160.013 332.502 L
160.013 332.502 L
160.013 332.502 L
161.361 332.502 L
161.61 332.502 L
161.69 332.502 L
161.77 83.265 L
161.833 83.265 L
162.153 83.265 L
163.431 83.265 L
166.849 83.265 L
170.267 83.265 L
173.685 83.265 L
177.103 83.265 L
180.521 83.265 L
183.939 83.265 L
187.357 83.265 L
190.775 83.265 L
194.193 83.265 L
197.611 83.265 L
201.029 83.265 L
204.447 89.539 L
207.865 140.399 L
211.283 190.769 L
214.701 238.108 L
218.119 279.121 L
221.537 310.654 L
224.955 330.724 L
228.373 339.132 L
231.791 337.601 L
235.209 329.374 L
238.627 318.386 L
242.045 308.312 L
245.463 301.815 L
248.881 300.159 L
252.299 303.223 L
255.717 309.816 L
259.135 318.162 L
262.553 326.411 L
265.971 333.06 L
269.389 337.212 L
272.806 338.649 L
276.224 337.75 L
279.642 335.294 L
283.06 332.221 L
286.478 329.395 L
289.896 327.444 L
293.314 326.669 L
296.732 327.05 L
300.15 328.313 L
303.568 330.046 L
306.986 331.811 L
310.404 333.247 L
313.822 334.133 L
317.24 334.405 L
320.658 334.142 L
324.076 333.52 L
327.494 332.754 L
330.912 332.045 L
334.33 331.541 L
337.748 331.315 L
341.166 331.364 L
344.584 331.626 L
348.002 332.007 L
351.42 332.402 L
354.838 332.728 L
358.256 332.93 L
361.674 332.991 L
365.092 332.928 L
368.51 332.78 L
371.928 332.597 L
375.346 332.427 L
378.764 332.303 L
382.182 332.244 L
385.6 332.249 L
389.018 332.306 L
392.436 332.392 L
395.854 332.482 L
399.272 332.558 L
402.69 332.605 L
406.108 332.62 L
409.525 332.606 L
412.943 332.572 L
416.361 332.529 L
419.779 332.489 L
423.197 332.459 L
426.615 332.444 L
430.033 332.444 L
433.451 332.457 L
436.869 332.476 L
440.287 332.497 L
443.705 332.515 L
447.123 332.526 L
450.541 332.53 L
453.959 332.527 L
457.377 332.519 L
460.795 332.509 L
464.213 332.5 L
467.631 332.493 L
471.049 332.489 L
474.467 332.489 L
477.885 332.491 L
481.303 332.496 L
484.721 332.501 L
488.139 332.505 L
491.557 332.508 L
494.975 332.509 L
498.393 332.508 L
501.811 332.506 L
505.229 332.504 L
508.647 332.502 L
512.065 332.5 L
515.483 332.499 L
516.053 332.499 L
S
GR
GS
[0.75789 0 0 0.75789 139.4065 63.05331] CT
N
-5 -5 M
-5 5 L
5 5 L
5 -5 L
cp
f
GR
GS
[0.75789 0 0 0.75789 139.4065 63.05331] CT
1 1 0.863 RC
10.0 ML
1.319 LW
N
-5 -5 M
-5 5 L
5 5 L
5 -5 L
cp
S
GR
GS
[0.75789 0 0 0.75789 0 -0.05264] CT
1 GC
N
505 105 M
505 45 L
435 45 L
435 105 L
cp
f
GR
GS
[0.75789 0 0 0.75789 364.54737 47.69473] CT
N
3.422 0.188 M
2.609 0.188 1.984 -0.195 QT
1.359 -0.578 1.023 -1.227 QT
0.688 -1.875 0.688 -2.688 QT
0.688 -3.844 1.328 -4.969 QT
1.969 -6.094 3.031 -6.805 QT
4.094 -7.516 5.266 -7.516 QT
6.141 -7.516 6.797 -7.063 QT
7.453 -6.609 7.789 -5.859 QT
8.125 -5.109 8.125 -4.25 QT
8.141 -3.109 L
8.719 -3.922 9.125 -4.789 QT
9.531 -5.656 9.75 -6.578 QT
9.781 -6.688 9.875 -6.688 QT
10.078 -6.688 L
10.234 -6.688 10.234 -6.531 QT
10.234 -6.516 10.219 -6.469 QT
10.016 -5.688 9.719 -4.977 QT
9.422 -4.266 9.016 -3.586 QT
8.609 -2.906 8.141 -2.359 QT
8.141 -0.25 8.641 -0.25 QT
8.953 -0.25 9.156 -0.438 QT
9.359 -0.625 9.508 -0.898 QT
9.656 -1.172 9.703 -1.188 QT
9.906 -1.188 L
10.047 -1.188 10.047 -1.016 QT
10.047 -0.594 9.563 -0.203 QT
9.078 0.188 8.594 0.188 QT
7.984 0.188 7.578 -0.211 QT
7.172 -0.609 7.016 -1.25 QT
6.219 -0.563 5.289 -0.188 QT
4.359 0.188 3.422 0.188 QT
cp
3.453 -0.25 M
5.266 -0.25 6.938 -1.75 QT
6.938 -1.844 6.914 -1.992 QT
6.891 -2.141 6.891 -2.156 QT
6.891 -4 L
6.891 -7.078 5.234 -7.078 QT
4.234 -7.078 3.492 -6.227 QT
2.75 -5.375 2.375 -4.188 QT
2 -3 2 -2.031 QT
2 -1.281 2.375 -0.766 QT
2.75 -0.25 3.453 -0.25 QT
cp
f
GR
GS
[0.75789 0 0 0.75789 372.88421 53.75789] CT
/Helvetica 13.3 F
GS
[1 0 0 1 0 0] CT
0 0 moveto 
1 -1 scale
(1) t 
GR
GR
GS
[0.75789 0 0 0.75789 0 -0.05264] CT
0 0.447 0.741 RC
1 LJ
2.639 LW
N
438.967 60.868 M
478.223 60.868 L
S
GR
GS
[0.75789 0 0 0.75789 364.54737 68.91578] CT
N
/f291901563{3.422 0.188 M
2.609 0.188 1.984 -0.195 QT
1.359 -0.578 1.023 -1.227 QT
0.688 -1.875 0.688 -2.688 QT
0.688 -3.844 1.328 -4.969 QT
1.969 -6.094 3.031 -6.805 QT
4.094 -7.516 5.266 -7.516 QT
6.141 -7.516 6.797 -7.063 QT
7.453 -6.609 7.789 -5.859 QT
8.125 -5.109 8.125 -4.25 QT
8.141 -3.109 L
8.719 -3.922 9.125 -4.789 QT
9.531 -5.656 9.75 -6.578 QT
9.781 -6.688 9.875 -6.688 QT
10.078 -6.688 L
10.234 -6.688 10.234 -6.531 QT
10.234 -6.516 10.219 -6.469 QT
10.016 -5.688 9.719 -4.977 QT
9.422 -4.266 9.016 -3.586 QT
8.609 -2.906 8.141 -2.359 QT
8.141 -0.25 8.641 -0.25 QT
8.953 -0.25 9.156 -0.438 QT
9.359 -0.625 9.508 -0.898 QT
9.656 -1.172 9.703 -1.188 QT
9.906 -1.188 L
10.047 -1.188 10.047 -1.016 QT
10.047 -0.594 9.563 -0.203 QT
9.078 0.188 8.594 0.188 QT
7.984 0.188 7.578 -0.211 QT
7.172 -0.609 7.016 -1.25 QT
6.219 -0.563 5.289 -0.188 QT
4.359 0.188 3.422 0.188 QT
cp
3.453 -0.25 M
5.266 -0.25 6.938 -1.75 QT
6.938 -1.844 6.914 -1.992 QT
6.891 -2.141 6.891 -2.156 QT
6.891 -4 L
6.891 -7.078 5.234 -7.078 QT
4.234 -7.078 3.492 -6.227 QT
2.75 -5.375 2.375 -4.188 QT
2 -3 2 -2.031 QT
2 -1.281 2.375 -0.766 QT
2.75 -0.25 3.453 -0.25 QT
cp}def
f291901563
f
GR
GS
[0.75789 0 0 0.75789 372.88421 74.97894] CT
/Helvetica 13.3 F
GS
[1 0 0 1 0 0] CT
0 0 moveto 
1 -1 scale
(2) t 
GR
GR
GS
[0.75789 0 0 0.75789 0 -0.05264] CT
0.851 0.325 0.098 RC
1 LJ
2.639 LW
N
438.967 89.132 M
478.223 89.132 L
S
GR
GS
[0.75789 0 0 0.75789 0 -0.05264] CT
0.149 GC
10.0 ML
0.66 LW
N
435 105 M
435 45 L
505 45 L
505 105 L
cp
S
GR
GS
[0.75789 0 0 0.75789 0 -0.05264] CT
1 1 0.933 RC
N
113.425 76.668 M
177.342 76.668 L
177.342 34.751 L
113.425 34.751 L
cp
f
GR
GS
[0.75789 0 0 0.75789 0 -0.05264] CT
0.8 GC
10.0 ML
0.66 LW
N
113.425 76.668 M
177.342 76.668 L
177.342 34.751 L
113.425 34.751 L
cp
S
GR
GS
[0.75789 0 0 0.75789 88.96439 55.05329] CT
/Helvetica 13.194 F
GS
[1 0 0 1 0 0] CT
0 -21 moveto 
1 -1 scale
(X: 0.128) t 
GR
GR
GS
[0.75789 0 0 0.75789 88.96439 55.05329] CT
/Helvetica 13.194 F
GS
[1 0 0 1 0 0] CT
0 -4 moveto 
1 -1 scale
(Y: 1.047) t 
GR
GR
GS
[0.75789 0 0 0.75789 139.4065 63.0533] CT
0.608 GC
N
/f-719462112{-5 -5 M
-5 5 L
5 5 L
5 -5 L
cp}def
f-719462112
f
GR
GS
[0.75789 0 0 0.75789 139.4065 63.0533] CT
1 1 0.946 RC
10.0 ML
1.319 LW
N
-5 -5 M
-5 5 L
5 5 L
5 -5 L
cp
S
GR
%%Trailer
%%Pages: 1
%%EOF
