%!PS-Adobe-3.0 EPSF-3.0
%%Creator: (MATLAB, The Mathworks, Inc. Version 9.4.0.813654 \(R2018a\). Operating System: Linux)
%%Title: /home/isidro/google-drive/TFG/tilt-rotor-matlab/figuras/memoria/analitico/eul.eps
%%CreationDate: 2019-09-04T14:42:36
%%Pages: (atend)
%%BoundingBox: 0 0 432 341
%%LanguageLevel: 3
%%EndComments
%%BeginProlog
%%BeginResource: procset (Apache XML Graphics Std ProcSet) 1.2 0
%%Version: 1.2 0
%%Copyright: (Copyright 2001-2003,2010 The Apache Software Foundation. License terms: http://www.apache.org/licenses/LICENSE-2.0)
/bd{bind def}bind def
/ld{load def}bd
/GR/grestore ld
/GS/gsave ld
/RM/rmoveto ld
/C/curveto ld
/t/show ld
/L/lineto ld
/ML/setmiterlimit ld
/CT/concat ld
/f/fill ld
/N/newpath ld
/S/stroke ld
/CC/setcmykcolor ld
/A/ashow ld
/cp/closepath ld
/RC/setrgbcolor ld
/LJ/setlinejoin ld
/GC/setgray ld
/LW/setlinewidth ld
/M/moveto ld
/re {4 2 roll M
1 index 0 rlineto
0 exch rlineto
neg 0 rlineto
cp } bd
/_ctm matrix def
/_tm matrix def
/BT { _ctm currentmatrix pop matrix _tm copy pop 0 0 moveto } bd
/ET { _ctm setmatrix } bd
/iTm { _ctm setmatrix _tm concat } bd
/Tm { _tm astore pop iTm 0 0 moveto } bd
/ux 0.0 def
/uy 0.0 def
/F {
  /Tp exch def
  /Tf exch def
  Tf findfont Tp scalefont setfont
  /cf Tf def  /cs Tp def
} bd
/ULS {currentpoint /uy exch def /ux exch def} bd
/ULE {
  /Tcx currentpoint pop def
  gsave
  newpath
  cf findfont cs scalefont dup
  /FontMatrix get 0 get /Ts exch def /FontInfo get dup
  /UnderlinePosition get Ts mul /To exch def
  /UnderlineThickness get Ts mul /Tt exch def
  ux uy To add moveto  Tcx uy To add lineto
  Tt setlinewidth stroke
  grestore
} bd
/OLE {
  /Tcx currentpoint pop def
  gsave
  newpath
  cf findfont cs scalefont dup
  /FontMatrix get 0 get /Ts exch def /FontInfo get dup
  /UnderlinePosition get Ts mul /To exch def
  /UnderlineThickness get Ts mul /Tt exch def
  ux uy To add cs add moveto Tcx uy To add cs add lineto
  Tt setlinewidth stroke
  grestore
} bd
/SOE {
  /Tcx currentpoint pop def
  gsave
  newpath
  cf findfont cs scalefont dup
  /FontMatrix get 0 get /Ts exch def /FontInfo get dup
  /UnderlinePosition get Ts mul /To exch def
  /UnderlineThickness get Ts mul /Tt exch def
  ux uy To add cs 10 mul 26 idiv add moveto Tcx uy To add cs 10 mul 26 idiv add lineto
  Tt setlinewidth stroke
  grestore
} bd
/QT {
/Y22 exch store
/X22 exch store
/Y21 exch store
/X21 exch store
currentpoint
/Y21 load 2 mul add 3 div exch
/X21 load 2 mul add 3 div exch
/X21 load 2 mul /X22 load add 3 div
/Y21 load 2 mul /Y22 load add 3 div
/X22 load /Y22 load curveto
} bd
/SSPD {
dup length /d exch dict def
{
/v exch def
/k exch def
currentpagedevice k known {
/cpdv currentpagedevice k get def
v cpdv ne {
/upd false def
/nullv v type /nulltype eq def
/nullcpdv cpdv type /nulltype eq def
nullv nullcpdv or
{
/upd true def
} {
/sametype v type cpdv type eq def
sametype {
v type /arraytype eq {
/vlen v length def
/cpdvlen cpdv length def
vlen cpdvlen eq {
0 1 vlen 1 sub {
/i exch def
/obj v i get def
/cpdobj cpdv i get def
obj cpdobj ne {
/upd true def
exit
} if
} for
} {
/upd true def
} ifelse
} {
v type /dicttype eq {
v {
/dv exch def
/dk exch def
/cpddv cpdv dk get def
dv cpddv ne {
/upd true def
exit
} if
} forall
} {
/upd true def
} ifelse
} ifelse
} if
} ifelse
upd true eq {
d k v put
} if
} if
} if
} forall
d length 0 gt {
d setpagedevice
} if
} bd
/RE { % /NewFontName [NewEncodingArray] /FontName RE -
  findfont dup length dict begin
  {
    1 index /FID ne
    {def} {pop pop} ifelse
  } forall
  /Encoding exch def
  /FontName 1 index def
  currentdict definefont pop
  end
} bind def
%%EndResource
%%BeginResource: procset (Apache XML Graphics EPS ProcSet) 1.0 0
%%Version: 1.0 0
%%Copyright: (Copyright 2002-2003 The Apache Software Foundation. License terms: http://www.apache.org/licenses/LICENSE-2.0)
/BeginEPSF { %def
/b4_Inc_state save def         % Save state for cleanup
/dict_count countdictstack def % Count objects on dict stack
/op_count count 1 sub def      % Count objects on operand stack
userdict begin                 % Push userdict on dict stack
/showpage { } def              % Redefine showpage, { } = null proc
0 setgray 0 setlinecap         % Prepare graphics state
1 setlinewidth 0 setlinejoin
10 setmiterlimit [ ] 0 setdash newpath
/languagelevel where           % If level not equal to 1 then
{pop languagelevel             % set strokeadjust and
1 ne                           % overprint to their defaults.
{false setstrokeadjust false setoverprint
} if
} if
} bd
/EndEPSF { %def
count op_count sub {pop} repeat            % Clean up stacks
countdictstack dict_count sub {end} repeat
b4_Inc_state restore
} bd
%%EndResource
%FOPBeginFontDict
%%IncludeResource: font Courier-Oblique
%%IncludeResource: font Courier-BoldOblique
%%IncludeResource: font Courier-Bold
%%IncludeResource: font ZapfDingbats
%%IncludeResource: font Symbol
%%IncludeResource: font Helvetica
%%IncludeResource: font Helvetica-Oblique
%%IncludeResource: font Helvetica-Bold
%%IncludeResource: font Helvetica-BoldOblique
%%IncludeResource: font Times-Roman
%%IncludeResource: font Times-Italic
%%IncludeResource: font Times-Bold
%%IncludeResource: font Times-BoldItalic
%%IncludeResource: font Courier
%FOPEndFontDict
%%BeginResource: encoding WinAnsiEncoding
/WinAnsiEncoding [
/.notdef /.notdef /.notdef /.notdef /.notdef
/.notdef /.notdef /.notdef /.notdef /.notdef
/.notdef /.notdef /.notdef /.notdef /.notdef
/.notdef /.notdef /.notdef /.notdef /.notdef
/.notdef /.notdef /.notdef /.notdef /.notdef
/.notdef /.notdef /.notdef /.notdef /.notdef
/.notdef /.notdef /space /exclam /quotedbl
/numbersign /dollar /percent /ampersand /quotesingle
/parenleft /parenright /asterisk /plus /comma
/hyphen /period /slash /zero /one
/two /three /four /five /six
/seven /eight /nine /colon /semicolon
/less /equal /greater /question /at
/A /B /C /D /E
/F /G /H /I /J
/K /L /M /N /O
/P /Q /R /S /T
/U /V /W /X /Y
/Z /bracketleft /backslash /bracketright /asciicircum
/underscore /quoteleft /a /b /c
/d /e /f /g /h
/i /j /k /l /m
/n /o /p /q /r
/s /t /u /v /w
/x /y /z /braceleft /bar
/braceright /asciitilde /bullet /Euro /bullet
/quotesinglbase /florin /quotedblbase /ellipsis /dagger
/daggerdbl /circumflex /perthousand /Scaron /guilsinglleft
/OE /bullet /Zcaron /bullet /bullet
/quoteleft /quoteright /quotedblleft /quotedblright /bullet
/endash /emdash /asciitilde /trademark /scaron
/guilsinglright /oe /bullet /zcaron /Ydieresis
/space /exclamdown /cent /sterling /currency
/yen /brokenbar /section /dieresis /copyright
/ordfeminine /guillemotleft /logicalnot /sfthyphen /registered
/macron /degree /plusminus /twosuperior /threesuperior
/acute /mu /paragraph /middot /cedilla
/onesuperior /ordmasculine /guillemotright /onequarter /onehalf
/threequarters /questiondown /Agrave /Aacute /Acircumflex
/Atilde /Adieresis /Aring /AE /Ccedilla
/Egrave /Eacute /Ecircumflex /Edieresis /Igrave
/Iacute /Icircumflex /Idieresis /Eth /Ntilde
/Ograve /Oacute /Ocircumflex /Otilde /Odieresis
/multiply /Oslash /Ugrave /Uacute /Ucircumflex
/Udieresis /Yacute /Thorn /germandbls /agrave
/aacute /acircumflex /atilde /adieresis /aring
/ae /ccedilla /egrave /eacute /ecircumflex
/edieresis /igrave /iacute /icircumflex /idieresis
/eth /ntilde /ograve /oacute /ocircumflex
/otilde /odieresis /divide /oslash /ugrave
/uacute /ucircumflex /udieresis /yacute /thorn
/ydieresis
] def
%%EndResource
%FOPBeginFontReencode
/Courier-Oblique findfont
dup length dict begin
  {1 index /FID ne {def} {pop pop} ifelse} forall
  /Encoding WinAnsiEncoding def
  currentdict
end
/Courier-Oblique exch definefont pop
/Courier-BoldOblique findfont
dup length dict begin
  {1 index /FID ne {def} {pop pop} ifelse} forall
  /Encoding WinAnsiEncoding def
  currentdict
end
/Courier-BoldOblique exch definefont pop
/Courier-Bold findfont
dup length dict begin
  {1 index /FID ne {def} {pop pop} ifelse} forall
  /Encoding WinAnsiEncoding def
  currentdict
end
/Courier-Bold exch definefont pop
/Helvetica findfont
dup length dict begin
  {1 index /FID ne {def} {pop pop} ifelse} forall
  /Encoding WinAnsiEncoding def
  currentdict
end
/Helvetica exch definefont pop
/Helvetica-Oblique findfont
dup length dict begin
  {1 index /FID ne {def} {pop pop} ifelse} forall
  /Encoding WinAnsiEncoding def
  currentdict
end
/Helvetica-Oblique exch definefont pop
/Helvetica-Bold findfont
dup length dict begin
  {1 index /FID ne {def} {pop pop} ifelse} forall
  /Encoding WinAnsiEncoding def
  currentdict
end
/Helvetica-Bold exch definefont pop
/Helvetica-BoldOblique findfont
dup length dict begin
  {1 index /FID ne {def} {pop pop} ifelse} forall
  /Encoding WinAnsiEncoding def
  currentdict
end
/Helvetica-BoldOblique exch definefont pop
/Times-Roman findfont
dup length dict begin
  {1 index /FID ne {def} {pop pop} ifelse} forall
  /Encoding WinAnsiEncoding def
  currentdict
end
/Times-Roman exch definefont pop
/Times-Italic findfont
dup length dict begin
  {1 index /FID ne {def} {pop pop} ifelse} forall
  /Encoding WinAnsiEncoding def
  currentdict
end
/Times-Italic exch definefont pop
/Times-Bold findfont
dup length dict begin
  {1 index /FID ne {def} {pop pop} ifelse} forall
  /Encoding WinAnsiEncoding def
  currentdict
end
/Times-Bold exch definefont pop
/Times-BoldItalic findfont
dup length dict begin
  {1 index /FID ne {def} {pop pop} ifelse} forall
  /Encoding WinAnsiEncoding def
  currentdict
end
/Times-BoldItalic exch definefont pop
/Courier findfont
dup length dict begin
  {1 index /FID ne {def} {pop pop} ifelse} forall
  /Encoding WinAnsiEncoding def
  currentdict
end
/Courier exch definefont pop
%FOPEndFontReencode
%%EndProlog
%%Page: 1 1
%%PageBoundingBox: 0 0 432 341
%%BeginPageSetup
[1 0 0 -1 0 341] CT
%%EndPageSetup
GS
[0.75789 0 0 0.75789 0 -0.05264] CT
N
0 0 M
570 0 L
570 450 L
0 450 L
0 0 L
cp
clip
1 GC
N
0 0 570 450 re
f
GR
GS
[0.75789 0 0 0.75789 0 -0.05264] CT
1 GC
N
0 0 570 450 re
f
GR
GS
[0.75789 0 0 0.75789 0 -0.05264] CT
1 GC
N
74 396 M
516 396 L
516 34 L
74 34 L
cp
f
GR
GS
[0.75789 0 0 0.75789 0 -0.05264] CT
0.873 GC
1 LJ
0.66 LW
N
74 396 M
74 34 L
S
GR
GS
[0.75789 0 0 0.75789 0 -0.05264] CT
0.873 GC
1 LJ
0.66 LW
N
138.054 396 M
138.054 34 L
S
GR
GS
[0.75789 0 0 0.75789 0 -0.05264] CT
0.873 GC
1 LJ
0.66 LW
N
202.108 396 M
202.108 34 L
S
GR
GS
[0.75789 0 0 0.75789 0 -0.05264] CT
0.873 GC
1 LJ
0.66 LW
N
266.161 396 M
266.161 34 L
S
GR
GS
[0.75789 0 0 0.75789 0 -0.05264] CT
0.873 GC
1 LJ
0.66 LW
N
330.215 396 M
330.215 34 L
S
GR
GS
[0.75789 0 0 0.75789 0 -0.05264] CT
0.873 GC
1 LJ
0.66 LW
N
394.269 396 M
394.269 34 L
S
GR
GS
[0.75789 0 0 0.75789 0 -0.05264] CT
0.873 GC
1 LJ
0.66 LW
N
458.323 396 M
458.323 34 L
S
GR
GS
[0.75789 0 0 0.75789 0 -0.05264] CT
0.873 GC
1 LJ
0.66 LW
N
516 396 M
74 396 L
S
GR
GS
[0.75789 0 0 0.75789 0 -0.05264] CT
0.873 GC
1 LJ
0.66 LW
N
516 350.75 M
74 350.75 L
S
GR
GS
[0.75789 0 0 0.75789 0 -0.05264] CT
0.873 GC
1 LJ
0.66 LW
N
516 305.5 M
74 305.5 L
S
GR
GS
[0.75789 0 0 0.75789 0 -0.05264] CT
0.873 GC
1 LJ
0.66 LW
N
516 260.25 M
74 260.25 L
S
GR
GS
[0.75789 0 0 0.75789 0 -0.05264] CT
0.873 GC
1 LJ
0.66 LW
N
516 215 M
74 215 L
S
GR
GS
[0.75789 0 0 0.75789 0 -0.05264] CT
0.873 GC
1 LJ
0.66 LW
N
516 169.75 M
74 169.75 L
S
GR
GS
[0.75789 0 0 0.75789 0 -0.05264] CT
0.873 GC
1 LJ
0.66 LW
N
516 124.5 M
74 124.5 L
S
GR
GS
[0.75789 0 0 0.75789 0 -0.05264] CT
0.873 GC
1 LJ
0.66 LW
N
516 79.25 M
74 79.25 L
S
GR
GS
[0.75789 0 0 0.75789 0 -0.05264] CT
0.873 GC
1 LJ
0.66 LW
N
516 34 M
74 34 L
S
GR
GS
[0.75789 0 0 0.75789 0 -0.05264] CT
0.149 GC
2 setlinecap
1 LJ
0.66 LW
N
74 396 M
516 396 L
S
GR
GS
[0.75789 0 0 0.75789 0 -0.05264] CT
0.149 GC
2 setlinecap
1 LJ
0.66 LW
N
74 396 M
74 391.58 L
S
GR
GS
[0.75789 0 0 0.75789 0 -0.05264] CT
0.149 GC
2 setlinecap
1 LJ
0.66 LW
N
138.054 396 M
138.054 391.58 L
S
GR
GS
[0.75789 0 0 0.75789 0 -0.05264] CT
0.149 GC
2 setlinecap
1 LJ
0.66 LW
N
202.108 396 M
202.108 391.58 L
S
GR
GS
[0.75789 0 0 0.75789 0 -0.05264] CT
0.149 GC
2 setlinecap
1 LJ
0.66 LW
N
266.161 396 M
266.161 391.58 L
S
GR
GS
[0.75789 0 0 0.75789 0 -0.05264] CT
0.149 GC
2 setlinecap
1 LJ
0.66 LW
N
330.215 396 M
330.215 391.58 L
S
GR
GS
[0.75789 0 0 0.75789 0 -0.05264] CT
0.149 GC
2 setlinecap
1 LJ
0.66 LW
N
394.269 396 M
394.269 391.58 L
S
GR
GS
[0.75789 0 0 0.75789 0 -0.05264] CT
0.149 GC
2 setlinecap
1 LJ
0.66 LW
N
458.323 396 M
458.323 391.58 L
S
GR
GS
[0.75789 0 0 0.75789 56.08421 304.87369] CT
0.149 GC
/Helvetica 18.472 F
GS
[1 0 0 1 0 0] CT
-6 18 moveto 
1 -1 scale
(0) t 
GR
GR
GS
[0.75789 0 0 0.75789 104.63023 304.87369] CT
0.149 GC
/Helvetica 18.472 F
GS
[1 0 0 1 0 0] CT
-15 18 moveto 
1 -1 scale
(0.1) t 
GR
GR
GS
[0.75789 0 0 0.75789 153.17624 304.87369] CT
0.149 GC
/Helvetica 18.472 F
GS
[1 0 0 1 0 0] CT
-15 18 moveto 
1 -1 scale
(0.2) t 
GR
GR
GS
[0.75789 0 0 0.75789 201.72226 304.87369] CT
0.149 GC
/Helvetica 18.472 F
GS
[1 0 0 1 0 0] CT
-15 18 moveto 
1 -1 scale
(0.3) t 
GR
GR
GS
[0.75789 0 0 0.75789 250.26828 304.87369] CT
0.149 GC
/Helvetica 18.472 F
GS
[1 0 0 1 0 0] CT
-15 18 moveto 
1 -1 scale
(0.4) t 
GR
GR
GS
[0.75789 0 0 0.75789 298.81429 304.87369] CT
0.149 GC
/Helvetica 18.472 F
GS
[1 0 0 1 0 0] CT
-15 18 moveto 
1 -1 scale
(0.5) t 
GR
GR
GS
[0.75789 0 0 0.75789 347.36031 304.87369] CT
0.149 GC
/Helvetica 18.472 F
GS
[1 0 0 1 0 0] CT
-15 18 moveto 
1 -1 scale
(0.6) t 
GR
GR
GS
[0.75789 0 0 0.75789 223.57911 322.54739] CT
0.149 GC
/Helvetica 20.319 F
GS
[1 0 0 1 0 0] CT
-17.5 19 moveto 
1 -1 scale
(t\(s\)) t 
GR
GR
GS
[0.75789 0 0 0.75789 0 -0.05264] CT
0.149 GC
2 setlinecap
1 LJ
0.66 LW
N
74 396 M
74 34 L
S
GR
GS
[0.75789 0 0 0.75789 0 -0.05264] CT
0.149 GC
2 setlinecap
1 LJ
0.66 LW
N
74 396 M
78.42 396 L
S
GR
GS
[0.75789 0 0 0.75789 0 -0.05264] CT
0.149 GC
2 setlinecap
1 LJ
0.66 LW
N
74 350.75 M
78.42 350.75 L
S
GR
GS
[0.75789 0 0 0.75789 0 -0.05264] CT
0.149 GC
2 setlinecap
1 LJ
0.66 LW
N
74 305.5 M
78.42 305.5 L
S
GR
GS
[0.75789 0 0 0.75789 0 -0.05264] CT
0.149 GC
2 setlinecap
1 LJ
0.66 LW
N
74 260.25 M
78.42 260.25 L
S
GR
GS
[0.75789 0 0 0.75789 0 -0.05264] CT
0.149 GC
2 setlinecap
1 LJ
0.66 LW
N
74 215 M
78.42 215 L
S
GR
GS
[0.75789 0 0 0.75789 0 -0.05264] CT
0.149 GC
2 setlinecap
1 LJ
0.66 LW
N
74 169.75 M
78.42 169.75 L
S
GR
GS
[0.75789 0 0 0.75789 0 -0.05264] CT
0.149 GC
2 setlinecap
1 LJ
0.66 LW
N
74 124.5 M
78.42 124.5 L
S
GR
GS
[0.75789 0 0 0.75789 0 -0.05264] CT
0.149 GC
2 setlinecap
1 LJ
0.66 LW
N
74 79.25 M
78.42 79.25 L
S
GR
GS
[0.75789 0 0 0.75789 0 -0.05264] CT
0.149 GC
2 setlinecap
1 LJ
0.66 LW
N
74 34 M
78.42 34 L
S
GR
GS
[0.75789 0 0 0.75789 51.28421 300.07368] CT
0.149 GC
/Helvetica 18.472 F
GS
[1 0 0 1 0 0] CT
-37 6.5 moveto 
1 -1 scale
(-0.8) t 
GR
GR
GS
[0.75789 0 0 0.75789 51.28421 265.77894] CT
0.149 GC
/Helvetica 18.472 F
GS
[1 0 0 1 0 0] CT
-37 6.5 moveto 
1 -1 scale
(-0.7) t 
GR
GR
GS
[0.75789 0 0 0.75789 51.28421 231.48421] CT
0.149 GC
/Helvetica 18.472 F
GS
[1 0 0 1 0 0] CT
-37 6.5 moveto 
1 -1 scale
(-0.6) t 
GR
GR
GS
[0.75789 0 0 0.75789 51.28421 197.18947] CT
0.149 GC
/Helvetica 18.472 F
GS
[1 0 0 1 0 0] CT
-37 6.5 moveto 
1 -1 scale
(-0.5) t 
GR
GR
GS
[0.75789 0 0 0.75789 51.28421 162.89473] CT
0.149 GC
/Helvetica 18.472 F
GS
[1 0 0 1 0 0] CT
-37 6.5 moveto 
1 -1 scale
(-0.4) t 
GR
GR
GS
[0.75789 0 0 0.75789 51.28421 128.59999] CT
0.149 GC
/Helvetica 18.472 F
GS
[1 0 0 1 0 0] CT
-37 6.5 moveto 
1 -1 scale
(-0.3) t 
GR
GR
GS
[0.75789 0 0 0.75789 51.28421 94.30526] CT
0.149 GC
/Helvetica 18.472 F
GS
[1 0 0 1 0 0] CT
-37 6.5 moveto 
1 -1 scale
(-0.2) t 
GR
GR
GS
[0.75789 0 0 0.75789 51.28421 60.01052] CT
0.149 GC
/Helvetica 18.472 F
GS
[1 0 0 1 0 0] CT
-37 6.5 moveto 
1 -1 scale
(-0.1) t 
GR
GR
GS
[0.75789 0 0 0.75789 51.28421 25.71578] CT
0.149 GC
/Helvetica 18.472 F
GS
[1 0 0 1 0 0] CT
-12 6.5 moveto 
1 -1 scale
(0) t 
GR
GR
GS
[0 -0.75789 0.75789 0 16.67368 188.66315] CT
0.149 GC
N
2.141 0.219 M
1.891 0.219 1.719 0.063 QT
1.547 -0.094 1.547 -0.344 QT
1.547 -0.453 1.563 -0.516 QT
3.063 -6.484 L
3.203 -7.047 3.203 -7.469 QT
3.203 -8.328 2.625 -8.328 QT
2 -8.328 1.695 -7.578 QT
1.391 -6.828 1.109 -5.688 QT
1.109 -5.625 1.047 -5.594 QT
0.984 -5.563 0.938 -5.563 QT
0.703 -5.563 L
0.641 -5.563 0.586 -5.633 QT
0.531 -5.703 0.531 -5.766 QT
0.75 -6.625 0.953 -7.234 QT
1.156 -7.844 1.578 -8.344 QT
2 -8.844 2.641 -8.844 QT
3.375 -8.844 3.961 -8.375 QT
4.547 -7.906 4.547 -7.156 QT
5.125 -7.938 5.914 -8.391 QT
6.703 -8.844 7.641 -8.844 QT
8.688 -8.844 9.313 -8.281 QT
9.938 -7.719 9.938 -6.688 QT
9.938 -6.078 9.813 -5.578 QT
7.484 3.688 L
7.422 3.969 7.188 4.141 QT
6.953 4.313 6.656 4.313 QT
6.422 4.313 6.242 4.164 QT
6.063 4.016 6.063 3.766 QT
6.063 3.641 6.078 3.609 QT
8.375 -5.609 L
8.578 -6.438 8.578 -6.984 QT
8.578 -7.547 8.344 -7.938 QT
8.109 -8.328 7.594 -8.328 QT
5.641 -8.328 4.344 -5.906 QT
2.984 -0.438 L
2.906 -0.172 2.672 0.023 QT
2.438 0.219 2.141 0.219 QT
cp
f
GR
GS
[0 -0.75789 0.75789 0 16.67368 180.32631] CT
0.149 GC
/Helvetica 20.319 F
GS
[1 0 0 1 0 0] CT
0 0 moveto 
1 -1 scale
( \(rad\)) t 
GR
GR
GS
[0.75789 0 0 0.75789 223.57916 22.7898] CT
/Helvetica-Bold 20.319 F
GS
[1 0 0 1 0 0] CT
-97 -5 moveto 
1 -1 scale
(\301ngulos de euler) t 
GR
GR
GS
[0.75789 0 0 0.75789 0 -0.05264] CT
0 0.447 0.741 RC
1 LJ
2.639 LW
N
74 34 M
74 34 L
74.001 34 L
74.005 34 L
74.026 34 L
74.129 34 L
74.646 34 L
76.562 34 L
79.124 34 L
81.686 34 L
84.249 34 L
86.811 34 L
88.318 34 L
89.059 34 L
89.373 34 L
89.654 34 L
91.059 34 L
91.935 34 L
93.61 34 L
94.497 34 L
95.214 34 L
97.059 34 L
99.622 34 L
101.695 34 L
102.184 34 L
104.746 34 L
107.308 34 L
109.87 34 L
112.432 34 L
114.994 34 L
117.557 34 L
120.119 34 L
122.681 34 L
125.243 34 L
127.805 34 L
130.367 34 L
132.929 34 L
135.492 34 L
138.054 34 L
138.054 34 L
138.054 34 L
139.064 34 L
139.251 34 L
139.304 34 L
139.323 34 L
139.343 34 L
139.36 34 L
139.447 34 L
139.88 34 L
140.616 34 L
143.178 34 L
145.74 34 L
148.302 34 L
150.865 34 L
153.427 34 L
155.989 34 L
158.551 34 L
161.113 34 L
163.675 34 L
166.237 34 L
168.8 34 L
171.362 34 L
173.924 34 L
176.486 34 L
179.048 34 L
181.61 34 L
184.172 34 L
186.735 34 L
189.297 34 L
191.859 34 L
194.421 34 L
196.983 34 L
199.545 34 L
202.108 34 L
204.67 34 L
207.232 34 L
209.794 34 L
212.356 34 L
214.918 34 L
217.48 34 L
220.043 34 L
222.605 34 L
225.167 34 L
227.729 34 L
230.291 34 L
232.853 34 L
235.415 34 L
237.978 34 L
240.54 34 L
243.102 34 L
245.664 34 L
248.226 34 L
250.788 34 L
253.351 34 L
255.913 34 L
258.475 34 L
261.037 34 L
263.599 34 L
266.161 34 L
268.723 34 L
271.286 34 L
273.848 34 L
276.41 34 L
278.972 34 L
281.534 34 L
284.096 34 L
286.659 34 L
289.221 34 L
291.783 34 L
294.345 34 L
296.907 34 L
299.469 34 L
302.031 34 L
304.594 34 L
307.156 34 L
309.718 34 L
312.28 34 L
314.842 34 L
317.404 34 L
319.966 34 L
322.529 34 L
325.091 34 L
327.653 34 L
330.215 34 L
332.777 34 L
335.339 34 L
337.902 34 L
340.464 34 L
343.026 34 L
345.588 34 L
348.15 34 L
350.712 34 L
353.274 34 L
355.837 34 L
358.399 34 L
360.961 34 L
363.523 34 L
366.085 34 L
368.647 34 L
371.209 34 L
373.772 34 L
376.334 34 L
378.896 34 L
381.458 34 L
384.02 34 L
386.582 34 L
389.145 34 L
391.707 34 L
394.269 34 L
396.831 34 L
399.393 34 L
401.955 34 L
404.517 34 L
407.08 34 L
409.642 34 L
412.204 34 L
414.766 34 L
417.328 34 L
419.89 34 L
422.453 34 L
425.015 34 L
427.577 34 L
430.139 34 L
432.701 34 L
435.263 34 L
437.825 34 L
440.388 34 L
442.95 34 L
445.512 34 L
448.074 34 L
450.636 34 L
453.198 34 L
455.76 34 L
458.323 34 L
460.885 34 L
463.447 34 L
466.009 34 L
468.571 34 L
471.133 34 L
473.696 34 L
476.258 34 L
478.82 34 L
481.382 34 L
483.944 34 L
486.506 34 L
489.068 34 L
491.631 34 L
494.193 34 L
496.755 34 L
499.317 34 L
501.879 34 L
504.441 34 L
507.003 34 L
509.566 34 L
512.128 34 L
514.69 34 L
516.053 34 L
S
GR
GS
[0.75789 0 0 0.75789 0 -0.05264] CT
0.851 0.325 0.098 RC
1 LJ
2.639 LW
N
74 34 M
74 34 L
74.001 34 L
74.005 34 L
74.026 34 L
74.129 34 L
74.646 34 L
76.562 34 L
79.124 34 L
81.686 34 L
84.249 34 L
86.811 34 L
88.318 34 L
89.059 34 L
89.373 34 L
89.654 34 L
91.059 34 L
91.935 34 L
93.61 34 L
94.497 34 L
95.214 34 L
97.059 34 L
99.622 34 L
101.695 34 L
102.184 34 L
104.746 34 L
107.308 34 L
109.87 34 L
112.432 34 L
114.994 34 L
117.557 34 L
120.119 34 L
122.681 34 L
125.243 34 L
127.805 34 L
130.367 34 L
132.929 34 L
135.492 34 L
138.054 34 L
138.054 34 L
138.054 34 L
139.064 34 L
139.251 34 L
139.304 34 L
139.323 34 L
139.343 34 L
139.36 34 L
139.447 34 L
139.88 34 L
140.616 34.004 L
143.178 34.089 L
145.74 34.373 L
148.302 34.927 L
150.865 35.794 L
153.427 37.001 L
155.989 38.562 L
158.551 40.49 L
161.113 42.789 L
163.675 45.463 L
166.237 48.517 L
168.8 51.951 L
171.362 55.767 L
173.924 59.965 L
176.486 64.546 L
179.048 69.51 L
181.61 74.858 L
184.172 80.59 L
186.735 86.706 L
189.297 93.205 L
191.859 100.088 L
194.421 107.356 L
196.983 115.007 L
199.545 123.042 L
202.108 131.462 L
204.67 140.265 L
207.232 149.447 L
209.794 158.983 L
212.356 168.813 L
214.918 178.843 L
217.48 188.95 L
220.043 199.008 L
222.605 208.903 L
225.167 218.556 L
227.729 227.919 L
230.291 236.965 L
232.853 245.685 L
235.415 254.082 L
237.978 262.161 L
240.54 269.929 L
243.102 277.391 L
245.664 284.548 L
248.226 291.398 L
250.788 297.938 L
253.351 304.164 L
255.913 310.076 L
258.475 315.672 L
261.037 320.956 L
263.599 325.933 L
266.161 330.611 L
268.723 335 L
271.286 339.111 L
273.848 342.958 L
276.41 346.553 L
278.972 349.909 L
281.534 353.039 L
284.096 355.955 L
286.659 358.668 L
289.221 361.19 L
291.783 363.531 L
294.345 365.701 L
296.907 367.71 L
299.469 369.569 L
302.031 371.285 L
304.594 372.869 L
307.156 374.33 L
309.718 375.676 L
312.28 376.914 L
314.842 378.053 L
317.404 379.1 L
319.966 380.061 L
322.529 380.943 L
325.091 381.751 L
327.653 382.491 L
330.215 383.167 L
332.777 383.785 L
335.339 384.349 L
337.902 384.863 L
340.464 385.331 L
343.026 385.757 L
345.588 386.144 L
348.15 386.495 L
350.712 386.813 L
353.274 387.102 L
355.837 387.363 L
358.399 387.599 L
360.961 387.812 L
363.523 388.003 L
366.085 388.176 L
368.647 388.331 L
371.209 388.47 L
373.772 388.595 L
376.334 388.706 L
378.896 388.805 L
381.458 388.894 L
384.02 388.972 L
386.582 389.042 L
389.145 389.103 L
391.707 389.158 L
394.269 389.206 L
396.831 389.247 L
399.393 389.284 L
401.955 389.316 L
404.517 389.343 L
407.08 389.367 L
409.642 389.387 L
412.204 389.405 L
414.766 389.419 L
417.328 389.432 L
419.89 389.442 L
422.453 389.45 L
425.015 389.456 L
427.577 389.462 L
430.139 389.466 L
432.701 389.468 L
435.263 389.47 L
437.825 389.471 L
440.388 389.472 L
442.95 389.471 L
445.512 389.47 L
448.074 389.469 L
450.636 389.468 L
453.198 389.466 L
455.76 389.464 L
458.323 389.461 L
460.885 389.459 L
463.447 389.457 L
466.009 389.454 L
468.571 389.451 L
471.133 389.449 L
473.696 389.446 L
476.258 389.443 L
478.82 389.441 L
481.382 389.438 L
483.944 389.436 L
486.506 389.434 L
489.068 389.431 L
491.631 389.429 L
494.193 389.427 L
496.755 389.425 L
499.317 389.423 L
501.879 389.421 L
504.441 389.419 L
507.003 389.417 L
509.566 389.416 L
512.128 389.414 L
514.69 389.413 L
516.053 389.412 L
S
GR
GS
[0.75789 0 0 0.75789 0 -0.05264] CT
0.929 0.694 0.125 RC
1 LJ
2.639 LW
N
74 34 M
74 34 L
74.001 34 L
74.005 34 L
74.026 34 L
74.129 34 L
74.646 34 L
76.562 34 L
79.124 34 L
81.686 34 L
84.249 34 L
86.811 34 L
88.318 34 L
89.059 34 L
89.373 34 L
89.654 34 L
91.059 34 L
91.935 34 L
93.61 34 L
94.497 34 L
95.214 34 L
97.059 34 L
99.622 34 L
101.695 34 L
102.184 34 L
104.746 34 L
107.308 34 L
109.87 34 L
112.432 34 L
114.994 34 L
117.557 34 L
120.119 34 L
122.681 34 L
125.243 34 L
127.805 34 L
130.367 34 L
132.929 34 L
135.492 34 L
138.054 34 L
138.054 34 L
138.054 34 L
139.064 34 L
139.251 34 L
139.304 34 L
139.323 34 L
139.343 34 L
139.36 34 L
139.447 34 L
139.88 34 L
140.616 34 L
143.178 34 L
145.74 34 L
148.302 34 L
150.865 34 L
153.427 34 L
155.989 34 L
158.551 34 L
161.113 34 L
163.675 34 L
166.237 34 L
168.8 34 L
171.362 34 L
173.924 34 L
176.486 34 L
179.048 34 L
181.61 34 L
184.172 34 L
186.735 34 L
189.297 34 L
191.859 34 L
194.421 34 L
196.983 34 L
199.545 34 L
202.108 34 L
204.67 34 L
207.232 34 L
209.794 34 L
212.356 34 L
214.918 34 L
217.48 34 L
220.043 34 L
222.605 34 L
225.167 34 L
227.729 34 L
230.291 34 L
232.853 34 L
235.415 34 L
237.978 34 L
240.54 34 L
243.102 34 L
245.664 34 L
248.226 34 L
250.788 34 L
253.351 34 L
255.913 34 L
258.475 34 L
261.037 34 L
263.599 34 L
266.161 34 L
268.723 34 L
271.286 34 L
273.848 34 L
276.41 34 L
278.972 34 L
281.534 34 L
284.096 34 L
286.659 34 L
289.221 34 L
291.783 34 L
294.345 34 L
296.907 34 L
299.469 34 L
302.031 34 L
304.594 34 L
307.156 34 L
309.718 34 L
312.28 34 L
314.842 34 L
317.404 34 L
319.966 34 L
322.529 34 L
325.091 34 L
327.653 34 L
330.215 34 L
332.777 34 L
335.339 34 L
337.902 34 L
340.464 34 L
343.026 34 L
345.588 34 L
348.15 34 L
350.712 34 L
353.274 34 L
355.837 34 L
358.399 34 L
360.961 34 L
363.523 34 L
366.085 34 L
368.647 34 L
371.209 34 L
373.772 34 L
376.334 34 L
378.896 34 L
381.458 34 L
384.02 34 L
386.582 34 L
389.145 34 L
391.707 34 L
394.269 34 L
396.831 34 L
399.393 34 L
401.955 34 L
404.517 34 L
407.08 34 L
409.642 34 L
412.204 34 L
414.766 34 L
417.328 34 L
419.89 34 L
422.453 34 L
425.015 34 L
427.577 34 L
430.139 34 L
432.701 34 L
435.263 34 L
437.825 34 L
440.388 34 L
442.95 34 L
445.512 34 L
448.074 34 L
450.636 34 L
453.198 34 L
455.76 34 L
458.323 34 L
460.885 34 L
463.447 34 L
466.009 34 L
468.571 34 L
471.133 34 L
473.696 34 L
476.258 34 L
478.82 34 L
481.382 34 L
483.944 34 L
486.506 34 L
489.068 34 L
491.631 34 L
494.193 34 L
496.755 34 L
499.317 34 L
501.879 34 L
504.441 34 L
507.003 34 L
509.566 34 L
512.128 34 L
514.69 34 L
516.053 34 L
S
GR
GS
[0.75789 0 0 0.75789 0 -0.05264] CT
0 0.447 0.741 RC
[8 8] 0 setdash
2 LJ
2.639 LW
N
74 34 M
74 34 L
74.001 34 L
74.005 34 L
74.026 34 L
74.129 34 L
74.646 34 L
76.562 34 L
79.124 34 L
81.686 34 L
84.249 34 L
86.811 34 L
88.318 34 L
89.059 34 L
89.373 34 L
89.654 34 L
91.059 34 L
91.935 34 L
93.61 34 L
94.497 34 L
95.214 34 L
97.059 34 L
99.622 34 L
101.695 34 L
102.184 34 L
104.746 34 L
107.308 34 L
109.87 34 L
112.432 34 L
114.994 34 L
117.557 34 L
120.119 34 L
122.681 34 L
125.243 34 L
127.805 34 L
130.367 34 L
132.929 34 L
135.492 34 L
138.054 34 L
138.054 34 L
138.054 34 L
139.064 34 L
139.251 34 L
139.304 34 L
139.323 34 L
139.343 34 L
139.36 34 L
139.447 34 L
139.88 34 L
140.616 34 L
143.178 34 L
145.74 34 L
148.302 34 L
150.865 34 L
153.427 34 L
155.989 34 L
158.551 34 L
161.113 34 L
163.675 34 L
166.237 34 L
168.8 34 L
171.362 34 L
173.924 34 L
176.486 34 L
179.048 34 L
181.61 34 L
184.172 34 L
186.735 34 L
189.297 34 L
191.859 34 L
194.421 34 L
196.983 34 L
199.545 34 L
202.108 34 L
204.67 34 L
207.232 34 L
209.794 34 L
212.356 34 L
214.918 34 L
217.48 34 L
220.043 34 L
222.605 34 L
225.167 34 L
227.729 34 L
230.291 34 L
232.853 34 L
235.415 34 L
237.978 34 L
240.54 34 L
243.102 34 L
245.664 34 L
248.226 34 L
250.788 34 L
253.351 34 L
255.913 34 L
258.475 34 L
261.037 34 L
263.599 34 L
266.161 34 L
268.723 34 L
271.286 34 L
273.848 34 L
276.41 34 L
278.972 34 L
281.534 34 L
284.096 34 L
286.659 34 L
289.221 34 L
291.783 34 L
294.345 34 L
296.907 34 L
299.469 34 L
302.031 34 L
304.594 34 L
307.156 34 L
309.718 34 L
312.28 34 L
314.842 34 L
317.404 34 L
319.966 34 L
322.529 34 L
325.091 34 L
327.653 34 L
330.215 34 L
332.777 34 L
335.339 34 L
337.902 34 L
340.464 34 L
343.026 34 L
345.588 34 L
348.15 34 L
350.712 34 L
353.274 34 L
355.837 34 L
358.399 34 L
360.961 34 L
363.523 34 L
366.085 34 L
368.647 34 L
371.209 34 L
373.772 34 L
376.334 34 L
378.896 34 L
381.458 34 L
384.02 34 L
386.582 34 L
389.145 34 L
391.707 34 L
394.269 34 L
396.831 34 L
399.393 34 L
401.955 34 L
404.517 34 L
407.08 34 L
409.642 34 L
412.204 34 L
414.766 34 L
417.328 34 L
419.89 34 L
422.453 34 L
425.015 34 L
427.577 34 L
430.139 34 L
432.701 34 L
435.263 34 L
437.825 34 L
440.388 34 L
442.95 34 L
445.512 34 L
448.074 34 L
450.636 34 L
453.198 34 L
455.76 34 L
458.323 34 L
460.885 34 L
463.447 34 L
466.009 34 L
468.571 34 L
471.133 34 L
473.696 34 L
476.258 34 L
478.82 34 L
481.382 34 L
483.944 34 L
486.506 34 L
489.068 34 L
491.631 34 L
494.193 34 L
496.755 34 L
499.317 34 L
501.879 34 L
504.441 34 L
507.003 34 L
509.566 34 L
512.128 34 L
514.69 34 L
516.053 34 L
S
GR
GS
[0.75789 0 0 0.75789 0 -0.05264] CT
0.851 0.325 0.098 RC
[8 8] 0 setdash
2 LJ
2.639 LW
N
74 34 M
74 34 L
74.001 34 L
74.005 34 L
74.026 34 L
74.129 34 L
74.646 34 L
76.562 34 L
79.124 34 L
81.686 34 L
84.249 34 L
86.811 34 L
88.318 34 L
89.059 34 L
89.373 34 L
89.654 34 L
91.059 34 L
91.935 34 L
93.61 34 L
94.497 34 L
95.214 34 L
97.059 34 L
99.622 34 L
101.695 34 L
102.184 34 L
104.746 34 L
107.308 34 L
109.87 34 L
112.432 34 L
114.994 34 L
117.557 34 L
120.119 34 L
122.681 34 L
125.243 34 L
127.805 34 L
130.367 34 L
132.929 34 L
135.492 34 L
138.054 34 L
138.054 389.393 L
138.054 389.393 L
139.064 389.393 L
139.251 389.393 L
139.304 389.393 L
139.323 389.393 L
139.343 389.393 L
139.36 389.393 L
139.447 389.393 L
139.88 389.393 L
140.616 389.393 L
143.178 389.393 L
145.74 389.393 L
148.302 389.393 L
150.865 389.393 L
153.427 389.393 L
155.989 389.393 L
158.551 389.393 L
161.113 389.393 L
163.675 389.393 L
166.237 389.393 L
168.8 389.393 L
171.362 389.393 L
173.924 389.393 L
176.486 389.393 L
179.048 389.393 L
181.61 389.393 L
184.172 389.393 L
186.735 389.393 L
189.297 389.393 L
191.859 389.393 L
194.421 389.393 L
196.983 389.393 L
199.545 389.393 L
202.108 389.393 L
204.67 389.393 L
207.232 389.393 L
209.794 389.393 L
212.356 389.393 L
214.918 389.393 L
217.48 389.393 L
220.043 389.393 L
222.605 389.393 L
225.167 389.393 L
227.729 389.393 L
230.291 389.393 L
232.853 389.393 L
235.415 389.393 L
237.978 389.393 L
240.54 389.393 L
243.102 389.393 L
245.664 389.393 L
248.226 389.393 L
250.788 389.393 L
253.351 389.393 L
255.913 389.393 L
258.475 389.393 L
261.037 389.393 L
263.599 389.393 L
266.161 389.393 L
268.723 389.393 L
271.286 389.393 L
273.848 389.393 L
276.41 389.393 L
278.972 389.393 L
281.534 389.393 L
284.096 389.393 L
286.659 389.393 L
289.221 389.393 L
291.783 389.393 L
294.345 389.393 L
296.907 389.393 L
299.469 389.393 L
302.031 389.393 L
304.594 389.393 L
307.156 389.393 L
309.718 389.393 L
312.28 389.393 L
314.842 389.393 L
317.404 389.393 L
319.966 389.393 L
322.529 389.393 L
325.091 389.393 L
327.653 389.393 L
330.215 389.393 L
332.777 389.393 L
335.339 389.393 L
337.902 389.393 L
340.464 389.393 L
343.026 389.393 L
345.588 389.393 L
348.15 389.393 L
350.712 389.393 L
353.274 389.393 L
355.837 389.393 L
358.399 389.393 L
360.961 389.393 L
363.523 389.393 L
366.085 389.393 L
368.647 389.393 L
371.209 389.393 L
373.772 389.393 L
376.334 389.393 L
378.896 389.393 L
381.458 389.393 L
384.02 389.393 L
386.582 389.393 L
389.145 389.393 L
391.707 389.393 L
394.269 389.393 L
396.831 389.393 L
399.393 389.393 L
401.955 389.393 L
404.517 389.393 L
407.08 389.393 L
409.642 389.393 L
412.204 389.393 L
414.766 389.393 L
417.328 389.393 L
419.89 389.393 L
422.453 389.393 L
425.015 389.393 L
427.577 389.393 L
430.139 389.393 L
432.701 389.393 L
435.263 389.393 L
437.825 389.393 L
440.388 389.393 L
442.95 389.393 L
445.512 389.393 L
448.074 389.393 L
450.636 389.393 L
453.198 389.393 L
455.76 389.393 L
458.323 389.393 L
460.885 389.393 L
463.447 389.393 L
466.009 389.393 L
468.571 389.393 L
471.133 389.393 L
473.696 389.393 L
476.258 389.393 L
478.82 389.393 L
481.382 389.393 L
483.944 389.393 L
486.506 389.393 L
489.068 389.393 L
491.631 389.393 L
494.193 389.393 L
496.755 389.393 L
499.317 389.393 L
501.879 389.393 L
504.441 389.393 L
507.003 389.393 L
509.566 389.393 L
512.128 389.393 L
514.69 389.393 L
516.053 389.393 L
S
GR
GS
[0.75789 0 0 0.75789 0 -0.05264] CT
0.929 0.694 0.125 RC
[8 8] 0 setdash
2 LJ
2.639 LW
N
74 34 M
74 34 L
74.001 34 L
74.005 34 L
74.026 34 L
74.129 34 L
74.646 34 L
76.562 34 L
79.124 34 L
81.686 34 L
84.249 34 L
86.811 34 L
88.318 34 L
89.059 34 L
89.373 34 L
89.654 34 L
91.059 34 L
91.935 34 L
93.61 34 L
94.497 34 L
95.214 34 L
97.059 34 L
99.622 34 L
101.695 34 L
102.184 34 L
104.746 34 L
107.308 34 L
109.87 34 L
112.432 34 L
114.994 34 L
117.557 34 L
120.119 34 L
122.681 34 L
125.243 34 L
127.805 34 L
130.367 34 L
132.929 34 L
135.492 34 L
138.054 34 L
138.054 34 L
138.054 34 L
139.064 34 L
139.251 34 L
139.304 34 L
139.323 34 L
139.343 34 L
139.36 34 L
139.447 34 L
139.88 34 L
140.616 34 L
143.178 34 L
145.74 34 L
148.302 34 L
150.865 34 L
153.427 34 L
155.989 34 L
158.551 34 L
161.113 34 L
163.675 34 L
166.237 34 L
168.8 34 L
171.362 34 L
173.924 34 L
176.486 34 L
179.048 34 L
181.61 34 L
184.172 34 L
186.735 34 L
189.297 34 L
191.859 34 L
194.421 34 L
196.983 34 L
199.545 34 L
202.108 34 L
204.67 34 L
207.232 34 L
209.794 34 L
212.356 34 L
214.918 34 L
217.48 34 L
220.043 34 L
222.605 34 L
225.167 34 L
227.729 34 L
230.291 34 L
232.853 34 L
235.415 34 L
237.978 34 L
240.54 34 L
243.102 34 L
245.664 34 L
248.226 34 L
250.788 34 L
253.351 34 L
255.913 34 L
258.475 34 L
261.037 34 L
263.599 34 L
266.161 34 L
268.723 34 L
271.286 34 L
273.848 34 L
276.41 34 L
278.972 34 L
281.534 34 L
284.096 34 L
286.659 34 L
289.221 34 L
291.783 34 L
294.345 34 L
296.907 34 L
299.469 34 L
302.031 34 L
304.594 34 L
307.156 34 L
309.718 34 L
312.28 34 L
314.842 34 L
317.404 34 L
319.966 34 L
322.529 34 L
325.091 34 L
327.653 34 L
330.215 34 L
332.777 34 L
335.339 34 L
337.902 34 L
340.464 34 L
343.026 34 L
345.588 34 L
348.15 34 L
350.712 34 L
353.274 34 L
355.837 34 L
358.399 34 L
360.961 34 L
363.523 34 L
366.085 34 L
368.647 34 L
371.209 34 L
373.772 34 L
376.334 34 L
378.896 34 L
381.458 34 L
384.02 34 L
386.582 34 L
389.145 34 L
391.707 34 L
394.269 34 L
396.831 34 L
399.393 34 L
401.955 34 L
404.517 34 L
407.08 34 L
409.642 34 L
412.204 34 L
414.766 34 L
417.328 34 L
419.89 34 L
422.453 34 L
425.015 34 L
427.577 34 L
430.139 34 L
432.701 34 L
435.263 34 L
437.825 34 L
440.388 34 L
442.95 34 L
445.512 34 L
448.074 34 L
450.636 34 L
453.198 34 L
455.76 34 L
458.323 34 L
460.885 34 L
463.447 34 L
466.009 34 L
468.571 34 L
471.133 34 L
473.696 34 L
476.258 34 L
478.82 34 L
481.382 34 L
483.944 34 L
486.506 34 L
489.068 34 L
491.631 34 L
494.193 34 L
496.755 34 L
499.317 34 L
501.879 34 L
504.441 34 L
507.003 34 L
509.566 34 L
512.128 34 L
514.69 34 L
516.053 34 L
S
GR
GS
[0.75789 0 0 0.75789 179.38027 195.54217] CT
N
-5 -5 M
-5 5 L
5 5 L
5 -5 L
cp
f
GR
GS
[0.75789 0 0 0.75789 179.38027 195.54217] CT
1 1 0.863 RC
10.0 ML
1.319 LW
N
-5 -5 M
-5 5 L
5 5 L
5 -5 L
cp
S
GR
GS
[0.75789 0 0 0.75789 0 -0.05264] CT
1 GC
N
505 110 M
505 45 L
413 45 L
413 110 L
cp
f
GR
GS
[0.75789 0 0 0.75789 348.09334 43.14736] CT
/Helvetica 16.625 F
GS
[1 0 0 1 0 0] CT
0 6 moveto 
1 -1 scale
(roll) t 
GR
GR
GS
[0.75789 0 0 0.75789 0 -0.05264] CT
0 0.447 0.741 RC
1 LJ
2.639 LW
N
416.975 57 M
456.309 57 L
S
GR
GS
[0.75789 0 0 0.75789 348.09334 58.6842] CT
/Helvetica 16.625 F
GS
[1 0 0 1 0 0] CT
0 6 moveto 
1 -1 scale
(pitch) t 
GR
GR
GS
[0.75789 0 0 0.75789 0 -0.05264] CT
0.851 0.325 0.098 RC
1 LJ
2.639 LW
N
416.975 77.5 M
456.309 77.5 L
S
GR
GS
[0.75789 0 0 0.75789 348.09334 74.22104] CT
/Helvetica 16.625 F
GS
[1 0 0 1 0 0] CT
0 6 moveto 
1 -1 scale
(yaw) t 
GR
GR
GS
[0.75789 0 0 0.75789 0 -0.05264] CT
0.929 0.694 0.125 RC
1 LJ
2.639 LW
N
416.975 98 M
456.309 98 L
S
GR
GS
[0.75789 0 0 0.75789 0 -0.05264] CT
0.149 GC
10.0 ML
0.66 LW
N
413 110 M
413 45 L
505 45 L
505 110 L
cp
S
GR
GS
[0.75789 0 0 0.75789 0 -0.05264] CT
1 1 0.933 RC
N
243.28 251.479 M
319.196 251.479 L
319.196 209.563 L
243.28 209.563 L
cp
f
GR
GS
[0.75789 0 0 0.75789 0 -0.05264] CT
0.8 GC
10.0 ML
0.66 LW
N
243.28 251.479 M
319.196 251.479 L
319.196 209.563 L
243.28 209.563 L
cp
S
GR
GS
[0.75789 0 0 0.75789 187.38028 187.54217] CT
/Helvetica 13.194 F
GS
[1 0 0 1 0 0] CT
0 -21 moveto 
1 -1 scale
(X: 0.254) t 
GR
GR
GS
[0.75789 0 0 0.75789 187.38028 187.54217] CT
/Helvetica 13.194 F
GS
[1 0 0 1 0 0] CT
0 -4 moveto 
1 -1 scale
(Y: -0.4952) t 
GR
GR
GS
[0.75789 0 0 0.75789 179.38028 195.54217] CT
0.608 GC
N
/f-719462112{-5 -5 M
-5 5 L
5 5 L
5 -5 L
cp}def
f-719462112
f
GR
GS
[0.75789 0 0 0.75789 179.38028 195.54217] CT
1 1 0.946 RC
10.0 ML
1.319 LW
N
-5 -5 M
-5 5 L
5 5 L
5 -5 L
cp
S
GR
%%Trailer
%%Pages: 1
%%EOF
