%!PS-Adobe-3.0 EPSF-3.0
%%Creator: (MATLAB, The Mathworks, Inc. Version 9.4.0.813654 \(R2018a\). Operating System: Linux)
%%Title: /home/isidro/google-drive/TFG/tilt-rotor-matlab/figuras/memoria/analitico/F_NED_2.eps
%%CreationDate: 2019-09-04T20:10:55
%%Pages: (atend)
%%BoundingBox: 0 0 428 338
%%LanguageLevel: 3
%%EndComments
%%BeginProlog
%%BeginResource: procset (Apache XML Graphics Std ProcSet) 1.2 0
%%Version: 1.2 0
%%Copyright: (Copyright 2001-2003,2010 The Apache Software Foundation. License terms: http://www.apache.org/licenses/LICENSE-2.0)
/bd{bind def}bind def
/ld{load def}bd
/GR/grestore ld
/GS/gsave ld
/RM/rmoveto ld
/C/curveto ld
/t/show ld
/L/lineto ld
/ML/setmiterlimit ld
/CT/concat ld
/f/fill ld
/N/newpath ld
/S/stroke ld
/CC/setcmykcolor ld
/A/ashow ld
/cp/closepath ld
/RC/setrgbcolor ld
/LJ/setlinejoin ld
/GC/setgray ld
/LW/setlinewidth ld
/M/moveto ld
/re {4 2 roll M
1 index 0 rlineto
0 exch rlineto
neg 0 rlineto
cp } bd
/_ctm matrix def
/_tm matrix def
/BT { _ctm currentmatrix pop matrix _tm copy pop 0 0 moveto } bd
/ET { _ctm setmatrix } bd
/iTm { _ctm setmatrix _tm concat } bd
/Tm { _tm astore pop iTm 0 0 moveto } bd
/ux 0.0 def
/uy 0.0 def
/F {
  /Tp exch def
  /Tf exch def
  Tf findfont Tp scalefont setfont
  /cf Tf def  /cs Tp def
} bd
/ULS {currentpoint /uy exch def /ux exch def} bd
/ULE {
  /Tcx currentpoint pop def
  gsave
  newpath
  cf findfont cs scalefont dup
  /FontMatrix get 0 get /Ts exch def /FontInfo get dup
  /UnderlinePosition get Ts mul /To exch def
  /UnderlineThickness get Ts mul /Tt exch def
  ux uy To add moveto  Tcx uy To add lineto
  Tt setlinewidth stroke
  grestore
} bd
/OLE {
  /Tcx currentpoint pop def
  gsave
  newpath
  cf findfont cs scalefont dup
  /FontMatrix get 0 get /Ts exch def /FontInfo get dup
  /UnderlinePosition get Ts mul /To exch def
  /UnderlineThickness get Ts mul /Tt exch def
  ux uy To add cs add moveto Tcx uy To add cs add lineto
  Tt setlinewidth stroke
  grestore
} bd
/SOE {
  /Tcx currentpoint pop def
  gsave
  newpath
  cf findfont cs scalefont dup
  /FontMatrix get 0 get /Ts exch def /FontInfo get dup
  /UnderlinePosition get Ts mul /To exch def
  /UnderlineThickness get Ts mul /Tt exch def
  ux uy To add cs 10 mul 26 idiv add moveto Tcx uy To add cs 10 mul 26 idiv add lineto
  Tt setlinewidth stroke
  grestore
} bd
/QT {
/Y22 exch store
/X22 exch store
/Y21 exch store
/X21 exch store
currentpoint
/Y21 load 2 mul add 3 div exch
/X21 load 2 mul add 3 div exch
/X21 load 2 mul /X22 load add 3 div
/Y21 load 2 mul /Y22 load add 3 div
/X22 load /Y22 load curveto
} bd
/SSPD {
dup length /d exch dict def
{
/v exch def
/k exch def
currentpagedevice k known {
/cpdv currentpagedevice k get def
v cpdv ne {
/upd false def
/nullv v type /nulltype eq def
/nullcpdv cpdv type /nulltype eq def
nullv nullcpdv or
{
/upd true def
} {
/sametype v type cpdv type eq def
sametype {
v type /arraytype eq {
/vlen v length def
/cpdvlen cpdv length def
vlen cpdvlen eq {
0 1 vlen 1 sub {
/i exch def
/obj v i get def
/cpdobj cpdv i get def
obj cpdobj ne {
/upd true def
exit
} if
} for
} {
/upd true def
} ifelse
} {
v type /dicttype eq {
v {
/dv exch def
/dk exch def
/cpddv cpdv dk get def
dv cpddv ne {
/upd true def
exit
} if
} forall
} {
/upd true def
} ifelse
} ifelse
} if
} ifelse
upd true eq {
d k v put
} if
} if
} if
} forall
d length 0 gt {
d setpagedevice
} if
} bd
/RE { % /NewFontName [NewEncodingArray] /FontName RE -
  findfont dup length dict begin
  {
    1 index /FID ne
    {def} {pop pop} ifelse
  } forall
  /Encoding exch def
  /FontName 1 index def
  currentdict definefont pop
  end
} bind def
%%EndResource
%%BeginResource: procset (Apache XML Graphics EPS ProcSet) 1.0 0
%%Version: 1.0 0
%%Copyright: (Copyright 2002-2003 The Apache Software Foundation. License terms: http://www.apache.org/licenses/LICENSE-2.0)
/BeginEPSF { %def
/b4_Inc_state save def         % Save state for cleanup
/dict_count countdictstack def % Count objects on dict stack
/op_count count 1 sub def      % Count objects on operand stack
userdict begin                 % Push userdict on dict stack
/showpage { } def              % Redefine showpage, { } = null proc
0 setgray 0 setlinecap         % Prepare graphics state
1 setlinewidth 0 setlinejoin
10 setmiterlimit [ ] 0 setdash newpath
/languagelevel where           % If level not equal to 1 then
{pop languagelevel             % set strokeadjust and
1 ne                           % overprint to their defaults.
{false setstrokeadjust false setoverprint
} if
} if
} bd
/EndEPSF { %def
count op_count sub {pop} repeat            % Clean up stacks
countdictstack dict_count sub {end} repeat
b4_Inc_state restore
} bd
%%EndResource
%FOPBeginFontDict
%%IncludeResource: font Courier-Oblique
%%IncludeResource: font Courier-BoldOblique
%%IncludeResource: font Courier-Bold
%%IncludeResource: font ZapfDingbats
%%IncludeResource: font Symbol
%%IncludeResource: font Helvetica
%%IncludeResource: font Helvetica-Oblique
%%IncludeResource: font Helvetica-Bold
%%IncludeResource: font Helvetica-BoldOblique
%%IncludeResource: font Times-Roman
%%IncludeResource: font Times-Italic
%%IncludeResource: font Times-Bold
%%IncludeResource: font Times-BoldItalic
%%IncludeResource: font Courier
%FOPEndFontDict
%%BeginResource: encoding WinAnsiEncoding
/WinAnsiEncoding [
/.notdef /.notdef /.notdef /.notdef /.notdef
/.notdef /.notdef /.notdef /.notdef /.notdef
/.notdef /.notdef /.notdef /.notdef /.notdef
/.notdef /.notdef /.notdef /.notdef /.notdef
/.notdef /.notdef /.notdef /.notdef /.notdef
/.notdef /.notdef /.notdef /.notdef /.notdef
/.notdef /.notdef /space /exclam /quotedbl
/numbersign /dollar /percent /ampersand /quotesingle
/parenleft /parenright /asterisk /plus /comma
/hyphen /period /slash /zero /one
/two /three /four /five /six
/seven /eight /nine /colon /semicolon
/less /equal /greater /question /at
/A /B /C /D /E
/F /G /H /I /J
/K /L /M /N /O
/P /Q /R /S /T
/U /V /W /X /Y
/Z /bracketleft /backslash /bracketright /asciicircum
/underscore /quoteleft /a /b /c
/d /e /f /g /h
/i /j /k /l /m
/n /o /p /q /r
/s /t /u /v /w
/x /y /z /braceleft /bar
/braceright /asciitilde /bullet /Euro /bullet
/quotesinglbase /florin /quotedblbase /ellipsis /dagger
/daggerdbl /circumflex /perthousand /Scaron /guilsinglleft
/OE /bullet /Zcaron /bullet /bullet
/quoteleft /quoteright /quotedblleft /quotedblright /bullet
/endash /emdash /asciitilde /trademark /scaron
/guilsinglright /oe /bullet /zcaron /Ydieresis
/space /exclamdown /cent /sterling /currency
/yen /brokenbar /section /dieresis /copyright
/ordfeminine /guillemotleft /logicalnot /sfthyphen /registered
/macron /degree /plusminus /twosuperior /threesuperior
/acute /mu /paragraph /middot /cedilla
/onesuperior /ordmasculine /guillemotright /onequarter /onehalf
/threequarters /questiondown /Agrave /Aacute /Acircumflex
/Atilde /Adieresis /Aring /AE /Ccedilla
/Egrave /Eacute /Ecircumflex /Edieresis /Igrave
/Iacute /Icircumflex /Idieresis /Eth /Ntilde
/Ograve /Oacute /Ocircumflex /Otilde /Odieresis
/multiply /Oslash /Ugrave /Uacute /Ucircumflex
/Udieresis /Yacute /Thorn /germandbls /agrave
/aacute /acircumflex /atilde /adieresis /aring
/ae /ccedilla /egrave /eacute /ecircumflex
/edieresis /igrave /iacute /icircumflex /idieresis
/eth /ntilde /ograve /oacute /ocircumflex
/otilde /odieresis /divide /oslash /ugrave
/uacute /ucircumflex /udieresis /yacute /thorn
/ydieresis
] def
%%EndResource
%FOPBeginFontReencode
/Courier-Oblique findfont
dup length dict begin
  {1 index /FID ne {def} {pop pop} ifelse} forall
  /Encoding WinAnsiEncoding def
  currentdict
end
/Courier-Oblique exch definefont pop
/Courier-BoldOblique findfont
dup length dict begin
  {1 index /FID ne {def} {pop pop} ifelse} forall
  /Encoding WinAnsiEncoding def
  currentdict
end
/Courier-BoldOblique exch definefont pop
/Courier-Bold findfont
dup length dict begin
  {1 index /FID ne {def} {pop pop} ifelse} forall
  /Encoding WinAnsiEncoding def
  currentdict
end
/Courier-Bold exch definefont pop
/Helvetica findfont
dup length dict begin
  {1 index /FID ne {def} {pop pop} ifelse} forall
  /Encoding WinAnsiEncoding def
  currentdict
end
/Helvetica exch definefont pop
/Helvetica-Oblique findfont
dup length dict begin
  {1 index /FID ne {def} {pop pop} ifelse} forall
  /Encoding WinAnsiEncoding def
  currentdict
end
/Helvetica-Oblique exch definefont pop
/Helvetica-Bold findfont
dup length dict begin
  {1 index /FID ne {def} {pop pop} ifelse} forall
  /Encoding WinAnsiEncoding def
  currentdict
end
/Helvetica-Bold exch definefont pop
/Helvetica-BoldOblique findfont
dup length dict begin
  {1 index /FID ne {def} {pop pop} ifelse} forall
  /Encoding WinAnsiEncoding def
  currentdict
end
/Helvetica-BoldOblique exch definefont pop
/Times-Roman findfont
dup length dict begin
  {1 index /FID ne {def} {pop pop} ifelse} forall
  /Encoding WinAnsiEncoding def
  currentdict
end
/Times-Roman exch definefont pop
/Times-Italic findfont
dup length dict begin
  {1 index /FID ne {def} {pop pop} ifelse} forall
  /Encoding WinAnsiEncoding def
  currentdict
end
/Times-Italic exch definefont pop
/Times-Bold findfont
dup length dict begin
  {1 index /FID ne {def} {pop pop} ifelse} forall
  /Encoding WinAnsiEncoding def
  currentdict
end
/Times-Bold exch definefont pop
/Times-BoldItalic findfont
dup length dict begin
  {1 index /FID ne {def} {pop pop} ifelse} forall
  /Encoding WinAnsiEncoding def
  currentdict
end
/Times-BoldItalic exch definefont pop
/Courier findfont
dup length dict begin
  {1 index /FID ne {def} {pop pop} ifelse} forall
  /Encoding WinAnsiEncoding def
  currentdict
end
/Courier exch definefont pop
%FOPEndFontReencode
%%EndProlog
%%Page: 1 1
%%PageBoundingBox: 0 0 428 338
%%BeginPageSetup
[1 0 0 -1 0 338] CT
%%EndPageSetup
GS
[0.75 0 0 0.75 0 0.5] CT
N
0 0 M
570 0 L
570 450 L
0 450 L
0 0 L
cp
clip
1 GC
N
0 0 570 450 re
f
GR
GS
[0.75 0 0 0.75 0 0.5] CT
1 GC
N
0 0 570 450 re
f
GR
GS
[0.75 0 0 0.75 0 0.5] CT
1 GC
N
75 395 M
516 395 L
516 34 L
75 34 L
cp
f
GR
GS
[0.75 0 0 0.75 0 0.5] CT
0.873 GC
1 LJ
0.667 LW
N
75 395 M
75 34 L
S
GR
GS
[0.75 0 0 0.75 0 0.5] CT
0.873 GC
1 LJ
0.667 LW
N
172.693 395 M
172.693 34 L
S
GR
GS
[0.75 0 0 0.75 0 0.5] CT
0.873 GC
1 LJ
0.667 LW
N
270.387 395 M
270.387 34 L
S
GR
GS
[0.75 0 0 0.75 0 0.5] CT
0.873 GC
1 LJ
0.667 LW
N
368.08 395 M
368.08 34 L
S
GR
GS
[0.75 0 0 0.75 0 0.5] CT
0.873 GC
1 LJ
0.667 LW
N
465.773 395 M
465.773 34 L
S
GR
GS
[0.75 0 0 0.75 0 0.5] CT
0.873 GC
1 LJ
0.667 LW
N
516 395 M
75 395 L
S
GR
GS
[0.75 0 0 0.75 0 0.5] CT
0.873 GC
1 LJ
0.667 LW
N
516 304.75 M
75 304.75 L
S
GR
GS
[0.75 0 0 0.75 0 0.5] CT
0.873 GC
1 LJ
0.667 LW
N
516 214.5 M
75 214.5 L
S
GR
GS
[0.75 0 0 0.75 0 0.5] CT
0.873 GC
1 LJ
0.667 LW
N
516 124.25 M
75 124.25 L
S
GR
GS
[0.75 0 0 0.75 0 0.5] CT
0.873 GC
1 LJ
0.667 LW
N
516 34 M
75 34 L
S
GR
GS
[0.75 0 0 0.75 0 0.5] CT
0.149 GC
2 setlinecap
1 LJ
0.667 LW
N
75 395 M
516 395 L
S
GR
GS
[0.75 0 0 0.75 0 0.5] CT
0.149 GC
2 setlinecap
1 LJ
0.667 LW
N
75 395 M
75 390.59 L
S
GR
GS
[0.75 0 0 0.75 0 0.5] CT
0.149 GC
2 setlinecap
1 LJ
0.667 LW
N
172.693 395 M
172.693 390.59 L
S
GR
GS
[0.75 0 0 0.75 0 0.5] CT
0.149 GC
2 setlinecap
1 LJ
0.667 LW
N
270.387 395 M
270.387 390.59 L
S
GR
GS
[0.75 0 0 0.75 0 0.5] CT
0.149 GC
2 setlinecap
1 LJ
0.667 LW
N
368.08 395 M
368.08 390.59 L
S
GR
GS
[0.75 0 0 0.75 0 0.5] CT
0.149 GC
2 setlinecap
1 LJ
0.667 LW
N
465.773 395 M
465.773 390.59 L
S
GR
GS
[0.75 0 0 0.75 56.25 301.55] CT
0.149 GC
/Helvetica 18.667 F
GS
[1 0 0 1 0 0] CT
-6 18 moveto 
1 -1 scale
(0) t 
GR
GR
GS
[0.75 0 0 0.75 129.51994 301.55] CT
0.149 GC
/Helvetica 18.667 F
GS
[1 0 0 1 0 0] CT
-15 18 moveto 
1 -1 scale
(0.2) t 
GR
GR
GS
[0.75 0 0 0.75 202.78988 301.55] CT
0.149 GC
/Helvetica 18.667 F
GS
[1 0 0 1 0 0] CT
-15 18 moveto 
1 -1 scale
(0.4) t 
GR
GR
GS
[0.75 0 0 0.75 276.05981 301.55] CT
0.149 GC
/Helvetica 18.667 F
GS
[1 0 0 1 0 0] CT
-15 18 moveto 
1 -1 scale
(0.6) t 
GR
GR
GS
[0.75 0 0 0.75 349.32973 301.55] CT
0.149 GC
/Helvetica 18.667 F
GS
[1 0 0 1 0 0] CT
-15 18 moveto 
1 -1 scale
(0.8) t 
GR
GR
GS
[0.75 0 0 0.75 221.62516 319.05] CT
0.149 GC
/Helvetica 20.533 F
GS
[1 0 0 1 0 0] CT
-17.5 20 moveto 
1 -1 scale
(t\(s\)) t 
GR
GR
GS
[0.75 0 0 0.75 0 0.5] CT
0.149 GC
2 setlinecap
1 LJ
0.667 LW
N
75 395 M
75 34 L
S
GR
GS
[0.75 0 0 0.75 0 0.5] CT
0.149 GC
2 setlinecap
1 LJ
0.667 LW
N
75 395 M
79.41 395 L
S
GR
GS
[0.75 0 0 0.75 0 0.5] CT
0.149 GC
2 setlinecap
1 LJ
0.667 LW
N
75 304.75 M
79.41 304.75 L
S
GR
GS
[0.75 0 0 0.75 0 0.5] CT
0.149 GC
2 setlinecap
1 LJ
0.667 LW
N
75 214.5 M
79.41 214.5 L
S
GR
GS
[0.75 0 0 0.75 0 0.5] CT
0.149 GC
2 setlinecap
1 LJ
0.667 LW
N
75 124.25 M
79.41 124.25 L
S
GR
GS
[0.75 0 0 0.75 0 0.5] CT
0.149 GC
2 setlinecap
1 LJ
0.667 LW
N
75 34 M
79.41 34 L
S
GR
GS
[0.75 0 0 0.75 51.45 296.75] CT
0.149 GC
/Helvetica 18.667 F
GS
[1 0 0 1 0 0] CT
-31 6.5 moveto 
1 -1 scale
(-20) t 
GR
GR
GS
[0.75 0 0 0.75 51.45 229.0625] CT
0.149 GC
/Helvetica 18.667 F
GS
[1 0 0 1 0 0] CT
-31 6.5 moveto 
1 -1 scale
(-15) t 
GR
GR
GS
[0.75 0 0 0.75 51.45 161.375] CT
0.149 GC
/Helvetica 18.667 F
GS
[1 0 0 1 0 0] CT
-31 6.5 moveto 
1 -1 scale
(-10) t 
GR
GR
GS
[0.75 0 0 0.75 51.45 93.6875] CT
0.149 GC
/Helvetica 18.667 F
GS
[1 0 0 1 0 0] CT
-19 6.5 moveto 
1 -1 scale
(-5) t 
GR
GR
GS
[0.75 0 0 0.75 51.45 26] CT
0.149 GC
/Helvetica 18.667 F
GS
[1 0 0 1 0 0] CT
-12 6.5 moveto 
1 -1 scale
(0) t 
GR
GR
GS
[0 -0.75 0.75 0 15 193.25] CT
0.149 GC
/Helvetica 20.533 F
GS
[1 0 0 1 0 0] CT
0 0 moveto 
1 -1 scale
(F) t 
GR
GR
GS
[0 -0.75 0.75 0 22.5 184.25] CT
0.149 GC
/Helvetica 16.427 F
GS
[1 0 0 1 0 0] CT
0 0 moveto 
1 -1 scale
(NED) t 
GR
GR
GS
[0 -0.75 0.75 0 15 157.25] CT
0.149 GC
/Helvetica 20.533 F
GS
[1 0 0 1 0 0] CT
0 0 moveto 
1 -1 scale
( \(N\)) t 
GR
GR
GS
[0.75 0 0 0.75 221.62521 23.10448] CT
/Helvetica-Bold 20.533 F
GS
[1 0 0 1 0 0] CT
-208.5 -5 moveto 
1 -1 scale
(Fuerzas deseadas en ejes inerciales) t 
GR
GR
GS
[0.75 0 0 0.75 0 0.5] CT
0 0.447 0.741 RC
1 LJ
2.667 LW
N
75 34 M
75 34 L
75.001 34 L
75.004 34 L
75.02 34 L
75.099 34 L
75.493 34 L
76.954 34 L
78.908 34 L
80.862 34 L
82.815 34 L
84.769 34 L
85.919 34 L
86.484 34 L
86.723 34 L
86.938 34 L
88.009 34 L
88.677 34 L
89.954 34 L
90.631 34 L
91.178 34 L
92.585 34 L
94.539 34 L
96.12 34 L
96.493 34 L
98.446 34 L
100.4 34 L
102.354 34 L
104.308 34 L
106.262 34 L
108.216 34 L
110.17 34 L
112.123 34 L
114.077 34 L
116.031 34 L
117.985 34 L
119.939 34 L
121.893 34 L
123.847 34 L
123.847 34 L
123.847 34 L
125.8 34 L
127.754 34 L
129.708 34 L
131.662 34 L
133.616 34 L
135.57 34 L
137.524 34 L
139.478 34 L
141.431 34 L
143.385 34 L
145.339 34 L
147.293 34 L
149.247 34 L
151.201 34 L
153.155 34 L
155.108 34 L
157.062 34 L
159.016 34 L
160.97 34 L
162.924 34 L
164.878 34 L
166.832 34 L
168.786 34 L
170.739 34 L
172.693 34 L
174.647 34 L
176.601 34 L
178.555 34 L
180.509 34 L
182.463 34 L
184.416 34 L
186.37 34 L
188.324 34 L
190.278 34 L
192.232 34 L
194.186 34 L
196.14 34 L
198.093 34 L
200.047 34 L
202.001 34 L
203.955 34 L
205.909 34 L
207.863 34 L
209.817 34 L
211.771 34 L
213.724 34 L
215.678 34 L
217.632 34 L
219.586 34 L
221.54 34 L
223.494 34 L
225.219 34 L
225.448 34 L
226.592 34 L
227.401 34 L
228.245 34 L
229.355 34 L
231.309 34 L
232.968 34 L
233.263 34 L
234.738 34 L
235.217 34 L
235.762 34 L
237.171 34 L
239.125 34 L
240.846 34 L
241.079 34 L
242.241 34 L
243.032 34 L
243.97 34 L
244.986 34 L
246.94 34 L
248.894 34 L
250.848 34 L
252.802 34 L
254.756 34 L
256.709 34 L
258.663 34 L
260.617 34 L
262.571 34 L
264.525 34 L
266.479 34 L
268.433 34 L
270.387 34 L
272.34 34 L
274.294 34 L
276.248 34 L
278.202 34 L
280.156 34 L
282.11 34 L
284.064 34 L
286.017 34 L
287.971 34 L
289.925 34 L
291.879 34 L
293.833 34 L
295.787 34 L
297.741 34 L
299.694 34 L
301.648 34 L
303.602 34 L
305.556 34 L
307.51 34 L
309.464 34 L
311.418 34 L
313.372 34 L
315.325 34 L
317.279 34 L
319.233 34 L
321.187 34 L
323.141 34 L
325.095 34 L
327.049 34 L
329.002 34 L
330.956 34 L
332.91 34 L
334.864 34 L
336.818 34 L
338.772 34 L
340.726 34 L
342.679 34 L
344.633 34 L
346.587 34 L
348.541 34 L
350.495 34 L
352.449 34 L
354.403 34 L
356.357 34 L
358.31 34 L
360.264 34 L
362.218 34 L
364.172 34 L
366.126 34 L
368.08 34 L
370.034 34 L
371.987 34 L
373.941 34 L
375.895 34 L
377.849 34 L
379.803 34 L
381.757 34 L
383.711 34 L
385.665 34 L
387.618 34 L
389.572 34 L
391.526 34 L
393.48 34 L
395.434 34 L
397.388 34 L
399.342 34 L
401.295 34 L
403.249 34 L
405.203 34 L
407.157 34 L
409.111 34 L
411.065 34 L
413.019 34 L
414.972 34 L
416.926 34 L
418.88 34 L
420.834 34 L
422.788 34 L
424.742 34 L
426.696 34 L
428.65 34 L
430.603 34 L
432.557 34 L
434.511 34 L
436.465 34 L
438.419 34 L
440.373 34 L
442.327 34 L
444.28 34 L
446.234 34 L
448.188 34 L
450.142 34 L
452.096 34 L
454.05 34 L
456.004 34 L
457.958 34 L
459.911 34 L
461.865 34 L
463.819 34 L
465.773 34 L
467.727 34 L
469.681 34 L
471.635 34 L
473.588 34 L
475.542 34 L
477.496 34 L
479.45 34 L
481.404 34 L
483.358 34 L
485.312 34 L
487.265 34 L
489.219 34 L
491.173 34 L
493.127 34 L
495.081 34 L
497.035 34 L
498.989 34 L
500.943 34 L
502.896 34 L
504.85 34 L
506.804 34 L
508.758 34 L
510.712 34 L
512.666 34 L
514.62 34 L
516.053 34 L
S
GR
GS
[0.75 0 0 0.75 0 0.5] CT
0.851 0.325 0.098 RC
1 LJ
2.667 LW
N
75 34 M
75 34 L
75.001 34 L
75.004 34 L
75.02 34 L
75.099 34 L
75.493 34 L
76.954 34 L
78.908 34 L
80.862 34 L
82.815 34 L
84.769 34 L
85.919 34 L
86.484 34 L
86.723 34 L
86.938 34 L
88.009 34 L
88.677 34 L
89.954 34 L
90.631 34 L
91.178 34 L
92.585 34 L
94.539 34 L
96.12 34 L
96.493 34 L
98.446 34 L
100.4 34 L
102.354 34 L
104.308 34 L
106.262 34 L
108.216 34 L
110.17 34 L
112.123 34 L
114.077 34 L
116.031 34 L
117.985 34 L
119.939 34 L
121.893 34 L
123.847 34 L
123.847 34 L
123.847 34 L
125.8 34 L
127.754 34 L
129.708 34 L
131.662 34 L
133.616 34 L
135.57 34 L
137.524 34 L
139.478 34 L
141.431 34 L
143.385 34 L
145.339 34 L
147.293 34 L
149.247 34 L
151.201 34 L
153.155 34 L
155.108 34 L
157.062 34 L
159.016 34 L
160.97 34 L
162.924 34 L
164.878 34 L
166.832 34 L
168.786 34 L
170.739 34 L
172.693 34 L
174.647 34 L
176.601 34 L
178.555 34 L
180.509 34 L
182.463 34 L
184.416 34 L
186.37 34 L
188.324 34 L
190.278 34 L
192.232 34 L
194.186 34 L
196.14 34 L
198.093 34 L
200.047 34 L
202.001 34 L
203.955 34 L
205.909 34 L
207.863 34 L
209.817 34 L
211.771 34 L
213.724 34 L
215.678 34 L
217.632 34 L
219.586 34 L
221.54 34 L
223.494 34 L
225.219 34 L
225.448 34 L
226.592 34 L
227.401 34 L
228.245 34 L
229.355 34 L
231.309 34 L
232.968 34 L
233.263 34 L
234.738 34 L
235.217 34 L
235.762 34 L
237.171 34 L
239.125 34 L
240.846 34 L
241.079 34 L
242.241 34 L
243.032 34 L
243.97 34 L
244.986 34 L
246.94 34 L
248.894 34 L
250.848 34 L
252.802 34 L
254.756 34 L
256.709 34 L
258.663 34 L
260.617 34 L
262.571 34 L
264.525 34 L
266.479 34 L
268.433 34 L
270.387 34 L
272.34 34 L
274.294 34 L
276.248 34 L
278.202 34 L
280.156 34 L
282.11 34 L
284.064 34 L
286.017 34 L
287.971 34 L
289.925 34 L
291.879 34 L
293.833 34 L
295.787 34 L
297.741 34 L
299.694 34 L
301.648 34 L
303.602 34 L
305.556 34 L
307.51 34 L
309.464 34 L
311.418 34 L
313.372 34 L
315.325 34 L
317.279 34 L
319.233 34 L
321.187 34 L
323.141 34 L
325.095 34 L
327.049 34 L
329.002 34 L
330.956 34 L
332.91 34 L
334.864 34 L
336.818 34 L
338.772 34 L
340.726 34 L
342.679 34 L
344.633 34 L
346.587 34 L
348.541 34 L
350.495 34 L
352.449 34 L
354.403 34 L
356.357 34 L
358.31 34 L
360.264 34 L
362.218 34 L
364.172 34 L
366.126 34 L
368.08 34 L
370.034 34 L
371.987 34 L
373.941 34 L
375.895 34 L
377.849 34 L
379.803 34 L
381.757 34 L
383.711 34 L
385.665 34 L
387.618 34 L
389.572 34 L
391.526 34 L
393.48 34 L
395.434 34 L
397.388 34 L
399.342 34 L
401.295 34 L
403.249 34 L
405.203 34 L
407.157 34 L
409.111 34 L
411.065 34 L
413.019 34 L
414.972 34 L
416.926 34 L
418.88 34 L
420.834 34 L
422.788 34 L
424.742 34 L
426.696 34 L
428.65 34 L
430.603 34 L
432.557 34 L
434.511 34 L
436.465 34 L
438.419 34 L
440.373 34 L
442.327 34 L
444.28 34 L
446.234 34 L
448.188 34 L
450.142 34 L
452.096 34 L
454.05 34 L
456.004 34 L
457.958 34 L
459.911 34 L
461.865 34 L
463.819 34 L
465.773 34 L
467.727 34 L
469.681 34 L
471.635 34 L
473.588 34 L
475.542 34 L
477.496 34 L
479.45 34 L
481.404 34 L
483.358 34 L
485.312 34 L
487.265 34 L
489.219 34 L
491.173 34 L
493.127 34 L
495.081 34 L
497.035 34 L
498.989 34 L
500.943 34 L
502.896 34 L
504.85 34 L
506.804 34 L
508.758 34 L
510.712 34 L
512.666 34 L
514.62 34 L
516.053 34 L
S
GR
GS
[0.75 0 0 0.75 0 0.5] CT
0.929 0.694 0.125 RC
1 LJ
2.667 LW
N
75 210.89 M
75 210.89 L
75.001 210.89 L
75.004 210.89 L
75.02 210.89 L
75.099 210.89 L
75.493 210.89 L
76.954 210.89 L
78.908 210.89 L
80.862 210.89 L
82.815 210.89 L
84.769 210.89 L
85.919 210.89 L
86.484 210.89 L
86.723 267.937 L
86.938 267.937 L
88.009 267.937 L
88.677 267.937 L
89.954 267.937 L
90.631 299.983 L
91.178 299.983 L
92.585 299.983 L
94.539 314.491 L
96.12 314.491 L
96.493 314.491 L
98.446 314.091 L
100.4 314.091 L
102.354 298.474 L
104.308 298.474 L
106.262 271.679 L
108.216 271.679 L
110.17 239.149 L
112.123 239.149 L
114.077 206.474 L
116.031 206.474 L
117.985 178.717 L
119.939 178.717 L
121.893 159.607 L
123.847 159.607 L
123.847 387.78 L
123.847 387.78 L
125.8 387.78 L
127.754 387.78 L
129.708 387.78 L
131.662 387.78 L
133.616 387.78 L
135.57 387.78 L
137.524 387.78 L
139.478 387.78 L
141.431 387.78 L
143.385 387.78 L
145.339 387.78 L
147.293 387.78 L
149.247 387.78 L
151.201 387.78 L
153.155 387.78 L
155.108 387.78 L
157.062 387.78 L
159.016 387.78 L
160.97 387.78 L
162.924 387.78 L
164.878 387.78 L
166.832 387.78 L
168.786 387.78 L
170.739 387.78 L
172.693 387.78 L
174.647 387.78 L
176.601 387.78 L
178.555 387.78 L
180.509 387.78 L
182.463 387.78 L
184.416 387.78 L
186.37 387.78 L
188.324 387.78 L
190.278 387.78 L
192.232 387.78 L
194.186 387.78 L
196.14 387.78 L
198.093 387.78 L
200.047 387.78 L
202.001 387.78 L
203.955 387.78 L
205.909 387.78 L
207.863 387.78 L
209.817 387.78 L
211.771 387.78 L
213.724 387.78 L
215.678 387.78 L
217.632 387.78 L
219.586 376.252 L
221.54 376.252 L
223.494 320.306 L
225.219 320.306 L
225.448 320.306 L
226.592 320.306 L
227.401 264.376 L
228.245 264.376 L
229.355 264.376 L
231.309 209.937 L
232.968 209.937 L
233.263 209.937 L
234.738 209.937 L
235.217 164.354 L
235.762 164.354 L
237.171 164.354 L
239.125 133.674 L
240.846 133.674 L
241.079 133.674 L
242.241 133.674 L
243.032 121.076 L
243.97 121.076 L
244.986 121.076 L
246.94 125.375 L
248.894 125.375 L
250.848 144.158 L
252.802 144.158 L
254.756 171.89 L
256.709 171.89 L
258.663 203.005 L
260.617 203.005 L
262.571 232.17 L
264.525 232.17 L
266.479 255.205 L
268.433 255.205 L
270.387 269.366 L
272.34 269.366 L
274.294 273.501 L
276.248 273.501 L
278.202 268.075 L
280.156 268.075 L
282.11 254.95 L
284.064 254.95 L
286.017 236.97 L
287.971 236.97 L
289.925 217.421 L
291.879 217.421 L
293.833 199.47 L
295.787 199.47 L
297.741 185.677 L
299.694 185.677 L
301.648 177.653 L
303.602 177.653 L
305.556 175.908 L
307.51 175.908 L
309.464 179.9 L
311.418 179.9 L
313.372 188.258 L
315.325 188.258 L
317.279 199.116 L
319.233 199.116 L
321.187 210.48 L
323.141 210.48 L
325.095 220.549 L
327.049 220.549 L
329.002 227.953 L
330.956 227.953 L
332.91 231.894 L
334.864 231.894 L
336.818 232.191 L
338.772 232.191 L
340.726 229.235 L
342.679 229.235 L
344.633 223.866 L
346.587 223.866 L
348.541 217.192 L
350.495 217.192 L
352.449 210.392 L
354.403 210.392 L
356.357 204.524 L
358.31 204.524 L
360.264 200.374 L
362.218 200.374 L
364.172 198.368 L
366.126 198.368 L
368.08 198.546 L
370.034 198.546 L
371.987 200.605 L
373.941 200.605 L
375.895 203.992 L
377.849 203.992 L
379.803 208.019 L
381.757 208.019 L
383.711 211.991 L
385.665 211.991 L
387.618 215.307 L
389.572 215.307 L
391.526 217.542 L
393.48 217.542 L
395.434 218.488 L
397.388 218.488 L
399.342 218.16 L
401.295 218.16 L
403.249 216.764 L
405.203 216.764 L
407.157 214.643 L
409.111 214.643 L
411.065 212.212 L
413.019 212.212 L
414.972 209.88 L
416.926 209.88 L
418.88 207.993 L
420.834 207.993 L
422.788 206.785 L
424.742 206.785 L
426.696 206.357 L
428.65 206.357 L
430.603 206.678 L
432.557 206.678 L
434.511 207.605 L
436.465 207.605 L
438.419 208.921 L
440.373 208.921 L
442.327 210.375 L
444.28 210.375 L
446.234 211.729 L
448.188 211.729 L
450.142 212.787 L
452.096 212.787 L
454.05 213.424 L
456.004 213.424 L
457.958 213.595 L
459.911 213.595 L
461.865 213.332 L
463.819 213.332 L
465.773 212.727 L
467.727 212.727 L
469.681 211.917 L
471.635 211.917 L
473.588 211.049 L
475.542 211.049 L
477.496 210.265 L
479.45 210.265 L
481.404 209.674 L
483.358 209.674 L
485.312 209.342 L
487.265 209.342 L
489.219 209.289 L
491.173 209.289 L
493.127 209.487 L
495.081 209.487 L
497.035 209.876 L
498.989 209.876 L
500.943 210.372 L
502.896 210.372 L
504.85 210.886 L
506.804 210.886 L
508.758 211.337 L
510.712 211.337 L
512.666 211.663 L
514.62 211.663 L
516.053 211.787 L
S
GR
GS
[0.75 0 0 0.75 0 0.5] CT
1 GC
N
505 110 M
505 45 L
444 45 L
444 110 L
cp
f
GR
GS
[0.75 0 0 0.75 368.25 43.25] CT
/Helvetica 16.8 F
GS
[1 0 0 1 0 0] CT
0 6 moveto 
1 -1 scale
(x) t 
GR
GR
GS
[0.75 0 0 0.75 0 0.5] CT
0 0.447 0.741 RC
1 LJ
2.667 LW
N
448 57 M
488 57 L
S
GR
GS
[0.75 0 0 0.75 368.25 58.625] CT
/Helvetica 16.8 F
GS
[1 0 0 1 0 0] CT
0 6 moveto 
1 -1 scale
(y) t 
GR
GR
GS
[0.75 0 0 0.75 0 0.5] CT
0.851 0.325 0.098 RC
1 LJ
2.667 LW
N
448 77.5 M
488 77.5 L
S
GR
GS
[0.75 0 0 0.75 368.25 74] CT
/Helvetica 16.8 F
GS
[1 0 0 1 0 0] CT
0 6 moveto 
1 -1 scale
(z) t 
GR
GR
GS
[0.75 0 0 0.75 0 0.5] CT
0.929 0.694 0.125 RC
1 LJ
2.667 LW
N
448 98 M
488 98 L
S
GR
GS
[0.75 0 0 0.75 0 0.5] CT
0.149 GC
10.0 ML
0.667 LW
N
444 110 M
444 45 L
505 45 L
505 110 L
cp
S
GR
%%Trailer
%%Pages: 1
%%EOF
