%!PS-Adobe-3.0 EPSF-3.0
%%Creator: (MATLAB, The Mathworks, Inc. Version 9.4.0.813654 \(R2018a\). Operating System: Linux)
%%Title: /home/isidro/google-drive/TFG/tilt-rotor-matlab/figuras/memoria/analitico/F_NED.eps
%%CreationDate: 2019-09-04T18:41:12
%%Pages: (atend)
%%BoundingBox: 0 0 420 315
%%LanguageLevel: 3
%%EndComments
%%BeginProlog
%%BeginResource: procset (Apache XML Graphics Std ProcSet) 1.2 0
%%Version: 1.2 0
%%Copyright: (Copyright 2001-2003,2010 The Apache Software Foundation. License terms: http://www.apache.org/licenses/LICENSE-2.0)
/bd{bind def}bind def
/ld{load def}bd
/GR/grestore ld
/GS/gsave ld
/RM/rmoveto ld
/C/curveto ld
/t/show ld
/L/lineto ld
/ML/setmiterlimit ld
/CT/concat ld
/f/fill ld
/N/newpath ld
/S/stroke ld
/CC/setcmykcolor ld
/A/ashow ld
/cp/closepath ld
/RC/setrgbcolor ld
/LJ/setlinejoin ld
/GC/setgray ld
/LW/setlinewidth ld
/M/moveto ld
/re {4 2 roll M
1 index 0 rlineto
0 exch rlineto
neg 0 rlineto
cp } bd
/_ctm matrix def
/_tm matrix def
/BT { _ctm currentmatrix pop matrix _tm copy pop 0 0 moveto } bd
/ET { _ctm setmatrix } bd
/iTm { _ctm setmatrix _tm concat } bd
/Tm { _tm astore pop iTm 0 0 moveto } bd
/ux 0.0 def
/uy 0.0 def
/F {
  /Tp exch def
  /Tf exch def
  Tf findfont Tp scalefont setfont
  /cf Tf def  /cs Tp def
} bd
/ULS {currentpoint /uy exch def /ux exch def} bd
/ULE {
  /Tcx currentpoint pop def
  gsave
  newpath
  cf findfont cs scalefont dup
  /FontMatrix get 0 get /Ts exch def /FontInfo get dup
  /UnderlinePosition get Ts mul /To exch def
  /UnderlineThickness get Ts mul /Tt exch def
  ux uy To add moveto  Tcx uy To add lineto
  Tt setlinewidth stroke
  grestore
} bd
/OLE {
  /Tcx currentpoint pop def
  gsave
  newpath
  cf findfont cs scalefont dup
  /FontMatrix get 0 get /Ts exch def /FontInfo get dup
  /UnderlinePosition get Ts mul /To exch def
  /UnderlineThickness get Ts mul /Tt exch def
  ux uy To add cs add moveto Tcx uy To add cs add lineto
  Tt setlinewidth stroke
  grestore
} bd
/SOE {
  /Tcx currentpoint pop def
  gsave
  newpath
  cf findfont cs scalefont dup
  /FontMatrix get 0 get /Ts exch def /FontInfo get dup
  /UnderlinePosition get Ts mul /To exch def
  /UnderlineThickness get Ts mul /Tt exch def
  ux uy To add cs 10 mul 26 idiv add moveto Tcx uy To add cs 10 mul 26 idiv add lineto
  Tt setlinewidth stroke
  grestore
} bd
/QT {
/Y22 exch store
/X22 exch store
/Y21 exch store
/X21 exch store
currentpoint
/Y21 load 2 mul add 3 div exch
/X21 load 2 mul add 3 div exch
/X21 load 2 mul /X22 load add 3 div
/Y21 load 2 mul /Y22 load add 3 div
/X22 load /Y22 load curveto
} bd
/SSPD {
dup length /d exch dict def
{
/v exch def
/k exch def
currentpagedevice k known {
/cpdv currentpagedevice k get def
v cpdv ne {
/upd false def
/nullv v type /nulltype eq def
/nullcpdv cpdv type /nulltype eq def
nullv nullcpdv or
{
/upd true def
} {
/sametype v type cpdv type eq def
sametype {
v type /arraytype eq {
/vlen v length def
/cpdvlen cpdv length def
vlen cpdvlen eq {
0 1 vlen 1 sub {
/i exch def
/obj v i get def
/cpdobj cpdv i get def
obj cpdobj ne {
/upd true def
exit
} if
} for
} {
/upd true def
} ifelse
} {
v type /dicttype eq {
v {
/dv exch def
/dk exch def
/cpddv cpdv dk get def
dv cpddv ne {
/upd true def
exit
} if
} forall
} {
/upd true def
} ifelse
} ifelse
} if
} ifelse
upd true eq {
d k v put
} if
} if
} if
} forall
d length 0 gt {
d setpagedevice
} if
} bd
/RE { % /NewFontName [NewEncodingArray] /FontName RE -
  findfont dup length dict begin
  {
    1 index /FID ne
    {def} {pop pop} ifelse
  } forall
  /Encoding exch def
  /FontName 1 index def
  currentdict definefont pop
  end
} bind def
%%EndResource
%%BeginResource: procset (Apache XML Graphics EPS ProcSet) 1.0 0
%%Version: 1.0 0
%%Copyright: (Copyright 2002-2003 The Apache Software Foundation. License terms: http://www.apache.org/licenses/LICENSE-2.0)
/BeginEPSF { %def
/b4_Inc_state save def         % Save state for cleanup
/dict_count countdictstack def % Count objects on dict stack
/op_count count 1 sub def      % Count objects on operand stack
userdict begin                 % Push userdict on dict stack
/showpage { } def              % Redefine showpage, { } = null proc
0 setgray 0 setlinecap         % Prepare graphics state
1 setlinewidth 0 setlinejoin
10 setmiterlimit [ ] 0 setdash newpath
/languagelevel where           % If level not equal to 1 then
{pop languagelevel             % set strokeadjust and
1 ne                           % overprint to their defaults.
{false setstrokeadjust false setoverprint
} if
} if
} bd
/EndEPSF { %def
count op_count sub {pop} repeat            % Clean up stacks
countdictstack dict_count sub {end} repeat
b4_Inc_state restore
} bd
%%EndResource
%FOPBeginFontDict
%%IncludeResource: font Courier-Oblique
%%IncludeResource: font Courier-BoldOblique
%%IncludeResource: font Courier-Bold
%%IncludeResource: font ZapfDingbats
%%IncludeResource: font Symbol
%%IncludeResource: font Helvetica
%%IncludeResource: font Helvetica-Oblique
%%IncludeResource: font Helvetica-Bold
%%IncludeResource: font Helvetica-BoldOblique
%%IncludeResource: font Times-Roman
%%IncludeResource: font Times-Italic
%%IncludeResource: font Times-Bold
%%IncludeResource: font Times-BoldItalic
%%IncludeResource: font Courier
%FOPEndFontDict
%%BeginResource: encoding WinAnsiEncoding
/WinAnsiEncoding [
/.notdef /.notdef /.notdef /.notdef /.notdef
/.notdef /.notdef /.notdef /.notdef /.notdef
/.notdef /.notdef /.notdef /.notdef /.notdef
/.notdef /.notdef /.notdef /.notdef /.notdef
/.notdef /.notdef /.notdef /.notdef /.notdef
/.notdef /.notdef /.notdef /.notdef /.notdef
/.notdef /.notdef /space /exclam /quotedbl
/numbersign /dollar /percent /ampersand /quotesingle
/parenleft /parenright /asterisk /plus /comma
/hyphen /period /slash /zero /one
/two /three /four /five /six
/seven /eight /nine /colon /semicolon
/less /equal /greater /question /at
/A /B /C /D /E
/F /G /H /I /J
/K /L /M /N /O
/P /Q /R /S /T
/U /V /W /X /Y
/Z /bracketleft /backslash /bracketright /asciicircum
/underscore /quoteleft /a /b /c
/d /e /f /g /h
/i /j /k /l /m
/n /o /p /q /r
/s /t /u /v /w
/x /y /z /braceleft /bar
/braceright /asciitilde /bullet /Euro /bullet
/quotesinglbase /florin /quotedblbase /ellipsis /dagger
/daggerdbl /circumflex /perthousand /Scaron /guilsinglleft
/OE /bullet /Zcaron /bullet /bullet
/quoteleft /quoteright /quotedblleft /quotedblright /bullet
/endash /emdash /asciitilde /trademark /scaron
/guilsinglright /oe /bullet /zcaron /Ydieresis
/space /exclamdown /cent /sterling /currency
/yen /brokenbar /section /dieresis /copyright
/ordfeminine /guillemotleft /logicalnot /sfthyphen /registered
/macron /degree /plusminus /twosuperior /threesuperior
/acute /mu /paragraph /middot /cedilla
/onesuperior /ordmasculine /guillemotright /onequarter /onehalf
/threequarters /questiondown /Agrave /Aacute /Acircumflex
/Atilde /Adieresis /Aring /AE /Ccedilla
/Egrave /Eacute /Ecircumflex /Edieresis /Igrave
/Iacute /Icircumflex /Idieresis /Eth /Ntilde
/Ograve /Oacute /Ocircumflex /Otilde /Odieresis
/multiply /Oslash /Ugrave /Uacute /Ucircumflex
/Udieresis /Yacute /Thorn /germandbls /agrave
/aacute /acircumflex /atilde /adieresis /aring
/ae /ccedilla /egrave /eacute /ecircumflex
/edieresis /igrave /iacute /icircumflex /idieresis
/eth /ntilde /ograve /oacute /ocircumflex
/otilde /odieresis /divide /oslash /ugrave
/uacute /ucircumflex /udieresis /yacute /thorn
/ydieresis
] def
%%EndResource
%FOPBeginFontReencode
/Courier-Oblique findfont
dup length dict begin
  {1 index /FID ne {def} {pop pop} ifelse} forall
  /Encoding WinAnsiEncoding def
  currentdict
end
/Courier-Oblique exch definefont pop
/Courier-BoldOblique findfont
dup length dict begin
  {1 index /FID ne {def} {pop pop} ifelse} forall
  /Encoding WinAnsiEncoding def
  currentdict
end
/Courier-BoldOblique exch definefont pop
/Courier-Bold findfont
dup length dict begin
  {1 index /FID ne {def} {pop pop} ifelse} forall
  /Encoding WinAnsiEncoding def
  currentdict
end
/Courier-Bold exch definefont pop
/Helvetica findfont
dup length dict begin
  {1 index /FID ne {def} {pop pop} ifelse} forall
  /Encoding WinAnsiEncoding def
  currentdict
end
/Helvetica exch definefont pop
/Helvetica-Oblique findfont
dup length dict begin
  {1 index /FID ne {def} {pop pop} ifelse} forall
  /Encoding WinAnsiEncoding def
  currentdict
end
/Helvetica-Oblique exch definefont pop
/Helvetica-Bold findfont
dup length dict begin
  {1 index /FID ne {def} {pop pop} ifelse} forall
  /Encoding WinAnsiEncoding def
  currentdict
end
/Helvetica-Bold exch definefont pop
/Helvetica-BoldOblique findfont
dup length dict begin
  {1 index /FID ne {def} {pop pop} ifelse} forall
  /Encoding WinAnsiEncoding def
  currentdict
end
/Helvetica-BoldOblique exch definefont pop
/Times-Roman findfont
dup length dict begin
  {1 index /FID ne {def} {pop pop} ifelse} forall
  /Encoding WinAnsiEncoding def
  currentdict
end
/Times-Roman exch definefont pop
/Times-Italic findfont
dup length dict begin
  {1 index /FID ne {def} {pop pop} ifelse} forall
  /Encoding WinAnsiEncoding def
  currentdict
end
/Times-Italic exch definefont pop
/Times-Bold findfont
dup length dict begin
  {1 index /FID ne {def} {pop pop} ifelse} forall
  /Encoding WinAnsiEncoding def
  currentdict
end
/Times-Bold exch definefont pop
/Times-BoldItalic findfont
dup length dict begin
  {1 index /FID ne {def} {pop pop} ifelse} forall
  /Encoding WinAnsiEncoding def
  currentdict
end
/Times-BoldItalic exch definefont pop
/Courier findfont
dup length dict begin
  {1 index /FID ne {def} {pop pop} ifelse} forall
  /Encoding WinAnsiEncoding def
  currentdict
end
/Courier exch definefont pop
%FOPEndFontReencode
%%EndProlog
%%Page: 1 1
%%PageBoundingBox: 0 0 420 315
%%BeginPageSetup
[1 0 0 -1 0 315] CT
%%EndPageSetup
GS
[0.75 0 0 0.75 0 0] CT
1 GC
N
0 0 560 420 re
f
GR
GS
[0.75 0 0 0.75 0 0] CT
1 GC
N
0 0 560 420 re
f
GR
GS
[0.75 0 0 0.75 0 0] CT
1 GC
N
75 364 M
507 364 L
507 31 L
75 31 L
cp
f
GR
GS
[0.75 0 0 0.75 0 0] CT
0.873 GC
1 LJ
0.667 LW
N
77.734 364 M
77.734 31 L
S
GR
GS
[0.75 0 0 0.75 0 0] CT
0.873 GC
1 LJ
0.667 LW
N
181.414 364 M
181.414 31 L
S
GR
GS
[0.75 0 0 0.75 0 0] CT
0.873 GC
1 LJ
0.667 LW
N
285.094 364 M
285.094 31 L
S
GR
GS
[0.75 0 0 0.75 0 0] CT
0.873 GC
1 LJ
0.667 LW
N
388.774 364 M
388.774 31 L
S
GR
GS
[0.75 0 0 0.75 0 0] CT
0.873 GC
1 LJ
0.667 LW
N
492.454 364 M
492.454 31 L
S
GR
GS
[0.75 0 0 0.75 0 0] CT
0.873 GC
1 LJ
0.667 LW
N
507 335.859 M
75 335.859 L
S
GR
GS
[0.75 0 0 0.75 0 0] CT
0.873 GC
1 LJ
0.667 LW
N
507 282.289 M
75 282.289 L
S
GR
GS
[0.75 0 0 0.75 0 0] CT
0.873 GC
1 LJ
0.667 LW
N
507 228.72 M
75 228.72 L
S
GR
GS
[0.75 0 0 0.75 0 0] CT
0.873 GC
1 LJ
0.667 LW
N
507 175.15 M
75 175.15 L
S
GR
GS
[0.75 0 0 0.75 0 0] CT
0.873 GC
1 LJ
0.667 LW
N
507 121.58 M
75 121.58 L
S
GR
GS
[0.75 0 0 0.75 0 0] CT
0.873 GC
1 LJ
0.667 LW
N
507 68.011 M
75 68.011 L
S
GR
GS
[0.75 0 0 0.75 0 0] CT
0.149 GC
2 setlinecap
1 LJ
0.667 LW
N
75 364 M
507 364 L
S
GR
GS
[0.75 0 0 0.75 0 0] CT
0.149 GC
2 setlinecap
1 LJ
0.667 LW
N
77.734 364 M
77.734 359.68 L
S
GR
GS
[0.75 0 0 0.75 0 0] CT
0.149 GC
2 setlinecap
1 LJ
0.667 LW
N
181.414 364 M
181.414 359.68 L
S
GR
GS
[0.75 0 0 0.75 0 0] CT
0.149 GC
2 setlinecap
1 LJ
0.667 LW
N
285.094 364 M
285.094 359.68 L
S
GR
GS
[0.75 0 0 0.75 0 0] CT
0.149 GC
2 setlinecap
1 LJ
0.667 LW
N
388.774 364 M
388.774 359.68 L
S
GR
GS
[0.75 0 0 0.75 0 0] CT
0.149 GC
2 setlinecap
1 LJ
0.667 LW
N
492.454 364 M
492.454 359.68 L
S
GR
GS
[0.75 0 0 0.75 58.30023 277.79997] CT
0.149 GC
/Helvetica 18.667 F
GS
[1 0 0 1 0 0] CT
-6 18 moveto 
1 -1 scale
(0) t 
GR
GR
GS
[0.75 0 0 0.75 136.06023 277.79997] CT
0.149 GC
/Helvetica 18.667 F
GS
[1 0 0 1 0 0] CT
-6 18 moveto 
1 -1 scale
(1) t 
GR
GR
GS
[0.75 0 0 0.75 213.82022 277.79997] CT
0.149 GC
/Helvetica 18.667 F
GS
[1 0 0 1 0 0] CT
-6 18 moveto 
1 -1 scale
(2) t 
GR
GR
GS
[0.75 0 0 0.75 291.58024 277.79997] CT
0.149 GC
/Helvetica 18.667 F
GS
[1 0 0 1 0 0] CT
-6 18 moveto 
1 -1 scale
(3) t 
GR
GR
GS
[0.75 0 0 0.75 369.34023 277.79997] CT
0.149 GC
/Helvetica 18.667 F
GS
[1 0 0 1 0 0] CT
-6 18 moveto 
1 -1 scale
(4) t 
GR
GR
GS
[0.75 0 0 0.75 218.25016 296.05] CT
0.149 GC
/Helvetica 20.533 F
GS
[1 0 0 1 0 0] CT
-17.5 20 moveto 
1 -1 scale
(t\(s\)) t 
GR
GR
GS
[0.75 0 0 0.75 0 0] CT
0.149 GC
2 setlinecap
1 LJ
0.667 LW
N
75 364 M
75 31 L
S
GR
GS
[0.75 0 0 0.75 0 0] CT
0.149 GC
2 setlinecap
1 LJ
0.667 LW
N
75 335.859 M
79.32 335.859 L
S
GR
GS
[0.75 0 0 0.75 0 0] CT
0.149 GC
2 setlinecap
1 LJ
0.667 LW
N
75 282.289 M
79.32 282.289 L
S
GR
GS
[0.75 0 0 0.75 0 0] CT
0.149 GC
2 setlinecap
1 LJ
0.667 LW
N
75 228.72 M
79.32 228.72 L
S
GR
GS
[0.75 0 0 0.75 0 0] CT
0.149 GC
2 setlinecap
1 LJ
0.667 LW
N
75 175.15 M
79.32 175.15 L
S
GR
GS
[0.75 0 0 0.75 0 0] CT
0.149 GC
2 setlinecap
1 LJ
0.667 LW
N
75 121.58 M
79.32 121.58 L
S
GR
GS
[0.75 0 0 0.75 0 0] CT
0.149 GC
2 setlinecap
1 LJ
0.667 LW
N
75 68.011 M
79.32 68.011 L
S
GR
GS
[0.75 0 0 0.75 51.45 251.89403] CT
0.149 GC
/Helvetica 18.667 F
GS
[1 0 0 1 0 0] CT
-31 6.5 moveto 
1 -1 scale
(-10) t 
GR
GR
GS
[0.75 0 0 0.75 51.45 211.71684] CT
0.149 GC
/Helvetica 18.667 F
GS
[1 0 0 1 0 0] CT
-19 6.5 moveto 
1 -1 scale
(-8) t 
GR
GR
GS
[0.75 0 0 0.75 51.45 171.53967] CT
0.149 GC
/Helvetica 18.667 F
GS
[1 0 0 1 0 0] CT
-19 6.5 moveto 
1 -1 scale
(-6) t 
GR
GR
GS
[0.75 0 0 0.75 51.45 131.3625] CT
0.149 GC
/Helvetica 18.667 F
GS
[1 0 0 1 0 0] CT
-19 6.5 moveto 
1 -1 scale
(-4) t 
GR
GR
GS
[0.75 0 0 0.75 51.45 91.18533] CT
0.149 GC
/Helvetica 18.667 F
GS
[1 0 0 1 0 0] CT
-19 6.5 moveto 
1 -1 scale
(-2) t 
GR
GR
GS
[0.75 0 0 0.75 51.45 51.00815] CT
0.149 GC
/Helvetica 18.667 F
GS
[1 0 0 1 0 0] CT
-12 6.5 moveto 
1 -1 scale
(0) t 
GR
GR
GS
[0 -0.75 0.75 0 15 180] CT
0.149 GC
/Helvetica 20.533 F
GS
[1 0 0 1 0 0] CT
0 0 moveto 
1 -1 scale
(F) t 
GR
GR
GS
[0 -0.75 0.75 0 22.5 171] CT
0.149 GC
/Helvetica 16.427 F
GS
[1 0 0 1 0 0] CT
0 0 moveto 
1 -1 scale
(NED) t 
GR
GR
GS
[0 -0.75 0.75 0 15 144] CT
0.149 GC
/Helvetica 20.533 F
GS
[1 0 0 1 0 0] CT
0 0 moveto 
1 -1 scale
( \(N\)) t 
GR
GR
GS
[0.75 0 0 0.75 218.25023 20.3625] CT
/Helvetica-Bold 20.533 F
GS
[1 0 0 1 0 0] CT
-208.5 -5 moveto 
1 -1 scale
(Fuerzas deseadas en ejes inerciales) t 
GR
GR
GS
[0.75 0 0 0.75 0 0] CT
0 0.447 0.741 RC
1 LJ
2.667 LW
N
77.734 68.011 M
77.734 68.011 L
77.734 68.011 L
77.734 68.011 L
77.738 68.011 L
77.755 68.011 L
77.838 68.011 L
78.148 68.011 L
78.563 68.011 L
78.978 68.011 L
79.393 68.011 L
79.807 68.011 L
80.051 68.011 L
80.171 68.011 L
80.222 68.011 L
80.267 68.011 L
80.495 68.011 L
80.637 68.011 L
80.908 68.011 L
81.051 68.011 L
81.167 68.011 L
81.466 68.011 L
81.881 68.011 L
82.217 68.011 L
82.296 68.011 L
82.71 68.011 L
83.125 68.011 L
83.54 68.011 L
83.954 68.011 L
84.369 68.011 L
84.784 68.011 L
85.199 68.011 L
85.613 68.011 L
86.028 68.011 L
86.443 68.011 L
86.857 68.011 L
87.272 68.011 L
87.687 68.011 L
88.102 68.011 L
88.102 165.92 L
88.102 165.92 L
88.265 165.92 L
88.296 165.92 L
88.305 165.92 L
88.313 165.92 L
88.32 165.92 L
88.358 165.92 L
88.516 165.92 L
88.931 165.92 L
89.346 165.92 L
89.761 165.92 L
90.175 165.763 L
90.59 165.763 L
91.005 162.902 L
91.419 162.902 L
91.834 158.442 L
92.249 158.442 L
92.664 153.604 L
93.078 153.604 L
93.493 148.788 L
93.908 148.788 L
94.322 144.112 L
94.737 144.112 L
95.152 139.883 L
95.567 139.883 L
95.981 137.521 L
96.396 137.521 L
96.811 138.21 L
97.225 138.21 L
97.64 141.413 L
98.055 141.413 L
98.47 145.36 L
98.884 145.36 L
99.299 148.534 L
99.714 148.534 L
100.129 150.147 L
100.543 150.147 L
100.958 150.247 L
101.373 150.247 L
101.787 149.51 L
102.202 149.51 L
102.617 148.736 L
103.032 148.736 L
103.446 148.433 L
103.861 148.433 L
104.276 148.669 L
104.69 148.669 L
105.105 149.168 L
105.52 149.168 L
105.935 149.561 L
106.349 149.561 L
106.764 149.6 L
107.179 149.6 L
107.593 149.237 L
108.008 149.237 L
108.423 148.596 L
108.838 148.596 L
109.252 147.857 L
109.667 147.857 L
110.082 147.159 L
110.497 147.159 L
110.911 146.547 L
111.326 146.547 L
111.741 145.984 L
112.155 145.984 L
112.57 145.394 L
112.985 145.394 L
113.4 144.716 L
113.814 144.716 L
114.229 143.931 L
114.644 143.931 L
115.058 143.062 L
115.473 143.062 L
115.888 142.15 L
116.303 142.15 L
116.717 141.23 L
117.132 141.23 L
117.547 140.32 L
117.961 140.32 L
118.376 139.416 L
118.791 139.416 L
119.206 138.505 L
119.62 138.505 L
120.035 137.573 L
120.45 137.573 L
120.865 136.617 L
121.279 136.617 L
121.694 135.639 L
122.109 135.639 L
122.523 134.651 L
122.938 134.651 L
123.353 133.662 L
123.768 133.662 L
124.182 132.677 L
124.597 132.677 L
125.012 131.698 L
125.426 131.698 L
125.841 130.722 L
126.256 130.722 L
126.671 129.746 L
127.085 129.746 L
127.5 128.771 L
127.915 128.771 L
128.329 127.796 L
128.744 127.796 L
129.159 126.826 L
129.574 126.826 L
129.988 125.862 L
130.403 125.862 L
130.818 124.906 L
131.233 124.906 L
131.647 123.959 L
132.062 123.959 L
132.477 123.021 L
132.891 123.021 L
133.306 122.092 L
133.721 122.092 L
134.136 121.171 L
134.55 121.171 L
134.965 120.259 L
135.38 120.259 L
135.794 119.357 L
136.209 119.357 L
136.624 118.465 L
137.039 118.465 L
137.453 117.584 L
137.868 117.584 L
138.283 116.714 L
138.697 116.714 L
139.112 115.856 L
139.527 115.856 L
139.942 115.008 L
140.356 115.008 L
140.771 114.172 L
141.186 114.172 L
141.601 113.348 L
142.015 113.348 L
142.43 112.534 L
142.845 112.534 L
143.259 111.733 L
143.674 111.733 L
144.089 110.943 L
144.504 110.943 L
144.918 110.165 L
145.333 110.165 L
145.748 109.398 L
146.162 109.398 L
146.577 108.644 L
146.992 108.644 L
147.407 107.901 L
147.821 107.901 L
148.236 107.169 L
148.651 107.169 L
149.065 106.45 L
149.48 106.45 L
149.895 105.741 L
150.31 105.741 L
150.724 105.045 L
151.139 105.045 L
151.554 104.359 L
151.969 104.359 L
152.383 103.685 L
152.798 103.685 L
153.213 103.022 L
153.627 103.022 L
154.042 102.37 L
154.457 102.37 L
154.872 101.73 L
155.286 101.73 L
155.701 101.1 L
156.116 101.1 L
156.53 100.48 L
156.945 100.48 L
157.36 99.872 L
157.775 99.872 L
158.189 99.274 L
158.604 99.274 L
159.019 98.686 L
159.433 98.686 L
159.848 98.109 L
160.263 98.109 L
160.678 97.541 L
161.092 97.541 L
161.507 96.984 L
161.922 96.984 L
162.337 96.437 L
162.751 96.437 L
163.166 95.899 L
163.581 95.899 L
163.995 95.371 L
164.41 95.371 L
164.825 94.852 L
165.24 94.852 L
165.654 94.343 L
166.069 94.343 L
166.484 93.843 L
166.898 93.843 L
167.313 93.352 L
167.728 93.352 L
168.143 92.87 L
168.557 92.87 L
168.972 92.396 L
169.387 92.396 L
169.801 91.931 L
170.216 91.931 L
170.631 91.475 L
171.046 91.475 L
171.46 91.027 L
171.875 91.027 L
172.29 90.587 L
172.705 90.587 L
173.119 90.156 L
173.534 90.156 L
173.949 89.732 L
174.363 89.732 L
174.778 89.316 L
175.193 89.316 L
175.608 88.908 L
176.022 88.908 L
176.437 88.508 L
176.852 88.508 L
177.266 88.115 L
177.681 88.115 L
178.096 87.729 L
178.511 87.729 L
178.925 87.351 L
179.34 87.351 L
179.755 86.979 L
180.169 86.979 L
180.584 86.615 L
180.999 86.615 L
181.414 86.257 L
181.828 86.257 L
182.243 85.906 L
182.658 85.906 L
183.073 85.562 L
183.487 85.562 L
183.902 85.224 L
184.317 85.224 L
184.731 84.892 L
185.146 84.892 L
185.561 84.567 L
185.976 84.567 L
186.39 84.248 L
186.805 84.248 L
187.22 83.935 L
187.634 83.935 L
188.049 83.628 L
188.464 83.628 L
188.879 83.327 L
189.293 83.327 L
189.708 83.031 L
190.123 83.031 L
190.537 82.741 L
190.952 82.741 L
191.367 82.457 L
191.782 82.457 L
192.196 82.177 L
192.611 82.177 L
193.026 81.904 L
193.441 81.904 L
193.855 81.635 L
194.27 81.635 L
194.685 81.372 L
195.099 81.372 L
195.514 81.114 L
195.929 81.114 L
196.344 80.86 L
196.758 80.86 L
197.173 80.611 L
197.588 80.611 L
198.002 80.368 L
198.417 80.368 L
198.832 80.128 L
199.247 80.128 L
199.661 79.894 L
200.076 79.894 L
200.491 79.664 L
200.905 79.664 L
201.32 79.438 L
201.735 79.438 L
202.15 79.217 L
202.564 79.217 L
202.979 79 L
203.394 79 L
203.809 78.787 L
204.223 78.787 L
204.638 78.578 L
205.053 78.578 L
205.467 78.373 L
205.882 78.373 L
206.297 78.172 L
206.712 78.172 L
207.126 77.975 L
207.541 77.975 L
207.956 77.782 L
208.37 77.782 L
208.785 77.592 L
209.2 77.592 L
209.615 77.407 L
210.029 77.407 L
210.444 77.224 L
210.859 77.224 L
211.273 77.046 L
211.688 77.046 L
212.103 76.87 L
212.518 76.87 L
212.932 76.698 L
213.347 76.698 L
213.762 76.53 L
214.177 76.53 L
214.591 76.364 L
215.006 76.364 L
215.421 76.202 L
215.835 76.202 L
216.25 76.043 L
216.665 76.043 L
217.08 75.887 L
217.494 75.887 L
217.909 75.734 L
218.324 75.734 L
218.738 75.584 L
219.153 75.584 L
219.568 75.437 L
219.983 75.437 L
220.397 75.293 L
220.812 75.293 L
221.227 75.152 L
221.641 75.152 L
222.056 75.013 L
222.471 75.013 L
222.886 74.877 L
223.3 74.877 L
223.715 74.743 L
224.13 74.743 L
224.545 74.613 L
224.959 74.613 L
225.374 74.484 L
225.789 74.484 L
226.203 74.358 L
226.618 74.358 L
227.033 74.235 L
227.448 74.235 L
227.862 74.114 L
228.277 74.114 L
228.692 73.996 L
229.106 73.996 L
229.521 73.879 L
229.936 73.879 L
230.351 73.765 L
230.765 73.765 L
231.18 73.653 L
231.595 73.653 L
232.009 73.544 L
232.424 73.544 L
232.839 73.436 L
233.254 73.436 L
233.668 73.331 L
234.083 73.331 L
234.498 73.227 L
234.913 73.227 L
235.327 73.126 L
235.742 73.126 L
236.157 73.026 L
236.571 73.026 L
236.986 72.929 L
237.401 72.929 L
237.816 72.833 L
238.23 72.833 L
238.645 72.739 L
239.06 72.739 L
239.474 72.647 L
239.889 72.647 L
240.304 72.557 L
240.719 72.557 L
241.133 72.469 L
241.548 72.469 L
241.963 72.382 L
242.377 72.382 L
242.792 72.297 L
243.207 72.297 L
243.622 72.214 L
244.036 72.214 L
244.451 72.132 L
244.866 72.132 L
245.281 72.052 L
245.695 72.052 L
246.11 71.973 L
246.525 71.973 L
246.939 71.896 L
247.354 71.896 L
247.769 71.821 L
248.184 71.821 L
248.598 71.746 L
249.013 71.746 L
249.428 71.674 L
249.842 71.674 L
250.257 71.602 L
250.672 71.602 L
251.087 71.533 L
251.501 71.533 L
251.916 71.464 L
252.331 71.464 L
252.745 71.397 L
253.16 71.397 L
253.575 71.331 L
253.99 71.331 L
254.404 71.266 L
254.819 71.266 L
255.234 71.203 L
255.649 71.203 L
256.063 71.141 L
256.478 71.141 L
256.893 71.08 L
257.307 71.08 L
257.722 71.02 L
258.137 71.02 L
258.552 70.962 L
258.966 70.962 L
259.381 70.904 L
259.796 70.904 L
260.21 70.848 L
260.625 70.848 L
261.04 70.793 L
261.455 70.793 L
261.869 70.739 L
262.284 70.739 L
262.699 70.686 L
263.113 70.686 L
263.528 70.634 L
263.943 70.634 L
264.358 70.583 L
264.772 70.583 L
265.187 70.533 L
265.602 70.533 L
266.017 70.483 L
266.431 70.483 L
266.846 70.435 L
267.261 70.435 L
267.675 70.388 L
268.09 70.388 L
268.505 70.342 L
268.92 70.342 L
269.334 70.297 L
269.749 70.297 L
270.164 70.252 L
270.578 70.252 L
270.993 70.208 L
271.408 70.208 L
271.823 70.166 L
272.237 70.166 L
272.652 70.124 L
273.067 70.124 L
273.481 70.083 L
273.896 70.083 L
274.311 70.042 L
274.726 70.042 L
275.14 70.003 L
275.555 70.003 L
275.97 69.964 L
276.385 69.964 L
276.799 69.926 L
277.214 69.926 L
277.629 69.889 L
278.043 69.889 L
278.458 69.852 L
278.873 69.852 L
279.288 69.816 L
279.702 69.816 L
280.117 69.781 L
280.532 69.781 L
280.946 69.747 L
281.361 69.747 L
281.776 69.713 L
282.191 69.713 L
282.605 69.68 L
283.02 69.68 L
283.435 69.647 L
283.849 69.647 L
284.264 69.616 L
284.679 69.616 L
285.094 69.584 L
285.508 69.584 L
285.923 69.554 L
286.338 69.554 L
286.753 69.524 L
287.167 69.524 L
287.582 69.494 L
287.997 69.494 L
288.411 69.465 L
288.826 69.465 L
289.241 69.437 L
289.656 69.437 L
290.07 69.409 L
290.485 69.409 L
290.9 69.382 L
291.314 69.382 L
291.729 69.355 L
292.144 69.355 L
292.559 69.329 L
292.973 69.329 L
293.388 69.304 L
293.803 69.304 L
294.217 69.278 L
294.632 69.278 L
295.047 69.254 L
295.462 69.254 L
295.876 69.23 L
296.291 69.23 L
296.706 69.206 L
297.121 69.206 L
297.535 69.183 L
297.95 69.183 L
298.365 69.16 L
298.779 69.16 L
299.194 69.137 L
299.609 69.137 L
300.024 69.115 L
300.438 69.115 L
300.853 69.094 L
301.268 69.094 L
301.682 69.073 L
302.097 69.073 L
302.512 69.052 L
302.927 69.052 L
303.341 69.032 L
303.756 69.032 L
304.171 69.012 L
304.585 69.012 L
305 68.993 L
305.415 68.993 L
305.83 68.973 L
306.244 68.973 L
306.659 68.955 L
307.074 68.955 L
307.489 68.936 L
307.903 68.936 L
308.318 68.918 L
308.733 68.918 L
309.147 68.901 L
309.562 68.901 L
309.977 68.883 L
310.392 68.883 L
310.806 68.866 L
311.221 68.866 L
311.636 68.85 L
312.05 68.85 L
312.465 68.833 L
312.88 68.833 L
313.295 68.817 L
313.709 68.817 L
314.124 68.802 L
314.539 68.802 L
314.953 68.786 L
315.368 68.786 L
315.783 68.771 L
316.198 68.771 L
316.612 68.756 L
317.027 68.756 L
317.442 68.742 L
317.857 68.742 L
318.271 68.728 L
318.686 68.728 L
319.101 68.714 L
319.515 68.714 L
319.93 68.7 L
320.345 68.7 L
320.76 68.687 L
321.174 68.687 L
321.589 68.673 L
322.004 68.673 L
322.418 68.661 L
322.833 68.661 L
323.248 68.648 L
323.663 68.648 L
324.077 68.636 L
324.492 68.636 L
324.907 68.623 L
325.321 68.623 L
325.736 68.611 L
326.151 68.611 L
326.566 68.6 L
326.98 68.6 L
327.395 68.588 L
327.81 68.588 L
328.225 68.577 L
328.639 68.577 L
329.054 68.566 L
329.469 68.566 L
329.883 68.555 L
330.298 68.555 L
330.713 68.545 L
331.128 68.545 L
331.542 68.534 L
331.957 68.534 L
332.372 68.524 L
332.786 68.524 L
333.201 68.514 L
333.616 68.514 L
334.031 68.504 L
334.445 68.504 L
334.86 68.495 L
335.275 68.495 L
335.689 68.485 L
336.104 68.485 L
336.519 68.476 L
336.934 68.476 L
337.348 68.467 L
337.763 68.467 L
338.178 68.458 L
338.593 68.458 L
339.007 68.449 L
339.422 68.449 L
339.837 68.441 L
340.251 68.441 L
340.666 68.432 L
341.081 68.432 L
341.496 68.424 L
341.91 68.424 L
342.325 68.416 L
342.74 68.416 L
343.154 68.408 L
343.569 68.408 L
343.984 68.401 L
344.399 68.401 L
344.813 68.393 L
345.228 68.393 L
345.643 68.386 L
346.057 68.386 L
346.472 68.378 L
346.887 68.378 L
347.302 68.371 L
347.716 68.371 L
348.131 68.364 L
348.546 68.364 L
348.961 68.357 L
349.375 68.357 L
349.79 68.351 L
350.205 68.351 L
350.619 68.344 L
351.034 68.344 L
351.449 68.337 L
351.864 68.337 L
352.278 68.331 L
352.693 68.331 L
353.108 68.325 L
353.522 68.325 L
353.937 68.319 L
354.352 68.319 L
354.767 68.313 L
355.181 68.313 L
355.596 68.307 L
356.011 68.307 L
356.425 68.301 L
356.84 68.301 L
357.255 68.295 L
357.67 68.295 L
358.084 68.29 L
358.499 68.29 L
358.914 68.284 L
359.329 68.284 L
359.743 68.279 L
360.158 68.279 L
360.573 68.274 L
360.987 68.274 L
361.402 68.269 L
361.817 68.269 L
362.232 68.264 L
362.646 68.264 L
363.061 68.259 L
363.476 68.259 L
363.89 68.254 L
364.305 68.254 L
364.72 68.249 L
365.135 68.249 L
365.549 68.245 L
365.964 68.245 L
366.379 68.24 L
366.793 68.24 L
367.208 68.236 L
367.623 68.236 L
368.038 68.231 L
368.452 68.231 L
368.867 68.227 L
369.282 68.227 L
369.697 68.223 L
370.111 68.223 L
370.526 68.219 L
370.941 68.219 L
371.355 68.215 L
371.77 68.215 L
372.185 68.211 L
372.6 68.211 L
373.014 68.207 L
373.429 68.207 L
373.844 68.203 L
374.258 68.203 L
374.673 68.199 L
375.088 68.199 L
375.503 68.196 L
375.917 68.196 L
376.332 68.192 L
376.747 68.192 L
377.161 68.188 L
377.576 68.188 L
377.991 68.185 L
378.406 68.185 L
378.82 68.182 L
379.235 68.182 L
379.65 68.178 L
380.065 68.178 L
380.479 68.175 L
380.894 68.175 L
381.309 68.172 L
381.723 68.172 L
382.138 68.169 L
382.553 68.169 L
382.968 68.166 L
383.382 68.166 L
383.797 68.163 L
384.212 68.163 L
384.626 68.16 L
385.041 68.16 L
385.456 68.157 L
385.871 68.157 L
386.285 68.154 L
386.7 68.154 L
387.115 68.151 L
387.529 68.151 L
387.944 68.148 L
388.359 68.148 L
388.774 68.146 L
389.188 68.146 L
389.603 68.143 L
390.018 68.143 L
390.433 68.141 L
390.847 68.141 L
391.262 68.138 L
391.677 68.138 L
392.091 68.136 L
392.506 68.136 L
392.921 68.133 L
393.336 68.133 L
393.75 68.131 L
394.165 68.131 L
394.58 68.128 L
394.994 68.128 L
395.409 68.126 L
395.824 68.126 L
396.239 68.124 L
396.653 68.124 L
397.068 68.122 L
397.483 68.122 L
397.897 68.119 L
398.312 68.119 L
398.727 68.117 L
399.142 68.117 L
399.556 68.115 L
399.971 68.115 L
400.386 68.113 L
400.801 68.113 L
401.215 68.111 L
401.63 68.111 L
402.045 68.109 L
402.459 68.109 L
402.874 68.107 L
403.289 68.107 L
403.704 68.106 L
404.118 68.106 L
404.533 68.104 L
404.948 68.104 L
405.362 68.102 L
405.777 68.102 L
406.192 68.1 L
406.607 68.1 L
407.021 68.098 L
407.436 68.098 L
407.851 68.097 L
408.265 68.097 L
408.68 68.095 L
409.095 68.095 L
409.51 68.093 L
409.924 68.093 L
410.339 68.092 L
410.754 68.092 L
411.169 68.09 L
411.583 68.09 L
411.998 68.089 L
412.413 68.089 L
412.827 68.087 L
413.242 68.087 L
413.657 68.086 L
414.072 68.086 L
414.486 68.084 L
414.901 68.084 L
415.316 68.083 L
415.73 68.083 L
416.145 68.081 L
416.56 68.081 L
416.975 68.08 L
417.389 68.08 L
417.804 68.079 L
418.219 68.079 L
418.633 68.077 L
419.048 68.077 L
419.463 68.076 L
419.878 68.076 L
420.292 68.075 L
420.707 68.075 L
421.122 68.074 L
421.537 68.074 L
421.951 68.072 L
422.366 68.072 L
422.781 68.071 L
423.195 68.071 L
423.61 68.07 L
424.025 68.07 L
424.44 68.069 L
424.854 68.069 L
425.269 68.068 L
425.684 68.068 L
426.098 68.067 L
426.513 68.067 L
426.928 68.065 L
427.343 68.065 L
427.757 68.064 L
428.172 68.064 L
428.587 68.063 L
429.001 68.063 L
429.416 68.062 L
429.831 68.062 L
430.246 68.061 L
430.66 68.061 L
431.075 68.06 L
431.49 68.06 L
431.905 68.059 L
432.319 68.059 L
432.734 68.058 L
433.149 68.058 L
433.563 68.058 L
433.978 68.058 L
434.393 68.057 L
434.808 68.057 L
435.222 68.056 L
435.637 68.056 L
436.052 68.055 L
436.466 68.055 L
436.881 68.054 L
437.296 68.054 L
437.711 68.053 L
438.125 68.053 L
438.54 68.052 L
438.955 68.052 L
439.369 68.052 L
439.784 68.052 L
440.199 68.051 L
440.614 68.051 L
441.028 68.05 L
441.443 68.05 L
441.858 68.049 L
442.273 68.049 L
442.687 68.048 L
443.102 68.048 L
443.517 68.048 L
443.931 68.048 L
444.346 68.047 L
444.761 68.047 L
445.176 68.046 L
445.59 68.046 L
446.005 68.046 L
446.42 68.046 L
446.834 68.045 L
447.249 68.045 L
447.664 68.044 L
448.079 68.044 L
448.493 68.044 L
448.908 68.044 L
449.323 68.043 L
449.737 68.043 L
450.152 68.042 L
450.567 68.042 L
450.982 68.042 L
451.396 68.042 L
451.811 68.041 L
452.226 68.041 L
452.641 68.041 L
453.055 68.041 L
453.47 68.04 L
453.885 68.04 L
454.299 68.039 L
454.714 68.039 L
455.129 68.039 L
455.544 68.039 L
455.958 68.038 L
456.373 68.038 L
456.788 68.038 L
457.202 68.038 L
457.617 68.037 L
458.032 68.037 L
458.447 68.037 L
458.861 68.037 L
459.276 68.036 L
459.691 68.036 L
460.105 68.036 L
460.52 68.036 L
460.935 68.035 L
461.35 68.035 L
461.764 68.035 L
462.179 68.035 L
462.594 68.034 L
463.009 68.034 L
463.423 68.034 L
463.838 68.034 L
464.253 68.033 L
464.667 68.033 L
465.082 68.033 L
465.497 68.033 L
465.912 68.033 L
466.326 68.033 L
466.741 68.032 L
467.156 68.032 L
467.57 68.032 L
467.985 68.032 L
468.4 68.031 L
468.815 68.031 L
469.229 68.031 L
469.644 68.031 L
470.059 68.031 L
470.473 68.031 L
470.888 68.03 L
471.303 68.03 L
471.718 68.03 L
472.132 68.03 L
472.547 68.029 L
472.962 68.029 L
473.377 68.029 L
473.791 68.029 L
474.206 68.029 L
474.621 68.029 L
475.035 68.028 L
475.45 68.028 L
475.865 68.028 L
476.28 68.028 L
476.694 68.028 L
477.109 68.028 L
477.524 68.027 L
477.938 68.027 L
478.353 68.027 L
478.768 68.027 L
479.183 68.027 L
479.597 68.027 L
480.012 68.026 L
480.427 68.026 L
480.841 68.026 L
481.256 68.026 L
481.671 68.026 L
482.086 68.026 L
482.5 68.025 L
482.915 68.025 L
483.33 68.025 L
483.745 68.025 L
484.159 68.025 L
484.574 68.025 L
484.989 68.025 L
485.403 68.025 L
485.818 68.024 L
486.233 68.024 L
486.648 68.024 L
487.062 68.024 L
487.477 68.024 L
487.892 68.024 L
488.306 68.024 L
488.721 68.024 L
489.136 68.023 L
489.551 68.023 L
489.965 68.023 L
490.38 68.023 L
490.795 68.023 L
491.209 68.023 L
491.624 68.023 L
492.039 68.023 L
492.454 68.022 L
492.868 68.022 L
493.283 68.022 L
493.698 68.022 L
494.112 68.022 L
494.527 68.022 L
494.942 68.022 L
495.357 68.022 L
495.771 68.022 L
496.186 68.022 L
496.601 68.021 L
497.016 68.021 L
497.43 68.021 L
497.845 68.021 L
498.26 68.021 L
498.674 68.021 L
499.089 68.021 L
499.504 68.021 L
499.919 68.021 L
500.333 68.021 L
500.748 68.02 L
501.163 68.02 L
501.577 68.02 L
501.992 68.02 L
502.407 68.02 L
502.822 68.02 L
503.236 68.02 L
503.651 68.02 L
504.066 68.02 L
504.481 68.02 L
504.895 68.019 L
505.31 68.019 L
505.725 68.019 L
506.139 68.019 L
506.554 68.019 L
506.969 68.019 L
507.052 68.019 L
S
GR
GS
[0.75 0 0 0.75 0 0] CT
0.851 0.325 0.098 RC
1 LJ
2.667 LW
N
77.734 68.011 M
77.734 68.011 L
77.734 68.011 L
77.734 68.011 L
77.738 68.011 L
77.755 68.011 L
77.838 68.011 L
78.148 68.011 L
78.563 68.011 L
78.978 68.011 L
79.393 68.011 L
79.807 68.011 L
80.051 68.011 L
80.171 68.011 L
80.222 68.011 L
80.267 68.011 L
80.495 68.011 L
80.637 68.011 L
80.908 68.011 L
81.051 68.011 L
81.167 68.011 L
81.466 68.011 L
81.881 68.011 L
82.217 68.011 L
82.296 68.011 L
82.71 68.011 L
83.125 68.011 L
83.54 68.011 L
83.954 68.011 L
84.369 68.011 L
84.784 68.011 L
85.199 68.011 L
85.613 68.011 L
86.028 68.011 L
86.443 68.011 L
86.857 68.011 L
87.272 68.011 L
87.687 68.011 L
88.102 68.011 L
88.102 68.011 L
88.102 68.011 L
88.265 68.011 L
88.296 68.011 L
88.305 68.011 L
88.313 68.011 L
88.32 68.011 L
88.358 68.011 L
88.516 68.011 L
88.931 68.011 L
89.346 68.011 L
89.761 68.011 L
90.175 68.011 L
90.59 68.011 L
91.005 68.011 L
91.419 68.011 L
91.834 68.011 L
92.249 68.011 L
92.664 68.011 L
93.078 68.011 L
93.493 68.011 L
93.908 68.011 L
94.322 68.011 L
94.737 68.011 L
95.152 68.011 L
95.567 68.011 L
95.981 68.011 L
96.396 68.011 L
96.811 68.011 L
97.225 68.011 L
97.64 68.011 L
98.055 68.011 L
98.47 68.011 L
98.884 68.011 L
99.299 68.011 L
99.714 68.011 L
100.129 68.011 L
100.543 68.011 L
100.958 68.011 L
101.373 68.011 L
101.787 68.011 L
102.202 68.011 L
102.617 68.011 L
103.032 68.011 L
103.446 68.011 L
103.861 68.011 L
104.276 68.011 L
104.69 68.011 L
105.105 68.011 L
105.52 68.011 L
105.935 68.011 L
106.349 68.011 L
106.764 68.011 L
107.179 68.011 L
107.593 68.011 L
108.008 68.011 L
108.423 68.011 L
108.838 68.011 L
109.252 68.011 L
109.667 68.011 L
110.082 68.011 L
110.497 68.011 L
110.911 68.011 L
111.326 68.011 L
111.741 68.011 L
112.155 68.011 L
112.57 68.011 L
112.985 68.011 L
113.4 68.011 L
113.814 68.011 L
114.229 68.011 L
114.644 68.011 L
115.058 68.011 L
115.473 68.011 L
115.888 68.011 L
116.303 68.011 L
116.717 68.011 L
117.132 68.011 L
117.547 68.011 L
117.961 68.011 L
118.376 68.011 L
118.791 68.011 L
119.206 68.011 L
119.62 68.011 L
120.035 68.011 L
120.45 68.011 L
120.865 68.011 L
121.279 68.011 L
121.694 68.011 L
122.109 68.011 L
122.523 68.011 L
122.938 68.011 L
123.353 68.011 L
123.768 68.011 L
124.182 68.011 L
124.597 68.011 L
125.012 68.011 L
125.426 68.011 L
125.841 68.011 L
126.256 68.011 L
126.671 68.011 L
127.085 68.011 L
127.5 68.011 L
127.915 68.011 L
128.329 68.011 L
128.744 68.011 L
129.159 68.011 L
129.574 68.011 L
129.988 68.011 L
130.403 68.011 L
130.818 68.011 L
131.233 68.011 L
131.647 68.011 L
132.062 68.011 L
132.477 68.011 L
132.891 68.011 L
133.306 68.011 L
133.721 68.011 L
134.136 68.011 L
134.55 68.011 L
134.965 68.011 L
135.38 68.011 L
135.794 68.011 L
136.209 68.011 L
136.624 68.011 L
137.039 68.011 L
137.453 68.011 L
137.868 68.011 L
138.283 68.011 L
138.697 68.011 L
139.112 68.011 L
139.527 68.011 L
139.942 68.011 L
140.356 68.011 L
140.771 68.011 L
141.186 68.011 L
141.601 68.011 L
142.015 68.011 L
142.43 68.011 L
142.845 68.011 L
143.259 68.011 L
143.674 68.011 L
144.089 68.011 L
144.504 68.011 L
144.918 68.011 L
145.333 68.011 L
145.748 68.011 L
146.162 68.011 L
146.577 68.011 L
146.992 68.011 L
147.407 68.011 L
147.821 68.011 L
148.236 68.011 L
148.651 68.011 L
149.065 68.011 L
149.48 68.011 L
149.895 68.011 L
150.31 68.011 L
150.724 68.011 L
151.139 68.011 L
151.554 68.011 L
151.969 68.011 L
152.383 68.011 L
152.798 68.011 L
153.213 68.011 L
153.627 68.011 L
154.042 68.011 L
154.457 68.011 L
154.872 68.011 L
155.286 68.011 L
155.701 68.011 L
156.116 68.011 L
156.53 68.011 L
156.945 68.011 L
157.36 68.011 L
157.775 68.011 L
158.189 68.011 L
158.604 68.011 L
159.019 68.011 L
159.433 68.011 L
159.848 68.011 L
160.263 68.011 L
160.678 68.011 L
161.092 68.011 L
161.507 68.011 L
161.922 68.011 L
162.337 68.011 L
162.751 68.011 L
163.166 68.011 L
163.581 68.011 L
163.995 68.011 L
164.41 68.011 L
164.825 68.011 L
165.24 68.011 L
165.654 68.011 L
166.069 68.011 L
166.484 68.011 L
166.898 68.011 L
167.313 68.011 L
167.728 68.011 L
168.143 68.011 L
168.557 68.011 L
168.972 68.011 L
169.387 68.011 L
169.801 68.011 L
170.216 68.011 L
170.631 68.011 L
171.046 68.011 L
171.46 68.011 L
171.875 68.011 L
172.29 68.011 L
172.705 68.011 L
173.119 68.011 L
173.534 68.011 L
173.949 68.011 L
174.363 68.011 L
174.778 68.011 L
175.193 68.011 L
175.608 68.011 L
176.022 68.011 L
176.437 68.011 L
176.852 68.011 L
177.266 68.011 L
177.681 68.011 L
178.096 68.011 L
178.511 68.011 L
178.925 68.011 L
179.34 68.011 L
179.755 68.011 L
180.169 68.011 L
180.584 68.011 L
180.999 68.011 L
181.414 68.011 L
181.828 68.011 L
182.243 68.011 L
182.658 68.011 L
183.073 68.011 L
183.487 68.011 L
183.902 68.011 L
184.317 68.011 L
184.731 68.011 L
185.146 68.011 L
185.561 68.011 L
185.976 68.011 L
186.39 68.011 L
186.805 68.011 L
187.22 68.011 L
187.634 68.011 L
188.049 68.011 L
188.464 68.011 L
188.879 68.011 L
189.293 68.011 L
189.708 68.011 L
190.123 68.011 L
190.537 68.011 L
190.952 68.011 L
191.367 68.011 L
191.782 68.011 L
192.196 68.011 L
192.611 68.011 L
193.026 68.011 L
193.441 68.011 L
193.855 68.011 L
194.27 68.011 L
194.685 68.011 L
195.099 68.011 L
195.514 68.011 L
195.929 68.011 L
196.344 68.011 L
196.758 68.011 L
197.173 68.011 L
197.588 68.011 L
198.002 68.011 L
198.417 68.011 L
198.832 68.011 L
199.247 68.011 L
199.661 68.011 L
200.076 68.011 L
200.491 68.011 L
200.905 68.011 L
201.32 68.011 L
201.735 68.011 L
202.15 68.011 L
202.564 68.011 L
202.979 68.011 L
203.394 68.011 L
203.809 68.011 L
204.223 68.011 L
204.638 68.011 L
205.053 68.011 L
205.467 68.011 L
205.882 68.011 L
206.297 68.011 L
206.712 68.011 L
207.126 68.011 L
207.541 68.011 L
207.956 68.011 L
208.37 68.011 L
208.785 68.011 L
209.2 68.011 L
209.615 68.011 L
210.029 68.011 L
210.444 68.011 L
210.859 68.011 L
211.273 68.011 L
211.688 68.011 L
212.103 68.011 L
212.518 68.011 L
212.932 68.011 L
213.347 68.011 L
213.762 68.011 L
214.177 68.011 L
214.591 68.011 L
215.006 68.011 L
215.421 68.011 L
215.835 68.011 L
216.25 68.011 L
216.665 68.011 L
217.08 68.011 L
217.494 68.011 L
217.909 68.011 L
218.324 68.011 L
218.738 68.011 L
219.153 68.011 L
219.568 68.011 L
219.983 68.011 L
220.397 68.011 L
220.812 68.011 L
221.227 68.011 L
221.641 68.011 L
222.056 68.011 L
222.471 68.011 L
222.886 68.011 L
223.3 68.011 L
223.715 68.011 L
224.13 68.011 L
224.545 68.011 L
224.959 68.011 L
225.374 68.011 L
225.789 68.011 L
226.203 68.011 L
226.618 68.011 L
227.033 68.011 L
227.448 68.011 L
227.862 68.011 L
228.277 68.011 L
228.692 68.011 L
229.106 68.011 L
229.521 68.011 L
229.936 68.011 L
230.351 68.011 L
230.765 68.011 L
231.18 68.011 L
231.595 68.011 L
232.009 68.011 L
232.424 68.011 L
232.839 68.011 L
233.254 68.011 L
233.668 68.011 L
234.083 68.011 L
234.498 68.011 L
234.913 68.011 L
235.327 68.011 L
235.742 68.011 L
236.157 68.011 L
236.571 68.011 L
236.986 68.011 L
237.401 68.011 L
237.816 68.011 L
238.23 68.011 L
238.645 68.011 L
239.06 68.011 L
239.474 68.011 L
239.889 68.011 L
240.304 68.011 L
240.719 68.011 L
241.133 68.011 L
241.548 68.011 L
241.963 68.011 L
242.377 68.011 L
242.792 68.011 L
243.207 68.011 L
243.622 68.011 L
244.036 68.011 L
244.451 68.011 L
244.866 68.011 L
245.281 68.011 L
245.695 68.011 L
246.11 68.011 L
246.525 68.011 L
246.939 68.011 L
247.354 68.011 L
247.769 68.011 L
248.184 68.011 L
248.598 68.011 L
249.013 68.011 L
249.428 68.011 L
249.842 68.011 L
250.257 68.011 L
250.672 68.011 L
251.087 68.011 L
251.501 68.011 L
251.916 68.011 L
252.331 68.011 L
252.745 68.011 L
253.16 68.011 L
253.575 68.011 L
253.99 68.011 L
254.404 68.011 L
254.819 68.011 L
255.234 68.011 L
255.649 68.011 L
256.063 68.011 L
256.478 68.011 L
256.893 68.011 L
257.307 68.011 L
257.722 68.011 L
258.137 68.011 L
258.552 68.011 L
258.966 68.011 L
259.381 68.011 L
259.796 68.011 L
260.21 68.011 L
260.625 68.011 L
261.04 68.011 L
261.455 68.011 L
261.869 68.011 L
262.284 68.011 L
262.699 68.011 L
263.113 68.011 L
263.528 68.011 L
263.943 68.011 L
264.358 68.011 L
264.772 68.011 L
265.187 68.011 L
265.602 68.011 L
266.017 68.011 L
266.431 68.011 L
266.846 68.011 L
267.261 68.011 L
267.675 68.011 L
268.09 68.011 L
268.505 68.011 L
268.92 68.011 L
269.334 68.011 L
269.749 68.011 L
270.164 68.011 L
270.578 68.011 L
270.993 68.011 L
271.408 68.011 L
271.823 68.011 L
272.237 68.011 L
272.652 68.011 L
273.067 68.011 L
273.481 68.011 L
273.896 68.011 L
274.311 68.011 L
274.726 68.011 L
275.14 68.011 L
275.555 68.011 L
275.97 68.011 L
276.385 68.011 L
276.799 68.011 L
277.214 68.011 L
277.629 68.011 L
278.043 68.011 L
278.458 68.011 L
278.873 68.011 L
279.288 68.011 L
279.702 68.011 L
280.117 68.011 L
280.532 68.011 L
280.946 68.011 L
281.361 68.011 L
281.776 68.011 L
282.191 68.011 L
282.605 68.011 L
283.02 68.011 L
283.435 68.011 L
283.849 68.011 L
284.264 68.011 L
284.679 68.011 L
285.094 68.011 L
285.508 68.011 L
285.923 68.011 L
286.338 68.011 L
286.753 68.011 L
287.167 68.011 L
287.582 68.011 L
287.997 68.011 L
288.411 68.011 L
288.826 68.011 L
289.241 68.011 L
289.656 68.011 L
290.07 68.011 L
290.485 68.011 L
290.9 68.011 L
291.314 68.011 L
291.729 68.011 L
292.144 68.011 L
292.559 68.011 L
292.973 68.011 L
293.388 68.011 L
293.803 68.011 L
294.217 68.011 L
294.632 68.011 L
295.047 68.011 L
295.462 68.011 L
295.876 68.011 L
296.291 68.011 L
296.706 68.011 L
297.121 68.011 L
297.535 68.011 L
297.95 68.011 L
298.365 68.011 L
298.779 68.011 L
299.194 68.011 L
299.609 68.011 L
300.024 68.011 L
300.438 68.011 L
300.853 68.011 L
301.268 68.011 L
301.682 68.011 L
302.097 68.011 L
302.512 68.011 L
302.927 68.011 L
303.341 68.011 L
303.756 68.011 L
304.171 68.011 L
304.585 68.011 L
305 68.011 L
305.415 68.011 L
305.83 68.011 L
306.244 68.011 L
306.659 68.011 L
307.074 68.011 L
307.489 68.011 L
307.903 68.011 L
308.318 68.011 L
308.733 68.011 L
309.147 68.011 L
309.562 68.011 L
309.977 68.011 L
310.392 68.011 L
310.806 68.011 L
311.221 68.011 L
311.636 68.011 L
312.05 68.011 L
312.465 68.011 L
312.88 68.011 L
313.295 68.011 L
313.709 68.011 L
314.124 68.011 L
314.539 68.011 L
314.953 68.011 L
315.368 68.011 L
315.783 68.011 L
316.198 68.011 L
316.612 68.011 L
317.027 68.011 L
317.442 68.011 L
317.857 68.011 L
318.271 68.011 L
318.686 68.011 L
319.101 68.011 L
319.515 68.011 L
319.93 68.011 L
320.345 68.011 L
320.76 68.011 L
321.174 68.011 L
321.589 68.011 L
322.004 68.011 L
322.418 68.011 L
322.833 68.011 L
323.248 68.011 L
323.663 68.011 L
324.077 68.011 L
324.492 68.011 L
324.907 68.011 L
325.321 68.011 L
325.736 68.011 L
326.151 68.011 L
326.566 68.011 L
326.98 68.011 L
327.395 68.011 L
327.81 68.011 L
328.225 68.011 L
328.639 68.011 L
329.054 68.011 L
329.469 68.011 L
329.883 68.011 L
330.298 68.011 L
330.713 68.011 L
331.128 68.011 L
331.542 68.011 L
331.957 68.011 L
332.372 68.011 L
332.786 68.011 L
333.201 68.011 L
333.616 68.011 L
334.031 68.011 L
334.445 68.011 L
334.86 68.011 L
335.275 68.011 L
335.689 68.011 L
336.104 68.011 L
336.519 68.011 L
336.934 68.011 L
337.348 68.011 L
337.763 68.011 L
338.178 68.011 L
338.593 68.011 L
339.007 68.011 L
339.422 68.011 L
339.837 68.011 L
340.251 68.011 L
340.666 68.011 L
341.081 68.011 L
341.496 68.011 L
341.91 68.011 L
342.325 68.011 L
342.74 68.011 L
343.154 68.011 L
343.569 68.011 L
343.984 68.011 L
344.399 68.011 L
344.813 68.011 L
345.228 68.011 L
345.643 68.011 L
346.057 68.011 L
346.472 68.011 L
346.887 68.011 L
347.302 68.011 L
347.716 68.011 L
348.131 68.011 L
348.546 68.011 L
348.961 68.011 L
349.375 68.011 L
349.79 68.011 L
350.205 68.011 L
350.619 68.011 L
351.034 68.011 L
351.449 68.011 L
351.864 68.011 L
352.278 68.011 L
352.693 68.011 L
353.108 68.011 L
353.522 68.011 L
353.937 68.011 L
354.352 68.011 L
354.767 68.011 L
355.181 68.011 L
355.596 68.011 L
356.011 68.011 L
356.425 68.011 L
356.84 68.011 L
357.255 68.011 L
357.67 68.011 L
358.084 68.011 L
358.499 68.011 L
358.914 68.011 L
359.329 68.011 L
359.743 68.011 L
360.158 68.011 L
360.573 68.011 L
360.987 68.011 L
361.402 68.011 L
361.817 68.011 L
362.232 68.011 L
362.646 68.011 L
363.061 68.011 L
363.476 68.011 L
363.89 68.011 L
364.305 68.011 L
364.72 68.011 L
365.135 68.011 L
365.549 68.011 L
365.964 68.011 L
366.379 68.011 L
366.793 68.011 L
367.208 68.011 L
367.623 68.011 L
368.038 68.011 L
368.452 68.011 L
368.867 68.011 L
369.282 68.011 L
369.697 68.011 L
370.111 68.011 L
370.526 68.011 L
370.941 68.011 L
371.355 68.011 L
371.77 68.011 L
372.185 68.011 L
372.6 68.011 L
373.014 68.011 L
373.429 68.011 L
373.844 68.011 L
374.258 68.011 L
374.673 68.011 L
375.088 68.011 L
375.503 68.011 L
375.917 68.011 L
376.332 68.011 L
376.747 68.011 L
377.161 68.011 L
377.576 68.011 L
377.991 68.011 L
378.406 68.011 L
378.82 68.011 L
379.235 68.011 L
379.65 68.011 L
380.065 68.011 L
380.479 68.011 L
380.894 68.011 L
381.309 68.011 L
381.723 68.011 L
382.138 68.011 L
382.553 68.011 L
382.968 68.011 L
383.382 68.011 L
383.797 68.011 L
384.212 68.011 L
384.626 68.011 L
385.041 68.011 L
385.456 68.011 L
385.871 68.011 L
386.285 68.011 L
386.7 68.011 L
387.115 68.011 L
387.529 68.011 L
387.944 68.011 L
388.359 68.011 L
388.774 68.011 L
389.188 68.011 L
389.603 68.011 L
390.018 68.011 L
390.433 68.011 L
390.847 68.011 L
391.262 68.011 L
391.677 68.011 L
392.091 68.011 L
392.506 68.011 L
392.921 68.011 L
393.336 68.011 L
393.75 68.011 L
394.165 68.011 L
394.58 68.011 L
394.994 68.011 L
395.409 68.011 L
395.824 68.011 L
396.239 68.011 L
396.653 68.011 L
397.068 68.011 L
397.483 68.011 L
397.897 68.011 L
398.312 68.011 L
398.727 68.011 L
399.142 68.011 L
399.556 68.011 L
399.971 68.011 L
400.386 68.011 L
400.801 68.011 L
401.215 68.011 L
401.63 68.011 L
402.045 68.011 L
402.459 68.011 L
402.874 68.011 L
403.289 68.011 L
403.704 68.011 L
404.118 68.011 L
404.533 68.011 L
404.948 68.011 L
405.362 68.011 L
405.777 68.011 L
406.192 68.011 L
406.607 68.011 L
407.021 68.011 L
407.436 68.011 L
407.851 68.011 L
408.265 68.011 L
408.68 68.011 L
409.095 68.011 L
409.51 68.011 L
409.924 68.011 L
410.339 68.011 L
410.754 68.011 L
411.169 68.011 L
411.583 68.011 L
411.998 68.011 L
412.413 68.011 L
412.827 68.011 L
413.242 68.011 L
413.657 68.011 L
414.072 68.011 L
414.486 68.011 L
414.901 68.011 L
415.316 68.011 L
415.73 68.011 L
416.145 68.011 L
416.56 68.011 L
416.975 68.011 L
417.389 68.011 L
417.804 68.011 L
418.219 68.011 L
418.633 68.011 L
419.048 68.011 L
419.463 68.011 L
419.878 68.011 L
420.292 68.011 L
420.707 68.011 L
421.122 68.011 L
421.537 68.011 L
421.951 68.011 L
422.366 68.011 L
422.781 68.011 L
423.195 68.011 L
423.61 68.011 L
424.025 68.011 L
424.44 68.011 L
424.854 68.011 L
425.269 68.011 L
425.684 68.011 L
426.098 68.011 L
426.513 68.011 L
426.928 68.011 L
427.343 68.011 L
427.757 68.011 L
428.172 68.011 L
428.587 68.011 L
429.001 68.011 L
429.416 68.011 L
429.831 68.011 L
430.246 68.011 L
430.66 68.011 L
431.075 68.011 L
431.49 68.011 L
431.905 68.011 L
432.319 68.011 L
432.734 68.011 L
433.149 68.011 L
433.563 68.011 L
433.978 68.011 L
434.393 68.011 L
434.808 68.011 L
435.222 68.011 L
435.637 68.011 L
436.052 68.011 L
436.466 68.011 L
436.881 68.011 L
437.296 68.011 L
437.711 68.011 L
438.125 68.011 L
438.54 68.011 L
438.955 68.011 L
439.369 68.011 L
439.784 68.011 L
440.199 68.011 L
440.614 68.011 L
441.028 68.011 L
441.443 68.011 L
441.858 68.011 L
442.273 68.011 L
442.687 68.011 L
443.102 68.011 L
443.517 68.011 L
443.931 68.011 L
444.346 68.011 L
444.761 68.011 L
445.176 68.011 L
445.59 68.011 L
446.005 68.011 L
446.42 68.011 L
446.834 68.011 L
447.249 68.011 L
447.664 68.011 L
448.079 68.011 L
448.493 68.011 L
448.908 68.011 L
449.323 68.011 L
449.737 68.011 L
450.152 68.011 L
450.567 68.011 L
450.982 68.011 L
451.396 68.011 L
451.811 68.011 L
452.226 68.011 L
452.641 68.011 L
453.055 68.011 L
453.47 68.011 L
453.885 68.011 L
454.299 68.011 L
454.714 68.011 L
455.129 68.011 L
455.544 68.011 L
455.958 68.011 L
456.373 68.011 L
456.788 68.011 L
457.202 68.011 L
457.617 68.011 L
458.032 68.011 L
458.447 68.011 L
458.861 68.011 L
459.276 68.011 L
459.691 68.011 L
460.105 68.011 L
460.52 68.011 L
460.935 68.011 L
461.35 68.011 L
461.764 68.011 L
462.179 68.011 L
462.594 68.011 L
463.009 68.011 L
463.423 68.011 L
463.838 68.011 L
464.253 68.011 L
464.667 68.011 L
465.082 68.011 L
465.497 68.011 L
465.912 68.011 L
466.326 68.011 L
466.741 68.011 L
467.156 68.011 L
467.57 68.011 L
467.985 68.011 L
468.4 68.011 L
468.815 68.011 L
469.229 68.011 L
469.644 68.011 L
470.059 68.011 L
470.473 68.011 L
470.888 68.011 L
471.303 68.011 L
471.718 68.011 L
472.132 68.011 L
472.547 68.011 L
472.962 68.011 L
473.377 68.011 L
473.791 68.011 L
474.206 68.011 L
474.621 68.011 L
475.035 68.011 L
475.45 68.011 L
475.865 68.011 L
476.28 68.011 L
476.694 68.011 L
477.109 68.011 L
477.524 68.011 L
477.938 68.011 L
478.353 68.011 L
478.768 68.011 L
479.183 68.011 L
479.597 68.011 L
480.012 68.011 L
480.427 68.011 L
480.841 68.011 L
481.256 68.011 L
481.671 68.011 L
482.086 68.011 L
482.5 68.011 L
482.915 68.011 L
483.33 68.011 L
483.745 68.011 L
484.159 68.011 L
484.574 68.011 L
484.989 68.011 L
485.403 68.011 L
485.818 68.011 L
486.233 68.011 L
486.648 68.011 L
487.062 68.011 L
487.477 68.011 L
487.892 68.011 L
488.306 68.011 L
488.721 68.011 L
489.136 68.011 L
489.551 68.011 L
489.965 68.011 L
490.38 68.011 L
490.795 68.011 L
491.209 68.011 L
491.624 68.011 L
492.039 68.011 L
492.454 68.011 L
492.868 68.011 L
493.283 68.011 L
493.698 68.011 L
494.112 68.011 L
494.527 68.011 L
494.942 68.011 L
495.357 68.011 L
495.771 68.011 L
496.186 68.011 L
496.601 68.011 L
497.016 68.011 L
497.43 68.011 L
497.845 68.011 L
498.26 68.011 L
498.674 68.011 L
499.089 68.011 L
499.504 68.011 L
499.919 68.011 L
500.333 68.011 L
500.748 68.011 L
501.163 68.011 L
501.577 68.011 L
501.992 68.011 L
502.407 68.011 L
502.822 68.011 L
503.236 68.011 L
503.651 68.011 L
504.066 68.011 L
504.481 68.011 L
504.895 68.011 L
505.31 68.011 L
505.725 68.011 L
506.139 68.011 L
506.554 68.011 L
506.969 68.011 L
507.052 68.011 L
S
GR
GS
[0.75 0 0 0.75 0 0] CT
0.929 0.694 0.125 RC
1 LJ
2.667 LW
N
77.734 330.502 M
77.734 330.502 L
77.734 330.502 L
77.734 330.502 L
77.738 330.502 L
77.755 330.502 L
77.838 330.502 L
78.148 330.502 L
78.563 330.502 L
78.978 330.502 L
79.393 330.502 L
79.807 330.502 L
80.051 330.502 L
80.171 330.502 L
80.222 330.502 L
80.267 330.502 L
80.495 330.502 L
80.637 330.502 L
80.908 330.502 L
81.051 330.502 L
81.167 330.502 L
81.466 330.502 L
81.881 330.502 L
82.217 330.502 L
82.296 330.502 L
82.71 330.502 L
83.125 330.502 L
83.54 330.502 L
83.954 330.502 L
84.369 330.502 L
84.784 330.502 L
85.199 330.502 L
85.613 330.502 L
86.028 330.502 L
86.443 330.502 L
86.857 330.502 L
87.272 330.502 L
87.687 330.502 L
88.102 330.502 L
88.102 330.502 L
88.102 330.502 L
88.265 330.502 L
88.296 330.502 L
88.305 330.502 L
88.313 330.502 L
88.32 330.502 L
88.358 330.502 L
88.516 330.502 L
88.931 330.502 L
89.346 330.502 L
89.761 330.502 L
90.175 330.502 L
90.59 330.502 L
91.005 330.502 L
91.419 330.502 L
91.834 330.502 L
92.249 330.502 L
92.664 330.502 L
93.078 330.502 L
93.493 330.502 L
93.908 330.502 L
94.322 330.502 L
94.737 330.502 L
95.152 330.502 L
95.567 330.502 L
95.981 330.502 L
96.396 330.502 L
96.811 330.502 L
97.225 330.502 L
97.64 330.502 L
98.055 330.502 L
98.47 330.502 L
98.884 330.502 L
99.299 330.502 L
99.714 330.502 L
100.129 330.502 L
100.543 330.502 L
100.958 330.502 L
101.373 330.502 L
101.787 330.502 L
102.202 330.502 L
102.617 330.502 L
103.032 330.502 L
103.446 330.502 L
103.861 330.502 L
104.276 330.502 L
104.69 330.502 L
105.105 330.502 L
105.52 330.502 L
105.935 330.502 L
106.349 330.502 L
106.764 330.502 L
107.179 330.502 L
107.593 330.502 L
108.008 330.502 L
108.423 330.502 L
108.838 330.502 L
109.252 330.502 L
109.667 330.502 L
110.082 330.502 L
110.497 330.502 L
110.911 330.502 L
111.326 330.502 L
111.741 330.502 L
112.155 330.502 L
112.57 330.502 L
112.985 330.502 L
113.4 330.502 L
113.814 330.502 L
114.229 330.502 L
114.644 330.502 L
115.058 330.502 L
115.473 330.502 L
115.888 330.502 L
116.303 330.502 L
116.717 330.502 L
117.132 330.502 L
117.547 330.502 L
117.961 330.502 L
118.376 330.502 L
118.791 330.502 L
119.206 330.502 L
119.62 330.502 L
120.035 330.502 L
120.45 330.502 L
120.865 330.502 L
121.279 330.502 L
121.694 330.502 L
122.109 330.502 L
122.523 330.502 L
122.938 330.502 L
123.353 330.502 L
123.768 330.502 L
124.182 330.502 L
124.597 330.502 L
125.012 330.502 L
125.426 330.502 L
125.841 330.502 L
126.256 330.502 L
126.671 330.502 L
127.085 330.502 L
127.5 330.502 L
127.915 330.502 L
128.329 330.502 L
128.744 330.502 L
129.159 330.502 L
129.574 330.502 L
129.988 330.502 L
130.403 330.502 L
130.818 330.502 L
131.233 330.502 L
131.647 330.502 L
132.062 330.502 L
132.477 330.502 L
132.891 330.502 L
133.306 330.502 L
133.721 330.502 L
134.136 330.502 L
134.55 330.502 L
134.965 330.502 L
135.38 330.502 L
135.794 330.502 L
136.209 330.502 L
136.624 330.502 L
137.039 330.502 L
137.453 330.502 L
137.868 330.502 L
138.283 330.502 L
138.697 330.502 L
139.112 330.502 L
139.527 330.502 L
139.942 330.502 L
140.356 330.502 L
140.771 330.502 L
141.186 330.502 L
141.601 330.502 L
142.015 330.502 L
142.43 330.502 L
142.845 330.502 L
143.259 330.502 L
143.674 330.502 L
144.089 330.502 L
144.504 330.502 L
144.918 330.502 L
145.333 330.502 L
145.748 330.502 L
146.162 330.502 L
146.577 330.502 L
146.992 330.502 L
147.407 330.502 L
147.821 330.502 L
148.236 330.502 L
148.651 330.502 L
149.065 330.502 L
149.48 330.502 L
149.895 330.502 L
150.31 330.502 L
150.724 330.502 L
151.139 330.502 L
151.554 330.502 L
151.969 330.502 L
152.383 330.502 L
152.798 330.502 L
153.213 330.502 L
153.627 330.502 L
154.042 330.502 L
154.457 330.502 L
154.872 330.502 L
155.286 330.502 L
155.701 330.502 L
156.116 330.502 L
156.53 330.502 L
156.945 330.502 L
157.36 330.502 L
157.775 330.502 L
158.189 330.502 L
158.604 330.502 L
159.019 330.502 L
159.433 330.502 L
159.848 330.502 L
160.263 330.502 L
160.678 330.502 L
161.092 330.502 L
161.507 330.502 L
161.922 330.502 L
162.337 330.502 L
162.751 330.502 L
163.166 330.502 L
163.581 330.502 L
163.995 330.502 L
164.41 330.502 L
164.825 330.502 L
165.24 330.502 L
165.654 330.502 L
166.069 330.502 L
166.484 330.502 L
166.898 330.502 L
167.313 330.502 L
167.728 330.502 L
168.143 330.502 L
168.557 330.502 L
168.972 330.502 L
169.387 330.502 L
169.801 330.502 L
170.216 330.502 L
170.631 330.502 L
171.046 330.502 L
171.46 330.502 L
171.875 330.502 L
172.29 330.502 L
172.705 330.502 L
173.119 330.502 L
173.534 330.502 L
173.949 330.502 L
174.363 330.502 L
174.778 330.502 L
175.193 330.502 L
175.608 330.502 L
176.022 330.502 L
176.437 330.502 L
176.852 330.502 L
177.266 330.502 L
177.681 330.502 L
178.096 330.502 L
178.511 330.502 L
178.925 330.502 L
179.34 330.502 L
179.755 330.502 L
180.169 330.502 L
180.584 330.502 L
180.999 330.502 L
181.414 330.502 L
181.828 330.502 L
182.243 330.502 L
182.658 330.502 L
183.073 330.502 L
183.487 330.502 L
183.902 330.502 L
184.317 330.502 L
184.731 330.502 L
185.146 330.502 L
185.561 330.502 L
185.976 330.502 L
186.39 330.502 L
186.805 330.502 L
187.22 330.502 L
187.634 330.502 L
188.049 330.502 L
188.464 330.502 L
188.879 330.502 L
189.293 330.502 L
189.708 330.502 L
190.123 330.502 L
190.537 330.502 L
190.952 330.502 L
191.367 330.502 L
191.782 330.502 L
192.196 330.502 L
192.611 330.502 L
193.026 330.502 L
193.441 330.502 L
193.855 330.502 L
194.27 330.502 L
194.685 330.502 L
195.099 330.502 L
195.514 330.502 L
195.929 330.502 L
196.344 330.502 L
196.758 330.502 L
197.173 330.502 L
197.588 330.502 L
198.002 330.502 L
198.417 330.502 L
198.832 330.502 L
199.247 330.502 L
199.661 330.502 L
200.076 330.502 L
200.491 330.502 L
200.905 330.502 L
201.32 330.502 L
201.735 330.502 L
202.15 330.502 L
202.564 330.502 L
202.979 330.502 L
203.394 330.502 L
203.809 330.502 L
204.223 330.502 L
204.638 330.502 L
205.053 330.502 L
205.467 330.502 L
205.882 330.502 L
206.297 330.502 L
206.712 330.502 L
207.126 330.502 L
207.541 330.502 L
207.956 330.502 L
208.37 330.502 L
208.785 330.502 L
209.2 330.502 L
209.615 330.502 L
210.029 330.502 L
210.444 330.502 L
210.859 330.502 L
211.273 330.502 L
211.688 330.502 L
212.103 330.502 L
212.518 330.502 L
212.932 330.502 L
213.347 330.502 L
213.762 330.502 L
214.177 330.502 L
214.591 330.502 L
215.006 330.502 L
215.421 330.502 L
215.835 330.502 L
216.25 330.502 L
216.665 330.502 L
217.08 330.502 L
217.494 330.502 L
217.909 330.502 L
218.324 330.502 L
218.738 330.502 L
219.153 330.502 L
219.568 330.502 L
219.983 330.502 L
220.397 330.502 L
220.812 330.502 L
221.227 330.502 L
221.641 330.502 L
222.056 330.502 L
222.471 330.502 L
222.886 330.502 L
223.3 330.502 L
223.715 330.502 L
224.13 330.502 L
224.545 330.502 L
224.959 330.502 L
225.374 330.502 L
225.789 330.502 L
226.203 330.502 L
226.618 330.502 L
227.033 330.502 L
227.448 330.502 L
227.862 330.502 L
228.277 330.502 L
228.692 330.502 L
229.106 330.502 L
229.521 330.502 L
229.936 330.502 L
230.351 330.502 L
230.765 330.502 L
231.18 330.502 L
231.595 330.502 L
232.009 330.502 L
232.424 330.502 L
232.839 330.502 L
233.254 330.502 L
233.668 330.502 L
234.083 330.502 L
234.498 330.502 L
234.913 330.502 L
235.327 330.502 L
235.742 330.502 L
236.157 330.502 L
236.571 330.502 L
236.986 330.502 L
237.401 330.502 L
237.816 330.502 L
238.23 330.502 L
238.645 330.502 L
239.06 330.502 L
239.474 330.502 L
239.889 330.502 L
240.304 330.502 L
240.719 330.502 L
241.133 330.502 L
241.548 330.502 L
241.963 330.502 L
242.377 330.502 L
242.792 330.502 L
243.207 330.502 L
243.622 330.502 L
244.036 330.502 L
244.451 330.502 L
244.866 330.502 L
245.281 330.502 L
245.695 330.502 L
246.11 330.502 L
246.525 330.502 L
246.939 330.502 L
247.354 330.502 L
247.769 330.502 L
248.184 330.502 L
248.598 330.502 L
249.013 330.502 L
249.428 330.502 L
249.842 330.502 L
250.257 330.502 L
250.672 330.502 L
251.087 330.502 L
251.501 330.502 L
251.916 330.502 L
252.331 330.502 L
252.745 330.502 L
253.16 330.502 L
253.575 330.502 L
253.99 330.502 L
254.404 330.502 L
254.819 330.502 L
255.234 330.502 L
255.649 330.502 L
256.063 330.502 L
256.478 330.502 L
256.893 330.502 L
257.307 330.502 L
257.722 330.502 L
258.137 330.502 L
258.552 330.502 L
258.966 330.502 L
259.381 330.502 L
259.796 330.502 L
260.21 330.502 L
260.625 330.502 L
261.04 330.502 L
261.455 330.502 L
261.869 330.502 L
262.284 330.502 L
262.699 330.502 L
263.113 330.502 L
263.528 330.502 L
263.943 330.502 L
264.358 330.502 L
264.772 330.502 L
265.187 330.502 L
265.602 330.502 L
266.017 330.502 L
266.431 330.502 L
266.846 330.502 L
267.261 330.502 L
267.675 330.502 L
268.09 330.502 L
268.505 330.502 L
268.92 330.502 L
269.334 330.502 L
269.749 330.502 L
270.164 330.502 L
270.578 330.502 L
270.993 330.502 L
271.408 330.502 L
271.823 330.502 L
272.237 330.502 L
272.652 330.502 L
273.067 330.502 L
273.481 330.502 L
273.896 330.502 L
274.311 330.502 L
274.726 330.502 L
275.14 330.502 L
275.555 330.502 L
275.97 330.502 L
276.385 330.502 L
276.799 330.502 L
277.214 330.502 L
277.629 330.502 L
278.043 330.502 L
278.458 330.502 L
278.873 330.502 L
279.288 330.502 L
279.702 330.502 L
280.117 330.502 L
280.532 330.502 L
280.946 330.502 L
281.361 330.502 L
281.776 330.502 L
282.191 330.502 L
282.605 330.502 L
283.02 330.502 L
283.435 330.502 L
283.849 330.502 L
284.264 330.502 L
284.679 330.502 L
285.094 330.502 L
285.508 330.502 L
285.923 330.502 L
286.338 330.502 L
286.753 330.502 L
287.167 330.502 L
287.582 330.502 L
287.997 330.502 L
288.411 330.502 L
288.826 330.502 L
289.241 330.502 L
289.656 330.502 L
290.07 330.502 L
290.485 330.502 L
290.9 330.502 L
291.314 330.502 L
291.729 330.502 L
292.144 330.502 L
292.559 330.502 L
292.973 330.502 L
293.388 330.502 L
293.803 330.502 L
294.217 330.502 L
294.632 330.502 L
295.047 330.502 L
295.462 330.502 L
295.876 330.502 L
296.291 330.502 L
296.706 330.502 L
297.121 330.502 L
297.535 330.502 L
297.95 330.502 L
298.365 330.502 L
298.779 330.502 L
299.194 330.502 L
299.609 330.502 L
300.024 330.502 L
300.438 330.502 L
300.853 330.502 L
301.268 330.502 L
301.682 330.502 L
302.097 330.502 L
302.512 330.502 L
302.927 330.502 L
303.341 330.502 L
303.756 330.502 L
304.171 330.502 L
304.585 330.502 L
305 330.502 L
305.415 330.502 L
305.83 330.502 L
306.244 330.502 L
306.659 330.502 L
307.074 330.502 L
307.489 330.502 L
307.903 330.502 L
308.318 330.502 L
308.733 330.502 L
309.147 330.502 L
309.562 330.502 L
309.977 330.502 L
310.392 330.502 L
310.806 330.502 L
311.221 330.502 L
311.636 330.502 L
312.05 330.502 L
312.465 330.502 L
312.88 330.502 L
313.295 330.502 L
313.709 330.502 L
314.124 330.502 L
314.539 330.502 L
314.953 330.502 L
315.368 330.502 L
315.783 330.502 L
316.198 330.502 L
316.612 330.502 L
317.027 330.502 L
317.442 330.502 L
317.857 330.502 L
318.271 330.502 L
318.686 330.502 L
319.101 330.502 L
319.515 330.502 L
319.93 330.502 L
320.345 330.502 L
320.76 330.502 L
321.174 330.502 L
321.589 330.502 L
322.004 330.502 L
322.418 330.502 L
322.833 330.502 L
323.248 330.502 L
323.663 330.502 L
324.077 330.502 L
324.492 330.502 L
324.907 330.502 L
325.321 330.502 L
325.736 330.502 L
326.151 330.502 L
326.566 330.502 L
326.98 330.502 L
327.395 330.502 L
327.81 330.502 L
328.225 330.502 L
328.639 330.502 L
329.054 330.502 L
329.469 330.502 L
329.883 330.502 L
330.298 330.502 L
330.713 330.502 L
331.128 330.502 L
331.542 330.502 L
331.957 330.502 L
332.372 330.502 L
332.786 330.502 L
333.201 330.502 L
333.616 330.502 L
334.031 330.502 L
334.445 330.502 L
334.86 330.502 L
335.275 330.502 L
335.689 330.502 L
336.104 330.502 L
336.519 330.502 L
336.934 330.502 L
337.348 330.502 L
337.763 330.502 L
338.178 330.502 L
338.593 330.502 L
339.007 330.502 L
339.422 330.502 L
339.837 330.502 L
340.251 330.502 L
340.666 330.502 L
341.081 330.502 L
341.496 330.502 L
341.91 330.502 L
342.325 330.502 L
342.74 330.502 L
343.154 330.502 L
343.569 330.502 L
343.984 330.502 L
344.399 330.502 L
344.813 330.502 L
345.228 330.502 L
345.643 330.502 L
346.057 330.502 L
346.472 330.502 L
346.887 330.502 L
347.302 330.502 L
347.716 330.502 L
348.131 330.502 L
348.546 330.502 L
348.961 330.502 L
349.375 330.502 L
349.79 330.502 L
350.205 330.502 L
350.619 330.502 L
351.034 330.502 L
351.449 330.502 L
351.864 330.502 L
352.278 330.502 L
352.693 330.502 L
353.108 330.502 L
353.522 330.502 L
353.937 330.502 L
354.352 330.502 L
354.767 330.502 L
355.181 330.502 L
355.596 330.502 L
356.011 330.502 L
356.425 330.502 L
356.84 330.502 L
357.255 330.502 L
357.67 330.502 L
358.084 330.502 L
358.499 330.502 L
358.914 330.502 L
359.329 330.502 L
359.743 330.502 L
360.158 330.502 L
360.573 330.502 L
360.987 330.502 L
361.402 330.502 L
361.817 330.502 L
362.232 330.502 L
362.646 330.502 L
363.061 330.502 L
363.476 330.502 L
363.89 330.502 L
364.305 330.502 L
364.72 330.502 L
365.135 330.502 L
365.549 330.502 L
365.964 330.502 L
366.379 330.502 L
366.793 330.502 L
367.208 330.502 L
367.623 330.502 L
368.038 330.502 L
368.452 330.502 L
368.867 330.502 L
369.282 330.502 L
369.697 330.502 L
370.111 330.502 L
370.526 330.502 L
370.941 330.502 L
371.355 330.502 L
371.77 330.502 L
372.185 330.502 L
372.6 330.502 L
373.014 330.502 L
373.429 330.502 L
373.844 330.502 L
374.258 330.502 L
374.673 330.502 L
375.088 330.502 L
375.503 330.502 L
375.917 330.502 L
376.332 330.502 L
376.747 330.502 L
377.161 330.502 L
377.576 330.502 L
377.991 330.502 L
378.406 330.502 L
378.82 330.502 L
379.235 330.502 L
379.65 330.502 L
380.065 330.502 L
380.479 330.502 L
380.894 330.502 L
381.309 330.502 L
381.723 330.502 L
382.138 330.502 L
382.553 330.502 L
382.968 330.502 L
383.382 330.502 L
383.797 330.502 L
384.212 330.502 L
384.626 330.502 L
385.041 330.502 L
385.456 330.502 L
385.871 330.502 L
386.285 330.502 L
386.7 330.502 L
387.115 330.502 L
387.529 330.502 L
387.944 330.502 L
388.359 330.502 L
388.774 330.502 L
389.188 330.502 L
389.603 330.502 L
390.018 330.502 L
390.433 330.502 L
390.847 330.502 L
391.262 330.502 L
391.677 330.502 L
392.091 330.502 L
392.506 330.502 L
392.921 330.502 L
393.336 330.502 L
393.75 330.502 L
394.165 330.502 L
394.58 330.502 L
394.994 330.502 L
395.409 330.502 L
395.824 330.502 L
396.239 330.502 L
396.653 330.502 L
397.068 330.502 L
397.483 330.502 L
397.897 330.502 L
398.312 330.502 L
398.727 330.502 L
399.142 330.502 L
399.556 330.502 L
399.971 330.502 L
400.386 330.502 L
400.801 330.502 L
401.215 330.502 L
401.63 330.502 L
402.045 330.502 L
402.459 330.502 L
402.874 330.502 L
403.289 330.502 L
403.704 330.502 L
404.118 330.502 L
404.533 330.502 L
404.948 330.502 L
405.362 330.502 L
405.777 330.502 L
406.192 330.502 L
406.607 330.502 L
407.021 330.502 L
407.436 330.502 L
407.851 330.502 L
408.265 330.502 L
408.68 330.502 L
409.095 330.502 L
409.51 330.502 L
409.924 330.502 L
410.339 330.502 L
410.754 330.502 L
411.169 330.502 L
411.583 330.502 L
411.998 330.502 L
412.413 330.502 L
412.827 330.502 L
413.242 330.502 L
413.657 330.502 L
414.072 330.502 L
414.486 330.502 L
414.901 330.502 L
415.316 330.502 L
415.73 330.502 L
416.145 330.502 L
416.56 330.502 L
416.975 330.502 L
417.389 330.502 L
417.804 330.502 L
418.219 330.502 L
418.633 330.502 L
419.048 330.502 L
419.463 330.502 L
419.878 330.502 L
420.292 330.502 L
420.707 330.502 L
421.122 330.502 L
421.537 330.502 L
421.951 330.502 L
422.366 330.502 L
422.781 330.502 L
423.195 330.502 L
423.61 330.502 L
424.025 330.502 L
424.44 330.502 L
424.854 330.502 L
425.269 330.502 L
425.684 330.502 L
426.098 330.502 L
426.513 330.502 L
426.928 330.502 L
427.343 330.502 L
427.757 330.502 L
428.172 330.502 L
428.587 330.502 L
429.001 330.502 L
429.416 330.502 L
429.831 330.502 L
430.246 330.502 L
430.66 330.502 L
431.075 330.502 L
431.49 330.502 L
431.905 330.502 L
432.319 330.502 L
432.734 330.502 L
433.149 330.502 L
433.563 330.502 L
433.978 330.502 L
434.393 330.502 L
434.808 330.502 L
435.222 330.502 L
435.637 330.502 L
436.052 330.502 L
436.466 330.502 L
436.881 330.502 L
437.296 330.502 L
437.711 330.502 L
438.125 330.502 L
438.54 330.502 L
438.955 330.502 L
439.369 330.502 L
439.784 330.502 L
440.199 330.502 L
440.614 330.502 L
441.028 330.502 L
441.443 330.502 L
441.858 330.502 L
442.273 330.502 L
442.687 330.502 L
443.102 330.502 L
443.517 330.502 L
443.931 330.502 L
444.346 330.502 L
444.761 330.502 L
445.176 330.502 L
445.59 330.502 L
446.005 330.502 L
446.42 330.502 L
446.834 330.502 L
447.249 330.502 L
447.664 330.502 L
448.079 330.502 L
448.493 330.502 L
448.908 330.502 L
449.323 330.502 L
449.737 330.502 L
450.152 330.502 L
450.567 330.502 L
450.982 330.502 L
451.396 330.502 L
451.811 330.502 L
452.226 330.502 L
452.641 330.502 L
453.055 330.502 L
453.47 330.502 L
453.885 330.502 L
454.299 330.502 L
454.714 330.502 L
455.129 330.502 L
455.544 330.502 L
455.958 330.502 L
456.373 330.502 L
456.788 330.502 L
457.202 330.502 L
457.617 330.502 L
458.032 330.502 L
458.447 330.502 L
458.861 330.502 L
459.276 330.502 L
459.691 330.502 L
460.105 330.502 L
460.52 330.502 L
460.935 330.502 L
461.35 330.502 L
461.764 330.502 L
462.179 330.502 L
462.594 330.502 L
463.009 330.502 L
463.423 330.502 L
463.838 330.502 L
464.253 330.502 L
464.667 330.502 L
465.082 330.502 L
465.497 330.502 L
465.912 330.502 L
466.326 330.502 L
466.741 330.502 L
467.156 330.502 L
467.57 330.502 L
467.985 330.502 L
468.4 330.502 L
468.815 330.502 L
469.229 330.502 L
469.644 330.502 L
470.059 330.502 L
470.473 330.502 L
470.888 330.502 L
471.303 330.502 L
471.718 330.502 L
472.132 330.502 L
472.547 330.502 L
472.962 330.502 L
473.377 330.502 L
473.791 330.502 L
474.206 330.502 L
474.621 330.502 L
475.035 330.502 L
475.45 330.502 L
475.865 330.502 L
476.28 330.502 L
476.694 330.502 L
477.109 330.502 L
477.524 330.502 L
477.938 330.502 L
478.353 330.502 L
478.768 330.502 L
479.183 330.502 L
479.597 330.502 L
480.012 330.502 L
480.427 330.502 L
480.841 330.502 L
481.256 330.502 L
481.671 330.502 L
482.086 330.502 L
482.5 330.502 L
482.915 330.502 L
483.33 330.502 L
483.745 330.502 L
484.159 330.502 L
484.574 330.502 L
484.989 330.502 L
485.403 330.502 L
485.818 330.502 L
486.233 330.502 L
486.648 330.502 L
487.062 330.502 L
487.477 330.502 L
487.892 330.502 L
488.306 330.502 L
488.721 330.502 L
489.136 330.502 L
489.551 330.502 L
489.965 330.502 L
490.38 330.502 L
490.795 330.502 L
491.209 330.502 L
491.624 330.502 L
492.039 330.502 L
492.454 330.502 L
492.868 330.502 L
493.283 330.502 L
493.698 330.502 L
494.112 330.502 L
494.527 330.502 L
494.942 330.502 L
495.357 330.502 L
495.771 330.502 L
496.186 330.502 L
496.601 330.502 L
497.016 330.502 L
497.43 330.502 L
497.845 330.502 L
498.26 330.502 L
498.674 330.502 L
499.089 330.502 L
499.504 330.502 L
499.919 330.502 L
500.333 330.502 L
500.748 330.502 L
501.163 330.502 L
501.577 330.502 L
501.992 330.502 L
502.407 330.502 L
502.822 330.502 L
503.236 330.502 L
503.651 330.502 L
504.066 330.502 L
504.481 330.502 L
504.895 330.502 L
505.31 330.502 L
505.725 330.502 L
506.139 330.502 L
506.554 330.502 L
506.969 330.502 L
507.052 330.502 L
S
GR
GS
[0.75 0 0 0.75 0 0] CT
1 GC
N
496 107 M
496 42 L
435 42 L
435 107 L
cp
f
GR
GS
[0.75 0 0 0.75 361.5 40.5] CT
/Helvetica 16.8 F
GS
[1 0 0 1 0 0] CT
0 6 moveto 
1 -1 scale
(x) t 
GR
GR
GS
[0.75 0 0 0.75 0 0] CT
0 0.447 0.741 RC
1 LJ
2.667 LW
N
439 54 M
479 54 L
S
GR
GS
[0.75 0 0 0.75 361.5 55.875] CT
/Helvetica 16.8 F
GS
[1 0 0 1 0 0] CT
0 6 moveto 
1 -1 scale
(y) t 
GR
GR
GS
[0.75 0 0 0.75 0 0] CT
0.851 0.325 0.098 RC
1 LJ
2.667 LW
N
439 74.5 M
479 74.5 L
S
GR
GS
[0.75 0 0 0.75 361.5 71.25] CT
/Helvetica 16.8 F
GS
[1 0 0 1 0 0] CT
0 6 moveto 
1 -1 scale
(z) t 
GR
GR
GS
[0.75 0 0 0.75 0 0] CT
0.929 0.694 0.125 RC
1 LJ
2.667 LW
N
439 95 M
479 95 L
S
GR
GS
[0.75 0 0 0.75 0 0] CT
0.149 GC
10.0 ML
0.667 LW
N
435 107 M
435 42 L
496 42 L
496 107 L
cp
S
GR
%%Trailer
%%Pages: 1
%%EOF
