%!PS-Adobe-3.0 EPSF-3.0
%%Creator: (MATLAB, The Mathworks, Inc. Version 9.4.0.813654 \(R2018a\). Operating System: Linux)
%%Title: /home/isidro/google-drive/TFG/tilt-rotor-matlab/figuras/memoria/analitico/omega_2.eps
%%CreationDate: 2019-09-04T14:45:25
%%Pages: (atend)
%%BoundingBox: 0 0 424 318
%%LanguageLevel: 3
%%EndComments
%%BeginProlog
%%BeginResource: procset (Apache XML Graphics Std ProcSet) 1.2 0
%%Version: 1.2 0
%%Copyright: (Copyright 2001-2003,2010 The Apache Software Foundation. License terms: http://www.apache.org/licenses/LICENSE-2.0)
/bd{bind def}bind def
/ld{load def}bd
/GR/grestore ld
/GS/gsave ld
/RM/rmoveto ld
/C/curveto ld
/t/show ld
/L/lineto ld
/ML/setmiterlimit ld
/CT/concat ld
/f/fill ld
/N/newpath ld
/S/stroke ld
/CC/setcmykcolor ld
/A/ashow ld
/cp/closepath ld
/RC/setrgbcolor ld
/LJ/setlinejoin ld
/GC/setgray ld
/LW/setlinewidth ld
/M/moveto ld
/re {4 2 roll M
1 index 0 rlineto
0 exch rlineto
neg 0 rlineto
cp } bd
/_ctm matrix def
/_tm matrix def
/BT { _ctm currentmatrix pop matrix _tm copy pop 0 0 moveto } bd
/ET { _ctm setmatrix } bd
/iTm { _ctm setmatrix _tm concat } bd
/Tm { _tm astore pop iTm 0 0 moveto } bd
/ux 0.0 def
/uy 0.0 def
/F {
  /Tp exch def
  /Tf exch def
  Tf findfont Tp scalefont setfont
  /cf Tf def  /cs Tp def
} bd
/ULS {currentpoint /uy exch def /ux exch def} bd
/ULE {
  /Tcx currentpoint pop def
  gsave
  newpath
  cf findfont cs scalefont dup
  /FontMatrix get 0 get /Ts exch def /FontInfo get dup
  /UnderlinePosition get Ts mul /To exch def
  /UnderlineThickness get Ts mul /Tt exch def
  ux uy To add moveto  Tcx uy To add lineto
  Tt setlinewidth stroke
  grestore
} bd
/OLE {
  /Tcx currentpoint pop def
  gsave
  newpath
  cf findfont cs scalefont dup
  /FontMatrix get 0 get /Ts exch def /FontInfo get dup
  /UnderlinePosition get Ts mul /To exch def
  /UnderlineThickness get Ts mul /Tt exch def
  ux uy To add cs add moveto Tcx uy To add cs add lineto
  Tt setlinewidth stroke
  grestore
} bd
/SOE {
  /Tcx currentpoint pop def
  gsave
  newpath
  cf findfont cs scalefont dup
  /FontMatrix get 0 get /Ts exch def /FontInfo get dup
  /UnderlinePosition get Ts mul /To exch def
  /UnderlineThickness get Ts mul /Tt exch def
  ux uy To add cs 10 mul 26 idiv add moveto Tcx uy To add cs 10 mul 26 idiv add lineto
  Tt setlinewidth stroke
  grestore
} bd
/QT {
/Y22 exch store
/X22 exch store
/Y21 exch store
/X21 exch store
currentpoint
/Y21 load 2 mul add 3 div exch
/X21 load 2 mul add 3 div exch
/X21 load 2 mul /X22 load add 3 div
/Y21 load 2 mul /Y22 load add 3 div
/X22 load /Y22 load curveto
} bd
/SSPD {
dup length /d exch dict def
{
/v exch def
/k exch def
currentpagedevice k known {
/cpdv currentpagedevice k get def
v cpdv ne {
/upd false def
/nullv v type /nulltype eq def
/nullcpdv cpdv type /nulltype eq def
nullv nullcpdv or
{
/upd true def
} {
/sametype v type cpdv type eq def
sametype {
v type /arraytype eq {
/vlen v length def
/cpdvlen cpdv length def
vlen cpdvlen eq {
0 1 vlen 1 sub {
/i exch def
/obj v i get def
/cpdobj cpdv i get def
obj cpdobj ne {
/upd true def
exit
} if
} for
} {
/upd true def
} ifelse
} {
v type /dicttype eq {
v {
/dv exch def
/dk exch def
/cpddv cpdv dk get def
dv cpddv ne {
/upd true def
exit
} if
} forall
} {
/upd true def
} ifelse
} ifelse
} if
} ifelse
upd true eq {
d k v put
} if
} if
} if
} forall
d length 0 gt {
d setpagedevice
} if
} bd
/RE { % /NewFontName [NewEncodingArray] /FontName RE -
  findfont dup length dict begin
  {
    1 index /FID ne
    {def} {pop pop} ifelse
  } forall
  /Encoding exch def
  /FontName 1 index def
  currentdict definefont pop
  end
} bind def
%%EndResource
%%BeginResource: procset (Apache XML Graphics EPS ProcSet) 1.0 0
%%Version: 1.0 0
%%Copyright: (Copyright 2002-2003 The Apache Software Foundation. License terms: http://www.apache.org/licenses/LICENSE-2.0)
/BeginEPSF { %def
/b4_Inc_state save def         % Save state for cleanup
/dict_count countdictstack def % Count objects on dict stack
/op_count count 1 sub def      % Count objects on operand stack
userdict begin                 % Push userdict on dict stack
/showpage { } def              % Redefine showpage, { } = null proc
0 setgray 0 setlinecap         % Prepare graphics state
1 setlinewidth 0 setlinejoin
10 setmiterlimit [ ] 0 setdash newpath
/languagelevel where           % If level not equal to 1 then
{pop languagelevel             % set strokeadjust and
1 ne                           % overprint to their defaults.
{false setstrokeadjust false setoverprint
} if
} if
} bd
/EndEPSF { %def
count op_count sub {pop} repeat            % Clean up stacks
countdictstack dict_count sub {end} repeat
b4_Inc_state restore
} bd
%%EndResource
%FOPBeginFontDict
%%IncludeResource: font Courier-Oblique
%%IncludeResource: font Courier-BoldOblique
%%IncludeResource: font Courier-Bold
%%IncludeResource: font ZapfDingbats
%%IncludeResource: font Symbol
%%IncludeResource: font Helvetica
%%IncludeResource: font Helvetica-Oblique
%%IncludeResource: font Helvetica-Bold
%%IncludeResource: font Helvetica-BoldOblique
%%IncludeResource: font Times-Roman
%%IncludeResource: font Times-Italic
%%IncludeResource: font Times-Bold
%%IncludeResource: font Times-BoldItalic
%%IncludeResource: font Courier
%FOPEndFontDict
%%BeginResource: encoding WinAnsiEncoding
/WinAnsiEncoding [
/.notdef /.notdef /.notdef /.notdef /.notdef
/.notdef /.notdef /.notdef /.notdef /.notdef
/.notdef /.notdef /.notdef /.notdef /.notdef
/.notdef /.notdef /.notdef /.notdef /.notdef
/.notdef /.notdef /.notdef /.notdef /.notdef
/.notdef /.notdef /.notdef /.notdef /.notdef
/.notdef /.notdef /space /exclam /quotedbl
/numbersign /dollar /percent /ampersand /quotesingle
/parenleft /parenright /asterisk /plus /comma
/hyphen /period /slash /zero /one
/two /three /four /five /six
/seven /eight /nine /colon /semicolon
/less /equal /greater /question /at
/A /B /C /D /E
/F /G /H /I /J
/K /L /M /N /O
/P /Q /R /S /T
/U /V /W /X /Y
/Z /bracketleft /backslash /bracketright /asciicircum
/underscore /quoteleft /a /b /c
/d /e /f /g /h
/i /j /k /l /m
/n /o /p /q /r
/s /t /u /v /w
/x /y /z /braceleft /bar
/braceright /asciitilde /bullet /Euro /bullet
/quotesinglbase /florin /quotedblbase /ellipsis /dagger
/daggerdbl /circumflex /perthousand /Scaron /guilsinglleft
/OE /bullet /Zcaron /bullet /bullet
/quoteleft /quoteright /quotedblleft /quotedblright /bullet
/endash /emdash /asciitilde /trademark /scaron
/guilsinglright /oe /bullet /zcaron /Ydieresis
/space /exclamdown /cent /sterling /currency
/yen /brokenbar /section /dieresis /copyright
/ordfeminine /guillemotleft /logicalnot /sfthyphen /registered
/macron /degree /plusminus /twosuperior /threesuperior
/acute /mu /paragraph /middot /cedilla
/onesuperior /ordmasculine /guillemotright /onequarter /onehalf
/threequarters /questiondown /Agrave /Aacute /Acircumflex
/Atilde /Adieresis /Aring /AE /Ccedilla
/Egrave /Eacute /Ecircumflex /Edieresis /Igrave
/Iacute /Icircumflex /Idieresis /Eth /Ntilde
/Ograve /Oacute /Ocircumflex /Otilde /Odieresis
/multiply /Oslash /Ugrave /Uacute /Ucircumflex
/Udieresis /Yacute /Thorn /germandbls /agrave
/aacute /acircumflex /atilde /adieresis /aring
/ae /ccedilla /egrave /eacute /ecircumflex
/edieresis /igrave /iacute /icircumflex /idieresis
/eth /ntilde /ograve /oacute /ocircumflex
/otilde /odieresis /divide /oslash /ugrave
/uacute /ucircumflex /udieresis /yacute /thorn
/ydieresis
] def
%%EndResource
%FOPBeginFontReencode
/Courier-Oblique findfont
dup length dict begin
  {1 index /FID ne {def} {pop pop} ifelse} forall
  /Encoding WinAnsiEncoding def
  currentdict
end
/Courier-Oblique exch definefont pop
/Courier-BoldOblique findfont
dup length dict begin
  {1 index /FID ne {def} {pop pop} ifelse} forall
  /Encoding WinAnsiEncoding def
  currentdict
end
/Courier-BoldOblique exch definefont pop
/Courier-Bold findfont
dup length dict begin
  {1 index /FID ne {def} {pop pop} ifelse} forall
  /Encoding WinAnsiEncoding def
  currentdict
end
/Courier-Bold exch definefont pop
/Helvetica findfont
dup length dict begin
  {1 index /FID ne {def} {pop pop} ifelse} forall
  /Encoding WinAnsiEncoding def
  currentdict
end
/Helvetica exch definefont pop
/Helvetica-Oblique findfont
dup length dict begin
  {1 index /FID ne {def} {pop pop} ifelse} forall
  /Encoding WinAnsiEncoding def
  currentdict
end
/Helvetica-Oblique exch definefont pop
/Helvetica-Bold findfont
dup length dict begin
  {1 index /FID ne {def} {pop pop} ifelse} forall
  /Encoding WinAnsiEncoding def
  currentdict
end
/Helvetica-Bold exch definefont pop
/Helvetica-BoldOblique findfont
dup length dict begin
  {1 index /FID ne {def} {pop pop} ifelse} forall
  /Encoding WinAnsiEncoding def
  currentdict
end
/Helvetica-BoldOblique exch definefont pop
/Times-Roman findfont
dup length dict begin
  {1 index /FID ne {def} {pop pop} ifelse} forall
  /Encoding WinAnsiEncoding def
  currentdict
end
/Times-Roman exch definefont pop
/Times-Italic findfont
dup length dict begin
  {1 index /FID ne {def} {pop pop} ifelse} forall
  /Encoding WinAnsiEncoding def
  currentdict
end
/Times-Italic exch definefont pop
/Times-Bold findfont
dup length dict begin
  {1 index /FID ne {def} {pop pop} ifelse} forall
  /Encoding WinAnsiEncoding def
  currentdict
end
/Times-Bold exch definefont pop
/Times-BoldItalic findfont
dup length dict begin
  {1 index /FID ne {def} {pop pop} ifelse} forall
  /Encoding WinAnsiEncoding def
  currentdict
end
/Times-BoldItalic exch definefont pop
/Courier findfont
dup length dict begin
  {1 index /FID ne {def} {pop pop} ifelse} forall
  /Encoding WinAnsiEncoding def
  currentdict
end
/Courier exch definefont pop
%FOPEndFontReencode
%%EndProlog
%%Page: 1 1
%%PageBoundingBox: 0 0 424 318
%%BeginPageSetup
[1 0 0 -1 0 318] CT
%%EndPageSetup
GS
[0.75789 0 0 0.75789 0 -0.31577] CT
N
0 0 M
560 0 L
560 420 L
0 420 L
0 0 L
cp
clip
1 GC
N
0 0 560 420 re
f
GR
GS
[0.75789 0 0 0.75789 0 -0.31577] CT
1 GC
N
0 0 560 420 re
f
GR
GS
[0.75789 0 0 0.75789 0 -0.31577] CT
1 GC
N
73 365 M
507 365 L
507 31 L
73 31 L
cp
f
GR
GS
[0.75789 0 0 0.75789 0 -0.31577] CT
0.873 GC
1 LJ
0.66 LW
N
73 365 M
73 31 L
S
GR
GS
[0.75789 0 0 0.75789 0 -0.31577] CT
0.873 GC
1 LJ
0.66 LW
N
136.896 365 M
136.896 31 L
S
GR
GS
[0.75789 0 0 0.75789 0 -0.31577] CT
0.873 GC
1 LJ
0.66 LW
N
200.791 365 M
200.791 31 L
S
GR
GS
[0.75789 0 0 0.75789 0 -0.31577] CT
0.873 GC
1 LJ
0.66 LW
N
264.687 365 M
264.687 31 L
S
GR
GS
[0.75789 0 0 0.75789 0 -0.31577] CT
0.873 GC
1 LJ
0.66 LW
N
328.583 365 M
328.583 31 L
S
GR
GS
[0.75789 0 0 0.75789 0 -0.31577] CT
0.873 GC
1 LJ
0.66 LW
N
392.478 365 M
392.478 31 L
S
GR
GS
[0.75789 0 0 0.75789 0 -0.31577] CT
0.873 GC
1 LJ
0.66 LW
N
456.374 365 M
456.374 31 L
S
GR
GS
[0.75789 0 0 0.75789 0 -0.31577] CT
0.873 GC
1 LJ
0.66 LW
N
507 365 M
73 365 L
S
GR
GS
[0.75789 0 0 0.75789 0 -0.31577] CT
0.873 GC
1 LJ
0.66 LW
N
507 323.25 M
73 323.25 L
S
GR
GS
[0.75789 0 0 0.75789 0 -0.31577] CT
0.873 GC
1 LJ
0.66 LW
N
507 281.5 M
73 281.5 L
S
GR
GS
[0.75789 0 0 0.75789 0 -0.31577] CT
0.873 GC
1 LJ
0.66 LW
N
507 239.75 M
73 239.75 L
S
GR
GS
[0.75789 0 0 0.75789 0 -0.31577] CT
0.873 GC
1 LJ
0.66 LW
N
507 198 M
73 198 L
S
GR
GS
[0.75789 0 0 0.75789 0 -0.31577] CT
0.873 GC
1 LJ
0.66 LW
N
507 156.25 M
73 156.25 L
S
GR
GS
[0.75789 0 0 0.75789 0 -0.31577] CT
0.873 GC
1 LJ
0.66 LW
N
507 114.5 M
73 114.5 L
S
GR
GS
[0.75789 0 0 0.75789 0 -0.31577] CT
0.873 GC
1 LJ
0.66 LW
N
507 72.75 M
73 72.75 L
S
GR
GS
[0.75789 0 0 0.75789 0 -0.31577] CT
0.873 GC
1 LJ
0.66 LW
N
507 31 M
73 31 L
S
GR
GS
[0.75789 0 0 0.75789 0 -0.31577] CT
0.149 GC
2 setlinecap
1 LJ
0.66 LW
N
73 365 M
507 365 L
S
GR
GS
[0.75789 0 0 0.75789 0 -0.31577] CT
0.149 GC
2 setlinecap
1 LJ
0.66 LW
N
73 365 M
73 360.66 L
S
GR
GS
[0.75789 0 0 0.75789 0 -0.31577] CT
0.149 GC
2 setlinecap
1 LJ
0.66 LW
N
136.896 365 M
136.896 360.66 L
S
GR
GS
[0.75789 0 0 0.75789 0 -0.31577] CT
0.149 GC
2 setlinecap
1 LJ
0.66 LW
N
200.791 365 M
200.791 360.66 L
S
GR
GS
[0.75789 0 0 0.75789 0 -0.31577] CT
0.149 GC
2 setlinecap
1 LJ
0.66 LW
N
264.687 365 M
264.687 360.66 L
S
GR
GS
[0.75789 0 0 0.75789 0 -0.31577] CT
0.149 GC
2 setlinecap
1 LJ
0.66 LW
N
328.583 365 M
328.583 360.66 L
S
GR
GS
[0.75789 0 0 0.75789 0 -0.31577] CT
0.149 GC
2 setlinecap
1 LJ
0.66 LW
N
392.478 365 M
392.478 360.66 L
S
GR
GS
[0.75789 0 0 0.75789 0 -0.31577] CT
0.149 GC
2 setlinecap
1 LJ
0.66 LW
N
456.374 365 M
456.374 360.66 L
S
GR
GS
[0.75789 0 0 0.75789 55.32632 281.1158] CT
0.149 GC
/Helvetica 18.472 F
GS
[1 0 0 1 0 0] CT
-6 18 moveto 
1 -1 scale
(0) t 
GR
GR
GS
[0.75789 0 0 0.75789 103.7525 281.1158] CT
0.149 GC
/Helvetica 18.472 F
GS
[1 0 0 1 0 0] CT
-15 18 moveto 
1 -1 scale
(0.1) t 
GR
GR
GS
[0.75789 0 0 0.75789 152.17867 281.1158] CT
0.149 GC
/Helvetica 18.472 F
GS
[1 0 0 1 0 0] CT
-15 18 moveto 
1 -1 scale
(0.2) t 
GR
GR
GS
[0.75789 0 0 0.75789 200.60487 281.1158] CT
0.149 GC
/Helvetica 18.472 F
GS
[1 0 0 1 0 0] CT
-15 18 moveto 
1 -1 scale
(0.3) t 
GR
GR
GS
[0.75789 0 0 0.75789 249.03103 281.1158] CT
0.149 GC
/Helvetica 18.472 F
GS
[1 0 0 1 0 0] CT
-15 18 moveto 
1 -1 scale
(0.4) t 
GR
GR
GS
[0.75789 0 0 0.75789 297.45722 281.1158] CT
0.149 GC
/Helvetica 18.472 F
GS
[1 0 0 1 0 0] CT
-15 18 moveto 
1 -1 scale
(0.5) t 
GR
GR
GS
[0.75789 0 0 0.75789 345.8834 281.1158] CT
0.149 GC
/Helvetica 18.472 F
GS
[1 0 0 1 0 0] CT
-15 18 moveto 
1 -1 scale
(0.6) t 
GR
GR
GS
[0.75789 0 0 0.75789 219.78963 299.54736] CT
0.149 GC
/Helvetica 20.319 F
GS
[1 0 0 1 0 0] CT
-17.5 19 moveto 
1 -1 scale
(t\(s\)) t 
GR
GR
GS
[0.75789 0 0 0.75789 0 -0.31577] CT
0.149 GC
2 setlinecap
1 LJ
0.66 LW
N
73 365 M
73 31 L
S
GR
GS
[0.75789 0 0 0.75789 0 -0.31577] CT
0.149 GC
2 setlinecap
1 LJ
0.66 LW
N
73 365 M
77.34 365 L
S
GR
GS
[0.75789 0 0 0.75789 0 -0.31577] CT
0.149 GC
2 setlinecap
1 LJ
0.66 LW
N
73 323.25 M
77.34 323.25 L
S
GR
GS
[0.75789 0 0 0.75789 0 -0.31577] CT
0.149 GC
2 setlinecap
1 LJ
0.66 LW
N
73 281.5 M
77.34 281.5 L
S
GR
GS
[0.75789 0 0 0.75789 0 -0.31577] CT
0.149 GC
2 setlinecap
1 LJ
0.66 LW
N
73 239.75 M
77.34 239.75 L
S
GR
GS
[0.75789 0 0 0.75789 0 -0.31577] CT
0.149 GC
2 setlinecap
1 LJ
0.66 LW
N
73 198 M
77.34 198 L
S
GR
GS
[0.75789 0 0 0.75789 0 -0.31577] CT
0.149 GC
2 setlinecap
1 LJ
0.66 LW
N
73 156.25 M
77.34 156.25 L
S
GR
GS
[0.75789 0 0 0.75789 0 -0.31577] CT
0.149 GC
2 setlinecap
1 LJ
0.66 LW
N
73 114.5 M
77.34 114.5 L
S
GR
GS
[0.75789 0 0 0.75789 0 -0.31577] CT
0.149 GC
2 setlinecap
1 LJ
0.66 LW
N
73 72.75 M
77.34 72.75 L
S
GR
GS
[0.75789 0 0 0.75789 0 -0.31577] CT
0.149 GC
2 setlinecap
1 LJ
0.66 LW
N
73 31 M
77.34 31 L
S
GR
GS
[0.75789 0 0 0.75789 50.52631 276.31579] CT
0.149 GC
/Helvetica 18.472 F
GS
[1 0 0 1 0 0] CT
-19 6.5 moveto 
1 -1 scale
(-7) t 
GR
GR
GS
[0.75789 0 0 0.75789 50.52631 244.67369] CT
0.149 GC
/Helvetica 18.472 F
GS
[1 0 0 1 0 0] CT
-19 6.5 moveto 
1 -1 scale
(-6) t 
GR
GR
GS
[0.75789 0 0 0.75789 50.52631 213.03159] CT
0.149 GC
/Helvetica 18.472 F
GS
[1 0 0 1 0 0] CT
-19 6.5 moveto 
1 -1 scale
(-5) t 
GR
GR
GS
[0.75789 0 0 0.75789 50.52631 181.38948] CT
0.149 GC
/Helvetica 18.472 F
GS
[1 0 0 1 0 0] CT
-19 6.5 moveto 
1 -1 scale
(-4) t 
GR
GR
GS
[0.75789 0 0 0.75789 50.52631 149.74738] CT
0.149 GC
/Helvetica 18.472 F
GS
[1 0 0 1 0 0] CT
-19 6.5 moveto 
1 -1 scale
(-3) t 
GR
GR
GS
[0.75789 0 0 0.75789 50.52631 118.10528] CT
0.149 GC
/Helvetica 18.472 F
GS
[1 0 0 1 0 0] CT
-19 6.5 moveto 
1 -1 scale
(-2) t 
GR
GR
GS
[0.75789 0 0 0.75789 50.52631 86.46318] CT
0.149 GC
/Helvetica 18.472 F
GS
[1 0 0 1 0 0] CT
-19 6.5 moveto 
1 -1 scale
(-1) t 
GR
GR
GS
[0.75789 0 0 0.75789 50.52631 54.82107] CT
0.149 GC
/Helvetica 18.472 F
GS
[1 0 0 1 0 0] CT
-12 6.5 moveto 
1 -1 scale
(0) t 
GR
GR
GS
[0.75789 0 0 0.75789 50.52631 23.17897] CT
0.149 GC
/Helvetica 18.472 F
GS
[1 0 0 1 0 0] CT
-12 6.5 moveto 
1 -1 scale
(1) t 
GR
GR
GS
[0 -0.75789 0.75789 0 29.55789 183.85264] CT
0.149 GC
N
1.547 0 M
0.875 -3.328 L
1.469 -3.328 L
1.578 -2.75 1.664 -2.305 QT
1.75 -1.859 1.891 -1.68 QT
2.031 -1.5 2.344 -1.438 QT
2.656 -1.375 3.375 -1.375 QT
4.594 -1.375 L
4.313 -2.516 3.141 -4.336 QT
1.969 -6.156 1.547 -6.977 QT
1.125 -7.797 1.125 -9.109 QT
1.125 -10.609 2.023 -11.75 QT
2.922 -12.891 4.344 -13.5 QT
5.766 -14.109 7.219 -14.109 QT
8.656 -14.109 10.078 -13.5 QT
11.5 -12.891 12.398 -11.742 QT
13.297 -10.594 13.297 -9.109 QT
13.297 -8.094 12.93 -7.195 QT
12.563 -6.297 11.984 -5.398 QT
11.406 -4.5 10.734 -3.391 QT
10.063 -2.281 9.828 -1.375 QT
11.031 -1.375 L
11.766 -1.375 12.086 -1.438 QT
12.406 -1.5 12.547 -1.68 QT
12.688 -1.859 12.773 -2.305 QT
12.859 -2.75 12.953 -3.328 QT
13.531 -3.328 L
12.875 0 L
9.344 0 L
9.141 0 9.141 -0.266 QT
9.141 -1.281 9.391 -2.258 QT
9.641 -3.234 10.125 -4.617 QT
10.609 -6 10.883 -7.063 QT
11.156 -8.125 11.156 -9.109 QT
11.156 -10.297 10.688 -11.328 QT
10.219 -12.359 9.32 -12.969 QT
8.422 -13.578 7.219 -13.578 QT
5.391 -13.578 4.328 -12.281 QT
3.266 -10.984 3.266 -9.109 QT
3.266 -8.078 3.5 -7.172 QT
3.734 -6.266 4.258 -4.75 QT
4.781 -3.234 5.031 -2.258 QT
5.281 -1.281 5.281 -0.266 QT
5.281 0 5.078 0 QT
1.547 0 L
cp
f
GR
GS
[0 -0.75789 0.75789 0 29.55789 172.48422] CT
0.149 GC
/Helvetica 20.319 F
GS
[1 0 0 1 0 0] CT
0 0 moveto 
1 -1 scale
( \(rad/s\)) t 
GR
GR
GS
[0.75789 0 0 0.75789 165.22105 16.35792] CT
/Helvetica-Bold 20.319 F
GS
[1 0 0 1 0 0] CT
0 0 moveto 
1 -1 scale
(Control de ) t 
GR
GR
GS
[0.75789 0 0 0.75789 261.47368 16.35792] CT
N
1.547 0 M
0.875 -3.328 L
2.469 -3.328 L
2.578 -2.75 2.664 -2.305 QT
2.75 -1.859 2.891 -1.68 QT
3.031 -1.5 3.344 -1.438 QT
3.656 -1.375 3.656 -1.375 QT
4.594 -1.375 L
4.313 -2.516 3.141 -4.336 QT
1.969 -6.156 1.547 -6.977 QT
1.125 -7.797 1.125 -9.109 QT
1.125 -10.609 2.023 -11.75 QT
2.922 -12.891 4.344 -13.5 QT
5.766 -14.109 7.219 -14.109 QT
9.656 -14.109 11.078 -13.5 QT
12.5 -12.891 13.398 -11.742 QT
14.297 -10.594 14.297 -9.109 QT
14.297 -8.094 13.93 -7.195 QT
13.563 -6.297 12.984 -5.398 QT
12.406 -4.5 11.734 -3.391 QT
11.063 -2.281 10.828 -1.375 QT
11.031 -1.375 L
11.766 -1.375 12.086 -1.438 QT
12.406 -1.5 12.547 -1.68 QT
12.688 -1.859 12.773 -2.305 QT
12.859 -2.75 12.953 -3.328 QT
14.531 -3.328 L
13.875 0 L
9.344 0 L
9.141 0 9.141 -0.266 QT
9.141 -1.281 9.391 -2.258 QT
9.641 -3.234 10.125 -4.617 QT
10.609 -6 10.883 -7.063 QT
11.156 -8.125 11.156 -9.109 QT
11.156 -10.297 10.688 -11.328 QT
10.219 -12.359 9.32 -12.969 QT
8.422 -13.578 7.219 -13.578 QT
6.391 -13.578 5.328 -12.281 QT
4.266 -10.984 4.266 -9.109 QT
4.266 -8.078 4.5 -7.172 QT
4.734 -6.266 5.258 -4.75 QT
5.781 -3.234 6.031 -2.258 QT
6.281 -1.281 6.281 -0.266 QT
6.281 0 5.078 0 QT
1.547 0 L
cp
f
GR
GS
[0.75789 0 0 0.75789 0 -0.31577] CT
0 0.447 0.741 RC
1 LJ
2.639 LW
N
73 72.75 M
73 72.75 L
73.001 72.75 L
73.005 72.75 L
73.026 72.75 L
73.129 72.75 L
73.645 72.75 L
75.556 72.75 L
78.112 72.75 L
80.667 72.75 L
83.223 72.75 L
85.779 72.75 L
87.282 72.75 L
88.022 72.75 L
88.335 72.75 L
88.615 72.75 L
90.017 72.75 L
90.891 72.75 L
92.561 72.75 L
93.447 72.75 L
94.162 72.75 L
96.002 72.75 L
98.558 72.75 L
100.627 72.75 L
101.114 72.75 L
103.67 72.75 L
106.226 72.75 L
108.782 72.75 L
111.337 72.75 L
113.893 72.75 L
116.449 72.75 L
119.005 72.75 L
121.561 72.75 L
124.117 72.75 L
126.672 72.75 L
129.228 72.75 L
131.784 72.75 L
134.34 72.75 L
136.896 72.75 L
136.896 72.75 L
136.896 72.75 L
137.903 72.75 L
138.09 72.75 L
138.143 72.75 L
138.162 72.75 L
138.182 72.75 L
138.199 72.75 L
138.285 72.75 L
138.718 72.75 L
139.451 72.75 L
142.007 72.75 L
144.563 72.75 L
147.119 72.75 L
149.675 72.75 L
152.231 72.75 L
154.786 72.75 L
157.342 72.75 L
159.898 72.75 L
162.454 72.75 L
165.01 72.75 L
167.566 72.75 L
170.121 72.75 L
172.677 72.75 L
175.233 72.75 L
177.789 72.75 L
180.345 72.75 L
182.901 72.75 L
185.456 72.75 L
188.012 72.75 L
190.568 72.75 L
193.124 72.75 L
195.68 72.75 L
198.235 72.75 L
200.791 72.75 L
203.347 72.75 L
205.903 72.75 L
208.459 72.75 L
211.015 72.75 L
213.57 72.75 L
216.126 72.75 L
218.682 72.75 L
221.238 72.75 L
223.794 72.75 L
226.35 72.75 L
228.905 72.75 L
231.461 72.75 L
234.017 72.75 L
236.573 72.75 L
239.129 72.75 L
241.685 72.75 L
244.24 72.75 L
246.796 72.75 L
249.352 72.75 L
251.908 72.75 L
254.464 72.75 L
257.019 72.75 L
259.575 72.75 L
262.131 72.75 L
264.687 72.75 L
267.243 72.75 L
269.799 72.75 L
272.354 72.75 L
274.91 72.75 L
277.466 72.75 L
280.022 72.75 L
282.578 72.75 L
285.134 72.75 L
287.689 72.75 L
290.245 72.75 L
292.801 72.75 L
295.357 72.75 L
297.913 72.75 L
300.469 72.75 L
303.024 72.75 L
305.58 72.75 L
308.136 72.75 L
310.692 72.75 L
313.248 72.75 L
315.803 72.75 L
318.359 72.75 L
320.915 72.75 L
323.471 72.75 L
326.027 72.75 L
328.583 72.75 L
331.138 72.75 L
333.694 72.75 L
336.25 72.75 L
338.806 72.75 L
341.362 72.75 L
343.918 72.75 L
346.473 72.75 L
349.029 72.75 L
351.585 72.75 L
354.141 72.75 L
356.697 72.75 L
359.253 72.75 L
361.808 72.75 L
364.364 72.75 L
366.92 72.75 L
369.476 72.75 L
372.032 72.75 L
374.587 72.75 L
377.143 72.75 L
379.699 72.75 L
382.255 72.75 L
384.811 72.75 L
387.367 72.75 L
389.922 72.75 L
392.478 72.75 L
395.034 72.75 L
397.59 72.75 L
400.146 72.75 L
402.702 72.75 L
405.257 72.75 L
407.813 72.75 L
410.369 72.75 L
412.925 72.75 L
415.481 72.75 L
418.037 72.75 L
420.592 72.75 L
423.148 72.75 L
425.704 72.75 L
428.26 72.75 L
430.816 72.75 L
433.371 72.75 L
435.927 72.75 L
438.483 72.75 L
441.039 72.75 L
443.595 72.75 L
446.151 72.75 L
448.706 72.75 L
451.262 72.75 L
453.818 72.75 L
456.374 72.75 L
458.93 72.75 L
461.486 72.75 L
464.041 72.75 L
466.597 72.75 L
469.153 72.75 L
471.709 72.75 L
474.265 72.75 L
476.821 72.75 L
479.376 72.75 L
481.932 72.75 L
484.488 72.75 L
487.044 72.75 L
489.6 72.75 L
492.156 72.75 L
494.711 72.75 L
497.267 72.75 L
499.823 72.75 L
502.379 72.75 L
504.935 72.75 L
507.052 72.75 L
S
GR
GS
[0.75789 0 0 0.75789 0 -0.31577] CT
0.851 0.325 0.098 RC
1 LJ
2.639 LW
N
73 72.75 M
73 72.75 L
73.001 72.75 L
73.005 72.75 L
73.026 72.75 L
73.129 72.75 L
73.645 72.75 L
75.556 72.75 L
78.112 72.75 L
80.667 72.75 L
83.223 72.75 L
85.779 72.75 L
87.282 72.75 L
88.022 72.75 L
88.335 72.75 L
88.615 72.75 L
90.017 72.75 L
90.891 72.75 L
92.561 72.75 L
93.447 72.75 L
94.162 72.75 L
96.002 72.75 L
98.558 72.75 L
100.627 72.75 L
101.114 72.75 L
103.67 72.75 L
106.226 72.75 L
108.782 72.75 L
111.337 72.75 L
113.893 72.75 L
116.449 72.75 L
119.005 72.75 L
121.561 72.75 L
124.117 72.75 L
126.672 72.75 L
129.228 72.75 L
131.784 72.75 L
134.34 72.75 L
136.896 72.75 L
136.896 72.75 L
136.896 72.75 L
137.903 72.75 L
138.09 72.75 L
138.143 72.75 L
138.162 72.75 L
138.182 72.75 L
138.199 72.75 L
138.285 72.754 L
138.718 72.845 L
139.451 73.251 L
142.007 76.657 L
144.563 82.199 L
147.119 89.014 L
149.675 96.59 L
152.231 104.63 L
154.786 112.959 L
157.342 121.471 L
159.898 130.101 L
162.454 138.809 L
165.01 147.567 L
167.566 156.358 L
170.121 165.172 L
172.677 174 L
175.233 182.839 L
177.789 191.684 L
180.345 200.533 L
182.901 209.385 L
185.456 218.24 L
188.012 227.095 L
190.568 235.952 L
193.124 244.809 L
195.68 253.666 L
198.235 262.524 L
200.791 271.382 L
203.347 280.218 L
205.903 288.792 L
208.459 296.404 L
211.015 302.226 L
213.57 305.493 L
216.126 305.791 L
218.682 303.244 L
221.238 298.452 L
223.794 292.205 L
226.35 285.123 L
228.905 277.662 L
231.461 270.144 L
234.017 262.737 L
236.573 255.495 L
239.129 248.389 L
241.685 241.35 L
244.24 234.302 L
246.796 227.192 L
249.352 220.002 L
251.908 212.745 L
254.464 205.464 L
257.019 198.215 L
259.575 191.062 L
262.131 184.065 L
264.687 177.278 L
267.243 170.743 L
269.799 164.488 L
272.354 158.529 L
274.91 152.87 L
277.466 147.507 L
280.022 142.43 L
282.578 137.627 L
285.134 133.084 L
287.689 128.791 L
290.245 124.737 L
292.801 120.915 L
295.357 117.319 L
297.913 113.944 L
300.469 110.784 L
303.024 107.832 L
305.58 105.082 L
308.136 102.522 L
310.692 100.144 L
313.248 97.935 L
315.803 95.885 L
318.359 93.983 L
320.915 92.218 L
323.471 90.581 L
326.027 89.064 L
328.583 87.66 L
331.138 86.362 L
333.694 85.164 L
336.25 84.059 L
338.806 83.043 L
341.362 82.108 L
343.918 81.25 L
346.473 80.463 L
349.029 79.741 L
351.585 79.079 L
354.141 78.473 L
356.697 77.918 L
359.253 77.41 L
361.808 76.946 L
364.364 76.522 L
366.92 76.136 L
369.476 75.784 L
372.032 75.464 L
374.587 75.174 L
377.143 74.91 L
379.699 74.672 L
382.255 74.456 L
384.811 74.261 L
387.367 74.084 L
389.922 73.925 L
392.478 73.782 L
395.034 73.653 L
397.59 73.537 L
400.146 73.433 L
402.702 73.34 L
405.257 73.257 L
407.813 73.183 L
410.369 73.117 L
412.925 73.058 L
415.481 73.006 L
418.037 72.961 L
420.592 72.92 L
423.148 72.885 L
425.704 72.854 L
428.26 72.827 L
430.816 72.803 L
433.371 72.783 L
435.927 72.765 L
438.483 72.75 L
441.039 72.737 L
443.595 72.727 L
446.151 72.718 L
448.706 72.71 L
451.262 72.704 L
453.818 72.7 L
456.374 72.696 L
458.93 72.693 L
461.486 72.691 L
464.041 72.69 L
466.597 72.689 L
469.153 72.689 L
471.709 72.69 L
474.265 72.69 L
476.821 72.691 L
479.376 72.693 L
481.932 72.694 L
484.488 72.696 L
487.044 72.698 L
489.6 72.699 L
492.156 72.701 L
494.711 72.703 L
497.267 72.705 L
499.823 72.707 L
502.379 72.709 L
504.935 72.711 L
507.052 72.713 L
S
GR
GS
[0.75789 0 0 0.75789 0 -0.31577] CT
0.929 0.694 0.125 RC
1 LJ
2.639 LW
N
73 72.75 M
73 72.75 L
73.001 72.75 L
73.005 72.75 L
73.026 72.75 L
73.129 72.75 L
73.645 72.75 L
75.556 72.75 L
78.112 72.75 L
80.667 72.75 L
83.223 72.75 L
85.779 72.75 L
87.282 72.75 L
88.022 72.75 L
88.335 72.75 L
88.615 72.75 L
90.017 72.75 L
90.891 72.75 L
92.561 72.75 L
93.447 72.75 L
94.162 72.75 L
96.002 72.75 L
98.558 72.75 L
100.627 72.75 L
101.114 72.75 L
103.67 72.75 L
106.226 72.75 L
108.782 72.75 L
111.337 72.75 L
113.893 72.75 L
116.449 72.75 L
119.005 72.75 L
121.561 72.75 L
124.117 72.75 L
126.672 72.75 L
129.228 72.75 L
131.784 72.75 L
134.34 72.75 L
136.896 72.75 L
136.896 72.75 L
136.896 72.75 L
137.903 72.75 L
138.09 72.75 L
138.143 72.75 L
138.162 72.75 L
138.182 72.75 L
138.199 72.75 L
138.285 72.75 L
138.718 72.75 L
139.451 72.75 L
142.007 72.75 L
144.563 72.75 L
147.119 72.75 L
149.675 72.75 L
152.231 72.75 L
154.786 72.75 L
157.342 72.75 L
159.898 72.75 L
162.454 72.75 L
165.01 72.75 L
167.566 72.75 L
170.121 72.75 L
172.677 72.75 L
175.233 72.75 L
177.789 72.75 L
180.345 72.75 L
182.901 72.75 L
185.456 72.75 L
188.012 72.75 L
190.568 72.75 L
193.124 72.75 L
195.68 72.75 L
198.235 72.75 L
200.791 72.75 L
203.347 72.75 L
205.903 72.75 L
208.459 72.75 L
211.015 72.75 L
213.57 72.75 L
216.126 72.75 L
218.682 72.75 L
221.238 72.75 L
223.794 72.75 L
226.35 72.75 L
228.905 72.75 L
231.461 72.75 L
234.017 72.75 L
236.573 72.75 L
239.129 72.75 L
241.685 72.75 L
244.24 72.75 L
246.796 72.75 L
249.352 72.75 L
251.908 72.75 L
254.464 72.75 L
257.019 72.75 L
259.575 72.75 L
262.131 72.75 L
264.687 72.75 L
267.243 72.75 L
269.799 72.75 L
272.354 72.75 L
274.91 72.75 L
277.466 72.75 L
280.022 72.75 L
282.578 72.75 L
285.134 72.75 L
287.689 72.75 L
290.245 72.75 L
292.801 72.75 L
295.357 72.75 L
297.913 72.75 L
300.469 72.75 L
303.024 72.75 L
305.58 72.75 L
308.136 72.75 L
310.692 72.75 L
313.248 72.75 L
315.803 72.75 L
318.359 72.75 L
320.915 72.75 L
323.471 72.75 L
326.027 72.75 L
328.583 72.75 L
331.138 72.75 L
333.694 72.75 L
336.25 72.75 L
338.806 72.75 L
341.362 72.75 L
343.918 72.75 L
346.473 72.75 L
349.029 72.75 L
351.585 72.75 L
354.141 72.75 L
356.697 72.75 L
359.253 72.75 L
361.808 72.75 L
364.364 72.75 L
366.92 72.75 L
369.476 72.75 L
372.032 72.75 L
374.587 72.75 L
377.143 72.75 L
379.699 72.75 L
382.255 72.75 L
384.811 72.75 L
387.367 72.75 L
389.922 72.75 L
392.478 72.75 L
395.034 72.75 L
397.59 72.75 L
400.146 72.75 L
402.702 72.75 L
405.257 72.75 L
407.813 72.75 L
410.369 72.75 L
412.925 72.75 L
415.481 72.75 L
418.037 72.75 L
420.592 72.75 L
423.148 72.75 L
425.704 72.75 L
428.26 72.75 L
430.816 72.75 L
433.371 72.75 L
435.927 72.75 L
438.483 72.75 L
441.039 72.75 L
443.595 72.75 L
446.151 72.75 L
448.706 72.75 L
451.262 72.75 L
453.818 72.75 L
456.374 72.75 L
458.93 72.75 L
461.486 72.75 L
464.041 72.75 L
466.597 72.75 L
469.153 72.75 L
471.709 72.75 L
474.265 72.75 L
476.821 72.75 L
479.376 72.75 L
481.932 72.75 L
484.488 72.75 L
487.044 72.75 L
489.6 72.75 L
492.156 72.75 L
494.711 72.75 L
497.267 72.75 L
499.823 72.75 L
502.379 72.75 L
504.935 72.75 L
507.052 72.75 L
S
GR
GS
[0.75789 0 0 0.75789 0 -0.31577] CT
0 0.447 0.741 RC
[8 8] 0 setdash
2 LJ
2.639 LW
N
73 72.75 M
73 72.75 L
73.001 72.75 L
73.005 72.75 L
73.026 72.75 L
73.129 72.75 L
73.645 72.75 L
75.556 72.75 L
78.112 72.75 L
80.667 72.75 L
83.223 72.75 L
85.779 72.75 L
87.282 72.75 L
88.022 72.75 L
88.335 72.75 L
88.615 72.75 L
90.017 72.75 L
90.891 72.75 L
92.561 72.75 L
93.447 72.75 L
94.162 72.75 L
96.002 72.75 L
98.558 72.75 L
100.627 72.75 L
101.114 72.75 L
103.67 72.75 L
106.226 72.75 L
108.782 72.75 L
111.337 72.75 L
113.893 72.75 L
116.449 72.75 L
119.005 72.75 L
121.561 72.75 L
124.117 72.75 L
126.672 72.75 L
129.228 72.75 L
131.784 72.75 L
134.34 72.75 L
136.896 72.75 L
136.896 72.75 L
136.896 72.75 L
137.903 72.75 L
138.09 72.75 L
138.143 72.75 L
138.162 72.75 L
138.182 72.75 L
138.199 72.75 L
138.285 72.75 L
138.718 72.75 L
139.451 72.75 L
142.007 72.75 L
144.563 72.75 L
147.119 72.75 L
149.675 72.75 L
152.231 72.75 L
154.786 72.75 L
157.342 72.75 L
159.898 72.75 L
162.454 72.75 L
165.01 72.75 L
167.566 72.75 L
170.121 72.75 L
172.677 72.75 L
175.233 72.75 L
177.789 72.75 L
180.345 72.75 L
182.901 72.75 L
185.456 72.75 L
188.012 72.75 L
190.568 72.75 L
193.124 72.75 L
195.68 72.75 L
198.235 72.75 L
200.791 72.75 L
203.347 72.75 L
205.903 72.75 L
208.459 72.75 L
211.015 72.75 L
213.57 72.75 L
216.126 72.75 L
218.682 72.75 L
221.238 72.75 L
223.794 72.75 L
226.35 72.75 L
228.905 72.75 L
231.461 72.75 L
234.017 72.75 L
236.573 72.75 L
239.129 72.75 L
241.685 72.75 L
244.24 72.75 L
246.796 72.75 L
249.352 72.75 L
251.908 72.75 L
254.464 72.75 L
257.019 72.75 L
259.575 72.75 L
262.131 72.75 L
264.687 72.75 L
267.243 72.75 L
269.799 72.75 L
272.354 72.75 L
274.91 72.75 L
277.466 72.75 L
280.022 72.75 L
282.578 72.75 L
285.134 72.75 L
287.689 72.75 L
290.245 72.75 L
292.801 72.75 L
295.357 72.75 L
297.913 72.75 L
300.469 72.75 L
303.024 72.75 L
305.58 72.75 L
308.136 72.75 L
310.692 72.75 L
313.248 72.75 L
315.803 72.75 L
318.359 72.75 L
320.915 72.75 L
323.471 72.75 L
326.027 72.75 L
328.583 72.75 L
331.138 72.75 L
333.694 72.75 L
336.25 72.75 L
338.806 72.75 L
341.362 72.75 L
343.918 72.75 L
346.473 72.75 L
349.029 72.75 L
351.585 72.75 L
354.141 72.75 L
356.697 72.75 L
359.253 72.75 L
361.808 72.75 L
364.364 72.75 L
366.92 72.75 L
369.476 72.75 L
372.032 72.75 L
374.587 72.75 L
377.143 72.75 L
379.699 72.75 L
382.255 72.75 L
384.811 72.75 L
387.367 72.75 L
389.922 72.75 L
392.478 72.75 L
395.034 72.75 L
397.59 72.75 L
400.146 72.75 L
402.702 72.75 L
405.257 72.75 L
407.813 72.75 L
410.369 72.75 L
412.925 72.75 L
415.481 72.75 L
418.037 72.75 L
420.592 72.75 L
423.148 72.75 L
425.704 72.75 L
428.26 72.75 L
430.816 72.75 L
433.371 72.75 L
435.927 72.75 L
438.483 72.75 L
441.039 72.75 L
443.595 72.75 L
446.151 72.75 L
448.706 72.75 L
451.262 72.75 L
453.818 72.75 L
456.374 72.75 L
458.93 72.75 L
461.486 72.75 L
464.041 72.75 L
466.597 72.75 L
469.153 72.75 L
471.709 72.75 L
474.265 72.75 L
476.821 72.75 L
479.376 72.75 L
481.932 72.75 L
484.488 72.75 L
487.044 72.75 L
489.6 72.75 L
492.156 72.75 L
494.711 72.75 L
497.267 72.75 L
499.823 72.75 L
502.379 72.75 L
504.935 72.75 L
507.052 72.75 L
S
GR
GS
[0.75789 0 0 0.75789 0 -0.31577] CT
0.851 0.325 0.098 RC
[8 8] 0 setdash
2 LJ
2.639 LW
N
73 72.75 M
73 72.75 L
73.001 72.75 L
73.005 72.75 L
73.026 72.75 L
73.129 72.75 L
73.645 72.75 L
75.556 72.75 L
78.112 72.75 L
80.667 72.75 L
83.223 72.75 L
85.779 72.75 L
87.282 72.75 L
88.022 72.75 L
88.335 72.75 L
88.615 72.75 L
90.017 72.75 L
90.891 72.75 L
92.561 72.75 L
93.447 72.75 L
94.162 72.75 L
96.002 72.75 L
98.558 72.75 L
100.627 72.75 L
101.114 72.75 L
103.67 72.75 L
106.226 72.75 L
108.782 72.75 L
111.337 72.75 L
113.893 72.75 L
116.449 72.75 L
119.005 72.75 L
121.561 72.75 L
124.117 72.75 L
126.672 72.75 L
129.228 72.75 L
131.784 72.75 L
134.34 72.75 L
136.896 72.75 L
136.896 335.073 L
136.896 335.073 L
137.903 335.073 L
138.09 335.073 L
138.143 335.073 L
138.162 335.073 L
138.182 335.073 L
138.199 335.073 L
138.285 335.073 L
138.718 335.073 L
139.451 335.073 L
142.007 335.073 L
144.563 335.073 L
147.119 335.073 L
149.675 335.073 L
152.231 335.073 L
154.786 335.073 L
157.342 335.073 L
159.898 335.073 L
162.454 335.073 L
165.01 335.073 L
167.566 335.073 L
170.121 335.073 L
172.677 335.073 L
175.233 335.073 L
177.789 335.073 L
180.345 335.073 L
182.901 335.073 L
185.456 335.073 L
188.012 335.073 L
190.568 335.073 L
193.124 335.073 L
195.68 335.073 L
198.235 335.073 L
200.791 330.114 L
203.347 322.506 L
205.903 314.522 L
208.459 306.16 L
211.015 297.433 L
213.57 288.379 L
216.126 279.068 L
218.682 269.602 L
221.238 260.098 L
223.794 250.671 L
226.35 241.415 L
228.905 232.391 L
231.461 223.639 L
234.017 215.177 L
236.573 207.012 L
239.129 199.141 L
241.685 191.561 L
244.24 184.267 L
246.796 177.259 L
249.352 170.538 L
251.908 164.107 L
254.464 157.971 L
257.019 152.133 L
259.575 146.595 L
262.131 141.356 L
264.687 136.413 L
267.243 131.761 L
269.799 127.39 L
272.354 123.29 L
274.91 119.451 L
277.466 115.861 L
280.022 112.507 L
282.578 109.376 L
285.134 106.458 L
287.689 103.74 L
290.245 101.213 L
292.801 98.865 L
295.357 96.686 L
297.913 94.668 L
300.469 92.8 L
303.024 91.073 L
305.58 89.479 L
308.136 88.008 L
310.692 86.653 L
313.248 85.405 L
315.803 84.256 L
318.359 83.2 L
320.915 82.23 L
323.471 81.34 L
326.027 80.523 L
328.583 79.776 L
331.138 79.092 L
333.694 78.466 L
336.25 77.895 L
338.806 77.375 L
341.362 76.9 L
343.918 76.469 L
346.473 76.076 L
349.029 75.72 L
351.585 75.396 L
354.141 75.103 L
356.697 74.837 L
359.253 74.597 L
361.808 74.38 L
364.364 74.185 L
366.92 74.009 L
369.476 73.851 L
372.032 73.709 L
374.587 73.581 L
377.143 73.467 L
379.699 73.366 L
382.255 73.275 L
384.811 73.194 L
387.367 73.123 L
389.922 73.059 L
392.478 73.003 L
395.034 72.954 L
397.59 72.911 L
400.146 72.873 L
402.702 72.84 L
405.257 72.811 L
407.813 72.786 L
410.369 72.765 L
412.925 72.747 L
415.481 72.731 L
418.037 72.718 L
420.592 72.708 L
423.148 72.699 L
425.704 72.692 L
428.26 72.686 L
430.816 72.681 L
433.371 72.678 L
435.927 72.676 L
438.483 72.675 L
441.039 72.674 L
443.595 72.674 L
446.151 72.674 L
448.706 72.675 L
451.262 72.677 L
453.818 72.678 L
456.374 72.68 L
458.93 72.682 L
461.486 72.685 L
464.041 72.687 L
466.597 72.69 L
469.153 72.692 L
471.709 72.695 L
474.265 72.697 L
476.821 72.7 L
479.376 72.702 L
481.932 72.705 L
484.488 72.707 L
487.044 72.709 L
489.6 72.712 L
492.156 72.714 L
494.711 72.716 L
497.267 72.718 L
499.823 72.72 L
502.379 72.722 L
504.935 72.724 L
507.052 72.725 L
S
GR
GS
[0.75789 0 0 0.75789 0 -0.31577] CT
0.929 0.694 0.125 RC
[8 8] 0 setdash
2 LJ
2.639 LW
N
73 72.75 M
73 72.75 L
73.001 72.75 L
73.005 72.75 L
73.026 72.75 L
73.129 72.75 L
73.645 72.75 L
75.556 72.75 L
78.112 72.75 L
80.667 72.75 L
83.223 72.75 L
85.779 72.75 L
87.282 72.75 L
88.022 72.75 L
88.335 72.75 L
88.615 72.75 L
90.017 72.75 L
90.891 72.75 L
92.561 72.75 L
93.447 72.75 L
94.162 72.75 L
96.002 72.75 L
98.558 72.75 L
100.627 72.75 L
101.114 72.75 L
103.67 72.75 L
106.226 72.75 L
108.782 72.75 L
111.337 72.75 L
113.893 72.75 L
116.449 72.75 L
119.005 72.75 L
121.561 72.75 L
124.117 72.75 L
126.672 72.75 L
129.228 72.75 L
131.784 72.75 L
134.34 72.75 L
136.896 72.75 L
136.896 72.75 L
136.896 72.75 L
137.903 72.75 L
138.09 72.75 L
138.143 72.75 L
138.162 72.75 L
138.182 72.75 L
138.199 72.75 L
138.285 72.75 L
138.718 72.75 L
139.451 72.75 L
142.007 72.75 L
144.563 72.75 L
147.119 72.75 L
149.675 72.75 L
152.231 72.75 L
154.786 72.75 L
157.342 72.75 L
159.898 72.75 L
162.454 72.75 L
165.01 72.75 L
167.566 72.75 L
170.121 72.75 L
172.677 72.75 L
175.233 72.75 L
177.789 72.75 L
180.345 72.75 L
182.901 72.75 L
185.456 72.75 L
188.012 72.75 L
190.568 72.75 L
193.124 72.75 L
195.68 72.75 L
198.235 72.75 L
200.791 72.75 L
203.347 72.75 L
205.903 72.75 L
208.459 72.75 L
211.015 72.75 L
213.57 72.75 L
216.126 72.75 L
218.682 72.75 L
221.238 72.75 L
223.794 72.75 L
226.35 72.75 L
228.905 72.75 L
231.461 72.75 L
234.017 72.75 L
236.573 72.75 L
239.129 72.75 L
241.685 72.75 L
244.24 72.75 L
246.796 72.75 L
249.352 72.75 L
251.908 72.75 L
254.464 72.75 L
257.019 72.75 L
259.575 72.75 L
262.131 72.75 L
264.687 72.75 L
267.243 72.75 L
269.799 72.75 L
272.354 72.75 L
274.91 72.75 L
277.466 72.75 L
280.022 72.75 L
282.578 72.75 L
285.134 72.75 L
287.689 72.75 L
290.245 72.75 L
292.801 72.75 L
295.357 72.75 L
297.913 72.75 L
300.469 72.75 L
303.024 72.75 L
305.58 72.75 L
308.136 72.75 L
310.692 72.75 L
313.248 72.75 L
315.803 72.75 L
318.359 72.75 L
320.915 72.75 L
323.471 72.75 L
326.027 72.75 L
328.583 72.75 L
331.138 72.75 L
333.694 72.75 L
336.25 72.75 L
338.806 72.75 L
341.362 72.75 L
343.918 72.75 L
346.473 72.75 L
349.029 72.75 L
351.585 72.75 L
354.141 72.75 L
356.697 72.75 L
359.253 72.75 L
361.808 72.75 L
364.364 72.75 L
366.92 72.75 L
369.476 72.75 L
372.032 72.75 L
374.587 72.75 L
377.143 72.75 L
379.699 72.75 L
382.255 72.75 L
384.811 72.75 L
387.367 72.75 L
389.922 72.75 L
392.478 72.75 L
395.034 72.75 L
397.59 72.75 L
400.146 72.75 L
402.702 72.75 L
405.257 72.75 L
407.813 72.75 L
410.369 72.75 L
412.925 72.75 L
415.481 72.75 L
418.037 72.75 L
420.592 72.75 L
423.148 72.75 L
425.704 72.75 L
428.26 72.75 L
430.816 72.75 L
433.371 72.75 L
435.927 72.75 L
438.483 72.75 L
441.039 72.75 L
443.595 72.75 L
446.151 72.75 L
448.706 72.75 L
451.262 72.75 L
453.818 72.75 L
456.374 72.75 L
458.93 72.75 L
461.486 72.75 L
464.041 72.75 L
466.597 72.75 L
469.153 72.75 L
471.709 72.75 L
474.265 72.75 L
476.821 72.75 L
479.376 72.75 L
481.932 72.75 L
484.488 72.75 L
487.044 72.75 L
489.6 72.75 L
492.156 72.75 L
494.711 72.75 L
497.267 72.75 L
499.823 72.75 L
502.379 72.75 L
504.935 72.75 L
507.052 72.75 L
S
GR
GS
[0.75789 0 0 0.75789 0 -0.31577] CT
1 GC
N
496 107 M
496 42 L
435 42 L
435 107 L
cp
f
GR
GS
[0.75789 0 0 0.75789 364.65506 40.61055] CT
/Helvetica 16.625 F
GS
[1 0 0 1 0 0] CT
0 6 moveto 
1 -1 scale
(p) t 
GR
GR
GS
[0.75789 0 0 0.75789 0 -0.31577] CT
0 0.447 0.741 RC
1 LJ
2.639 LW
N
438.962 54 M
478.171 54 L
S
GR
GS
[0.75789 0 0 0.75789 364.65506 56.14739] CT
/Helvetica 16.625 F
GS
[1 0 0 1 0 0] CT
0 6 moveto 
1 -1 scale
(q) t 
GR
GR
GS
[0.75789 0 0 0.75789 0 -0.31577] CT
0.851 0.325 0.098 RC
1 LJ
2.639 LW
N
438.962 74.5 M
478.171 74.5 L
S
GR
GS
[0.75789 0 0 0.75789 364.65506 71.68423] CT
/Helvetica 16.625 F
GS
[1 0 0 1 0 0] CT
0 6 moveto 
1 -1 scale
(r) t 
GR
GR
GS
[0.75789 0 0 0.75789 0 -0.31577] CT
0.929 0.694 0.125 RC
1 LJ
2.639 LW
N
438.962 95 M
478.171 95 L
S
GR
GS
[0.75789 0 0 0.75789 0 -0.31577] CT
0.149 GC
10.0 ML
0.66 LW
N
435 107 M
435 42 L
496 42 L
496 107 L
cp
S
GR
%%Trailer
%%Pages: 1
%%EOF
