%!PS-Adobe-3.0 EPSF-3.0
%%Creator: (MATLAB, The Mathworks, Inc. Version 9.4.0.813654 \(R2018a\). Operating System: Linux)
%%Title: /home/isidro/google-drive/TFG/tilt-rotor-matlab/figuras/memoria/analitico/omega_rotores.eps
%%CreationDate: 2019-09-04T19:52:36
%%Pages: (atend)
%%BoundingBox: 0 0 420 315
%%LanguageLevel: 3
%%EndComments
%%BeginProlog
%%BeginResource: procset (Apache XML Graphics Std ProcSet) 1.2 0
%%Version: 1.2 0
%%Copyright: (Copyright 2001-2003,2010 The Apache Software Foundation. License terms: http://www.apache.org/licenses/LICENSE-2.0)
/bd{bind def}bind def
/ld{load def}bd
/GR/grestore ld
/GS/gsave ld
/RM/rmoveto ld
/C/curveto ld
/t/show ld
/L/lineto ld
/ML/setmiterlimit ld
/CT/concat ld
/f/fill ld
/N/newpath ld
/S/stroke ld
/CC/setcmykcolor ld
/A/ashow ld
/cp/closepath ld
/RC/setrgbcolor ld
/LJ/setlinejoin ld
/GC/setgray ld
/LW/setlinewidth ld
/M/moveto ld
/re {4 2 roll M
1 index 0 rlineto
0 exch rlineto
neg 0 rlineto
cp } bd
/_ctm matrix def
/_tm matrix def
/BT { _ctm currentmatrix pop matrix _tm copy pop 0 0 moveto } bd
/ET { _ctm setmatrix } bd
/iTm { _ctm setmatrix _tm concat } bd
/Tm { _tm astore pop iTm 0 0 moveto } bd
/ux 0.0 def
/uy 0.0 def
/F {
  /Tp exch def
  /Tf exch def
  Tf findfont Tp scalefont setfont
  /cf Tf def  /cs Tp def
} bd
/ULS {currentpoint /uy exch def /ux exch def} bd
/ULE {
  /Tcx currentpoint pop def
  gsave
  newpath
  cf findfont cs scalefont dup
  /FontMatrix get 0 get /Ts exch def /FontInfo get dup
  /UnderlinePosition get Ts mul /To exch def
  /UnderlineThickness get Ts mul /Tt exch def
  ux uy To add moveto  Tcx uy To add lineto
  Tt setlinewidth stroke
  grestore
} bd
/OLE {
  /Tcx currentpoint pop def
  gsave
  newpath
  cf findfont cs scalefont dup
  /FontMatrix get 0 get /Ts exch def /FontInfo get dup
  /UnderlinePosition get Ts mul /To exch def
  /UnderlineThickness get Ts mul /Tt exch def
  ux uy To add cs add moveto Tcx uy To add cs add lineto
  Tt setlinewidth stroke
  grestore
} bd
/SOE {
  /Tcx currentpoint pop def
  gsave
  newpath
  cf findfont cs scalefont dup
  /FontMatrix get 0 get /Ts exch def /FontInfo get dup
  /UnderlinePosition get Ts mul /To exch def
  /UnderlineThickness get Ts mul /Tt exch def
  ux uy To add cs 10 mul 26 idiv add moveto Tcx uy To add cs 10 mul 26 idiv add lineto
  Tt setlinewidth stroke
  grestore
} bd
/QT {
/Y22 exch store
/X22 exch store
/Y21 exch store
/X21 exch store
currentpoint
/Y21 load 2 mul add 3 div exch
/X21 load 2 mul add 3 div exch
/X21 load 2 mul /X22 load add 3 div
/Y21 load 2 mul /Y22 load add 3 div
/X22 load /Y22 load curveto
} bd
/SSPD {
dup length /d exch dict def
{
/v exch def
/k exch def
currentpagedevice k known {
/cpdv currentpagedevice k get def
v cpdv ne {
/upd false def
/nullv v type /nulltype eq def
/nullcpdv cpdv type /nulltype eq def
nullv nullcpdv or
{
/upd true def
} {
/sametype v type cpdv type eq def
sametype {
v type /arraytype eq {
/vlen v length def
/cpdvlen cpdv length def
vlen cpdvlen eq {
0 1 vlen 1 sub {
/i exch def
/obj v i get def
/cpdobj cpdv i get def
obj cpdobj ne {
/upd true def
exit
} if
} for
} {
/upd true def
} ifelse
} {
v type /dicttype eq {
v {
/dv exch def
/dk exch def
/cpddv cpdv dk get def
dv cpddv ne {
/upd true def
exit
} if
} forall
} {
/upd true def
} ifelse
} ifelse
} if
} ifelse
upd true eq {
d k v put
} if
} if
} if
} forall
d length 0 gt {
d setpagedevice
} if
} bd
/RE { % /NewFontName [NewEncodingArray] /FontName RE -
  findfont dup length dict begin
  {
    1 index /FID ne
    {def} {pop pop} ifelse
  } forall
  /Encoding exch def
  /FontName 1 index def
  currentdict definefont pop
  end
} bind def
%%EndResource
%%BeginResource: procset (Apache XML Graphics EPS ProcSet) 1.0 0
%%Version: 1.0 0
%%Copyright: (Copyright 2002-2003 The Apache Software Foundation. License terms: http://www.apache.org/licenses/LICENSE-2.0)
/BeginEPSF { %def
/b4_Inc_state save def         % Save state for cleanup
/dict_count countdictstack def % Count objects on dict stack
/op_count count 1 sub def      % Count objects on operand stack
userdict begin                 % Push userdict on dict stack
/showpage { } def              % Redefine showpage, { } = null proc
0 setgray 0 setlinecap         % Prepare graphics state
1 setlinewidth 0 setlinejoin
10 setmiterlimit [ ] 0 setdash newpath
/languagelevel where           % If level not equal to 1 then
{pop languagelevel             % set strokeadjust and
1 ne                           % overprint to their defaults.
{false setstrokeadjust false setoverprint
} if
} if
} bd
/EndEPSF { %def
count op_count sub {pop} repeat            % Clean up stacks
countdictstack dict_count sub {end} repeat
b4_Inc_state restore
} bd
%%EndResource
%FOPBeginFontDict
%%IncludeResource: font Courier-Oblique
%%IncludeResource: font Courier-BoldOblique
%%IncludeResource: font Courier-Bold
%%IncludeResource: font ZapfDingbats
%%IncludeResource: font Symbol
%%IncludeResource: font Helvetica
%%IncludeResource: font Helvetica-Oblique
%%IncludeResource: font Helvetica-Bold
%%IncludeResource: font Helvetica-BoldOblique
%%IncludeResource: font Times-Roman
%%IncludeResource: font Times-Italic
%%IncludeResource: font Times-Bold
%%IncludeResource: font Times-BoldItalic
%%IncludeResource: font Courier
%FOPEndFontDict
%%BeginResource: encoding WinAnsiEncoding
/WinAnsiEncoding [
/.notdef /.notdef /.notdef /.notdef /.notdef
/.notdef /.notdef /.notdef /.notdef /.notdef
/.notdef /.notdef /.notdef /.notdef /.notdef
/.notdef /.notdef /.notdef /.notdef /.notdef
/.notdef /.notdef /.notdef /.notdef /.notdef
/.notdef /.notdef /.notdef /.notdef /.notdef
/.notdef /.notdef /space /exclam /quotedbl
/numbersign /dollar /percent /ampersand /quotesingle
/parenleft /parenright /asterisk /plus /comma
/hyphen /period /slash /zero /one
/two /three /four /five /six
/seven /eight /nine /colon /semicolon
/less /equal /greater /question /at
/A /B /C /D /E
/F /G /H /I /J
/K /L /M /N /O
/P /Q /R /S /T
/U /V /W /X /Y
/Z /bracketleft /backslash /bracketright /asciicircum
/underscore /quoteleft /a /b /c
/d /e /f /g /h
/i /j /k /l /m
/n /o /p /q /r
/s /t /u /v /w
/x /y /z /braceleft /bar
/braceright /asciitilde /bullet /Euro /bullet
/quotesinglbase /florin /quotedblbase /ellipsis /dagger
/daggerdbl /circumflex /perthousand /Scaron /guilsinglleft
/OE /bullet /Zcaron /bullet /bullet
/quoteleft /quoteright /quotedblleft /quotedblright /bullet
/endash /emdash /asciitilde /trademark /scaron
/guilsinglright /oe /bullet /zcaron /Ydieresis
/space /exclamdown /cent /sterling /currency
/yen /brokenbar /section /dieresis /copyright
/ordfeminine /guillemotleft /logicalnot /sfthyphen /registered
/macron /degree /plusminus /twosuperior /threesuperior
/acute /mu /paragraph /middot /cedilla
/onesuperior /ordmasculine /guillemotright /onequarter /onehalf
/threequarters /questiondown /Agrave /Aacute /Acircumflex
/Atilde /Adieresis /Aring /AE /Ccedilla
/Egrave /Eacute /Ecircumflex /Edieresis /Igrave
/Iacute /Icircumflex /Idieresis /Eth /Ntilde
/Ograve /Oacute /Ocircumflex /Otilde /Odieresis
/multiply /Oslash /Ugrave /Uacute /Ucircumflex
/Udieresis /Yacute /Thorn /germandbls /agrave
/aacute /acircumflex /atilde /adieresis /aring
/ae /ccedilla /egrave /eacute /ecircumflex
/edieresis /igrave /iacute /icircumflex /idieresis
/eth /ntilde /ograve /oacute /ocircumflex
/otilde /odieresis /divide /oslash /ugrave
/uacute /ucircumflex /udieresis /yacute /thorn
/ydieresis
] def
%%EndResource
%FOPBeginFontReencode
/Courier-Oblique findfont
dup length dict begin
  {1 index /FID ne {def} {pop pop} ifelse} forall
  /Encoding WinAnsiEncoding def
  currentdict
end
/Courier-Oblique exch definefont pop
/Courier-BoldOblique findfont
dup length dict begin
  {1 index /FID ne {def} {pop pop} ifelse} forall
  /Encoding WinAnsiEncoding def
  currentdict
end
/Courier-BoldOblique exch definefont pop
/Courier-Bold findfont
dup length dict begin
  {1 index /FID ne {def} {pop pop} ifelse} forall
  /Encoding WinAnsiEncoding def
  currentdict
end
/Courier-Bold exch definefont pop
/Helvetica findfont
dup length dict begin
  {1 index /FID ne {def} {pop pop} ifelse} forall
  /Encoding WinAnsiEncoding def
  currentdict
end
/Helvetica exch definefont pop
/Helvetica-Oblique findfont
dup length dict begin
  {1 index /FID ne {def} {pop pop} ifelse} forall
  /Encoding WinAnsiEncoding def
  currentdict
end
/Helvetica-Oblique exch definefont pop
/Helvetica-Bold findfont
dup length dict begin
  {1 index /FID ne {def} {pop pop} ifelse} forall
  /Encoding WinAnsiEncoding def
  currentdict
end
/Helvetica-Bold exch definefont pop
/Helvetica-BoldOblique findfont
dup length dict begin
  {1 index /FID ne {def} {pop pop} ifelse} forall
  /Encoding WinAnsiEncoding def
  currentdict
end
/Helvetica-BoldOblique exch definefont pop
/Times-Roman findfont
dup length dict begin
  {1 index /FID ne {def} {pop pop} ifelse} forall
  /Encoding WinAnsiEncoding def
  currentdict
end
/Times-Roman exch definefont pop
/Times-Italic findfont
dup length dict begin
  {1 index /FID ne {def} {pop pop} ifelse} forall
  /Encoding WinAnsiEncoding def
  currentdict
end
/Times-Italic exch definefont pop
/Times-Bold findfont
dup length dict begin
  {1 index /FID ne {def} {pop pop} ifelse} forall
  /Encoding WinAnsiEncoding def
  currentdict
end
/Times-Bold exch definefont pop
/Times-BoldItalic findfont
dup length dict begin
  {1 index /FID ne {def} {pop pop} ifelse} forall
  /Encoding WinAnsiEncoding def
  currentdict
end
/Times-BoldItalic exch definefont pop
/Courier findfont
dup length dict begin
  {1 index /FID ne {def} {pop pop} ifelse} forall
  /Encoding WinAnsiEncoding def
  currentdict
end
/Courier exch definefont pop
%FOPEndFontReencode
%%EndProlog
%%Page: 1 1
%%PageBoundingBox: 0 0 420 315
%%BeginPageSetup
[1 0 0 -1 0 315] CT
%%EndPageSetup
GS
[0.75 0 0 0.75 0 0] CT
1 GC
N
0 0 560 420 re
f
GR
GS
[0.75 0 0 0.75 0 0] CT
1 GC
N
0 0 560 420 re
f
GR
GS
[0.75 0 0 0.75 0 0] CT
1 GC
N
83 364 M
507 364 L
507 31 L
83 31 L
cp
f
GR
GS
[0.75 0 0 0.75 0 0] CT
0.873 GC
1 LJ
0.667 LW
N
83 364 M
83 31 L
S
GR
GS
[0.75 0 0 0.75 0 0] CT
0.873 GC
1 LJ
0.667 LW
N
176.434 364 M
176.434 31 L
S
GR
GS
[0.75 0 0 0.75 0 0] CT
0.873 GC
1 LJ
0.667 LW
N
269.869 364 M
269.869 31 L
S
GR
GS
[0.75 0 0 0.75 0 0] CT
0.873 GC
1 LJ
0.667 LW
N
363.303 364 M
363.303 31 L
S
GR
GS
[0.75 0 0 0.75 0 0] CT
0.873 GC
1 LJ
0.667 LW
N
456.738 364 M
456.738 31 L
S
GR
GS
[0.75 0 0 0.75 0 0] CT
0.873 GC
1 LJ
0.667 LW
N
507 323.5 M
83 323.5 L
S
GR
GS
[0.75 0 0 0.75 0 0] CT
0.873 GC
1 LJ
0.667 LW
N
507 268 M
83 268 L
S
GR
GS
[0.75 0 0 0.75 0 0] CT
0.873 GC
1 LJ
0.667 LW
N
507 212.5 M
83 212.5 L
S
GR
GS
[0.75 0 0 0.75 0 0] CT
0.873 GC
1 LJ
0.667 LW
N
507 157 M
83 157 L
S
GR
GS
[0.75 0 0 0.75 0 0] CT
0.873 GC
1 LJ
0.667 LW
N
507 101.5 M
83 101.5 L
S
GR
GS
[0.75 0 0 0.75 0 0] CT
0.873 GC
1 LJ
0.667 LW
N
507 46 M
83 46 L
S
GR
GS
[0.75 0 0 0.75 0 0] CT
0.149 GC
2 setlinecap
1 LJ
0.667 LW
N
83 364 M
507 364 L
S
GR
GS
[0.75 0 0 0.75 0 0] CT
0.149 GC
2 setlinecap
1 LJ
0.667 LW
N
83 364 M
83 359.76 L
S
GR
GS
[0.75 0 0 0.75 0 0] CT
0.149 GC
2 setlinecap
1 LJ
0.667 LW
N
176.434 364 M
176.434 359.76 L
S
GR
GS
[0.75 0 0 0.75 0 0] CT
0.149 GC
2 setlinecap
1 LJ
0.667 LW
N
269.869 364 M
269.869 359.76 L
S
GR
GS
[0.75 0 0 0.75 0 0] CT
0.149 GC
2 setlinecap
1 LJ
0.667 LW
N
363.303 364 M
363.303 359.76 L
S
GR
GS
[0.75 0 0 0.75 0 0] CT
0.149 GC
2 setlinecap
1 LJ
0.667 LW
N
456.738 364 M
456.738 359.76 L
S
GR
GS
[0.75 0 0 0.75 62.25 277.8] CT
0.149 GC
/Helvetica 18.667 F
GS
[1 0 0 1 0 0] CT
-6 18 moveto 
1 -1 scale
(0) t 
GR
GR
GS
[0.75 0 0 0.75 132.32587 277.8] CT
0.149 GC
/Helvetica 18.667 F
GS
[1 0 0 1 0 0] CT
-15 18 moveto 
1 -1 scale
(0.2) t 
GR
GR
GS
[0.75 0 0 0.75 202.40174 277.8] CT
0.149 GC
/Helvetica 18.667 F
GS
[1 0 0 1 0 0] CT
-15 18 moveto 
1 -1 scale
(0.4) t 
GR
GR
GS
[0.75 0 0 0.75 272.4776 277.8] CT
0.149 GC
/Helvetica 18.667 F
GS
[1 0 0 1 0 0] CT
-15 18 moveto 
1 -1 scale
(0.6) t 
GR
GR
GS
[0.75 0 0 0.75 342.55348 277.8] CT
0.149 GC
/Helvetica 18.667 F
GS
[1 0 0 1 0 0] CT
-15 18 moveto 
1 -1 scale
(0.8) t 
GR
GR
GS
[0.75 0 0 0.75 221.25016 296.04998] CT
0.149 GC
/Helvetica 20.533 F
GS
[1 0 0 1 0 0] CT
-17.5 20 moveto 
1 -1 scale
(t\(s\)) t 
GR
GR
GS
[0.75 0 0 0.75 0 0] CT
0.149 GC
2 setlinecap
1 LJ
0.667 LW
N
83 364 M
83 31 L
S
GR
GS
[0.75 0 0 0.75 0 0] CT
0.149 GC
2 setlinecap
1 LJ
0.667 LW
N
83 323.5 M
87.24 323.5 L
S
GR
GS
[0.75 0 0 0.75 0 0] CT
0.149 GC
2 setlinecap
1 LJ
0.667 LW
N
83 268 M
87.24 268 L
S
GR
GS
[0.75 0 0 0.75 0 0] CT
0.149 GC
2 setlinecap
1 LJ
0.667 LW
N
83 212.5 M
87.24 212.5 L
S
GR
GS
[0.75 0 0 0.75 0 0] CT
0.149 GC
2 setlinecap
1 LJ
0.667 LW
N
83 157 M
87.24 157 L
S
GR
GS
[0.75 0 0 0.75 0 0] CT
0.149 GC
2 setlinecap
1 LJ
0.667 LW
N
83 101.5 M
87.24 101.5 L
S
GR
GS
[0.75 0 0 0.75 0 0] CT
0.149 GC
2 setlinecap
1 LJ
0.667 LW
N
83 46 M
87.24 46 L
S
GR
GS
[0.75 0 0 0.75 57.45 242.625] CT
0.149 GC
/Helvetica 18.667 F
GS
[1 0 0 1 0 0] CT
-36 6.5 moveto 
1 -1 scale
(600) t 
GR
GR
GS
[0.75 0 0 0.75 57.45 201] CT
0.149 GC
/Helvetica 18.667 F
GS
[1 0 0 1 0 0] CT
-36 6.5 moveto 
1 -1 scale
(700) t 
GR
GR
GS
[0.75 0 0 0.75 57.45 159.375] CT
0.149 GC
/Helvetica 18.667 F
GS
[1 0 0 1 0 0] CT
-36 6.5 moveto 
1 -1 scale
(800) t 
GR
GR
GS
[0.75 0 0 0.75 57.45 117.75] CT
0.149 GC
/Helvetica 18.667 F
GS
[1 0 0 1 0 0] CT
-36 6.5 moveto 
1 -1 scale
(900) t 
GR
GR
GS
[0.75 0 0 0.75 57.45 76.125] CT
0.149 GC
/Helvetica 18.667 F
GS
[1 0 0 1 0 0] CT
-48 6.5 moveto 
1 -1 scale
(1000) t 
GR
GR
GS
[0.75 0 0 0.75 57.45 34.5] CT
0.149 GC
/Helvetica 18.667 F
GS
[1 0 0 1 0 0] CT
-48 6.5 moveto 
1 -1 scale
(1100) t 
GR
GR
GS
[0 -0.75 0.75 0 15 180.75] CT
0.149 GC
N
2.547 0.234 M
1.359 0.234 0.828 -0.633 QT
0.297 -1.5 0.297 -2.766 QT
0.297 -3.594 0.445 -4.391 QT
0.594 -5.188 0.898 -6 QT
1.203 -6.813 1.594 -7.531 QT
1.984 -8.25 2.469 -8.922 QT
2.547 -9.047 2.703 -9.047 QT
2.844 -9.047 2.922 -8.969 QT
3 -8.891 3 -8.781 QT
3 -8.672 2.938 -8.578 QT
1.031 -5.938 1.031 -3.719 QT
1.031 -2.75 1.477 -2.055 QT
1.922 -1.359 2.828 -1.359 QT
3.625 -1.359 4.297 -1.82 QT
4.969 -2.281 5.453 -3 QT
5.453 -3.375 5.586 -4.156 QT
5.719 -4.938 5.984 -5.547 QT
6.25 -6.156 6.641 -6.156 QT
7.109 -6.156 7.109 -5.594 QT
7.109 -5.266 6.977 -4.766 QT
6.844 -4.266 6.672 -3.836 QT
6.5 -3.406 6.25 -2.859 QT
6.5 -1.359 7.75 -1.359 QT
8.484 -1.359 9.219 -1.781 QT
9.953 -2.203 10.516 -2.883 QT
11.078 -3.563 11.398 -4.352 QT
11.719 -5.141 11.719 -5.859 QT
11.719 -6.484 11.523 -6.844 QT
11.328 -7.203 11 -7.594 QT
10.672 -7.984 10.672 -8.219 QT
10.672 -8.625 11.016 -8.961 QT
11.359 -9.297 11.766 -9.297 QT
12.281 -9.297 12.492 -8.836 QT
12.703 -8.375 12.703 -7.766 QT
12.703 -6.813 12.32 -5.344 QT
11.938 -3.875 11.438 -2.906 QT
10.766 -1.578 9.742 -0.672 QT
8.719 0.234 7.453 0.234 QT
6.641 0.234 6.148 -0.25 QT
5.656 -0.734 5.5 -1.578 QT
4.922 -0.75 4.172 -0.258 QT
3.422 0.234 2.547 0.234 QT
cp
f
GR
GS
[0 -0.75 0.75 0 15 171] CT
0.149 GC
/Helvetica 20.533 F
GS
[1 0 0 1 0 0] CT
0 0 moveto 
1 -1 scale
( \(rad/s\)) t 
GR
GR
GS
[0.75 0 0 0.75 221.25021 20.36254] CT
/Helvetica-Bold 20.533 F
GS
[1 0 0 1 0 0] CT
-141 -5 moveto 
1 -1 scale
(Velocidad de los rotores) t 
GR
GR
GS
[0.75 0 0 0.75 0 0] CT
0 0.447 0.741 RC
1 LJ
2.667 LW
N
83 224.812 M
83 224.812 L
83.001 224.812 L
83.004 224.812 L
83.019 224.812 L
83.094 224.812 L
83.471 224.812 L
84.869 224.812 L
86.737 224.812 L
88.606 224.812 L
90.475 224.812 L
92.343 224.812 L
93.443 224.812 L
93.983 224.812 L
94.212 160.059 L
94.417 160.059 L
95.442 160.059 L
96.081 160.059 L
97.302 160.059 L
97.95 127.147 L
98.472 127.147 L
99.818 127.147 L
101.687 112.903 L
103.2 112.903 L
103.556 112.903 L
105.424 113.29 L
107.293 113.29 L
109.162 128.651 L
111.03 128.651 L
112.899 156.104 L
114.768 156.104 L
116.636 191.607 L
118.505 191.607 L
120.374 230.234 L
122.242 230.234 L
124.111 266.039 L
125.98 266.039 L
127.849 292.731 L
129.717 292.731 L
129.717 46.001 L
129.717 46.001 L
131.586 46.001 L
133.455 46.001 L
135.323 46.001 L
137.192 46.001 L
139.061 46.001 L
140.929 46.001 L
142.798 46.001 L
144.667 46.001 L
146.535 46.001 L
148.404 46.001 L
150.273 46.001 L
152.142 46.001 L
154.01 46.001 L
155.879 46.001 L
157.748 46.001 L
159.616 46.001 L
161.485 46.001 L
163.354 46.001 L
165.222 46.001 L
167.091 46.001 L
168.96 46.001 L
170.828 46.001 L
172.697 46.001 L
174.566 46.001 L
176.434 46.001 L
178.303 46.001 L
180.172 46.001 L
182.041 46.001 L
183.909 46.001 L
185.778 46.001 L
187.647 46.001 L
189.515 46.001 L
191.384 46.001 L
193.253 46.001 L
195.121 46.001 L
196.99 46.001 L
198.859 46.001 L
200.727 46.001 L
202.596 46.001 L
204.465 46.001 L
206.334 46.001 L
208.202 46.001 L
210.071 46.001 L
211.94 46.001 L
213.808 46.001 L
215.677 46.001 L
217.546 46.001 L
219.414 46.001 L
221.283 56.03 L
223.152 56.03 L
225.02 107.296 L
226.67 107.296 L
226.889 107.296 L
227.983 107.296 L
228.758 163.852 L
229.564 163.852 L
230.626 163.852 L
232.495 225.977 L
234.082 225.977 L
234.364 225.977 L
235.775 225.977 L
236.233 285.922 L
236.754 285.922 L
238.101 285.922 L
239.97 332.453 L
241.616 332.453 L
241.839 332.453 L
242.95 332.453 L
243.707 353.622 L
244.604 353.622 L
245.576 353.622 L
247.445 346.236 L
249.313 346.236 L
251.182 315.836 L
253.051 315.836 L
254.919 275.361 L
256.788 275.361 L
258.657 234.543 L
260.526 234.543 L
262.394 199.584 L
264.263 199.584 L
266.132 173.757 L
268 173.757 L
269.869 158.545 L
271.738 158.545 L
273.606 154.189 L
275.475 154.189 L
277.344 159.913 L
279.212 159.913 L
281.081 174.036 L
282.95 174.036 L
284.819 194.082 L
286.687 194.082 L
288.556 216.914 L
290.425 216.914 L
292.293 238.979 L
294.162 238.979 L
296.031 256.759 L
297.899 256.759 L
299.768 267.477 L
301.637 267.477 L
303.505 269.847 L
305.374 269.847 L
307.243 264.446 L
309.111 264.446 L
310.98 253.373 L
312.849 253.373 L
314.718 239.427 L
316.586 239.427 L
318.455 225.313 L
320.324 225.313 L
322.192 213.183 L
324.061 213.183 L
325.93 204.471 L
327.798 204.471 L
329.667 199.901 L
331.536 199.901 L
333.404 199.559 L
335.273 199.559 L
337.142 202.979 L
339.01 202.979 L
340.879 209.259 L
342.748 209.259 L
344.617 217.19 L
346.485 217.19 L
348.354 225.42 L
350.223 225.42 L
352.091 232.651 L
353.96 232.651 L
355.829 237.84 L
357.697 237.84 L
359.566 240.372 L
361.435 240.372 L
363.303 240.147 L
365.172 240.147 L
367.041 237.55 L
368.91 237.55 L
370.778 233.313 L
372.647 233.313 L
374.516 228.329 L
376.384 228.329 L
378.253 223.471 L
380.122 223.471 L
381.99 219.456 L
383.859 219.456 L
385.728 216.771 L
387.596 216.771 L
389.465 215.638 L
391.334 215.638 L
393.202 216.03 L
395.071 216.03 L
396.94 217.703 L
398.809 217.703 L
400.677 220.256 L
402.546 220.256 L
404.415 223.202 L
406.283 223.202 L
408.152 226.046 L
410.021 226.046 L
411.889 228.362 L
413.758 228.362 L
415.627 229.85 L
417.495 229.85 L
419.364 230.379 L
421.233 230.379 L
423.102 229.982 L
424.97 229.982 L
426.839 228.839 L
428.708 228.839 L
430.576 227.221 L
432.445 227.221 L
434.314 225.44 L
436.182 225.44 L
438.051 223.79 L
439.92 223.79 L
441.788 222.504 L
443.657 222.504 L
445.526 221.731 L
447.395 221.731 L
449.263 221.524 L
451.132 221.524 L
453.001 221.843 L
454.869 221.843 L
456.738 222.576 L
458.607 222.576 L
460.475 223.561 L
462.344 223.561 L
464.213 224.618 L
466.081 224.618 L
467.95 225.575 L
469.819 225.575 L
471.687 226.299 L
473.556 226.299 L
475.425 226.705 L
477.294 226.705 L
479.162 226.77 L
481.031 226.77 L
482.9 226.527 L
484.768 226.527 L
486.637 226.051 L
488.506 226.051 L
490.374 225.445 L
492.243 225.445 L
494.112 224.817 L
495.98 224.817 L
497.849 224.267 L
499.718 224.267 L
501.587 223.869 L
503.455 223.869 L
505.324 223.665 L
507.051 223.665 L
S
GR
GS
[0.75 0 0 0.75 0 0] CT
0.851 0.325 0.098 RC
1 LJ
2.667 LW
N
83 224.812 M
83 224.812 L
83.001 224.812 L
83.004 224.812 L
83.019 224.812 L
83.094 224.812 L
83.471 224.812 L
84.869 224.812 L
86.737 224.812 L
88.606 224.812 L
90.475 224.812 L
92.343 224.812 L
93.443 224.812 L
93.983 224.812 L
94.212 160.059 L
94.417 160.059 L
95.442 160.059 L
96.081 160.059 L
97.302 160.059 L
97.95 127.147 L
98.472 127.147 L
99.818 127.147 L
101.687 112.903 L
103.2 112.903 L
103.556 112.903 L
105.424 113.29 L
107.293 113.29 L
109.162 128.651 L
111.03 128.651 L
112.899 156.104 L
114.768 156.104 L
116.636 191.607 L
118.505 191.607 L
120.374 230.234 L
122.242 230.234 L
124.111 266.039 L
125.98 266.039 L
127.849 292.731 L
129.717 292.731 L
129.717 46.001 L
129.717 46.001 L
131.586 46.001 L
133.455 46.001 L
135.323 46.001 L
137.192 46.001 L
139.061 46.001 L
140.929 46.001 L
142.798 46.001 L
144.667 46.001 L
146.535 46.001 L
148.404 46.001 L
150.273 46.001 L
152.142 46.001 L
154.01 46.001 L
155.879 46.001 L
157.748 46.001 L
159.616 46.001 L
161.485 46.001 L
163.354 46.001 L
165.222 46.001 L
167.091 46.001 L
168.96 46.001 L
170.828 46.001 L
172.697 46.001 L
174.566 46.001 L
176.434 46.001 L
178.303 46.001 L
180.172 46.001 L
182.041 46.001 L
183.909 46.001 L
185.778 46.001 L
187.647 46.001 L
189.515 46.001 L
191.384 46.001 L
193.253 46.001 L
195.121 46.001 L
196.99 46.001 L
198.859 46.001 L
200.727 46.001 L
202.596 46.001 L
204.465 46.001 L
206.334 46.001 L
208.202 46.001 L
210.071 46.001 L
211.94 46.001 L
213.808 46.001 L
215.677 46.001 L
217.546 46.001 L
219.414 46.001 L
221.283 56.03 L
223.152 56.03 L
225.02 107.296 L
226.67 107.296 L
226.889 107.296 L
227.983 107.296 L
228.758 163.852 L
229.564 163.852 L
230.626 163.852 L
232.495 225.977 L
234.082 225.977 L
234.364 225.977 L
235.775 225.977 L
236.233 285.922 L
236.754 285.922 L
238.101 285.922 L
239.97 332.453 L
241.616 332.453 L
241.839 332.453 L
242.95 332.453 L
243.707 353.622 L
244.604 353.622 L
245.576 353.622 L
247.445 346.236 L
249.313 346.236 L
251.182 315.836 L
253.051 315.836 L
254.919 275.361 L
256.788 275.361 L
258.657 234.543 L
260.526 234.543 L
262.394 199.584 L
264.263 199.584 L
266.132 173.757 L
268 173.757 L
269.869 158.545 L
271.738 158.545 L
273.606 154.189 L
275.475 154.189 L
277.344 159.913 L
279.212 159.913 L
281.081 174.036 L
282.95 174.036 L
284.819 194.082 L
286.687 194.082 L
288.556 216.914 L
290.425 216.914 L
292.293 238.979 L
294.162 238.979 L
296.031 256.759 L
297.899 256.759 L
299.768 267.477 L
301.637 267.477 L
303.505 269.847 L
305.374 269.847 L
307.243 264.446 L
309.111 264.446 L
310.98 253.373 L
312.849 253.373 L
314.718 239.427 L
316.586 239.427 L
318.455 225.313 L
320.324 225.313 L
322.192 213.183 L
324.061 213.183 L
325.93 204.471 L
327.798 204.471 L
329.667 199.901 L
331.536 199.901 L
333.404 199.559 L
335.273 199.559 L
337.142 202.979 L
339.01 202.979 L
340.879 209.259 L
342.748 209.259 L
344.617 217.19 L
346.485 217.19 L
348.354 225.42 L
350.223 225.42 L
352.091 232.651 L
353.96 232.651 L
355.829 237.84 L
357.697 237.84 L
359.566 240.372 L
361.435 240.372 L
363.303 240.147 L
365.172 240.147 L
367.041 237.55 L
368.91 237.55 L
370.778 233.313 L
372.647 233.313 L
374.516 228.329 L
376.384 228.329 L
378.253 223.471 L
380.122 223.471 L
381.99 219.456 L
383.859 219.456 L
385.728 216.771 L
387.596 216.771 L
389.465 215.638 L
391.334 215.638 L
393.202 216.03 L
395.071 216.03 L
396.94 217.703 L
398.809 217.703 L
400.677 220.256 L
402.546 220.256 L
404.415 223.202 L
406.283 223.202 L
408.152 226.046 L
410.021 226.046 L
411.889 228.362 L
413.758 228.362 L
415.627 229.85 L
417.495 229.85 L
419.364 230.379 L
421.233 230.379 L
423.102 229.982 L
424.97 229.982 L
426.839 228.839 L
428.708 228.839 L
430.576 227.221 L
432.445 227.221 L
434.314 225.44 L
436.182 225.44 L
438.051 223.79 L
439.92 223.79 L
441.788 222.504 L
443.657 222.504 L
445.526 221.731 L
447.395 221.731 L
449.263 221.524 L
451.132 221.524 L
453.001 221.843 L
454.869 221.843 L
456.738 222.576 L
458.607 222.576 L
460.475 223.561 L
462.344 223.561 L
464.213 224.618 L
466.081 224.618 L
467.95 225.575 L
469.819 225.575 L
471.687 226.299 L
473.556 226.299 L
475.425 226.705 L
477.294 226.705 L
479.162 226.77 L
481.031 226.77 L
482.9 226.527 L
484.768 226.527 L
486.637 226.051 L
488.506 226.051 L
490.374 225.445 L
492.243 225.445 L
494.112 224.817 L
495.98 224.817 L
497.849 224.267 L
499.718 224.267 L
501.587 223.869 L
503.455 223.869 L
505.324 223.665 L
507.051 223.665 L
S
GR
GS
[0.75 0 0 0.75 0 0] CT
1 GC
N
496 102 M
496 42 L
425 42 L
425 102 L
cp
f
GR
GS
[0.75 0 0 0.75 354 45] CT
N
2.063 0.188 M
1.094 0.188 0.664 -0.516 QT
0.234 -1.219 0.234 -2.234 QT
0.234 -2.906 0.359 -3.555 QT
0.484 -4.203 0.727 -4.859 QT
0.969 -5.516 1.289 -6.094 QT
1.609 -6.672 2 -7.219 QT
2.063 -7.328 2.188 -7.328 QT
2.297 -7.328 2.367 -7.266 QT
2.438 -7.203 2.438 -7.109 QT
2.438 -7.016 2.375 -6.938 QT
0.828 -4.813 0.828 -3 QT
0.828 -2.219 1.188 -1.664 QT
1.547 -1.109 2.297 -1.109 QT
2.938 -1.109 3.477 -1.477 QT
4.016 -1.844 4.422 -2.438 QT
4.422 -2.734 4.523 -3.367 QT
4.625 -4 4.844 -4.492 QT
5.063 -4.984 5.375 -4.984 QT
5.766 -4.984 5.766 -4.531 QT
5.766 -4.266 5.648 -3.859 QT
5.531 -3.453 5.398 -3.102 QT
5.266 -2.75 5.063 -2.313 QT
5.266 -1.109 6.281 -1.109 QT
6.859 -1.109 7.453 -1.445 QT
8.047 -1.781 8.508 -2.336 QT
8.969 -2.891 9.227 -3.531 QT
9.484 -4.172 9.484 -4.734 QT
9.484 -5.25 9.328 -5.539 QT
9.172 -5.828 8.906 -6.141 QT
8.641 -6.453 8.641 -6.656 QT
8.641 -6.984 8.922 -7.258 QT
9.203 -7.531 9.516 -7.531 QT
9.938 -7.531 10.109 -7.156 QT
10.281 -6.781 10.281 -6.297 QT
10.281 -5.516 9.969 -4.328 QT
9.656 -3.141 9.266 -2.344 QT
8.719 -1.281 7.891 -0.547 QT
7.063 0.188 6.031 0.188 QT
5.375 0.188 4.977 -0.203 QT
4.578 -0.594 4.453 -1.281 QT
3.984 -0.609 3.375 -0.211 QT
2.766 0.188 2.063 0.188 QT
cp
f
GR
GS
[0.75 0 0 0.75 362.25 51] CT
/Helvetica 13.44 F
GS
[1 0 0 1 0 0] CT
0 0 moveto 
1 -1 scale
(1) t 
GR
GR
GS
[0.75 0 0 0.75 0 0] CT
0 0.447 0.741 RC
1 LJ
2.667 LW
N
429 57.868 M
469 57.868 L
S
GR
GS
[0.75 0 0 0.75 354 66] CT
N
/f-214293578{2.063 0.188 M
1.094 0.188 0.664 -0.516 QT
0.234 -1.219 0.234 -2.234 QT
0.234 -2.906 0.359 -3.555 QT
0.484 -4.203 0.727 -4.859 QT
0.969 -5.516 1.289 -6.094 QT
1.609 -6.672 2 -7.219 QT
2.063 -7.328 2.188 -7.328 QT
2.297 -7.328 2.367 -7.266 QT
2.438 -7.203 2.438 -7.109 QT
2.438 -7.016 2.375 -6.938 QT
0.828 -4.813 0.828 -3 QT
0.828 -2.219 1.188 -1.664 QT
1.547 -1.109 2.297 -1.109 QT
2.938 -1.109 3.477 -1.477 QT
4.016 -1.844 4.422 -2.438 QT
4.422 -2.734 4.523 -3.367 QT
4.625 -4 4.844 -4.492 QT
5.063 -4.984 5.375 -4.984 QT
5.766 -4.984 5.766 -4.531 QT
5.766 -4.266 5.648 -3.859 QT
5.531 -3.453 5.398 -3.102 QT
5.266 -2.75 5.063 -2.313 QT
5.266 -1.109 6.281 -1.109 QT
6.859 -1.109 7.453 -1.445 QT
8.047 -1.781 8.508 -2.336 QT
8.969 -2.891 9.227 -3.531 QT
9.484 -4.172 9.484 -4.734 QT
9.484 -5.25 9.328 -5.539 QT
9.172 -5.828 8.906 -6.141 QT
8.641 -6.453 8.641 -6.656 QT
8.641 -6.984 8.922 -7.258 QT
9.203 -7.531 9.516 -7.531 QT
9.938 -7.531 10.109 -7.156 QT
10.281 -6.781 10.281 -6.297 QT
10.281 -5.516 9.969 -4.328 QT
9.656 -3.141 9.266 -2.344 QT
8.719 -1.281 7.891 -0.547 QT
7.063 0.188 6.031 0.188 QT
5.375 0.188 4.977 -0.203 QT
4.578 -0.594 4.453 -1.281 QT
3.984 -0.609 3.375 -0.211 QT
2.766 0.188 2.063 0.188 QT
cp}def
f-214293578
f
GR
GS
[0.75 0 0 0.75 362.25 72] CT
/Helvetica 13.44 F
GS
[1 0 0 1 0 0] CT
0 0 moveto 
1 -1 scale
(2) t 
GR
GR
GS
[0.75 0 0 0.75 0 0] CT
0.851 0.325 0.098 RC
1 LJ
2.667 LW
N
429 86.132 M
469 86.132 L
S
GR
GS
[0.75 0 0 0.75 0 0] CT
0.149 GC
10.0 ML
0.667 LW
N
425 102 M
425 42 L
496 42 L
496 102 L
cp
S
GR
%%Trailer
%%Pages: 1
%%EOF
