%!PS-Adobe-3.0 EPSF-3.0
%%Creator: (MATLAB, The Mathworks, Inc. Version 9.4.0.813654 \(R2018a\). Operating System: Linux)
%%Title: /home/isidro/google-drive/TFG/tilt-rotor-matlab/figuras/memoria/analitico/omega.eps
%%CreationDate: 2019-09-04T13:55:28
%%Pages: (atend)
%%BoundingBox: 0 0 424 318
%%LanguageLevel: 3
%%EndComments
%%BeginProlog
%%BeginResource: procset (Apache XML Graphics Std ProcSet) 1.2 0
%%Version: 1.2 0
%%Copyright: (Copyright 2001-2003,2010 The Apache Software Foundation. License terms: http://www.apache.org/licenses/LICENSE-2.0)
/bd{bind def}bind def
/ld{load def}bd
/GR/grestore ld
/GS/gsave ld
/RM/rmoveto ld
/C/curveto ld
/t/show ld
/L/lineto ld
/ML/setmiterlimit ld
/CT/concat ld
/f/fill ld
/N/newpath ld
/S/stroke ld
/CC/setcmykcolor ld
/A/ashow ld
/cp/closepath ld
/RC/setrgbcolor ld
/LJ/setlinejoin ld
/GC/setgray ld
/LW/setlinewidth ld
/M/moveto ld
/re {4 2 roll M
1 index 0 rlineto
0 exch rlineto
neg 0 rlineto
cp } bd
/_ctm matrix def
/_tm matrix def
/BT { _ctm currentmatrix pop matrix _tm copy pop 0 0 moveto } bd
/ET { _ctm setmatrix } bd
/iTm { _ctm setmatrix _tm concat } bd
/Tm { _tm astore pop iTm 0 0 moveto } bd
/ux 0.0 def
/uy 0.0 def
/F {
  /Tp exch def
  /Tf exch def
  Tf findfont Tp scalefont setfont
  /cf Tf def  /cs Tp def
} bd
/ULS {currentpoint /uy exch def /ux exch def} bd
/ULE {
  /Tcx currentpoint pop def
  gsave
  newpath
  cf findfont cs scalefont dup
  /FontMatrix get 0 get /Ts exch def /FontInfo get dup
  /UnderlinePosition get Ts mul /To exch def
  /UnderlineThickness get Ts mul /Tt exch def
  ux uy To add moveto  Tcx uy To add lineto
  Tt setlinewidth stroke
  grestore
} bd
/OLE {
  /Tcx currentpoint pop def
  gsave
  newpath
  cf findfont cs scalefont dup
  /FontMatrix get 0 get /Ts exch def /FontInfo get dup
  /UnderlinePosition get Ts mul /To exch def
  /UnderlineThickness get Ts mul /Tt exch def
  ux uy To add cs add moveto Tcx uy To add cs add lineto
  Tt setlinewidth stroke
  grestore
} bd
/SOE {
  /Tcx currentpoint pop def
  gsave
  newpath
  cf findfont cs scalefont dup
  /FontMatrix get 0 get /Ts exch def /FontInfo get dup
  /UnderlinePosition get Ts mul /To exch def
  /UnderlineThickness get Ts mul /Tt exch def
  ux uy To add cs 10 mul 26 idiv add moveto Tcx uy To add cs 10 mul 26 idiv add lineto
  Tt setlinewidth stroke
  grestore
} bd
/QT {
/Y22 exch store
/X22 exch store
/Y21 exch store
/X21 exch store
currentpoint
/Y21 load 2 mul add 3 div exch
/X21 load 2 mul add 3 div exch
/X21 load 2 mul /X22 load add 3 div
/Y21 load 2 mul /Y22 load add 3 div
/X22 load /Y22 load curveto
} bd
/SSPD {
dup length /d exch dict def
{
/v exch def
/k exch def
currentpagedevice k known {
/cpdv currentpagedevice k get def
v cpdv ne {
/upd false def
/nullv v type /nulltype eq def
/nullcpdv cpdv type /nulltype eq def
nullv nullcpdv or
{
/upd true def
} {
/sametype v type cpdv type eq def
sametype {
v type /arraytype eq {
/vlen v length def
/cpdvlen cpdv length def
vlen cpdvlen eq {
0 1 vlen 1 sub {
/i exch def
/obj v i get def
/cpdobj cpdv i get def
obj cpdobj ne {
/upd true def
exit
} if
} for
} {
/upd true def
} ifelse
} {
v type /dicttype eq {
v {
/dv exch def
/dk exch def
/cpddv cpdv dk get def
dv cpddv ne {
/upd true def
exit
} if
} forall
} {
/upd true def
} ifelse
} ifelse
} if
} ifelse
upd true eq {
d k v put
} if
} if
} if
} forall
d length 0 gt {
d setpagedevice
} if
} bd
/RE { % /NewFontName [NewEncodingArray] /FontName RE -
  findfont dup length dict begin
  {
    1 index /FID ne
    {def} {pop pop} ifelse
  } forall
  /Encoding exch def
  /FontName 1 index def
  currentdict definefont pop
  end
} bind def
%%EndResource
%%BeginResource: procset (Apache XML Graphics EPS ProcSet) 1.0 0
%%Version: 1.0 0
%%Copyright: (Copyright 2002-2003 The Apache Software Foundation. License terms: http://www.apache.org/licenses/LICENSE-2.0)
/BeginEPSF { %def
/b4_Inc_state save def         % Save state for cleanup
/dict_count countdictstack def % Count objects on dict stack
/op_count count 1 sub def      % Count objects on operand stack
userdict begin                 % Push userdict on dict stack
/showpage { } def              % Redefine showpage, { } = null proc
0 setgray 0 setlinecap         % Prepare graphics state
1 setlinewidth 0 setlinejoin
10 setmiterlimit [ ] 0 setdash newpath
/languagelevel where           % If level not equal to 1 then
{pop languagelevel             % set strokeadjust and
1 ne                           % overprint to their defaults.
{false setstrokeadjust false setoverprint
} if
} if
} bd
/EndEPSF { %def
count op_count sub {pop} repeat            % Clean up stacks
countdictstack dict_count sub {end} repeat
b4_Inc_state restore
} bd
%%EndResource
%FOPBeginFontDict
%%IncludeResource: font Courier-Oblique
%%IncludeResource: font Courier-BoldOblique
%%IncludeResource: font Courier-Bold
%%IncludeResource: font ZapfDingbats
%%IncludeResource: font Symbol
%%IncludeResource: font Helvetica
%%IncludeResource: font Helvetica-Oblique
%%IncludeResource: font Helvetica-Bold
%%IncludeResource: font Helvetica-BoldOblique
%%IncludeResource: font Times-Roman
%%IncludeResource: font Times-Italic
%%IncludeResource: font Times-Bold
%%IncludeResource: font Times-BoldItalic
%%IncludeResource: font Courier
%FOPEndFontDict
%%BeginResource: encoding WinAnsiEncoding
/WinAnsiEncoding [
/.notdef /.notdef /.notdef /.notdef /.notdef
/.notdef /.notdef /.notdef /.notdef /.notdef
/.notdef /.notdef /.notdef /.notdef /.notdef
/.notdef /.notdef /.notdef /.notdef /.notdef
/.notdef /.notdef /.notdef /.notdef /.notdef
/.notdef /.notdef /.notdef /.notdef /.notdef
/.notdef /.notdef /space /exclam /quotedbl
/numbersign /dollar /percent /ampersand /quotesingle
/parenleft /parenright /asterisk /plus /comma
/hyphen /period /slash /zero /one
/two /three /four /five /six
/seven /eight /nine /colon /semicolon
/less /equal /greater /question /at
/A /B /C /D /E
/F /G /H /I /J
/K /L /M /N /O
/P /Q /R /S /T
/U /V /W /X /Y
/Z /bracketleft /backslash /bracketright /asciicircum
/underscore /quoteleft /a /b /c
/d /e /f /g /h
/i /j /k /l /m
/n /o /p /q /r
/s /t /u /v /w
/x /y /z /braceleft /bar
/braceright /asciitilde /bullet /Euro /bullet
/quotesinglbase /florin /quotedblbase /ellipsis /dagger
/daggerdbl /circumflex /perthousand /Scaron /guilsinglleft
/OE /bullet /Zcaron /bullet /bullet
/quoteleft /quoteright /quotedblleft /quotedblright /bullet
/endash /emdash /asciitilde /trademark /scaron
/guilsinglright /oe /bullet /zcaron /Ydieresis
/space /exclamdown /cent /sterling /currency
/yen /brokenbar /section /dieresis /copyright
/ordfeminine /guillemotleft /logicalnot /sfthyphen /registered
/macron /degree /plusminus /twosuperior /threesuperior
/acute /mu /paragraph /middot /cedilla
/onesuperior /ordmasculine /guillemotright /onequarter /onehalf
/threequarters /questiondown /Agrave /Aacute /Acircumflex
/Atilde /Adieresis /Aring /AE /Ccedilla
/Egrave /Eacute /Ecircumflex /Edieresis /Igrave
/Iacute /Icircumflex /Idieresis /Eth /Ntilde
/Ograve /Oacute /Ocircumflex /Otilde /Odieresis
/multiply /Oslash /Ugrave /Uacute /Ucircumflex
/Udieresis /Yacute /Thorn /germandbls /agrave
/aacute /acircumflex /atilde /adieresis /aring
/ae /ccedilla /egrave /eacute /ecircumflex
/edieresis /igrave /iacute /icircumflex /idieresis
/eth /ntilde /ograve /oacute /ocircumflex
/otilde /odieresis /divide /oslash /ugrave
/uacute /ucircumflex /udieresis /yacute /thorn
/ydieresis
] def
%%EndResource
%FOPBeginFontReencode
/Courier-Oblique findfont
dup length dict begin
  {1 index /FID ne {def} {pop pop} ifelse} forall
  /Encoding WinAnsiEncoding def
  currentdict
end
/Courier-Oblique exch definefont pop
/Courier-BoldOblique findfont
dup length dict begin
  {1 index /FID ne {def} {pop pop} ifelse} forall
  /Encoding WinAnsiEncoding def
  currentdict
end
/Courier-BoldOblique exch definefont pop
/Courier-Bold findfont
dup length dict begin
  {1 index /FID ne {def} {pop pop} ifelse} forall
  /Encoding WinAnsiEncoding def
  currentdict
end
/Courier-Bold exch definefont pop
/Helvetica findfont
dup length dict begin
  {1 index /FID ne {def} {pop pop} ifelse} forall
  /Encoding WinAnsiEncoding def
  currentdict
end
/Helvetica exch definefont pop
/Helvetica-Oblique findfont
dup length dict begin
  {1 index /FID ne {def} {pop pop} ifelse} forall
  /Encoding WinAnsiEncoding def
  currentdict
end
/Helvetica-Oblique exch definefont pop
/Helvetica-Bold findfont
dup length dict begin
  {1 index /FID ne {def} {pop pop} ifelse} forall
  /Encoding WinAnsiEncoding def
  currentdict
end
/Helvetica-Bold exch definefont pop
/Helvetica-BoldOblique findfont
dup length dict begin
  {1 index /FID ne {def} {pop pop} ifelse} forall
  /Encoding WinAnsiEncoding def
  currentdict
end
/Helvetica-BoldOblique exch definefont pop
/Times-Roman findfont
dup length dict begin
  {1 index /FID ne {def} {pop pop} ifelse} forall
  /Encoding WinAnsiEncoding def
  currentdict
end
/Times-Roman exch definefont pop
/Times-Italic findfont
dup length dict begin
  {1 index /FID ne {def} {pop pop} ifelse} forall
  /Encoding WinAnsiEncoding def
  currentdict
end
/Times-Italic exch definefont pop
/Times-Bold findfont
dup length dict begin
  {1 index /FID ne {def} {pop pop} ifelse} forall
  /Encoding WinAnsiEncoding def
  currentdict
end
/Times-Bold exch definefont pop
/Times-BoldItalic findfont
dup length dict begin
  {1 index /FID ne {def} {pop pop} ifelse} forall
  /Encoding WinAnsiEncoding def
  currentdict
end
/Times-BoldItalic exch definefont pop
/Courier findfont
dup length dict begin
  {1 index /FID ne {def} {pop pop} ifelse} forall
  /Encoding WinAnsiEncoding def
  currentdict
end
/Courier exch definefont pop
%FOPEndFontReencode
%%EndProlog
%%Page: 1 1
%%PageBoundingBox: 0 0 424 318
%%BeginPageSetup
[1 0 0 -1 0 318] CT
%%EndPageSetup
GS
[0.75789 0 0 0.75789 0 -0.31577] CT
N
0 0 M
560 0 L
560 420 L
0 420 L
0 0 L
cp
clip
1 GC
N
0 0 560 420 re
f
GR
GS
[0.75789 0 0 0.75789 0 -0.31577] CT
1 GC
N
0 0 560 420 re
f
GR
GS
[0.75789 0 0 0.75789 0 -0.31577] CT
1 GC
N
73 365 M
507 365 L
507 31 L
73 31 L
cp
f
GR
GS
[0.75789 0 0 0.75789 0 -0.31577] CT
0.873 GC
1 LJ
0.66 LW
N
73 365 M
73 31 L
S
GR
GS
[0.75789 0 0 0.75789 0 -0.31577] CT
0.873 GC
1 LJ
0.66 LW
N
153.223 365 M
153.223 31 L
S
GR
GS
[0.75789 0 0 0.75789 0 -0.31577] CT
0.873 GC
1 LJ
0.66 LW
N
233.445 365 M
233.445 31 L
S
GR
GS
[0.75789 0 0 0.75789 0 -0.31577] CT
0.873 GC
1 LJ
0.66 LW
N
313.668 365 M
313.668 31 L
S
GR
GS
[0.75789 0 0 0.75789 0 -0.31577] CT
0.873 GC
1 LJ
0.66 LW
N
393.89 365 M
393.89 31 L
S
GR
GS
[0.75789 0 0 0.75789 0 -0.31577] CT
0.873 GC
1 LJ
0.66 LW
N
474.113 365 M
474.113 31 L
S
GR
GS
[0.75789 0 0 0.75789 0 -0.31577] CT
0.873 GC
1 LJ
0.66 LW
N
507 365 M
73 365 L
S
GR
GS
[0.75789 0 0 0.75789 0 -0.31577] CT
0.873 GC
1 LJ
0.66 LW
N
507 323.25 M
73 323.25 L
S
GR
GS
[0.75789 0 0 0.75789 0 -0.31577] CT
0.873 GC
1 LJ
0.66 LW
N
507 281.5 M
73 281.5 L
S
GR
GS
[0.75789 0 0 0.75789 0 -0.31577] CT
0.873 GC
1 LJ
0.66 LW
N
507 239.75 M
73 239.75 L
S
GR
GS
[0.75789 0 0 0.75789 0 -0.31577] CT
0.873 GC
1 LJ
0.66 LW
N
507 198 M
73 198 L
S
GR
GS
[0.75789 0 0 0.75789 0 -0.31577] CT
0.873 GC
1 LJ
0.66 LW
N
507 156.25 M
73 156.25 L
S
GR
GS
[0.75789 0 0 0.75789 0 -0.31577] CT
0.873 GC
1 LJ
0.66 LW
N
507 114.5 M
73 114.5 L
S
GR
GS
[0.75789 0 0 0.75789 0 -0.31577] CT
0.873 GC
1 LJ
0.66 LW
N
507 72.75 M
73 72.75 L
S
GR
GS
[0.75789 0 0 0.75789 0 -0.31577] CT
0.873 GC
1 LJ
0.66 LW
N
507 31 M
73 31 L
S
GR
GS
[0.75789 0 0 0.75789 0 -0.31577] CT
0.149 GC
2 setlinecap
1 LJ
0.66 LW
N
73 365 M
507 365 L
S
GR
GS
[0.75789 0 0 0.75789 0 -0.31577] CT
0.149 GC
2 setlinecap
1 LJ
0.66 LW
N
73 365 M
73 360.66 L
S
GR
GS
[0.75789 0 0 0.75789 0 -0.31577] CT
0.149 GC
2 setlinecap
1 LJ
0.66 LW
N
153.223 365 M
153.223 360.66 L
S
GR
GS
[0.75789 0 0 0.75789 0 -0.31577] CT
0.149 GC
2 setlinecap
1 LJ
0.66 LW
N
233.445 365 M
233.445 360.66 L
S
GR
GS
[0.75789 0 0 0.75789 0 -0.31577] CT
0.149 GC
2 setlinecap
1 LJ
0.66 LW
N
313.668 365 M
313.668 360.66 L
S
GR
GS
[0.75789 0 0 0.75789 0 -0.31577] CT
0.149 GC
2 setlinecap
1 LJ
0.66 LW
N
393.89 365 M
393.89 360.66 L
S
GR
GS
[0.75789 0 0 0.75789 0 -0.31577] CT
0.149 GC
2 setlinecap
1 LJ
0.66 LW
N
474.113 365 M
474.113 360.66 L
S
GR
GS
[0.75789 0 0 0.75789 55.32632 281.1158] CT
0.149 GC
/Helvetica 18.472 F
GS
[1 0 0 1 0 0] CT
-6 18 moveto 
1 -1 scale
(0) t 
GR
GR
GS
[0.75789 0 0 0.75789 116.12661 281.1158] CT
0.149 GC
/Helvetica 18.472 F
GS
[1 0 0 1 0 0] CT
-15 18 moveto 
1 -1 scale
(0.1) t 
GR
GR
GS
[0.75789 0 0 0.75789 176.9269 281.1158] CT
0.149 GC
/Helvetica 18.472 F
GS
[1 0 0 1 0 0] CT
-15 18 moveto 
1 -1 scale
(0.2) t 
GR
GR
GS
[0.75789 0 0 0.75789 237.72721 281.1158] CT
0.149 GC
/Helvetica 18.472 F
GS
[1 0 0 1 0 0] CT
-15 18 moveto 
1 -1 scale
(0.3) t 
GR
GR
GS
[0.75789 0 0 0.75789 298.52749 281.1158] CT
0.149 GC
/Helvetica 18.472 F
GS
[1 0 0 1 0 0] CT
-15 18 moveto 
1 -1 scale
(0.4) t 
GR
GR
GS
[0.75789 0 0 0.75789 359.32777 281.1158] CT
0.149 GC
/Helvetica 18.472 F
GS
[1 0 0 1 0 0] CT
-15 18 moveto 
1 -1 scale
(0.5) t 
GR
GR
GS
[0.75789 0 0 0.75789 219.78963 299.54736] CT
0.149 GC
/Helvetica 20.319 F
GS
[1 0 0 1 0 0] CT
-17.5 19 moveto 
1 -1 scale
(t\(s\)) t 
GR
GR
GS
[0.75789 0 0 0.75789 0 -0.31577] CT
0.149 GC
2 setlinecap
1 LJ
0.66 LW
N
73 365 M
73 31 L
S
GR
GS
[0.75789 0 0 0.75789 0 -0.31577] CT
0.149 GC
2 setlinecap
1 LJ
0.66 LW
N
73 365 M
77.34 365 L
S
GR
GS
[0.75789 0 0 0.75789 0 -0.31577] CT
0.149 GC
2 setlinecap
1 LJ
0.66 LW
N
73 323.25 M
77.34 323.25 L
S
GR
GS
[0.75789 0 0 0.75789 0 -0.31577] CT
0.149 GC
2 setlinecap
1 LJ
0.66 LW
N
73 281.5 M
77.34 281.5 L
S
GR
GS
[0.75789 0 0 0.75789 0 -0.31577] CT
0.149 GC
2 setlinecap
1 LJ
0.66 LW
N
73 239.75 M
77.34 239.75 L
S
GR
GS
[0.75789 0 0 0.75789 0 -0.31577] CT
0.149 GC
2 setlinecap
1 LJ
0.66 LW
N
73 198 M
77.34 198 L
S
GR
GS
[0.75789 0 0 0.75789 0 -0.31577] CT
0.149 GC
2 setlinecap
1 LJ
0.66 LW
N
73 156.25 M
77.34 156.25 L
S
GR
GS
[0.75789 0 0 0.75789 0 -0.31577] CT
0.149 GC
2 setlinecap
1 LJ
0.66 LW
N
73 114.5 M
77.34 114.5 L
S
GR
GS
[0.75789 0 0 0.75789 0 -0.31577] CT
0.149 GC
2 setlinecap
1 LJ
0.66 LW
N
73 72.75 M
77.34 72.75 L
S
GR
GS
[0.75789 0 0 0.75789 0 -0.31577] CT
0.149 GC
2 setlinecap
1 LJ
0.66 LW
N
73 31 M
77.34 31 L
S
GR
GS
[0.75789 0 0 0.75789 50.52631 276.31579] CT
0.149 GC
/Helvetica 18.472 F
GS
[1 0 0 1 0 0] CT
-12 6.5 moveto 
1 -1 scale
(0) t 
GR
GR
GS
[0.75789 0 0 0.75789 50.52631 244.67369] CT
0.149 GC
/Helvetica 18.472 F
GS
[1 0 0 1 0 0] CT
-30 6.5 moveto 
1 -1 scale
(0.5) t 
GR
GR
GS
[0.75789 0 0 0.75789 50.52631 213.03159] CT
0.149 GC
/Helvetica 18.472 F
GS
[1 0 0 1 0 0] CT
-12 6.5 moveto 
1 -1 scale
(1) t 
GR
GR
GS
[0.75789 0 0 0.75789 50.52631 181.38948] CT
0.149 GC
/Helvetica 18.472 F
GS
[1 0 0 1 0 0] CT
-30 6.5 moveto 
1 -1 scale
(1.5) t 
GR
GR
GS
[0.75789 0 0 0.75789 50.52631 149.74738] CT
0.149 GC
/Helvetica 18.472 F
GS
[1 0 0 1 0 0] CT
-12 6.5 moveto 
1 -1 scale
(2) t 
GR
GR
GS
[0.75789 0 0 0.75789 50.52631 118.10528] CT
0.149 GC
/Helvetica 18.472 F
GS
[1 0 0 1 0 0] CT
-30 6.5 moveto 
1 -1 scale
(2.5) t 
GR
GR
GS
[0.75789 0 0 0.75789 50.52631 86.46318] CT
0.149 GC
/Helvetica 18.472 F
GS
[1 0 0 1 0 0] CT
-12 6.5 moveto 
1 -1 scale
(3) t 
GR
GR
GS
[0.75789 0 0 0.75789 50.52631 54.82107] CT
0.149 GC
/Helvetica 18.472 F
GS
[1 0 0 1 0 0] CT
-30 6.5 moveto 
1 -1 scale
(3.5) t 
GR
GR
GS
[0.75789 0 0 0.75789 50.52631 23.17897] CT
0.149 GC
/Helvetica 18.472 F
GS
[1 0 0 1 0 0] CT
-12 6.5 moveto 
1 -1 scale
(4) t 
GR
GR
GS
[0 -0.75789 0.75789 0 21.22105 183.85264] CT
0.149 GC
N
1.547 0 M
0.875 -3.328 L
1.469 -3.328 L
1.578 -2.75 1.664 -2.305 QT
1.75 -1.859 1.891 -1.68 QT
2.031 -1.5 2.344 -1.438 QT
2.656 -1.375 3.375 -1.375 QT
4.594 -1.375 L
4.313 -2.516 3.141 -4.336 QT
1.969 -6.156 1.547 -6.977 QT
1.125 -7.797 1.125 -9.109 QT
1.125 -10.609 2.023 -11.75 QT
2.922 -12.891 4.344 -13.5 QT
5.766 -14.109 7.219 -14.109 QT
8.656 -14.109 10.078 -13.5 QT
11.5 -12.891 12.398 -11.742 QT
13.297 -10.594 13.297 -9.109 QT
13.297 -8.094 12.93 -7.195 QT
12.563 -6.297 11.984 -5.398 QT
11.406 -4.5 10.734 -3.391 QT
10.063 -2.281 9.828 -1.375 QT
11.031 -1.375 L
11.766 -1.375 12.086 -1.438 QT
12.406 -1.5 12.547 -1.68 QT
12.688 -1.859 12.773 -2.305 QT
12.859 -2.75 12.953 -3.328 QT
13.531 -3.328 L
12.875 0 L
9.344 0 L
9.141 0 9.141 -0.266 QT
9.141 -1.281 9.391 -2.258 QT
9.641 -3.234 10.125 -4.617 QT
10.609 -6 10.883 -7.063 QT
11.156 -8.125 11.156 -9.109 QT
11.156 -10.297 10.688 -11.328 QT
10.219 -12.359 9.32 -12.969 QT
8.422 -13.578 7.219 -13.578 QT
5.391 -13.578 4.328 -12.281 QT
3.266 -10.984 3.266 -9.109 QT
3.266 -8.078 3.5 -7.172 QT
3.734 -6.266 4.258 -4.75 QT
4.781 -3.234 5.031 -2.258 QT
5.281 -1.281 5.281 -0.266 QT
5.281 0 5.078 0 QT
1.547 0 L
cp
f
GR
GS
[0 -0.75789 0.75789 0 21.22105 172.48422] CT
0.149 GC
/Helvetica 20.319 F
GS
[1 0 0 1 0 0] CT
0 0 moveto 
1 -1 scale
( \(rad/s\)) t 
GR
GR
GS
[0.75789 0 0 0.75789 165.22105 16.35792] CT
/Helvetica-Bold 20.319 F
GS
[1 0 0 1 0 0] CT
0 0 moveto 
1 -1 scale
(Control de ) t 
GR
GR
GS
[0.75789 0 0 0.75789 261.47368 16.35792] CT
N
1.547 0 M
0.875 -3.328 L
2.469 -3.328 L
2.578 -2.75 2.664 -2.305 QT
2.75 -1.859 2.891 -1.68 QT
3.031 -1.5 3.344 -1.438 QT
3.656 -1.375 3.656 -1.375 QT
4.594 -1.375 L
4.313 -2.516 3.141 -4.336 QT
1.969 -6.156 1.547 -6.977 QT
1.125 -7.797 1.125 -9.109 QT
1.125 -10.609 2.023 -11.75 QT
2.922 -12.891 4.344 -13.5 QT
5.766 -14.109 7.219 -14.109 QT
9.656 -14.109 11.078 -13.5 QT
12.5 -12.891 13.398 -11.742 QT
14.297 -10.594 14.297 -9.109 QT
14.297 -8.094 13.93 -7.195 QT
13.563 -6.297 12.984 -5.398 QT
12.406 -4.5 11.734 -3.391 QT
11.063 -2.281 10.828 -1.375 QT
11.031 -1.375 L
11.766 -1.375 12.086 -1.438 QT
12.406 -1.5 12.547 -1.68 QT
12.688 -1.859 12.773 -2.305 QT
12.859 -2.75 12.953 -3.328 QT
14.531 -3.328 L
13.875 0 L
9.344 0 L
9.141 0 9.141 -0.266 QT
9.141 -1.281 9.391 -2.258 QT
9.641 -3.234 10.125 -4.617 QT
10.609 -6 10.883 -7.063 QT
11.156 -8.125 11.156 -9.109 QT
11.156 -10.297 10.688 -11.328 QT
10.219 -12.359 9.32 -12.969 QT
8.422 -13.578 7.219 -13.578 QT
6.391 -13.578 5.328 -12.281 QT
4.266 -10.984 4.266 -9.109 QT
4.266 -8.078 4.5 -7.172 QT
4.734 -6.266 5.258 -4.75 QT
5.781 -3.234 6.031 -2.258 QT
6.281 -1.281 6.281 -0.266 QT
6.281 0 5.078 0 QT
1.547 0 L
cp
f
GR
GS
[0.75789 0 0 0.75789 0 -0.31577] CT
0 0.447 0.741 RC
1 LJ
2.639 LW
N
73 365 M
73 365 L
73.001 365 L
73.006 365 L
73.032 365 L
73.162 365 L
73.81 365 L
76.209 365 L
79.418 365 L
82.627 365 L
85.836 365 L
89.045 365 L
90.932 365 L
91.86 365 L
92.253 365 L
92.605 365 L
94.365 365 L
95.462 365 L
97.56 365 L
98.671 365 L
99.569 365 L
101.88 365 L
105.089 365 L
107.687 365 L
108.298 365 L
111.507 365 L
114.716 365 L
117.925 365 L
121.134 365 L
124.342 365 L
127.551 365 L
130.76 365 L
133.969 365 L
137.178 365 L
140.387 365 L
143.596 365 L
146.805 365 L
150.014 365 L
153.223 365 L
153.223 365 L
153.223 365 L
154.488 365 L
154.722 365 L
154.797 365 L
154.871 365 L
154.931 365 L
155.231 365 L
156.432 365 L
159.64 365 L
162.849 365 L
166.058 365 L
169.267 365 L
172.476 365 L
175.685 365 L
178.894 365 L
182.103 365 L
185.312 365 L
188.521 365 L
191.729 365 L
194.938 365 L
198.147 365 L
201.356 365 L
204.565 365 L
207.774 365 L
210.983 365 L
214.192 365 L
217.401 365 L
220.61 365 L
223.818 365 L
227.027 365 L
230.236 365 L
233.445 365 L
236.654 365 L
239.863 365 L
243.072 365 L
246.281 365 L
249.49 365 L
252.699 365 L
255.908 365 L
259.116 365 L
262.325 365 L
265.534 365 L
268.743 365 L
271.952 365 L
275.161 365 L
278.37 365 L
281.579 365 L
284.788 365 L
287.997 365 L
291.206 365 L
294.414 365 L
297.623 365 L
300.832 365 L
304.041 365 L
307.25 365 L
310.459 365 L
313.668 365 L
316.877 365 L
320.086 365 L
323.295 365 L
326.503 365 L
329.712 365 L
332.921 365 L
336.13 365 L
339.339 365 L
342.548 365 L
345.757 365 L
348.966 365 L
352.175 365 L
355.384 365 L
358.592 365 L
361.801 365 L
365.01 365 L
368.219 365 L
371.428 365 L
374.637 365 L
377.846 365 L
381.055 365 L
384.264 365 L
387.473 365 L
390.682 365 L
393.89 365 L
397.099 365 L
400.308 365 L
403.517 365 L
406.726 365 L
409.935 365 L
413.144 365 L
416.353 365 L
419.562 365 L
422.771 365 L
425.979 365 L
429.188 365 L
432.397 365 L
435.606 365 L
438.815 365 L
442.024 365 L
445.233 365 L
448.442 365 L
451.651 365 L
454.86 365 L
458.069 365 L
461.277 365 L
464.486 365 L
467.695 365 L
470.904 365 L
474.113 365 L
477.322 365 L
480.531 365 L
483.74 365 L
486.949 365 L
490.158 365 L
493.366 365 L
496.575 365 L
499.784 365 L
502.993 365 L
506.202 365 L
507.052 365 L
S
GR
GS
[0.75789 0 0 0.75789 0 -0.31577] CT
0.851 0.325 0.098 RC
1 LJ
2.639 LW
N
73 365 M
73 365 L
73.001 365 L
73.006 365 L
73.032 365 L
73.162 365 L
73.81 365 L
76.209 365 L
79.418 365 L
82.627 365 L
85.836 365 L
89.045 365 L
90.932 365 L
91.86 365 L
92.253 365 L
92.605 365 L
94.365 365 L
95.462 365 L
97.56 365 L
98.671 365 L
99.569 365 L
101.88 365 L
105.089 365 L
107.687 365 L
108.298 365 L
111.507 365 L
114.716 365 L
117.925 365 L
121.134 365 L
124.342 365 L
127.551 365 L
130.76 365 L
133.969 365 L
137.178 365 L
140.387 365 L
143.596 365 L
146.805 365 L
150.014 365 L
153.223 365 L
153.223 365 L
153.223 365 L
154.488 365 L
154.722 365 L
154.797 365 L
154.871 365 L
154.931 364.996 L
155.231 364.936 L
156.432 364.012 L
159.64 357.219 L
162.849 346.146 L
166.058 332.524 L
169.267 317.376 L
172.476 301.298 L
175.685 284.642 L
178.894 267.618 L
182.103 250.358 L
185.312 232.944 L
188.521 215.428 L
191.729 197.845 L
194.938 180.227 L
198.147 162.734 L
201.356 146.046 L
204.565 130.863 L
207.774 117.811 L
210.983 107.34 L
214.192 99.598 L
217.401 94.383 L
220.61 91.204 L
223.818 89.408 L
227.027 88.329 L
230.236 87.413 L
233.445 86.285 L
236.654 84.783 L
239.863 82.928 L
243.072 80.876 L
246.281 78.842 L
249.49 77.039 L
252.699 75.622 L
255.908 74.664 L
259.116 74.149 L
262.325 73.99 L
265.534 74.061 L
268.743 74.224 L
271.952 74.362 L
275.161 74.398 L
278.37 74.301 L
281.579 74.08 L
284.788 73.777 L
287.997 73.448 L
291.206 73.146 L
294.414 72.913 L
297.623 72.77 L
300.832 72.716 L
304.041 72.735 L
307.25 72.799 L
310.459 72.878 L
313.668 72.945 L
316.877 72.984 L
320.086 72.987 L
323.295 72.958 L
326.503 72.905 L
329.712 72.843 L
332.921 72.784 L
336.13 72.739 L
339.339 72.713 L
342.548 72.707 L
345.757 72.716 L
348.966 72.735 L
352.175 72.758 L
355.384 72.777 L
358.592 72.789 L
361.801 72.793 L
365.01 72.789 L
368.219 72.778 L
371.428 72.765 L
374.637 72.753 L
377.846 72.743 L
381.055 72.737 L
384.264 72.736 L
387.473 72.739 L
390.682 72.744 L
393.89 72.749 L
397.099 72.754 L
400.308 72.758 L
403.517 72.759 L
406.726 72.758 L
409.935 72.756 L
413.144 72.753 L
416.353 72.75 L
419.562 72.748 L
422.771 72.747 L
425.979 72.746 L
429.188 72.747 L
432.397 72.748 L
435.606 72.75 L
438.815 72.751 L
442.024 72.752 L
445.233 72.752 L
448.442 72.752 L
451.651 72.751 L
454.86 72.751 L
458.069 72.75 L
461.277 72.75 L
464.486 72.749 L
467.695 72.749 L
470.904 72.749 L
474.113 72.75 L
477.322 72.75 L
480.531 72.75 L
483.74 72.75 L
486.949 72.75 L
490.158 72.75 L
493.366 72.75 L
496.575 72.75 L
499.784 72.75 L
502.993 72.75 L
506.202 72.75 L
507.052 72.75 L
S
GR
GS
[0.75789 0 0 0.75789 0 -0.31577] CT
0.929 0.694 0.125 RC
1 LJ
2.639 LW
N
73 365 M
73 365 L
73.001 365 L
73.006 365 L
73.032 365 L
73.162 365 L
73.81 365 L
76.209 365 L
79.418 365 L
82.627 365 L
85.836 365 L
89.045 365 L
90.932 365 L
91.86 365 L
92.253 365 L
92.605 365 L
94.365 365 L
95.462 365 L
97.56 365 L
98.671 365 L
99.569 365 L
101.88 365 L
105.089 365 L
107.687 365 L
108.298 365 L
111.507 365 L
114.716 365 L
117.925 365 L
121.134 365 L
124.342 365 L
127.551 365 L
130.76 365 L
133.969 365 L
137.178 365 L
140.387 365 L
143.596 365 L
146.805 365 L
150.014 365 L
153.223 365 L
153.223 365 L
153.223 365 L
154.488 365 L
154.722 365 L
154.797 365 L
154.871 365 L
154.931 365 L
155.231 365 L
156.432 365 L
159.64 365 L
162.849 365 L
166.058 365 L
169.267 365 L
172.476 365 L
175.685 365 L
178.894 365 L
182.103 365 L
185.312 365 L
188.521 365 L
191.729 365 L
194.938 365 L
198.147 365 L
201.356 365 L
204.565 365 L
207.774 365 L
210.983 365 L
214.192 365 L
217.401 365 L
220.61 365 L
223.818 365 L
227.027 365 L
230.236 365 L
233.445 365 L
236.654 365 L
239.863 365 L
243.072 365 L
246.281 365 L
249.49 365 L
252.699 365 L
255.908 365 L
259.116 365 L
262.325 365 L
265.534 365 L
268.743 365 L
271.952 365 L
275.161 365 L
278.37 365 L
281.579 365 L
284.788 365 L
287.997 365 L
291.206 365 L
294.414 365 L
297.623 365 L
300.832 365 L
304.041 365 L
307.25 365 L
310.459 365 L
313.668 365 L
316.877 365 L
320.086 365 L
323.295 365 L
326.503 365 L
329.712 365 L
332.921 365 L
336.13 365 L
339.339 365 L
342.548 365 L
345.757 365 L
348.966 365 L
352.175 365 L
355.384 365 L
358.592 365 L
361.801 365 L
365.01 365 L
368.219 365 L
371.428 365 L
374.637 365 L
377.846 365 L
381.055 365 L
384.264 365 L
387.473 365 L
390.682 365 L
393.89 365 L
397.099 365 L
400.308 365 L
403.517 365 L
406.726 365 L
409.935 365 L
413.144 365 L
416.353 365 L
419.562 365 L
422.771 365 L
425.979 365 L
429.188 365 L
432.397 365 L
435.606 365 L
438.815 365 L
442.024 365 L
445.233 365 L
448.442 365 L
451.651 365 L
454.86 365 L
458.069 365 L
461.277 365 L
464.486 365 L
467.695 365 L
470.904 365 L
474.113 365 L
477.322 365 L
480.531 365 L
483.74 365 L
486.949 365 L
490.158 365 L
493.366 365 L
496.575 365 L
499.784 365 L
502.993 365 L
506.202 365 L
507.052 365 L
S
GR
GS
[0.75789 0 0 0.75789 0 -0.31577] CT
0 0.447 0.741 RC
[8 8] 0 setdash
2 LJ
2.639 LW
N
73 365 M
73 365 L
73.001 365 L
73.006 365 L
73.032 365 L
73.162 365 L
73.81 365 L
76.209 365 L
79.418 365 L
82.627 365 L
85.836 365 L
89.045 365 L
90.932 365 L
91.86 365 L
92.253 365 L
92.605 365 L
94.365 365 L
95.462 365 L
97.56 365 L
98.671 365 L
99.569 365 L
101.88 365 L
105.089 365 L
107.687 365 L
108.298 365 L
111.507 365 L
114.716 365 L
117.925 365 L
121.134 365 L
124.342 365 L
127.551 365 L
130.76 365 L
133.969 365 L
137.178 365 L
140.387 365 L
143.596 365 L
146.805 365 L
150.014 365 L
153.223 365 L
153.223 365 L
153.223 365 L
154.488 365 L
154.722 365 L
154.797 365 L
154.871 365 L
154.931 365 L
155.231 365 L
156.432 365 L
159.64 365 L
162.849 365 L
166.058 365 L
169.267 365 L
172.476 365 L
175.685 365 L
178.894 365 L
182.103 365 L
185.312 365 L
188.521 365 L
191.729 365 L
194.938 365 L
198.147 365 L
201.356 365 L
204.565 365 L
207.774 365 L
210.983 365 L
214.192 365 L
217.401 365 L
220.61 365 L
223.818 365 L
227.027 365 L
230.236 365 L
233.445 365 L
236.654 365 L
239.863 365 L
243.072 365 L
246.281 365 L
249.49 365 L
252.699 365 L
255.908 365 L
259.116 365 L
262.325 365 L
265.534 365 L
268.743 365 L
271.952 365 L
275.161 365 L
278.37 365 L
281.579 365 L
284.788 365 L
287.997 365 L
291.206 365 L
294.414 365 L
297.623 365 L
300.832 365 L
304.041 365 L
307.25 365 L
310.459 365 L
313.668 365 L
316.877 365 L
320.086 365 L
323.295 365 L
326.503 365 L
329.712 365 L
332.921 365 L
336.13 365 L
339.339 365 L
342.548 365 L
345.757 365 L
348.966 365 L
352.175 365 L
355.384 365 L
358.592 365 L
361.801 365 L
365.01 365 L
368.219 365 L
371.428 365 L
374.637 365 L
377.846 365 L
381.055 365 L
384.264 365 L
387.473 365 L
390.682 365 L
393.89 365 L
397.099 365 L
400.308 365 L
403.517 365 L
406.726 365 L
409.935 365 L
413.144 365 L
416.353 365 L
419.562 365 L
422.771 365 L
425.979 365 L
429.188 365 L
432.397 365 L
435.606 365 L
438.815 365 L
442.024 365 L
445.233 365 L
448.442 365 L
451.651 365 L
454.86 365 L
458.069 365 L
461.277 365 L
464.486 365 L
467.695 365 L
470.904 365 L
474.113 365 L
477.322 365 L
480.531 365 L
483.74 365 L
486.949 365 L
490.158 365 L
493.366 365 L
496.575 365 L
499.784 365 L
502.993 365 L
506.202 365 L
507.052 365 L
S
GR
GS
[0.75789 0 0 0.75789 0 -0.31577] CT
0.851 0.325 0.098 RC
[8 8] 0 setdash
2 LJ
2.639 LW
N
73 365 M
73 365 L
73.001 365 L
73.006 365 L
73.032 365 L
73.162 365 L
73.81 365 L
76.209 365 L
79.418 365 L
82.627 365 L
85.836 365 L
89.045 365 L
90.932 365 L
91.86 365 L
92.253 365 L
92.605 365 L
94.365 365 L
95.462 365 L
97.56 365 L
98.671 365 L
99.569 365 L
101.88 365 L
105.089 365 L
107.687 365 L
108.298 365 L
111.507 365 L
114.716 365 L
117.925 365 L
121.134 365 L
124.342 365 L
127.551 365 L
130.76 365 L
133.969 365 L
137.178 365 L
140.387 365 L
143.596 365 L
146.805 365 L
150.014 365 L
153.223 365 L
153.223 72.75 L
153.223 72.75 L
154.488 72.75 L
154.722 72.75 L
154.797 72.75 L
154.871 72.75 L
154.931 72.75 L
155.231 72.75 L
156.432 72.75 L
159.64 72.75 L
162.849 72.75 L
166.058 72.75 L
169.267 72.75 L
172.476 72.75 L
175.685 72.75 L
178.894 72.75 L
182.103 72.75 L
185.312 72.75 L
188.521 72.75 L
191.729 72.75 L
194.938 72.75 L
198.147 72.75 L
201.356 72.75 L
204.565 72.75 L
207.774 72.75 L
210.983 72.75 L
214.192 72.75 L
217.401 72.75 L
220.61 72.75 L
223.818 72.75 L
227.027 72.75 L
230.236 72.75 L
233.445 72.75 L
236.654 72.75 L
239.863 72.75 L
243.072 72.75 L
246.281 72.75 L
249.49 72.75 L
252.699 72.75 L
255.908 72.75 L
259.116 72.75 L
262.325 72.75 L
265.534 72.75 L
268.743 72.75 L
271.952 72.75 L
275.161 72.75 L
278.37 72.75 L
281.579 72.75 L
284.788 72.75 L
287.997 72.75 L
291.206 72.75 L
294.414 72.75 L
297.623 72.75 L
300.832 72.75 L
304.041 72.75 L
307.25 72.75 L
310.459 72.75 L
313.668 72.75 L
316.877 72.75 L
320.086 72.75 L
323.295 72.75 L
326.503 72.75 L
329.712 72.75 L
332.921 72.75 L
336.13 72.75 L
339.339 72.75 L
342.548 72.75 L
345.757 72.75 L
348.966 72.75 L
352.175 72.75 L
355.384 72.75 L
358.592 72.75 L
361.801 72.75 L
365.01 72.75 L
368.219 72.75 L
371.428 72.75 L
374.637 72.75 L
377.846 72.75 L
381.055 72.75 L
384.264 72.75 L
387.473 72.75 L
390.682 72.75 L
393.89 72.75 L
397.099 72.75 L
400.308 72.75 L
403.517 72.75 L
406.726 72.75 L
409.935 72.75 L
413.144 72.75 L
416.353 72.75 L
419.562 72.75 L
422.771 72.75 L
425.979 72.75 L
429.188 72.75 L
432.397 72.75 L
435.606 72.75 L
438.815 72.75 L
442.024 72.75 L
445.233 72.75 L
448.442 72.75 L
451.651 72.75 L
454.86 72.75 L
458.069 72.75 L
461.277 72.75 L
464.486 72.75 L
467.695 72.75 L
470.904 72.75 L
474.113 72.75 L
477.322 72.75 L
480.531 72.75 L
483.74 72.75 L
486.949 72.75 L
490.158 72.75 L
493.366 72.75 L
496.575 72.75 L
499.784 72.75 L
502.993 72.75 L
506.202 72.75 L
507.052 72.75 L
S
GR
GS
[0.75789 0 0 0.75789 0 -0.31577] CT
0.929 0.694 0.125 RC
[8 8] 0 setdash
2 LJ
2.639 LW
N
73 365 M
73 365 L
73.001 365 L
73.006 365 L
73.032 365 L
73.162 365 L
73.81 365 L
76.209 365 L
79.418 365 L
82.627 365 L
85.836 365 L
89.045 365 L
90.932 365 L
91.86 365 L
92.253 365 L
92.605 365 L
94.365 365 L
95.462 365 L
97.56 365 L
98.671 365 L
99.569 365 L
101.88 365 L
105.089 365 L
107.687 365 L
108.298 365 L
111.507 365 L
114.716 365 L
117.925 365 L
121.134 365 L
124.342 365 L
127.551 365 L
130.76 365 L
133.969 365 L
137.178 365 L
140.387 365 L
143.596 365 L
146.805 365 L
150.014 365 L
153.223 365 L
153.223 365 L
153.223 365 L
154.488 365 L
154.722 365 L
154.797 365 L
154.871 365 L
154.931 365 L
155.231 365 L
156.432 365 L
159.64 365 L
162.849 365 L
166.058 365 L
169.267 365 L
172.476 365 L
175.685 365 L
178.894 365 L
182.103 365 L
185.312 365 L
188.521 365 L
191.729 365 L
194.938 365 L
198.147 365 L
201.356 365 L
204.565 365 L
207.774 365 L
210.983 365 L
214.192 365 L
217.401 365 L
220.61 365 L
223.818 365 L
227.027 365 L
230.236 365 L
233.445 365 L
236.654 365 L
239.863 365 L
243.072 365 L
246.281 365 L
249.49 365 L
252.699 365 L
255.908 365 L
259.116 365 L
262.325 365 L
265.534 365 L
268.743 365 L
271.952 365 L
275.161 365 L
278.37 365 L
281.579 365 L
284.788 365 L
287.997 365 L
291.206 365 L
294.414 365 L
297.623 365 L
300.832 365 L
304.041 365 L
307.25 365 L
310.459 365 L
313.668 365 L
316.877 365 L
320.086 365 L
323.295 365 L
326.503 365 L
329.712 365 L
332.921 365 L
336.13 365 L
339.339 365 L
342.548 365 L
345.757 365 L
348.966 365 L
352.175 365 L
355.384 365 L
358.592 365 L
361.801 365 L
365.01 365 L
368.219 365 L
371.428 365 L
374.637 365 L
377.846 365 L
381.055 365 L
384.264 365 L
387.473 365 L
390.682 365 L
393.89 365 L
397.099 365 L
400.308 365 L
403.517 365 L
406.726 365 L
409.935 365 L
413.144 365 L
416.353 365 L
419.562 365 L
422.771 365 L
425.979 365 L
429.188 365 L
432.397 365 L
435.606 365 L
438.815 365 L
442.024 365 L
445.233 365 L
448.442 365 L
451.651 365 L
454.86 365 L
458.069 365 L
461.277 365 L
464.486 365 L
467.695 365 L
470.904 365 L
474.113 365 L
477.322 365 L
480.531 365 L
483.74 365 L
486.949 365 L
490.158 365 L
493.366 365 L
496.575 365 L
499.784 365 L
502.993 365 L
506.202 365 L
507.052 365 L
S
GR
GS
[0.75789 0 0 0.75789 161.67566 76.75929] CT
N
-5 -5 M
-5 5 L
5 5 L
5 -5 L
cp
f
GR
GS
[0.75789 0 0 0.75789 161.67566 76.75929] CT
1 1 0.863 RC
10.0 ML
1.319 LW
N
-5 -5 M
-5 5 L
5 5 L
5 -5 L
cp
S
GR
GS
[0.75789 0 0 0.75789 0 -0.31577] CT
1 GC
N
496 107 M
496 42 L
435 42 L
435 107 L
cp
f
GR
GS
[0.75789 0 0 0.75789 364.65506 40.61055] CT
/Helvetica 16.625 F
GS
[1 0 0 1 0 0] CT
0 6 moveto 
1 -1 scale
(p) t 
GR
GR
GS
[0.75789 0 0 0.75789 0 -0.31577] CT
0 0.447 0.741 RC
1 LJ
2.639 LW
N
438.962 54 M
478.171 54 L
S
GR
GS
[0.75789 0 0 0.75789 364.65506 56.14739] CT
/Helvetica 16.625 F
GS
[1 0 0 1 0 0] CT
0 6 moveto 
1 -1 scale
(q) t 
GR
GR
GS
[0.75789 0 0 0.75789 0 -0.31577] CT
0.851 0.325 0.098 RC
1 LJ
2.639 LW
N
438.962 74.5 M
478.171 74.5 L
S
GR
GS
[0.75789 0 0 0.75789 364.65506 71.68423] CT
/Helvetica 16.625 F
GS
[1 0 0 1 0 0] CT
0 6 moveto 
1 -1 scale
(q) t 
GR
GR
GS
[0.75789 0 0 0.75789 0 -0.31577] CT
0.929 0.694 0.125 RC
1 LJ
2.639 LW
N
438.962 95 M
478.171 95 L
S
GR
GS
[0.75789 0 0 0.75789 0 -0.31577] CT
0.149 GC
10.0 ML
0.66 LW
N
435 107 M
435 42 L
496 42 L
496 107 L
cp
S
GR
GS
[0.75789 0 0 0.75789 0 -0.31577] CT
1 1 0.933 RC
N
219.919 150.21 M
291.836 150.21 L
291.836 108.293 L
219.919 108.293 L
cp
f
GR
GS
[0.75789 0 0 0.75789 0 -0.31577] CT
0.8 GC
10.0 ML
0.66 LW
N
219.919 150.21 M
291.836 150.21 L
291.836 108.293 L
219.919 108.293 L
cp
S
GR
GS
[0.75789 0 0 0.75789 169.67566 110.52772] CT
/Helvetica 13.194 F
GS
[1 0 0 1 0 0] CT
0 -21 moveto 
1 -1 scale
(X: 0.1749) t 
GR
GR
GS
[0.75789 0 0 0.75789 169.67566 110.52772] CT
/Helvetica 13.194 F
GS
[1 0 0 1 0 0] CT
0 -4 moveto 
1 -1 scale
(Y: 3.153) t 
GR
GR
GS
[0.75789 0 0 0.75789 161.67566 76.75929] CT
0.608 GC
N
/f-719462112{-5 -5 M
-5 5 L
5 5 L
5 -5 L
cp}def
f-719462112
f
GR
GS
[0.75789 0 0 0.75789 161.67566 76.75929] CT
1 1 0.946 RC
10.0 ML
1.319 LW
N
-5 -5 M
-5 5 L
5 5 L
5 -5 L
cp
S
GR
%%Trailer
%%Pages: 1
%%EOF
