%!PS-Adobe-3.0 EPSF-3.0
%%Creator: (MATLAB, The Mathworks, Inc. Version 9.4.0.813654 \(R2018a\). Operating System: Linux)
%%Title: /home/isidro/google-drive/TFG/tilt-rotor-matlab/figuras/memoria/analitico/tau.eps
%%CreationDate: 2019-09-04T14:28:34
%%Pages: (atend)
%%BoundingBox: 0 0 424 318
%%LanguageLevel: 3
%%EndComments
%%BeginProlog
%%BeginResource: procset (Apache XML Graphics Std ProcSet) 1.2 0
%%Version: 1.2 0
%%Copyright: (Copyright 2001-2003,2010 The Apache Software Foundation. License terms: http://www.apache.org/licenses/LICENSE-2.0)
/bd{bind def}bind def
/ld{load def}bd
/GR/grestore ld
/GS/gsave ld
/RM/rmoveto ld
/C/curveto ld
/t/show ld
/L/lineto ld
/ML/setmiterlimit ld
/CT/concat ld
/f/fill ld
/N/newpath ld
/S/stroke ld
/CC/setcmykcolor ld
/A/ashow ld
/cp/closepath ld
/RC/setrgbcolor ld
/LJ/setlinejoin ld
/GC/setgray ld
/LW/setlinewidth ld
/M/moveto ld
/re {4 2 roll M
1 index 0 rlineto
0 exch rlineto
neg 0 rlineto
cp } bd
/_ctm matrix def
/_tm matrix def
/BT { _ctm currentmatrix pop matrix _tm copy pop 0 0 moveto } bd
/ET { _ctm setmatrix } bd
/iTm { _ctm setmatrix _tm concat } bd
/Tm { _tm astore pop iTm 0 0 moveto } bd
/ux 0.0 def
/uy 0.0 def
/F {
  /Tp exch def
  /Tf exch def
  Tf findfont Tp scalefont setfont
  /cf Tf def  /cs Tp def
} bd
/ULS {currentpoint /uy exch def /ux exch def} bd
/ULE {
  /Tcx currentpoint pop def
  gsave
  newpath
  cf findfont cs scalefont dup
  /FontMatrix get 0 get /Ts exch def /FontInfo get dup
  /UnderlinePosition get Ts mul /To exch def
  /UnderlineThickness get Ts mul /Tt exch def
  ux uy To add moveto  Tcx uy To add lineto
  Tt setlinewidth stroke
  grestore
} bd
/OLE {
  /Tcx currentpoint pop def
  gsave
  newpath
  cf findfont cs scalefont dup
  /FontMatrix get 0 get /Ts exch def /FontInfo get dup
  /UnderlinePosition get Ts mul /To exch def
  /UnderlineThickness get Ts mul /Tt exch def
  ux uy To add cs add moveto Tcx uy To add cs add lineto
  Tt setlinewidth stroke
  grestore
} bd
/SOE {
  /Tcx currentpoint pop def
  gsave
  newpath
  cf findfont cs scalefont dup
  /FontMatrix get 0 get /Ts exch def /FontInfo get dup
  /UnderlinePosition get Ts mul /To exch def
  /UnderlineThickness get Ts mul /Tt exch def
  ux uy To add cs 10 mul 26 idiv add moveto Tcx uy To add cs 10 mul 26 idiv add lineto
  Tt setlinewidth stroke
  grestore
} bd
/QT {
/Y22 exch store
/X22 exch store
/Y21 exch store
/X21 exch store
currentpoint
/Y21 load 2 mul add 3 div exch
/X21 load 2 mul add 3 div exch
/X21 load 2 mul /X22 load add 3 div
/Y21 load 2 mul /Y22 load add 3 div
/X22 load /Y22 load curveto
} bd
/SSPD {
dup length /d exch dict def
{
/v exch def
/k exch def
currentpagedevice k known {
/cpdv currentpagedevice k get def
v cpdv ne {
/upd false def
/nullv v type /nulltype eq def
/nullcpdv cpdv type /nulltype eq def
nullv nullcpdv or
{
/upd true def
} {
/sametype v type cpdv type eq def
sametype {
v type /arraytype eq {
/vlen v length def
/cpdvlen cpdv length def
vlen cpdvlen eq {
0 1 vlen 1 sub {
/i exch def
/obj v i get def
/cpdobj cpdv i get def
obj cpdobj ne {
/upd true def
exit
} if
} for
} {
/upd true def
} ifelse
} {
v type /dicttype eq {
v {
/dv exch def
/dk exch def
/cpddv cpdv dk get def
dv cpddv ne {
/upd true def
exit
} if
} forall
} {
/upd true def
} ifelse
} ifelse
} if
} ifelse
upd true eq {
d k v put
} if
} if
} if
} forall
d length 0 gt {
d setpagedevice
} if
} bd
/RE { % /NewFontName [NewEncodingArray] /FontName RE -
  findfont dup length dict begin
  {
    1 index /FID ne
    {def} {pop pop} ifelse
  } forall
  /Encoding exch def
  /FontName 1 index def
  currentdict definefont pop
  end
} bind def
%%EndResource
%%BeginResource: procset (Apache XML Graphics EPS ProcSet) 1.0 0
%%Version: 1.0 0
%%Copyright: (Copyright 2002-2003 The Apache Software Foundation. License terms: http://www.apache.org/licenses/LICENSE-2.0)
/BeginEPSF { %def
/b4_Inc_state save def         % Save state for cleanup
/dict_count countdictstack def % Count objects on dict stack
/op_count count 1 sub def      % Count objects on operand stack
userdict begin                 % Push userdict on dict stack
/showpage { } def              % Redefine showpage, { } = null proc
0 setgray 0 setlinecap         % Prepare graphics state
1 setlinewidth 0 setlinejoin
10 setmiterlimit [ ] 0 setdash newpath
/languagelevel where           % If level not equal to 1 then
{pop languagelevel             % set strokeadjust and
1 ne                           % overprint to their defaults.
{false setstrokeadjust false setoverprint
} if
} if
} bd
/EndEPSF { %def
count op_count sub {pop} repeat            % Clean up stacks
countdictstack dict_count sub {end} repeat
b4_Inc_state restore
} bd
%%EndResource
%FOPBeginFontDict
%%IncludeResource: font Courier-Oblique
%%IncludeResource: font Courier-BoldOblique
%%IncludeResource: font Courier-Bold
%%IncludeResource: font ZapfDingbats
%%IncludeResource: font Symbol
%%IncludeResource: font Helvetica
%%IncludeResource: font Helvetica-Oblique
%%IncludeResource: font Helvetica-Bold
%%IncludeResource: font Helvetica-BoldOblique
%%IncludeResource: font Times-Roman
%%IncludeResource: font Times-Italic
%%IncludeResource: font Times-Bold
%%IncludeResource: font Times-BoldItalic
%%IncludeResource: font Courier
%FOPEndFontDict
%%BeginResource: encoding WinAnsiEncoding
/WinAnsiEncoding [
/.notdef /.notdef /.notdef /.notdef /.notdef
/.notdef /.notdef /.notdef /.notdef /.notdef
/.notdef /.notdef /.notdef /.notdef /.notdef
/.notdef /.notdef /.notdef /.notdef /.notdef
/.notdef /.notdef /.notdef /.notdef /.notdef
/.notdef /.notdef /.notdef /.notdef /.notdef
/.notdef /.notdef /space /exclam /quotedbl
/numbersign /dollar /percent /ampersand /quotesingle
/parenleft /parenright /asterisk /plus /comma
/hyphen /period /slash /zero /one
/two /three /four /five /six
/seven /eight /nine /colon /semicolon
/less /equal /greater /question /at
/A /B /C /D /E
/F /G /H /I /J
/K /L /M /N /O
/P /Q /R /S /T
/U /V /W /X /Y
/Z /bracketleft /backslash /bracketright /asciicircum
/underscore /quoteleft /a /b /c
/d /e /f /g /h
/i /j /k /l /m
/n /o /p /q /r
/s /t /u /v /w
/x /y /z /braceleft /bar
/braceright /asciitilde /bullet /Euro /bullet
/quotesinglbase /florin /quotedblbase /ellipsis /dagger
/daggerdbl /circumflex /perthousand /Scaron /guilsinglleft
/OE /bullet /Zcaron /bullet /bullet
/quoteleft /quoteright /quotedblleft /quotedblright /bullet
/endash /emdash /asciitilde /trademark /scaron
/guilsinglright /oe /bullet /zcaron /Ydieresis
/space /exclamdown /cent /sterling /currency
/yen /brokenbar /section /dieresis /copyright
/ordfeminine /guillemotleft /logicalnot /sfthyphen /registered
/macron /degree /plusminus /twosuperior /threesuperior
/acute /mu /paragraph /middot /cedilla
/onesuperior /ordmasculine /guillemotright /onequarter /onehalf
/threequarters /questiondown /Agrave /Aacute /Acircumflex
/Atilde /Adieresis /Aring /AE /Ccedilla
/Egrave /Eacute /Ecircumflex /Edieresis /Igrave
/Iacute /Icircumflex /Idieresis /Eth /Ntilde
/Ograve /Oacute /Ocircumflex /Otilde /Odieresis
/multiply /Oslash /Ugrave /Uacute /Ucircumflex
/Udieresis /Yacute /Thorn /germandbls /agrave
/aacute /acircumflex /atilde /adieresis /aring
/ae /ccedilla /egrave /eacute /ecircumflex
/edieresis /igrave /iacute /icircumflex /idieresis
/eth /ntilde /ograve /oacute /ocircumflex
/otilde /odieresis /divide /oslash /ugrave
/uacute /ucircumflex /udieresis /yacute /thorn
/ydieresis
] def
%%EndResource
%FOPBeginFontReencode
/Courier-Oblique findfont
dup length dict begin
  {1 index /FID ne {def} {pop pop} ifelse} forall
  /Encoding WinAnsiEncoding def
  currentdict
end
/Courier-Oblique exch definefont pop
/Courier-BoldOblique findfont
dup length dict begin
  {1 index /FID ne {def} {pop pop} ifelse} forall
  /Encoding WinAnsiEncoding def
  currentdict
end
/Courier-BoldOblique exch definefont pop
/Courier-Bold findfont
dup length dict begin
  {1 index /FID ne {def} {pop pop} ifelse} forall
  /Encoding WinAnsiEncoding def
  currentdict
end
/Courier-Bold exch definefont pop
/Helvetica findfont
dup length dict begin
  {1 index /FID ne {def} {pop pop} ifelse} forall
  /Encoding WinAnsiEncoding def
  currentdict
end
/Helvetica exch definefont pop
/Helvetica-Oblique findfont
dup length dict begin
  {1 index /FID ne {def} {pop pop} ifelse} forall
  /Encoding WinAnsiEncoding def
  currentdict
end
/Helvetica-Oblique exch definefont pop
/Helvetica-Bold findfont
dup length dict begin
  {1 index /FID ne {def} {pop pop} ifelse} forall
  /Encoding WinAnsiEncoding def
  currentdict
end
/Helvetica-Bold exch definefont pop
/Helvetica-BoldOblique findfont
dup length dict begin
  {1 index /FID ne {def} {pop pop} ifelse} forall
  /Encoding WinAnsiEncoding def
  currentdict
end
/Helvetica-BoldOblique exch definefont pop
/Times-Roman findfont
dup length dict begin
  {1 index /FID ne {def} {pop pop} ifelse} forall
  /Encoding WinAnsiEncoding def
  currentdict
end
/Times-Roman exch definefont pop
/Times-Italic findfont
dup length dict begin
  {1 index /FID ne {def} {pop pop} ifelse} forall
  /Encoding WinAnsiEncoding def
  currentdict
end
/Times-Italic exch definefont pop
/Times-Bold findfont
dup length dict begin
  {1 index /FID ne {def} {pop pop} ifelse} forall
  /Encoding WinAnsiEncoding def
  currentdict
end
/Times-Bold exch definefont pop
/Times-BoldItalic findfont
dup length dict begin
  {1 index /FID ne {def} {pop pop} ifelse} forall
  /Encoding WinAnsiEncoding def
  currentdict
end
/Times-BoldItalic exch definefont pop
/Courier findfont
dup length dict begin
  {1 index /FID ne {def} {pop pop} ifelse} forall
  /Encoding WinAnsiEncoding def
  currentdict
end
/Courier exch definefont pop
%FOPEndFontReencode
%%EndProlog
%%Page: 1 1
%%PageBoundingBox: 0 0 424 318
%%BeginPageSetup
[1 0 0 -1 0 318] CT
%%EndPageSetup
GS
[0.75789 0 0 0.75789 0 -0.31577] CT
N
0 0 M
560 0 L
560 420 L
0 420 L
0 0 L
cp
clip
1 GC
N
0 0 560 420 re
f
GR
GS
[0.75789 0 0 0.75789 0 -0.31577] CT
1 GC
N
0 0 560 420 re
f
GR
GS
[0.75789 0 0 0.75789 0 -0.31577] CT
1 GC
N
73 365 M
507 365 L
507 31 L
73 31 L
cp
f
GR
GS
[0.75789 0 0 0.75789 0 -0.31577] CT
0.873 GC
1 LJ
0.66 LW
N
73 365 M
73 31 L
S
GR
GS
[0.75789 0 0 0.75789 0 -0.31577] CT
0.873 GC
1 LJ
0.66 LW
N
156.044 365 M
156.044 31 L
S
GR
GS
[0.75789 0 0 0.75789 0 -0.31577] CT
0.873 GC
1 LJ
0.66 LW
N
239.088 365 M
239.088 31 L
S
GR
GS
[0.75789 0 0 0.75789 0 -0.31577] CT
0.873 GC
1 LJ
0.66 LW
N
322.132 365 M
322.132 31 L
S
GR
GS
[0.75789 0 0 0.75789 0 -0.31577] CT
0.873 GC
1 LJ
0.66 LW
N
405.176 365 M
405.176 31 L
S
GR
GS
[0.75789 0 0 0.75789 0 -0.31577] CT
0.873 GC
1 LJ
0.66 LW
N
488.22 365 M
488.22 31 L
S
GR
GS
[0.75789 0 0 0.75789 0 -0.31577] CT
0.873 GC
1 LJ
0.66 LW
N
507 365 M
73 365 L
S
GR
GS
[0.75789 0 0 0.75789 0 -0.31577] CT
0.873 GC
1 LJ
0.66 LW
N
507 309.333 M
73 309.333 L
S
GR
GS
[0.75789 0 0 0.75789 0 -0.31577] CT
0.873 GC
1 LJ
0.66 LW
N
507 253.667 M
73 253.667 L
S
GR
GS
[0.75789 0 0 0.75789 0 -0.31577] CT
0.873 GC
1 LJ
0.66 LW
N
507 198 M
73 198 L
S
GR
GS
[0.75789 0 0 0.75789 0 -0.31577] CT
0.873 GC
1 LJ
0.66 LW
N
507 142.333 M
73 142.333 L
S
GR
GS
[0.75789 0 0 0.75789 0 -0.31577] CT
0.873 GC
1 LJ
0.66 LW
N
507 86.667 M
73 86.667 L
S
GR
GS
[0.75789 0 0 0.75789 0 -0.31577] CT
0.873 GC
1 LJ
0.66 LW
N
507 31 M
73 31 L
S
GR
GS
[0.75789 0 0 0.75789 0 -0.31577] CT
0.149 GC
2 setlinecap
1 LJ
0.66 LW
N
73 365 M
507 365 L
S
GR
GS
[0.75789 0 0 0.75789 0 -0.31577] CT
0.149 GC
2 setlinecap
1 LJ
0.66 LW
N
73 365 M
73 360.66 L
S
GR
GS
[0.75789 0 0 0.75789 0 -0.31577] CT
0.149 GC
2 setlinecap
1 LJ
0.66 LW
N
156.044 365 M
156.044 360.66 L
S
GR
GS
[0.75789 0 0 0.75789 0 -0.31577] CT
0.149 GC
2 setlinecap
1 LJ
0.66 LW
N
239.088 365 M
239.088 360.66 L
S
GR
GS
[0.75789 0 0 0.75789 0 -0.31577] CT
0.149 GC
2 setlinecap
1 LJ
0.66 LW
N
322.132 365 M
322.132 360.66 L
S
GR
GS
[0.75789 0 0 0.75789 0 -0.31577] CT
0.149 GC
2 setlinecap
1 LJ
0.66 LW
N
405.176 365 M
405.176 360.66 L
S
GR
GS
[0.75789 0 0 0.75789 0 -0.31577] CT
0.149 GC
2 setlinecap
1 LJ
0.66 LW
N
488.22 365 M
488.22 360.66 L
S
GR
GS
[0.75789 0 0 0.75789 55.32632 281.1158] CT
0.149 GC
/Helvetica 18.472 F
GS
[1 0 0 1 0 0] CT
-6 18 moveto 
1 -1 scale
(0) t 
GR
GR
GS
[0.75789 0 0 0.75789 118.26498 281.1158] CT
0.149 GC
/Helvetica 18.472 F
GS
[1 0 0 1 0 0] CT
-15 18 moveto 
1 -1 scale
(0.1) t 
GR
GR
GS
[0.75789 0 0 0.75789 181.20364 281.1158] CT
0.149 GC
/Helvetica 18.472 F
GS
[1 0 0 1 0 0] CT
-15 18 moveto 
1 -1 scale
(0.2) t 
GR
GR
GS
[0.75789 0 0 0.75789 244.1423 281.1158] CT
0.149 GC
/Helvetica 18.472 F
GS
[1 0 0 1 0 0] CT
-15 18 moveto 
1 -1 scale
(0.3) t 
GR
GR
GS
[0.75789 0 0 0.75789 307.08096 281.1158] CT
0.149 GC
/Helvetica 18.472 F
GS
[1 0 0 1 0 0] CT
-15 18 moveto 
1 -1 scale
(0.4) t 
GR
GR
GS
[0.75789 0 0 0.75789 370.01962 281.1158] CT
0.149 GC
/Helvetica 18.472 F
GS
[1 0 0 1 0 0] CT
-15 18 moveto 
1 -1 scale
(0.5) t 
GR
GR
GS
[0.75789 0 0 0.75789 219.78963 299.54736] CT
0.149 GC
/Helvetica 20.319 F
GS
[1 0 0 1 0 0] CT
-17.5 19 moveto 
1 -1 scale
(t\(s\)) t 
GR
GR
GS
[0.75789 0 0 0.75789 0 -0.31577] CT
0.149 GC
2 setlinecap
1 LJ
0.66 LW
N
73 365 M
73 31 L
S
GR
GS
[0.75789 0 0 0.75789 0 -0.31577] CT
0.149 GC
2 setlinecap
1 LJ
0.66 LW
N
73 365 M
77.34 365 L
S
GR
GS
[0.75789 0 0 0.75789 0 -0.31577] CT
0.149 GC
2 setlinecap
1 LJ
0.66 LW
N
73 309.333 M
77.34 309.333 L
S
GR
GS
[0.75789 0 0 0.75789 0 -0.31577] CT
0.149 GC
2 setlinecap
1 LJ
0.66 LW
N
73 253.667 M
77.34 253.667 L
S
GR
GS
[0.75789 0 0 0.75789 0 -0.31577] CT
0.149 GC
2 setlinecap
1 LJ
0.66 LW
N
73 198 M
77.34 198 L
S
GR
GS
[0.75789 0 0 0.75789 0 -0.31577] CT
0.149 GC
2 setlinecap
1 LJ
0.66 LW
N
73 142.333 M
77.34 142.333 L
S
GR
GS
[0.75789 0 0 0.75789 0 -0.31577] CT
0.149 GC
2 setlinecap
1 LJ
0.66 LW
N
73 86.667 M
77.34 86.667 L
S
GR
GS
[0.75789 0 0 0.75789 0 -0.31577] CT
0.149 GC
2 setlinecap
1 LJ
0.66 LW
N
73 31 M
77.34 31 L
S
GR
GS
[0.75789 0 0 0.75789 50.52631 276.31579] CT
0.149 GC
/Helvetica 18.472 F
GS
[1 0 0 1 0 0] CT
-19 6.5 moveto 
1 -1 scale
(-2) t 
GR
GR
GS
[0.75789 0 0 0.75789 50.52631 234.12633] CT
0.149 GC
/Helvetica 18.472 F
GS
[1 0 0 1 0 0] CT
-12 6.5 moveto 
1 -1 scale
(0) t 
GR
GR
GS
[0.75789 0 0 0.75789 50.52631 191.93686] CT
0.149 GC
/Helvetica 18.472 F
GS
[1 0 0 1 0 0] CT
-12 6.5 moveto 
1 -1 scale
(2) t 
GR
GR
GS
[0.75789 0 0 0.75789 50.52631 149.74738] CT
0.149 GC
/Helvetica 18.472 F
GS
[1 0 0 1 0 0] CT
-12 6.5 moveto 
1 -1 scale
(4) t 
GR
GR
GS
[0.75789 0 0 0.75789 50.52631 107.55791] CT
0.149 GC
/Helvetica 18.472 F
GS
[1 0 0 1 0 0] CT
-12 6.5 moveto 
1 -1 scale
(6) t 
GR
GR
GS
[0.75789 0 0 0.75789 50.52631 65.36844] CT
0.149 GC
/Helvetica 18.472 F
GS
[1 0 0 1 0 0] CT
-12 6.5 moveto 
1 -1 scale
(8) t 
GR
GR
GS
[0.75789 0 0 0.75789 50.52631 23.17897] CT
0.149 GC
/Helvetica 18.472 F
GS
[1 0 0 1 0 0] CT
-24 6.5 moveto 
1 -1 scale
(10) t 
GR
GR
GS
[0 -0.75789 0.75789 0 25.76842 177.78948] CT
0.149 GC
N
3.109 -0.297 M
3.109 -0.438 3.141 -0.516 QT
5.25 -7.391 L
3.438 -7.391 L
2.703 -7.391 2.07 -6.93 QT
1.438 -6.469 1.016 -5.766 QT
0.984 -5.688 0.906 -5.688 QT
0.672 -5.688 L
0.484 -5.688 0.484 -5.875 QT
0.484 -5.922 0.516 -6 QT
1.172 -7.109 1.922 -7.867 QT
2.672 -8.625 3.609 -8.625 QT
9.734 -8.625 L
9.953 -8.625 10.102 -8.477 QT
10.25 -8.328 10.25 -8.109 QT
10.25 -7.828 10.039 -7.609 QT
9.828 -7.391 9.516 -7.391 QT
5.906 -7.391 L
4.563 -0.484 L
4.484 -0.156 4.266 0.055 QT
4.047 0.266 3.719 0.266 QT
3.469 0.266 3.289 0.102 QT
3.109 -0.063 3.109 -0.297 QT
cp
f
GR
GS
[0 -0.75789 0.75789 0 25.76842 170.96843] CT
0.149 GC
/Helvetica 20.319 F
GS
[1 0 0 1 0 0] CT
0 0 moveto 
1 -1 scale
( \(N/m\)) t 
GR
GR
GS
[0.75789 0 0 0.75789 219.78968 20.26107] CT
/Helvetica-Bold 20.319 F
GS
[1 0 0 1 0 0] CT
-90.5 -5 moveto 
1 -1 scale
(Pares deseados) t 
GR
GR
GS
[0.75789 0 0 0.75789 0 -0.31577] CT
0 0.447 0.741 RC
1 LJ
2.639 LW
N
73 309.333 M
73 309.333 L
73.001 309.333 L
73.007 309.333 L
73.033 309.333 L
73.168 309.333 L
73.838 309.333 L
76.322 309.333 L
79.644 309.333 L
82.965 309.333 L
86.287 309.333 L
89.609 309.333 L
91.563 309.333 L
92.524 309.333 L
92.931 309.333 L
93.295 309.333 L
95.117 309.333 L
96.252 309.333 L
98.424 309.333 L
99.574 309.333 L
100.504 309.333 L
102.896 309.333 L
106.218 309.333 L
108.906 309.333 L
109.539 309.333 L
112.861 309.333 L
116.183 309.333 L
119.505 309.333 L
122.826 309.333 L
126.148 309.333 L
129.47 309.333 L
132.792 309.333 L
136.113 309.333 L
139.435 309.333 L
142.757 309.333 L
146.079 309.333 L
149.401 309.333 L
152.722 309.333 L
156.044 309.333 L
156.044 309.333 L
156.044 309.333 L
157.354 309.333 L
157.596 309.333 L
157.674 309.333 L
157.751 309.333 L
157.813 309.333 L
158.123 309.333 L
159.366 309.333 L
162.688 309.333 L
166.009 309.333 L
169.331 309.333 L
172.653 309.333 L
175.975 309.333 L
179.296 309.333 L
182.618 309.333 L
185.94 309.333 L
189.262 309.333 L
192.583 309.333 L
195.905 309.333 L
199.227 309.333 L
202.549 309.333 L
205.87 309.333 L
209.192 309.333 L
212.514 309.333 L
215.836 309.333 L
219.158 309.333 L
222.479 309.333 L
225.801 309.333 L
229.123 309.333 L
232.445 309.333 L
235.766 309.333 L
239.088 309.333 L
242.41 309.333 L
245.732 309.333 L
249.053 309.333 L
252.375 309.333 L
255.697 309.333 L
259.019 309.333 L
262.34 309.333 L
265.662 309.333 L
268.984 309.333 L
272.306 309.333 L
275.628 309.333 L
278.949 309.333 L
282.271 309.333 L
285.593 309.333 L
288.915 309.333 L
292.236 309.333 L
295.558 309.333 L
298.88 309.333 L
302.202 309.333 L
305.523 309.333 L
308.845 309.333 L
312.167 309.333 L
315.489 309.333 L
318.81 309.333 L
322.132 309.333 L
325.454 309.333 L
328.776 309.333 L
332.098 309.333 L
335.419 309.333 L
338.741 309.333 L
342.063 309.333 L
345.385 309.333 L
348.706 309.333 L
352.028 309.333 L
355.35 309.333 L
358.672 309.333 L
361.993 309.333 L
365.315 309.333 L
368.637 309.333 L
371.959 309.333 L
375.28 309.333 L
378.602 309.333 L
381.924 309.333 L
385.246 309.333 L
388.567 309.333 L
391.889 309.333 L
395.211 309.333 L
398.533 309.333 L
401.854 309.333 L
405.176 309.333 L
408.498 309.333 L
411.82 309.333 L
415.142 309.333 L
418.463 309.333 L
421.785 309.333 L
425.107 309.333 L
428.429 309.333 L
431.75 309.333 L
435.072 309.333 L
438.394 309.333 L
441.716 309.333 L
445.037 309.333 L
448.359 309.333 L
451.681 309.333 L
455.003 309.333 L
458.324 309.333 L
461.646 309.333 L
464.968 309.333 L
468.29 309.333 L
471.612 309.333 L
474.933 309.333 L
478.255 309.333 L
481.577 309.333 L
484.899 309.333 L
488.22 309.333 L
491.542 309.333 L
494.864 309.333 L
498.186 309.333 L
501.507 309.333 L
504.829 309.333 L
507.052 309.333 L
S
GR
GS
[0.75789 0 0 0.75789 0 -0.31577] CT
0.851 0.325 0.098 RC
1 LJ
2.639 LW
N
73 309.333 M
73 309.333 L
73.001 309.333 L
73.007 309.333 L
73.033 309.333 L
73.168 309.333 L
73.838 309.333 L
76.322 309.333 L
79.644 309.333 L
82.965 309.333 L
86.287 309.333 L
89.609 309.333 L
91.563 309.333 L
92.524 309.333 L
92.931 309.333 L
93.295 309.333 L
95.117 309.333 L
96.252 309.333 L
98.424 309.333 L
99.574 309.333 L
100.504 309.333 L
102.896 309.333 L
106.218 309.333 L
108.906 309.333 L
109.539 309.333 L
112.861 309.333 L
116.183 309.333 L
119.505 309.333 L
122.826 309.333 L
126.148 309.333 L
129.47 309.333 L
132.792 309.333 L
136.113 309.333 L
139.435 309.333 L
142.757 309.333 L
146.079 309.333 L
149.401 309.333 L
152.722 309.333 L
156.044 309.333 L
156.044 309.333 L
156.044 309.333 L
157.354 309.333 L
157.596 309.333 L
157.674 309.333 L
157.751 68.967 L
157.813 68.967 L
158.123 68.967 L
159.366 68.967 L
162.688 69.951 L
166.009 77.057 L
169.331 90.525 L
172.653 108.419 L
175.975 127.826 L
179.296 146.683 L
182.618 164.188 L
185.94 180.396 L
189.262 195.705 L
192.583 210.527 L
195.905 225.148 L
199.227 239.721 L
202.549 254.293 L
205.87 268.725 L
209.192 282.288 L
212.514 294.039 L
215.836 303.074 L
219.158 308.824 L
222.479 311.233 L
225.801 310.794 L
229.123 308.437 L
232.445 305.289 L
235.766 302.403 L
239.088 300.541 L
242.41 300.067 L
245.732 300.945 L
249.053 302.833 L
252.375 305.225 L
255.697 307.588 L
259.019 309.493 L
262.34 310.683 L
265.662 311.095 L
268.984 310.837 L
272.306 310.133 L
275.628 309.253 L
278.949 308.443 L
282.271 307.884 L
285.593 307.662 L
288.915 307.771 L
292.236 308.133 L
295.558 308.63 L
298.88 309.135 L
302.202 309.547 L
305.523 309.8 L
308.845 309.878 L
312.167 309.803 L
315.489 309.625 L
318.81 309.406 L
322.132 309.202 L
325.454 309.058 L
328.776 308.993 L
332.098 309.007 L
335.419 309.082 L
338.741 309.191 L
342.063 309.305 L
345.385 309.398 L
348.706 309.456 L
352.028 309.473 L
355.35 309.455 L
358.672 309.413 L
361.993 309.361 L
365.315 309.312 L
368.637 309.276 L
371.959 309.259 L
375.28 309.261 L
378.602 309.277 L
381.924 309.302 L
385.246 309.328 L
388.567 309.349 L
391.889 309.363 L
395.211 309.367 L
398.533 309.363 L
401.854 309.353 L
405.176 309.341 L
408.498 309.329 L
411.82 309.321 L
415.142 309.317 L
418.463 309.317 L
421.785 309.32 L
425.107 309.326 L
428.429 309.332 L
431.75 309.337 L
435.072 309.34 L
438.394 309.341 L
441.716 309.34 L
445.037 309.338 L
448.359 309.335 L
451.681 309.333 L
455.003 309.331 L
458.324 309.33 L
461.646 309.329 L
464.968 309.33 L
468.29 309.332 L
471.612 309.333 L
474.933 309.334 L
478.255 309.335 L
481.577 309.335 L
484.899 309.335 L
488.22 309.335 L
491.542 309.334 L
494.864 309.333 L
498.186 309.333 L
501.507 309.332 L
504.829 309.332 L
507.052 309.333 L
S
GR
GS
[0.75789 0 0 0.75789 0 -0.31577] CT
0.929 0.694 0.125 RC
1 LJ
2.639 LW
N
73 309.333 M
73 309.333 L
73.001 309.333 L
73.007 309.333 L
73.033 309.333 L
73.168 309.333 L
73.838 309.333 L
76.322 309.333 L
79.644 309.333 L
82.965 309.333 L
86.287 309.333 L
89.609 309.333 L
91.563 309.333 L
92.524 309.333 L
92.931 309.333 L
93.295 309.333 L
95.117 309.333 L
96.252 309.333 L
98.424 309.333 L
99.574 309.333 L
100.504 309.333 L
102.896 309.333 L
106.218 309.333 L
108.906 309.333 L
109.539 309.333 L
112.861 309.333 L
116.183 309.333 L
119.505 309.333 L
122.826 309.333 L
126.148 309.333 L
129.47 309.333 L
132.792 309.333 L
136.113 309.333 L
139.435 309.333 L
142.757 309.333 L
146.079 309.333 L
149.401 309.333 L
152.722 309.333 L
156.044 309.333 L
156.044 309.333 L
156.044 309.333 L
157.354 309.333 L
157.596 309.333 L
157.674 309.333 L
157.751 309.333 L
157.813 309.333 L
158.123 309.333 L
159.366 309.333 L
162.688 309.333 L
166.009 309.333 L
169.331 309.333 L
172.653 309.333 L
175.975 309.333 L
179.296 309.333 L
182.618 309.333 L
185.94 309.333 L
189.262 309.333 L
192.583 309.333 L
195.905 309.333 L
199.227 309.333 L
202.549 309.333 L
205.87 309.333 L
209.192 309.333 L
212.514 309.333 L
215.836 309.333 L
219.158 309.333 L
222.479 309.333 L
225.801 309.333 L
229.123 309.333 L
232.445 309.333 L
235.766 309.333 L
239.088 309.333 L
242.41 309.333 L
245.732 309.333 L
249.053 309.333 L
252.375 309.333 L
255.697 309.333 L
259.019 309.333 L
262.34 309.333 L
265.662 309.333 L
268.984 309.333 L
272.306 309.333 L
275.628 309.333 L
278.949 309.333 L
282.271 309.333 L
285.593 309.333 L
288.915 309.333 L
292.236 309.333 L
295.558 309.333 L
298.88 309.333 L
302.202 309.333 L
305.523 309.333 L
308.845 309.333 L
312.167 309.333 L
315.489 309.333 L
318.81 309.333 L
322.132 309.333 L
325.454 309.333 L
328.776 309.333 L
332.098 309.333 L
335.419 309.333 L
338.741 309.333 L
342.063 309.333 L
345.385 309.333 L
348.706 309.333 L
352.028 309.333 L
355.35 309.333 L
358.672 309.333 L
361.993 309.333 L
365.315 309.333 L
368.637 309.333 L
371.959 309.333 L
375.28 309.333 L
378.602 309.333 L
381.924 309.333 L
385.246 309.333 L
388.567 309.333 L
391.889 309.333 L
395.211 309.333 L
398.533 309.333 L
401.854 309.333 L
405.176 309.333 L
408.498 309.333 L
411.82 309.333 L
415.142 309.333 L
418.463 309.333 L
421.785 309.333 L
425.107 309.333 L
428.429 309.333 L
431.75 309.333 L
435.072 309.333 L
438.394 309.333 L
441.716 309.333 L
445.037 309.333 L
448.359 309.333 L
451.681 309.333 L
455.003 309.333 L
458.324 309.333 L
461.646 309.333 L
464.968 309.333 L
468.29 309.333 L
471.612 309.333 L
474.933 309.333 L
478.255 309.333 L
481.577 309.333 L
484.899 309.333 L
488.22 309.333 L
491.542 309.333 L
494.864 309.333 L
498.186 309.333 L
501.507 309.333 L
504.829 309.333 L
507.052 309.333 L
S
GR
GS
[0.75789 0 0 0.75789 0 -0.31577] CT
1 GC
N
496 107 M
496 42 L
436 42 L
436 107 L
cp
f
GR
GS
[0.75789 0 0 0.75789 365.40742 40.61055] CT
/Helvetica 16.625 F
GS
[1 0 0 1 0 0] CT
0 6 moveto 
1 -1 scale
(x) t 
GR
GR
GS
[0.75789 0 0 0.75789 0 -0.31577] CT
0 0.447 0.741 RC
1 LJ
2.639 LW
N
439.961 54 M
479.164 54 L
S
GR
GS
[0.75789 0 0 0.75789 365.40742 56.14739] CT
/Helvetica 16.625 F
GS
[1 0 0 1 0 0] CT
0 6 moveto 
1 -1 scale
(y) t 
GR
GR
GS
[0.75789 0 0 0.75789 0 -0.31577] CT
0.851 0.325 0.098 RC
1 LJ
2.639 LW
N
439.961 74.5 M
479.164 74.5 L
S
GR
GS
[0.75789 0 0 0.75789 365.40742 71.68423] CT
/Helvetica 16.625 F
GS
[1 0 0 1 0 0] CT
0 6 moveto 
1 -1 scale
(z) t 
GR
GR
GS
[0.75789 0 0 0.75789 0 -0.31577] CT
0.929 0.694 0.125 RC
1 LJ
2.639 LW
N
439.961 95 M
479.164 95 L
S
GR
GS
[0.75789 0 0 0.75789 0 -0.31577] CT
0.149 GC
10.0 ML
0.66 LW
N
436 107 M
436 42 L
496 42 L
496 107 L
cp
S
GR
%%Trailer
%%Pages: 1
%%EOF
