%!PS-Adobe-3.0 EPSF-3.0
%%Creator: (MATLAB, The Mathworks, Inc. Version 9.4.0.813654 \(R2018a\). Operating System: Linux)
%%Title: /home/isidro/google-drive/TFG/tilt-rotor-matlab/figuras/memoria/analitico/xd_2.eps
%%CreationDate: 2019-09-04T20:10:12
%%Pages: (atend)
%%BoundingBox: 0 0 420 315
%%LanguageLevel: 3
%%EndComments
%%BeginProlog
%%BeginResource: procset (Apache XML Graphics Std ProcSet) 1.2 0
%%Version: 1.2 0
%%Copyright: (Copyright 2001-2003,2010 The Apache Software Foundation. License terms: http://www.apache.org/licenses/LICENSE-2.0)
/bd{bind def}bind def
/ld{load def}bd
/GR/grestore ld
/GS/gsave ld
/RM/rmoveto ld
/C/curveto ld
/t/show ld
/L/lineto ld
/ML/setmiterlimit ld
/CT/concat ld
/f/fill ld
/N/newpath ld
/S/stroke ld
/CC/setcmykcolor ld
/A/ashow ld
/cp/closepath ld
/RC/setrgbcolor ld
/LJ/setlinejoin ld
/GC/setgray ld
/LW/setlinewidth ld
/M/moveto ld
/re {4 2 roll M
1 index 0 rlineto
0 exch rlineto
neg 0 rlineto
cp } bd
/_ctm matrix def
/_tm matrix def
/BT { _ctm currentmatrix pop matrix _tm copy pop 0 0 moveto } bd
/ET { _ctm setmatrix } bd
/iTm { _ctm setmatrix _tm concat } bd
/Tm { _tm astore pop iTm 0 0 moveto } bd
/ux 0.0 def
/uy 0.0 def
/F {
  /Tp exch def
  /Tf exch def
  Tf findfont Tp scalefont setfont
  /cf Tf def  /cs Tp def
} bd
/ULS {currentpoint /uy exch def /ux exch def} bd
/ULE {
  /Tcx currentpoint pop def
  gsave
  newpath
  cf findfont cs scalefont dup
  /FontMatrix get 0 get /Ts exch def /FontInfo get dup
  /UnderlinePosition get Ts mul /To exch def
  /UnderlineThickness get Ts mul /Tt exch def
  ux uy To add moveto  Tcx uy To add lineto
  Tt setlinewidth stroke
  grestore
} bd
/OLE {
  /Tcx currentpoint pop def
  gsave
  newpath
  cf findfont cs scalefont dup
  /FontMatrix get 0 get /Ts exch def /FontInfo get dup
  /UnderlinePosition get Ts mul /To exch def
  /UnderlineThickness get Ts mul /Tt exch def
  ux uy To add cs add moveto Tcx uy To add cs add lineto
  Tt setlinewidth stroke
  grestore
} bd
/SOE {
  /Tcx currentpoint pop def
  gsave
  newpath
  cf findfont cs scalefont dup
  /FontMatrix get 0 get /Ts exch def /FontInfo get dup
  /UnderlinePosition get Ts mul /To exch def
  /UnderlineThickness get Ts mul /Tt exch def
  ux uy To add cs 10 mul 26 idiv add moveto Tcx uy To add cs 10 mul 26 idiv add lineto
  Tt setlinewidth stroke
  grestore
} bd
/QT {
/Y22 exch store
/X22 exch store
/Y21 exch store
/X21 exch store
currentpoint
/Y21 load 2 mul add 3 div exch
/X21 load 2 mul add 3 div exch
/X21 load 2 mul /X22 load add 3 div
/Y21 load 2 mul /Y22 load add 3 div
/X22 load /Y22 load curveto
} bd
/SSPD {
dup length /d exch dict def
{
/v exch def
/k exch def
currentpagedevice k known {
/cpdv currentpagedevice k get def
v cpdv ne {
/upd false def
/nullv v type /nulltype eq def
/nullcpdv cpdv type /nulltype eq def
nullv nullcpdv or
{
/upd true def
} {
/sametype v type cpdv type eq def
sametype {
v type /arraytype eq {
/vlen v length def
/cpdvlen cpdv length def
vlen cpdvlen eq {
0 1 vlen 1 sub {
/i exch def
/obj v i get def
/cpdobj cpdv i get def
obj cpdobj ne {
/upd true def
exit
} if
} for
} {
/upd true def
} ifelse
} {
v type /dicttype eq {
v {
/dv exch def
/dk exch def
/cpddv cpdv dk get def
dv cpddv ne {
/upd true def
exit
} if
} forall
} {
/upd true def
} ifelse
} ifelse
} if
} ifelse
upd true eq {
d k v put
} if
} if
} if
} forall
d length 0 gt {
d setpagedevice
} if
} bd
/RE { % /NewFontName [NewEncodingArray] /FontName RE -
  findfont dup length dict begin
  {
    1 index /FID ne
    {def} {pop pop} ifelse
  } forall
  /Encoding exch def
  /FontName 1 index def
  currentdict definefont pop
  end
} bind def
%%EndResource
%%BeginResource: procset (Apache XML Graphics EPS ProcSet) 1.0 0
%%Version: 1.0 0
%%Copyright: (Copyright 2002-2003 The Apache Software Foundation. License terms: http://www.apache.org/licenses/LICENSE-2.0)
/BeginEPSF { %def
/b4_Inc_state save def         % Save state for cleanup
/dict_count countdictstack def % Count objects on dict stack
/op_count count 1 sub def      % Count objects on operand stack
userdict begin                 % Push userdict on dict stack
/showpage { } def              % Redefine showpage, { } = null proc
0 setgray 0 setlinecap         % Prepare graphics state
1 setlinewidth 0 setlinejoin
10 setmiterlimit [ ] 0 setdash newpath
/languagelevel where           % If level not equal to 1 then
{pop languagelevel             % set strokeadjust and
1 ne                           % overprint to their defaults.
{false setstrokeadjust false setoverprint
} if
} if
} bd
/EndEPSF { %def
count op_count sub {pop} repeat            % Clean up stacks
countdictstack dict_count sub {end} repeat
b4_Inc_state restore
} bd
%%EndResource
%FOPBeginFontDict
%%IncludeResource: font Courier-Oblique
%%IncludeResource: font Courier-BoldOblique
%%IncludeResource: font Courier-Bold
%%IncludeResource: font ZapfDingbats
%%IncludeResource: font Symbol
%%IncludeResource: font Helvetica
%%IncludeResource: font Helvetica-Oblique
%%IncludeResource: font Helvetica-Bold
%%IncludeResource: font Helvetica-BoldOblique
%%IncludeResource: font Times-Roman
%%IncludeResource: font Times-Italic
%%IncludeResource: font Times-Bold
%%IncludeResource: font Times-BoldItalic
%%IncludeResource: font Courier
%FOPEndFontDict
%%BeginResource: encoding WinAnsiEncoding
/WinAnsiEncoding [
/.notdef /.notdef /.notdef /.notdef /.notdef
/.notdef /.notdef /.notdef /.notdef /.notdef
/.notdef /.notdef /.notdef /.notdef /.notdef
/.notdef /.notdef /.notdef /.notdef /.notdef
/.notdef /.notdef /.notdef /.notdef /.notdef
/.notdef /.notdef /.notdef /.notdef /.notdef
/.notdef /.notdef /space /exclam /quotedbl
/numbersign /dollar /percent /ampersand /quotesingle
/parenleft /parenright /asterisk /plus /comma
/hyphen /period /slash /zero /one
/two /three /four /five /six
/seven /eight /nine /colon /semicolon
/less /equal /greater /question /at
/A /B /C /D /E
/F /G /H /I /J
/K /L /M /N /O
/P /Q /R /S /T
/U /V /W /X /Y
/Z /bracketleft /backslash /bracketright /asciicircum
/underscore /quoteleft /a /b /c
/d /e /f /g /h
/i /j /k /l /m
/n /o /p /q /r
/s /t /u /v /w
/x /y /z /braceleft /bar
/braceright /asciitilde /bullet /Euro /bullet
/quotesinglbase /florin /quotedblbase /ellipsis /dagger
/daggerdbl /circumflex /perthousand /Scaron /guilsinglleft
/OE /bullet /Zcaron /bullet /bullet
/quoteleft /quoteright /quotedblleft /quotedblright /bullet
/endash /emdash /asciitilde /trademark /scaron
/guilsinglright /oe /bullet /zcaron /Ydieresis
/space /exclamdown /cent /sterling /currency
/yen /brokenbar /section /dieresis /copyright
/ordfeminine /guillemotleft /logicalnot /sfthyphen /registered
/macron /degree /plusminus /twosuperior /threesuperior
/acute /mu /paragraph /middot /cedilla
/onesuperior /ordmasculine /guillemotright /onequarter /onehalf
/threequarters /questiondown /Agrave /Aacute /Acircumflex
/Atilde /Adieresis /Aring /AE /Ccedilla
/Egrave /Eacute /Ecircumflex /Edieresis /Igrave
/Iacute /Icircumflex /Idieresis /Eth /Ntilde
/Ograve /Oacute /Ocircumflex /Otilde /Odieresis
/multiply /Oslash /Ugrave /Uacute /Ucircumflex
/Udieresis /Yacute /Thorn /germandbls /agrave
/aacute /acircumflex /atilde /adieresis /aring
/ae /ccedilla /egrave /eacute /ecircumflex
/edieresis /igrave /iacute /icircumflex /idieresis
/eth /ntilde /ograve /oacute /ocircumflex
/otilde /odieresis /divide /oslash /ugrave
/uacute /ucircumflex /udieresis /yacute /thorn
/ydieresis
] def
%%EndResource
%FOPBeginFontReencode
/Courier-Oblique findfont
dup length dict begin
  {1 index /FID ne {def} {pop pop} ifelse} forall
  /Encoding WinAnsiEncoding def
  currentdict
end
/Courier-Oblique exch definefont pop
/Courier-BoldOblique findfont
dup length dict begin
  {1 index /FID ne {def} {pop pop} ifelse} forall
  /Encoding WinAnsiEncoding def
  currentdict
end
/Courier-BoldOblique exch definefont pop
/Courier-Bold findfont
dup length dict begin
  {1 index /FID ne {def} {pop pop} ifelse} forall
  /Encoding WinAnsiEncoding def
  currentdict
end
/Courier-Bold exch definefont pop
/Helvetica findfont
dup length dict begin
  {1 index /FID ne {def} {pop pop} ifelse} forall
  /Encoding WinAnsiEncoding def
  currentdict
end
/Helvetica exch definefont pop
/Helvetica-Oblique findfont
dup length dict begin
  {1 index /FID ne {def} {pop pop} ifelse} forall
  /Encoding WinAnsiEncoding def
  currentdict
end
/Helvetica-Oblique exch definefont pop
/Helvetica-Bold findfont
dup length dict begin
  {1 index /FID ne {def} {pop pop} ifelse} forall
  /Encoding WinAnsiEncoding def
  currentdict
end
/Helvetica-Bold exch definefont pop
/Helvetica-BoldOblique findfont
dup length dict begin
  {1 index /FID ne {def} {pop pop} ifelse} forall
  /Encoding WinAnsiEncoding def
  currentdict
end
/Helvetica-BoldOblique exch definefont pop
/Times-Roman findfont
dup length dict begin
  {1 index /FID ne {def} {pop pop} ifelse} forall
  /Encoding WinAnsiEncoding def
  currentdict
end
/Times-Roman exch definefont pop
/Times-Italic findfont
dup length dict begin
  {1 index /FID ne {def} {pop pop} ifelse} forall
  /Encoding WinAnsiEncoding def
  currentdict
end
/Times-Italic exch definefont pop
/Times-Bold findfont
dup length dict begin
  {1 index /FID ne {def} {pop pop} ifelse} forall
  /Encoding WinAnsiEncoding def
  currentdict
end
/Times-Bold exch definefont pop
/Times-BoldItalic findfont
dup length dict begin
  {1 index /FID ne {def} {pop pop} ifelse} forall
  /Encoding WinAnsiEncoding def
  currentdict
end
/Times-BoldItalic exch definefont pop
/Courier findfont
dup length dict begin
  {1 index /FID ne {def} {pop pop} ifelse} forall
  /Encoding WinAnsiEncoding def
  currentdict
end
/Courier exch definefont pop
%FOPEndFontReencode
%%EndProlog
%%Page: 1 1
%%PageBoundingBox: 0 0 420 315
%%BeginPageSetup
[1 0 0 -1 0 315] CT
%%EndPageSetup
GS
[0.75 0 0 0.75 0 0] CT
1 GC
N
0 0 560 420 re
f
GR
GS
[0.75 0 0 0.75 0 0] CT
1 GC
N
0 0 560 420 re
f
GR
GS
[0.75 0 0 0.75 0 0] CT
1 GC
N
73 364 M
507 364 L
507 31 L
73 31 L
cp
f
GR
GS
[0.75 0 0 0.75 0 0] CT
0.873 GC
1 LJ
0.667 LW
N
73 364 M
73 31 L
S
GR
GS
[0.75 0 0 0.75 0 0] CT
0.873 GC
1 LJ
0.667 LW
N
166.015 364 M
166.015 31 L
S
GR
GS
[0.75 0 0 0.75 0 0] CT
0.873 GC
1 LJ
0.667 LW
N
259.031 364 M
259.031 31 L
S
GR
GS
[0.75 0 0 0.75 0 0] CT
0.873 GC
1 LJ
0.667 LW
N
352.046 364 M
352.046 31 L
S
GR
GS
[0.75 0 0 0.75 0 0] CT
0.873 GC
1 LJ
0.667 LW
N
445.061 364 M
445.061 31 L
S
GR
GS
[0.75 0 0 0.75 0 0] CT
0.873 GC
1 LJ
0.667 LW
N
507 364 M
73 364 L
S
GR
GS
[0.75 0 0 0.75 0 0] CT
0.873 GC
1 LJ
0.667 LW
N
507 308.5 M
73 308.5 L
S
GR
GS
[0.75 0 0 0.75 0 0] CT
0.873 GC
1 LJ
0.667 LW
N
507 253 M
73 253 L
S
GR
GS
[0.75 0 0 0.75 0 0] CT
0.873 GC
1 LJ
0.667 LW
N
507 197.5 M
73 197.5 L
S
GR
GS
[0.75 0 0 0.75 0 0] CT
0.873 GC
1 LJ
0.667 LW
N
507 142 M
73 142 L
S
GR
GS
[0.75 0 0 0.75 0 0] CT
0.873 GC
1 LJ
0.667 LW
N
507 86.5 M
73 86.5 L
S
GR
GS
[0.75 0 0 0.75 0 0] CT
0.873 GC
1 LJ
0.667 LW
N
507 31 M
73 31 L
S
GR
GS
[0.75 0 0 0.75 0 0] CT
0.149 GC
2 setlinecap
1 LJ
0.667 LW
N
73 364 M
507 364 L
S
GR
GS
[0.75 0 0 0.75 0 0] CT
0.149 GC
2 setlinecap
1 LJ
0.667 LW
N
73 364 M
73 359.66 L
S
GR
GS
[0.75 0 0 0.75 0 0] CT
0.149 GC
2 setlinecap
1 LJ
0.667 LW
N
166.015 364 M
166.015 359.66 L
S
GR
GS
[0.75 0 0 0.75 0 0] CT
0.149 GC
2 setlinecap
1 LJ
0.667 LW
N
259.031 364 M
259.031 359.66 L
S
GR
GS
[0.75 0 0 0.75 0 0] CT
0.149 GC
2 setlinecap
1 LJ
0.667 LW
N
352.046 364 M
352.046 359.66 L
S
GR
GS
[0.75 0 0 0.75 0 0] CT
0.149 GC
2 setlinecap
1 LJ
0.667 LW
N
445.061 364 M
445.061 359.66 L
S
GR
GS
[0.75 0 0 0.75 54.75 277.8] CT
0.149 GC
/Helvetica 18.667 F
GS
[1 0 0 1 0 0] CT
-6 18 moveto 
1 -1 scale
(0) t 
GR
GR
GS
[0.75 0 0 0.75 124.51148 277.8] CT
0.149 GC
/Helvetica 18.667 F
GS
[1 0 0 1 0 0] CT
-15 18 moveto 
1 -1 scale
(0.2) t 
GR
GR
GS
[0.75 0 0 0.75 194.27296 277.8] CT
0.149 GC
/Helvetica 18.667 F
GS
[1 0 0 1 0 0] CT
-15 18 moveto 
1 -1 scale
(0.4) t 
GR
GR
GS
[0.75 0 0 0.75 264.03445 277.8] CT
0.149 GC
/Helvetica 18.667 F
GS
[1 0 0 1 0 0] CT
-15 18 moveto 
1 -1 scale
(0.6) t 
GR
GR
GS
[0.75 0 0 0.75 333.79594 277.8] CT
0.149 GC
/Helvetica 18.667 F
GS
[1 0 0 1 0 0] CT
-15 18 moveto 
1 -1 scale
(0.8) t 
GR
GR
GS
[0.75 0 0 0.75 217.50016 296.05] CT
0.149 GC
/Helvetica 20.533 F
GS
[1 0 0 1 0 0] CT
-21 20 moveto 
1 -1 scale
(t \(s\)) t 
GR
GR
GS
[0.75 0 0 0.75 0 0] CT
0.149 GC
2 setlinecap
1 LJ
0.667 LW
N
73 364 M
73 31 L
S
GR
GS
[0.75 0 0 0.75 0 0] CT
0.149 GC
2 setlinecap
1 LJ
0.667 LW
N
73 364 M
77.34 364 L
S
GR
GS
[0.75 0 0 0.75 0 0] CT
0.149 GC
2 setlinecap
1 LJ
0.667 LW
N
73 308.5 M
77.34 308.5 L
S
GR
GS
[0.75 0 0 0.75 0 0] CT
0.149 GC
2 setlinecap
1 LJ
0.667 LW
N
73 253 M
77.34 253 L
S
GR
GS
[0.75 0 0 0.75 0 0] CT
0.149 GC
2 setlinecap
1 LJ
0.667 LW
N
73 197.5 M
77.34 197.5 L
S
GR
GS
[0.75 0 0 0.75 0 0] CT
0.149 GC
2 setlinecap
1 LJ
0.667 LW
N
73 142 M
77.34 142 L
S
GR
GS
[0.75 0 0 0.75 0 0] CT
0.149 GC
2 setlinecap
1 LJ
0.667 LW
N
73 86.5 M
77.34 86.5 L
S
GR
GS
[0.75 0 0 0.75 0 0] CT
0.149 GC
2 setlinecap
1 LJ
0.667 LW
N
73 31 M
77.34 31 L
S
GR
GS
[0.75 0 0 0.75 49.95 273] CT
0.149 GC
/Helvetica 18.667 F
GS
[1 0 0 1 0 0] CT
-37 6.5 moveto 
1 -1 scale
(-2.5) t 
GR
GR
GS
[0.75 0 0 0.75 49.95 231.375] CT
0.149 GC
/Helvetica 18.667 F
GS
[1 0 0 1 0 0] CT
-19 6.5 moveto 
1 -1 scale
(-2) t 
GR
GR
GS
[0.75 0 0 0.75 49.95 189.75] CT
0.149 GC
/Helvetica 18.667 F
GS
[1 0 0 1 0 0] CT
-37 6.5 moveto 
1 -1 scale
(-1.5) t 
GR
GR
GS
[0.75 0 0 0.75 49.95 148.125] CT
0.149 GC
/Helvetica 18.667 F
GS
[1 0 0 1 0 0] CT
-19 6.5 moveto 
1 -1 scale
(-1) t 
GR
GR
GS
[0.75 0 0 0.75 49.95 106.5] CT
0.149 GC
/Helvetica 18.667 F
GS
[1 0 0 1 0 0] CT
-37 6.5 moveto 
1 -1 scale
(-0.5) t 
GR
GR
GS
[0.75 0 0 0.75 49.95 64.875] CT
0.149 GC
/Helvetica 18.667 F
GS
[1 0 0 1 0 0] CT
-12 6.5 moveto 
1 -1 scale
(0) t 
GR
GR
GS
[0.75 0 0 0.75 49.95 23.25] CT
0.149 GC
/Helvetica 18.667 F
GS
[1 0 0 1 0 0] CT
-30 6.5 moveto 
1 -1 scale
(0.5) t 
GR
GR
GS
[0 -0.75 0.75 0 19.2 148.12489] CT
0.149 GC
/Helvetica 20.533 F
GS
[1 0 0 1 0 0] CT
-37.5 -5 moveto 
1 -1 scale
(V \(m/s\)) t 
GR
GR
GS
[0.75 0 0 0.75 217.50021 20.3625] CT
/Helvetica-Bold 20.533 F
GS
[1 0 0 1 0 0] CT
-119.5 -5 moveto 
1 -1 scale
(Control de velocidad) t 
GR
GR
GS
[0.75 0 0 0.75 0 0] CT
0 0.447 0.741 RC
1 LJ
2.667 LW
N
73 86.5 M
73 86.5 L
73.001 86.5 L
73.004 86.5 L
73.019 86.5 L
73.094 86.5 L
73.469 86.5 L
74.86 86.5 L
76.721 86.5 L
78.581 86.5 L
80.441 86.5 L
82.302 86.5 L
83.396 86.5 L
83.934 86.5 L
84.162 86.5 L
84.366 86.5 L
85.386 86.5 L
86.022 86.5 L
87.238 86.5 L
87.882 86.5 L
88.403 86.5 L
89.743 86.5 L
91.603 86.5 L
93.109 86.5 L
93.463 86.5 L
95.324 86.5 L
97.184 86.5 L
99.044 86.5 L
100.905 86.5 L
102.765 86.5 L
104.625 86.5 L
106.486 86.5 L
108.346 86.5 L
110.206 86.5 L
112.066 86.5 L
113.927 86.5 L
115.787 86.5 L
117.647 86.5 L
119.508 86.5 L
119.508 86.5 L
119.508 86.5 L
121.368 86.5 L
123.228 86.5 L
125.089 86.5 L
126.949 86.5 L
128.809 86.5 L
130.669 86.5 L
132.53 86.5 L
134.39 86.5 L
136.25 86.5 L
138.111 86.5 L
139.971 86.5 L
141.831 86.5 L
143.692 86.5 L
145.552 86.5 L
147.412 86.5 L
149.273 86.5 L
151.133 86.5 L
152.993 86.5 L
154.853 86.5 L
156.714 86.5 L
158.574 86.5 L
160.434 86.5 L
162.295 86.5 L
164.155 86.5 L
166.015 86.5 L
167.876 86.5 L
169.736 86.5 L
171.596 86.5 L
173.457 86.5 L
175.317 86.5 L
177.177 86.5 L
179.037 86.5 L
180.898 86.5 L
182.758 86.5 L
184.618 86.5 L
186.479 86.5 L
188.339 86.5 L
190.199 86.5 L
192.06 86.5 L
193.92 86.5 L
195.78 86.5 L
197.641 86.5 L
199.501 86.5 L
201.361 86.5 L
203.221 86.5 L
205.082 86.5 L
206.942 86.5 L
208.802 86.5 L
210.663 86.5 L
212.523 86.5 L
214.383 86.5 L
216.026 86.5 L
216.244 86.5 L
217.333 86.5 L
218.104 86.5 L
218.907 86.5 L
219.964 86.5 L
221.824 86.5 L
223.404 86.5 L
223.685 86.5 L
225.089 86.5 L
225.545 86.5 L
226.064 86.5 L
227.405 86.5 L
229.266 86.5 L
230.905 86.5 L
231.126 86.5 L
232.233 86.5 L
232.986 86.5 L
233.879 86.5 L
234.847 86.5 L
236.707 86.5 L
238.567 86.5 L
240.428 86.5 L
242.288 86.5 L
244.148 86.5 L
246.008 86.5 L
247.869 86.5 L
249.729 86.5 L
251.589 86.5 L
253.45 86.5 L
255.31 86.5 L
257.17 86.5 L
259.031 86.5 L
260.891 86.5 L
262.751 86.5 L
264.612 86.5 L
266.472 86.5 L
268.332 86.5 L
270.192 86.5 L
272.053 86.5 L
273.913 86.5 L
275.773 86.5 L
277.634 86.5 L
279.494 86.5 L
281.354 86.5 L
283.215 86.5 L
285.075 86.5 L
286.935 86.5 L
288.796 86.5 L
290.656 86.5 L
292.516 86.5 L
294.376 86.5 L
296.237 86.5 L
298.097 86.5 L
299.957 86.5 L
301.818 86.5 L
303.678 86.5 L
305.538 86.5 L
307.399 86.5 L
309.259 86.5 L
311.119 86.5 L
312.979 86.5 L
314.84 86.5 L
316.7 86.5 L
318.56 86.5 L
320.421 86.5 L
322.281 86.5 L
324.141 86.5 L
326.002 86.5 L
327.862 86.5 L
329.722 86.5 L
331.583 86.5 L
333.443 86.5 L
335.303 86.5 L
337.163 86.5 L
339.024 86.5 L
340.884 86.5 L
342.744 86.5 L
344.605 86.5 L
346.465 86.5 L
348.325 86.5 L
350.186 86.5 L
352.046 86.5 L
353.906 86.5 L
355.767 86.5 L
357.627 86.5 L
359.487 86.5 L
361.347 86.5 L
363.208 86.5 L
365.068 86.5 L
366.928 86.5 L
368.789 86.5 L
370.649 86.5 L
372.509 86.5 L
374.37 86.5 L
376.23 86.5 L
378.09 86.5 L
379.951 86.5 L
381.811 86.5 L
383.671 86.5 L
385.531 86.5 L
387.392 86.5 L
389.252 86.5 L
391.112 86.5 L
392.973 86.5 L
394.833 86.5 L
396.693 86.5 L
398.554 86.5 L
400.414 86.5 L
402.274 86.5 L
404.134 86.5 L
405.995 86.5 L
407.855 86.5 L
409.715 86.5 L
411.576 86.5 L
413.436 86.5 L
415.296 86.5 L
417.157 86.5 L
419.017 86.5 L
420.877 86.5 L
422.738 86.5 L
424.598 86.5 L
426.458 86.5 L
428.318 86.5 L
430.179 86.5 L
432.039 86.5 L
433.899 86.5 L
435.76 86.5 L
437.62 86.5 L
439.48 86.5 L
441.341 86.5 L
443.201 86.5 L
445.061 86.5 L
446.922 86.5 L
448.782 86.5 L
450.642 86.5 L
452.502 86.5 L
454.363 86.5 L
456.223 86.5 L
458.083 86.5 L
459.944 86.5 L
461.804 86.5 L
463.664 86.5 L
465.525 86.5 L
467.385 86.5 L
469.245 86.5 L
471.106 86.5 L
472.966 86.5 L
474.826 86.5 L
476.686 86.5 L
478.547 86.5 L
480.407 86.5 L
482.267 86.5 L
484.128 86.5 L
485.988 86.5 L
487.848 86.5 L
489.709 86.5 L
491.569 86.5 L
493.429 86.5 L
495.289 86.5 L
497.15 86.5 L
499.01 86.5 L
500.87 86.5 L
502.731 86.5 L
504.591 86.5 L
506.451 86.5 L
507.052 86.5 L
S
GR
GS
[0.75 0 0 0.75 0 0] CT
0.851 0.325 0.098 RC
1 LJ
2.667 LW
N
73 86.5 M
73 86.5 L
73.001 86.5 L
73.004 86.5 L
73.019 86.5 L
73.094 86.5 L
73.469 86.5 L
74.86 86.5 L
76.721 86.5 L
78.581 86.5 L
80.441 86.5 L
82.302 86.5 L
83.396 86.5 L
83.934 86.5 L
84.162 86.5 L
84.366 86.5 L
85.386 86.5 L
86.022 86.5 L
87.238 86.5 L
87.882 86.5 L
88.403 86.5 L
89.743 86.5 L
91.603 86.5 L
93.109 86.5 L
93.463 86.5 L
95.324 86.5 L
97.184 86.5 L
99.044 86.5 L
100.905 86.5 L
102.765 86.5 L
104.625 86.5 L
106.486 86.5 L
108.346 86.5 L
110.206 86.5 L
112.066 86.5 L
113.927 86.5 L
115.787 86.5 L
117.647 86.5 L
119.508 86.5 L
119.508 86.5 L
119.508 86.5 L
121.368 86.5 L
123.228 86.5 L
125.089 86.5 L
126.949 86.5 L
128.809 86.5 L
130.669 86.5 L
132.53 86.5 L
134.39 86.5 L
136.25 86.5 L
138.111 86.5 L
139.971 86.5 L
141.831 86.5 L
143.692 86.5 L
145.552 86.5 L
147.412 86.5 L
149.273 86.5 L
151.133 86.5 L
152.993 86.5 L
154.853 86.5 L
156.714 86.5 L
158.574 86.5 L
160.434 86.5 L
162.295 86.5 L
164.155 86.5 L
166.015 86.5 L
167.876 86.5 L
169.736 86.5 L
171.596 86.5 L
173.457 86.5 L
175.317 86.5 L
177.177 86.5 L
179.037 86.5 L
180.898 86.5 L
182.758 86.5 L
184.618 86.5 L
186.479 86.5 L
188.339 86.5 L
190.199 86.5 L
192.06 86.5 L
193.92 86.5 L
195.78 86.5 L
197.641 86.5 L
199.501 86.5 L
201.361 86.5 L
203.221 86.5 L
205.082 86.5 L
206.942 86.5 L
208.802 86.5 L
210.663 86.5 L
212.523 86.5 L
214.383 86.5 L
216.026 86.5 L
216.244 86.5 L
217.333 86.5 L
218.104 86.5 L
218.907 86.5 L
219.964 86.5 L
221.824 86.5 L
223.404 86.5 L
223.685 86.5 L
225.089 86.5 L
225.545 86.5 L
226.064 86.5 L
227.405 86.5 L
229.266 86.5 L
230.905 86.5 L
231.126 86.5 L
232.233 86.5 L
232.986 86.5 L
233.879 86.5 L
234.847 86.5 L
236.707 86.5 L
238.567 86.5 L
240.428 86.5 L
242.288 86.5 L
244.148 86.5 L
246.008 86.5 L
247.869 86.5 L
249.729 86.5 L
251.589 86.5 L
253.45 86.5 L
255.31 86.5 L
257.17 86.5 L
259.031 86.5 L
260.891 86.5 L
262.751 86.5 L
264.612 86.5 L
266.472 86.5 L
268.332 86.5 L
270.192 86.5 L
272.053 86.5 L
273.913 86.5 L
275.773 86.5 L
277.634 86.5 L
279.494 86.5 L
281.354 86.5 L
283.215 86.5 L
285.075 86.5 L
286.935 86.5 L
288.796 86.5 L
290.656 86.5 L
292.516 86.5 L
294.376 86.5 L
296.237 86.5 L
298.097 86.5 L
299.957 86.5 L
301.818 86.5 L
303.678 86.5 L
305.538 86.5 L
307.399 86.5 L
309.259 86.5 L
311.119 86.5 L
312.979 86.5 L
314.84 86.5 L
316.7 86.5 L
318.56 86.5 L
320.421 86.5 L
322.281 86.5 L
324.141 86.5 L
326.002 86.5 L
327.862 86.5 L
329.722 86.5 L
331.583 86.5 L
333.443 86.5 L
335.303 86.5 L
337.163 86.5 L
339.024 86.5 L
340.884 86.5 L
342.744 86.5 L
344.605 86.5 L
346.465 86.5 L
348.325 86.5 L
350.186 86.5 L
352.046 86.5 L
353.906 86.5 L
355.767 86.5 L
357.627 86.5 L
359.487 86.5 L
361.347 86.5 L
363.208 86.5 L
365.068 86.5 L
366.928 86.5 L
368.789 86.5 L
370.649 86.5 L
372.509 86.5 L
374.37 86.5 L
376.23 86.5 L
378.09 86.5 L
379.951 86.5 L
381.811 86.5 L
383.671 86.5 L
385.531 86.5 L
387.392 86.5 L
389.252 86.5 L
391.112 86.5 L
392.973 86.5 L
394.833 86.5 L
396.693 86.5 L
398.554 86.5 L
400.414 86.5 L
402.274 86.5 L
404.134 86.5 L
405.995 86.5 L
407.855 86.5 L
409.715 86.5 L
411.576 86.5 L
413.436 86.5 L
415.296 86.5 L
417.157 86.5 L
419.017 86.5 L
420.877 86.5 L
422.738 86.5 L
424.598 86.5 L
426.458 86.5 L
428.318 86.5 L
430.179 86.5 L
432.039 86.5 L
433.899 86.5 L
435.76 86.5 L
437.62 86.5 L
439.48 86.5 L
441.341 86.5 L
443.201 86.5 L
445.061 86.5 L
446.922 86.5 L
448.782 86.5 L
450.642 86.5 L
452.502 86.5 L
454.363 86.5 L
456.223 86.5 L
458.083 86.5 L
459.944 86.5 L
461.804 86.5 L
463.664 86.5 L
465.525 86.5 L
467.385 86.5 L
469.245 86.5 L
471.106 86.5 L
472.966 86.5 L
474.826 86.5 L
476.686 86.5 L
478.547 86.5 L
480.407 86.5 L
482.267 86.5 L
484.128 86.5 L
485.988 86.5 L
487.848 86.5 L
489.709 86.5 L
491.569 86.5 L
493.429 86.5 L
495.289 86.5 L
497.15 86.5 L
499.01 86.5 L
500.87 86.5 L
502.731 86.5 L
504.591 86.5 L
506.451 86.5 L
507.052 86.5 L
S
GR
GS
[0.75 0 0 0.75 0 0] CT
0.929 0.694 0.125 RC
1 LJ
2.667 LW
N
73 86.5 M
73 86.5 L
73.001 86.498 L
73.004 86.491 L
73.019 86.456 L
73.094 86.281 L
73.469 85.406 L
74.86 82.323 L
76.721 78.86 L
78.581 76.242 L
80.441 74.354 L
82.302 73.028 L
83.396 72.448 L
83.934 72.206 L
84.162 72.112 L
84.366 72.034 L
85.386 71.774 L
86.022 71.709 L
87.238 71.758 L
87.882 71.863 L
88.403 71.996 L
89.743 72.547 L
91.603 73.706 L
93.109 74.943 L
93.463 75.269 L
95.324 77.148 L
97.184 79.244 L
99.044 81.484 L
100.905 83.742 L
102.765 85.966 L
104.625 88.024 L
106.486 89.894 L
108.346 91.461 L
110.206 92.732 L
112.066 93.627 L
113.927 94.179 L
115.787 94.349 L
117.647 94.189 L
119.508 93.705 L
119.508 93.705 L
119.508 93.705 L
121.368 93.803 L
123.228 95.144 L
125.089 97.407 L
126.949 100.325 L
128.809 103.702 L
130.669 107.393 L
132.53 111.299 L
134.39 115.351 L
136.25 119.501 L
138.111 123.716 L
139.971 127.977 L
141.831 132.267 L
143.692 136.577 L
145.552 140.901 L
147.412 145.234 L
149.273 149.573 L
151.133 153.916 L
152.993 158.261 L
154.853 162.609 L
156.714 166.958 L
158.574 171.307 L
160.434 175.657 L
162.295 180.008 L
164.155 184.358 L
166.015 188.709 L
167.876 193.06 L
169.736 197.411 L
171.596 201.762 L
173.457 206.114 L
175.317 210.465 L
177.177 214.816 L
179.037 219.167 L
180.898 223.518 L
182.758 227.869 L
184.618 232.221 L
186.479 236.572 L
188.339 240.923 L
190.199 245.274 L
192.06 249.625 L
193.92 253.977 L
195.78 258.328 L
197.641 262.679 L
199.501 267.03 L
201.361 271.381 L
203.221 275.733 L
205.082 280.084 L
206.942 284.435 L
208.802 288.786 L
210.663 293.137 L
212.523 297.426 L
214.383 301.642 L
216.026 305.068 L
216.244 305.495 L
217.333 307.559 L
218.104 308.956 L
218.907 310.298 L
219.964 311.872 L
221.824 314.238 L
223.404 315.712 L
223.685 315.921 L
225.089 316.786 L
225.545 317.011 L
226.064 317.216 L
227.405 317.481 L
229.266 317.381 L
230.905 316.831 L
231.126 316.726 L
232.233 316.116 L
232.986 315.632 L
233.879 314.982 L
234.847 314.19 L
236.707 312.482 L
238.567 310.62 L
240.428 308.677 L
242.288 306.772 L
244.148 304.953 L
246.008 303.324 L
247.869 301.908 L
249.729 300.786 L
251.589 299.958 L
253.45 299.472 L
255.31 299.306 L
257.17 299.474 L
259.031 299.936 L
260.891 300.672 L
262.751 301.635 L
264.612 302.773 L
266.472 304.043 L
268.332 305.373 L
270.192 306.729 L
272.053 308.032 L
273.913 309.263 L
275.773 310.348 L
277.634 311.286 L
279.494 312.017 L
281.354 312.557 L
283.215 312.871 L
285.075 312.984 L
286.935 312.889 L
288.796 312.616 L
290.656 312.182 L
292.516 311.62 L
294.376 310.962 L
296.237 310.236 L
298.097 309.485 L
299.957 308.731 L
301.818 308.017 L
303.678 307.354 L
305.538 306.781 L
307.399 306.3 L
309.259 305.94 L
311.119 305.693 L
312.979 305.576 L
314.84 305.573 L
316.7 305.688 L
318.56 305.902 L
320.421 306.204 L
322.281 306.576 L
324.141 306.998 L
326.002 307.453 L
327.862 307.916 L
329.722 308.375 L
331.583 308.803 L
333.443 309.196 L
335.303 309.529 L
337.163 309.802 L
339.024 310.001 L
340.884 310.129 L
342.744 310.179 L
344.605 310.161 L
346.465 310.074 L
348.325 309.93 L
350.186 309.737 L
352.046 309.506 L
353.906 309.251 L
355.767 308.979 L
357.627 308.707 L
359.487 308.441 L
361.347 308.198 L
363.208 307.978 L
365.068 307.796 L
366.928 307.65 L
368.789 307.55 L
370.649 307.491 L
372.509 307.478 L
374.37 307.505 L
376.23 307.57 L
378.09 307.668 L
379.951 307.793 L
381.811 307.938 L
383.671 308.095 L
385.531 308.26 L
387.392 308.422 L
389.252 308.578 L
391.112 308.719 L
392.973 308.844 L
394.833 308.946 L
396.693 309.024 L
398.554 309.076 L
400.414 309.102 L
402.274 309.101 L
404.134 309.077 L
405.995 309.031 L
407.855 308.966 L
409.715 308.887 L
411.576 308.798 L
413.436 308.703 L
415.296 308.605 L
417.157 308.51 L
419.017 308.419 L
420.877 308.339 L
422.738 308.269 L
424.598 308.214 L
426.458 308.172 L
428.318 308.148 L
430.179 308.138 L
432.039 308.144 L
433.899 308.163 L
435.76 308.195 L
437.62 308.236 L
439.48 308.286 L
441.341 308.341 L
443.201 308.399 L
445.061 308.457 L
446.922 308.513 L
448.782 308.565 L
450.642 308.611 L
452.502 308.65 L
454.363 308.68 L
456.223 308.701 L
458.083 308.713 L
459.944 308.715 L
461.804 308.709 L
463.664 308.695 L
465.525 308.673 L
467.385 308.647 L
469.245 308.616 L
471.106 308.582 L
472.966 308.548 L
474.826 308.513 L
476.686 308.481 L
478.547 308.451 L
480.407 308.425 L
482.267 308.403 L
484.128 308.387 L
485.988 308.377 L
487.848 308.372 L
489.709 308.372 L
491.569 308.378 L
493.429 308.388 L
495.289 308.402 L
497.15 308.419 L
499.01 308.438 L
500.87 308.458 L
502.731 308.479 L
504.591 308.499 L
506.451 308.518 L
507.052 308.524 L
S
GR
GS
[0.75 0 0 0.75 0 0] CT
0 0.447 0.741 RC
[8 8] 0 setdash
2 LJ
2.667 LW
N
73 86.5 M
73 86.5 L
73.001 86.5 L
73.004 86.5 L
73.019 86.5 L
73.094 86.5 L
73.469 86.5 L
74.86 86.5 L
76.721 86.5 L
78.581 86.5 L
80.441 86.5 L
82.302 86.5 L
83.396 86.5 L
83.934 86.5 L
84.162 86.5 L
84.366 86.5 L
85.386 86.5 L
86.022 86.5 L
87.238 86.5 L
87.882 86.5 L
88.403 86.5 L
89.743 86.5 L
91.603 86.5 L
93.109 86.5 L
93.463 86.5 L
95.324 86.5 L
97.184 86.5 L
99.044 86.5 L
100.905 86.5 L
102.765 86.5 L
104.625 86.5 L
106.486 86.5 L
108.346 86.5 L
110.206 86.5 L
112.066 86.5 L
113.927 86.5 L
115.787 86.5 L
117.647 86.5 L
119.508 86.5 L
119.508 86.5 L
119.508 86.5 L
121.368 86.5 L
123.228 86.5 L
125.089 86.5 L
126.949 86.5 L
128.809 86.5 L
130.669 86.5 L
132.53 86.5 L
134.39 86.5 L
136.25 86.5 L
138.111 86.5 L
139.971 86.5 L
141.831 86.5 L
143.692 86.5 L
145.552 86.5 L
147.412 86.5 L
149.273 86.5 L
151.133 86.5 L
152.993 86.5 L
154.853 86.5 L
156.714 86.5 L
158.574 86.5 L
160.434 86.5 L
162.295 86.5 L
164.155 86.5 L
166.015 86.5 L
167.876 86.5 L
169.736 86.5 L
171.596 86.5 L
173.457 86.5 L
175.317 86.5 L
177.177 86.5 L
179.037 86.5 L
180.898 86.5 L
182.758 86.5 L
184.618 86.5 L
186.479 86.5 L
188.339 86.5 L
190.199 86.5 L
192.06 86.5 L
193.92 86.5 L
195.78 86.5 L
197.641 86.5 L
199.501 86.5 L
201.361 86.5 L
203.221 86.5 L
205.082 86.5 L
206.942 86.5 L
208.802 86.5 L
210.663 86.5 L
212.523 86.5 L
214.383 86.5 L
216.026 86.5 L
216.244 86.5 L
217.333 86.5 L
218.104 86.5 L
218.907 86.5 L
219.964 86.5 L
221.824 86.5 L
223.404 86.5 L
223.685 86.5 L
225.089 86.5 L
225.545 86.5 L
226.064 86.5 L
227.405 86.5 L
229.266 86.5 L
230.905 86.5 L
231.126 86.5 L
232.233 86.5 L
232.986 86.5 L
233.879 86.5 L
234.847 86.5 L
236.707 86.5 L
238.567 86.5 L
240.428 86.5 L
242.288 86.5 L
244.148 86.5 L
246.008 86.5 L
247.869 86.5 L
249.729 86.5 L
251.589 86.5 L
253.45 86.5 L
255.31 86.5 L
257.17 86.5 L
259.031 86.5 L
260.891 86.5 L
262.751 86.5 L
264.612 86.5 L
266.472 86.5 L
268.332 86.5 L
270.192 86.5 L
272.053 86.5 L
273.913 86.5 L
275.773 86.5 L
277.634 86.5 L
279.494 86.5 L
281.354 86.5 L
283.215 86.5 L
285.075 86.5 L
286.935 86.5 L
288.796 86.5 L
290.656 86.5 L
292.516 86.5 L
294.376 86.5 L
296.237 86.5 L
298.097 86.5 L
299.957 86.5 L
301.818 86.5 L
303.678 86.5 L
305.538 86.5 L
307.399 86.5 L
309.259 86.5 L
311.119 86.5 L
312.979 86.5 L
314.84 86.5 L
316.7 86.5 L
318.56 86.5 L
320.421 86.5 L
322.281 86.5 L
324.141 86.5 L
326.002 86.5 L
327.862 86.5 L
329.722 86.5 L
331.583 86.5 L
333.443 86.5 L
335.303 86.5 L
337.163 86.5 L
339.024 86.5 L
340.884 86.5 L
342.744 86.5 L
344.605 86.5 L
346.465 86.5 L
348.325 86.5 L
350.186 86.5 L
352.046 86.5 L
353.906 86.5 L
355.767 86.5 L
357.627 86.5 L
359.487 86.5 L
361.347 86.5 L
363.208 86.5 L
365.068 86.5 L
366.928 86.5 L
368.789 86.5 L
370.649 86.5 L
372.509 86.5 L
374.37 86.5 L
376.23 86.5 L
378.09 86.5 L
379.951 86.5 L
381.811 86.5 L
383.671 86.5 L
385.531 86.5 L
387.392 86.5 L
389.252 86.5 L
391.112 86.5 L
392.973 86.5 L
394.833 86.5 L
396.693 86.5 L
398.554 86.5 L
400.414 86.5 L
402.274 86.5 L
404.134 86.5 L
405.995 86.5 L
407.855 86.5 L
409.715 86.5 L
411.576 86.5 L
413.436 86.5 L
415.296 86.5 L
417.157 86.5 L
419.017 86.5 L
420.877 86.5 L
422.738 86.5 L
424.598 86.5 L
426.458 86.5 L
428.318 86.5 L
430.179 86.5 L
432.039 86.5 L
433.899 86.5 L
435.76 86.5 L
437.62 86.5 L
439.48 86.5 L
441.341 86.5 L
443.201 86.5 L
445.061 86.5 L
446.922 86.5 L
448.782 86.5 L
450.642 86.5 L
452.502 86.5 L
454.363 86.5 L
456.223 86.5 L
458.083 86.5 L
459.944 86.5 L
461.804 86.5 L
463.664 86.5 L
465.525 86.5 L
467.385 86.5 L
469.245 86.5 L
471.106 86.5 L
472.966 86.5 L
474.826 86.5 L
476.686 86.5 L
478.547 86.5 L
480.407 86.5 L
482.267 86.5 L
484.128 86.5 L
485.988 86.5 L
487.848 86.5 L
489.709 86.5 L
491.569 86.5 L
493.429 86.5 L
495.289 86.5 L
497.15 86.5 L
499.01 86.5 L
500.87 86.5 L
502.731 86.5 L
504.591 86.5 L
506.451 86.5 L
507.052 86.5 L
S
GR
GS
[0.75 0 0 0.75 0 0] CT
0.851 0.325 0.098 RC
[8 8] 0 setdash
2 LJ
2.667 LW
N
73 86.5 M
73 86.5 L
73.001 86.5 L
73.004 86.5 L
73.019 86.5 L
73.094 86.5 L
73.469 86.5 L
74.86 86.5 L
76.721 86.5 L
78.581 86.5 L
80.441 86.5 L
82.302 86.5 L
83.396 86.5 L
83.934 86.5 L
84.162 86.5 L
84.366 86.5 L
85.386 86.5 L
86.022 86.5 L
87.238 86.5 L
87.882 86.5 L
88.403 86.5 L
89.743 86.5 L
91.603 86.5 L
93.109 86.5 L
93.463 86.5 L
95.324 86.5 L
97.184 86.5 L
99.044 86.5 L
100.905 86.5 L
102.765 86.5 L
104.625 86.5 L
106.486 86.5 L
108.346 86.5 L
110.206 86.5 L
112.066 86.5 L
113.927 86.5 L
115.787 86.5 L
117.647 86.5 L
119.508 86.5 L
119.508 86.5 L
119.508 86.5 L
121.368 86.5 L
123.228 86.5 L
125.089 86.5 L
126.949 86.5 L
128.809 86.5 L
130.669 86.5 L
132.53 86.5 L
134.39 86.5 L
136.25 86.5 L
138.111 86.5 L
139.971 86.5 L
141.831 86.5 L
143.692 86.5 L
145.552 86.5 L
147.412 86.5 L
149.273 86.5 L
151.133 86.5 L
152.993 86.5 L
154.853 86.5 L
156.714 86.5 L
158.574 86.5 L
160.434 86.5 L
162.295 86.5 L
164.155 86.5 L
166.015 86.5 L
167.876 86.5 L
169.736 86.5 L
171.596 86.5 L
173.457 86.5 L
175.317 86.5 L
177.177 86.5 L
179.037 86.5 L
180.898 86.5 L
182.758 86.5 L
184.618 86.5 L
186.479 86.5 L
188.339 86.5 L
190.199 86.5 L
192.06 86.5 L
193.92 86.5 L
195.78 86.5 L
197.641 86.5 L
199.501 86.5 L
201.361 86.5 L
203.221 86.5 L
205.082 86.5 L
206.942 86.5 L
208.802 86.5 L
210.663 86.5 L
212.523 86.5 L
214.383 86.5 L
216.026 86.5 L
216.244 86.5 L
217.333 86.5 L
218.104 86.5 L
218.907 86.5 L
219.964 86.5 L
221.824 86.5 L
223.404 86.5 L
223.685 86.5 L
225.089 86.5 L
225.545 86.5 L
226.064 86.5 L
227.405 86.5 L
229.266 86.5 L
230.905 86.5 L
231.126 86.5 L
232.233 86.5 L
232.986 86.5 L
233.879 86.5 L
234.847 86.5 L
236.707 86.5 L
238.567 86.5 L
240.428 86.5 L
242.288 86.5 L
244.148 86.5 L
246.008 86.5 L
247.869 86.5 L
249.729 86.5 L
251.589 86.5 L
253.45 86.5 L
255.31 86.5 L
257.17 86.5 L
259.031 86.5 L
260.891 86.5 L
262.751 86.5 L
264.612 86.5 L
266.472 86.5 L
268.332 86.5 L
270.192 86.5 L
272.053 86.5 L
273.913 86.5 L
275.773 86.5 L
277.634 86.5 L
279.494 86.5 L
281.354 86.5 L
283.215 86.5 L
285.075 86.5 L
286.935 86.5 L
288.796 86.5 L
290.656 86.5 L
292.516 86.5 L
294.376 86.5 L
296.237 86.5 L
298.097 86.5 L
299.957 86.5 L
301.818 86.5 L
303.678 86.5 L
305.538 86.5 L
307.399 86.5 L
309.259 86.5 L
311.119 86.5 L
312.979 86.5 L
314.84 86.5 L
316.7 86.5 L
318.56 86.5 L
320.421 86.5 L
322.281 86.5 L
324.141 86.5 L
326.002 86.5 L
327.862 86.5 L
329.722 86.5 L
331.583 86.5 L
333.443 86.5 L
335.303 86.5 L
337.163 86.5 L
339.024 86.5 L
340.884 86.5 L
342.744 86.5 L
344.605 86.5 L
346.465 86.5 L
348.325 86.5 L
350.186 86.5 L
352.046 86.5 L
353.906 86.5 L
355.767 86.5 L
357.627 86.5 L
359.487 86.5 L
361.347 86.5 L
363.208 86.5 L
365.068 86.5 L
366.928 86.5 L
368.789 86.5 L
370.649 86.5 L
372.509 86.5 L
374.37 86.5 L
376.23 86.5 L
378.09 86.5 L
379.951 86.5 L
381.811 86.5 L
383.671 86.5 L
385.531 86.5 L
387.392 86.5 L
389.252 86.5 L
391.112 86.5 L
392.973 86.5 L
394.833 86.5 L
396.693 86.5 L
398.554 86.5 L
400.414 86.5 L
402.274 86.5 L
404.134 86.5 L
405.995 86.5 L
407.855 86.5 L
409.715 86.5 L
411.576 86.5 L
413.436 86.5 L
415.296 86.5 L
417.157 86.5 L
419.017 86.5 L
420.877 86.5 L
422.738 86.5 L
424.598 86.5 L
426.458 86.5 L
428.318 86.5 L
430.179 86.5 L
432.039 86.5 L
433.899 86.5 L
435.76 86.5 L
437.62 86.5 L
439.48 86.5 L
441.341 86.5 L
443.201 86.5 L
445.061 86.5 L
446.922 86.5 L
448.782 86.5 L
450.642 86.5 L
452.502 86.5 L
454.363 86.5 L
456.223 86.5 L
458.083 86.5 L
459.944 86.5 L
461.804 86.5 L
463.664 86.5 L
465.525 86.5 L
467.385 86.5 L
469.245 86.5 L
471.106 86.5 L
472.966 86.5 L
474.826 86.5 L
476.686 86.5 L
478.547 86.5 L
480.407 86.5 L
482.267 86.5 L
484.128 86.5 L
485.988 86.5 L
487.848 86.5 L
489.709 86.5 L
491.569 86.5 L
493.429 86.5 L
495.289 86.5 L
497.15 86.5 L
499.01 86.5 L
500.87 86.5 L
502.731 86.5 L
504.591 86.5 L
506.451 86.5 L
507.052 86.5 L
S
GR
GS
[0.75 0 0 0.75 0 0] CT
0.929 0.694 0.125 RC
[8 8] 0 setdash
2 LJ
2.667 LW
N
73 86.5 M
73 86.5 L
73.001 86.5 L
73.004 86.5 L
73.019 86.5 L
73.094 86.5 L
73.469 86.5 L
74.86 86.5 L
76.721 86.5 L
78.581 86.5 L
80.441 86.5 L
82.302 86.5 L
83.396 86.5 L
83.934 86.5 L
84.162 86.5 L
84.366 86.5 L
85.386 86.5 L
86.022 86.5 L
87.238 86.5 L
87.882 86.5 L
88.403 86.5 L
89.743 86.5 L
91.603 86.5 L
93.109 86.5 L
93.463 86.5 L
95.324 86.5 L
97.184 86.5 L
99.044 86.5 L
100.905 86.5 L
102.765 86.5 L
104.625 86.5 L
106.486 86.5 L
108.346 86.5 L
110.206 86.5 L
112.066 86.5 L
113.927 86.5 L
115.787 86.5 L
117.647 86.5 L
119.508 86.5 L
119.508 308.5 L
119.508 308.5 L
121.368 308.5 L
123.228 308.5 L
125.089 308.5 L
126.949 308.5 L
128.809 308.5 L
130.669 308.5 L
132.53 308.5 L
134.39 308.5 L
136.25 308.5 L
138.111 308.5 L
139.971 308.5 L
141.831 308.5 L
143.692 308.5 L
145.552 308.5 L
147.412 308.5 L
149.273 308.5 L
151.133 308.5 L
152.993 308.5 L
154.853 308.5 L
156.714 308.5 L
158.574 308.5 L
160.434 308.5 L
162.295 308.5 L
164.155 308.5 L
166.015 308.5 L
167.876 308.5 L
169.736 308.5 L
171.596 308.5 L
173.457 308.5 L
175.317 308.5 L
177.177 308.5 L
179.037 308.5 L
180.898 308.5 L
182.758 308.5 L
184.618 308.5 L
186.479 308.5 L
188.339 308.5 L
190.199 308.5 L
192.06 308.5 L
193.92 308.5 L
195.78 308.5 L
197.641 308.5 L
199.501 308.5 L
201.361 308.5 L
203.221 308.5 L
205.082 308.5 L
206.942 308.5 L
208.802 308.5 L
210.663 308.5 L
212.523 308.5 L
214.383 308.5 L
216.026 308.5 L
216.244 308.5 L
217.333 308.5 L
218.104 308.5 L
218.907 308.5 L
219.964 308.5 L
221.824 308.5 L
223.404 308.5 L
223.685 308.5 L
225.089 308.5 L
225.545 308.5 L
226.064 308.5 L
227.405 308.5 L
229.266 308.5 L
230.905 308.5 L
231.126 308.5 L
232.233 308.5 L
232.986 308.5 L
233.879 308.5 L
234.847 308.5 L
236.707 308.5 L
238.567 308.5 L
240.428 308.5 L
242.288 308.5 L
244.148 308.5 L
246.008 308.5 L
247.869 308.5 L
249.729 308.5 L
251.589 308.5 L
253.45 308.5 L
255.31 308.5 L
257.17 308.5 L
259.031 308.5 L
260.891 308.5 L
262.751 308.5 L
264.612 308.5 L
266.472 308.5 L
268.332 308.5 L
270.192 308.5 L
272.053 308.5 L
273.913 308.5 L
275.773 308.5 L
277.634 308.5 L
279.494 308.5 L
281.354 308.5 L
283.215 308.5 L
285.075 308.5 L
286.935 308.5 L
288.796 308.5 L
290.656 308.5 L
292.516 308.5 L
294.376 308.5 L
296.237 308.5 L
298.097 308.5 L
299.957 308.5 L
301.818 308.5 L
303.678 308.5 L
305.538 308.5 L
307.399 308.5 L
309.259 308.5 L
311.119 308.5 L
312.979 308.5 L
314.84 308.5 L
316.7 308.5 L
318.56 308.5 L
320.421 308.5 L
322.281 308.5 L
324.141 308.5 L
326.002 308.5 L
327.862 308.5 L
329.722 308.5 L
331.583 308.5 L
333.443 308.5 L
335.303 308.5 L
337.163 308.5 L
339.024 308.5 L
340.884 308.5 L
342.744 308.5 L
344.605 308.5 L
346.465 308.5 L
348.325 308.5 L
350.186 308.5 L
352.046 308.5 L
353.906 308.5 L
355.767 308.5 L
357.627 308.5 L
359.487 308.5 L
361.347 308.5 L
363.208 308.5 L
365.068 308.5 L
366.928 308.5 L
368.789 308.5 L
370.649 308.5 L
372.509 308.5 L
374.37 308.5 L
376.23 308.5 L
378.09 308.5 L
379.951 308.5 L
381.811 308.5 L
383.671 308.5 L
385.531 308.5 L
387.392 308.5 L
389.252 308.5 L
391.112 308.5 L
392.973 308.5 L
394.833 308.5 L
396.693 308.5 L
398.554 308.5 L
400.414 308.5 L
402.274 308.5 L
404.134 308.5 L
405.995 308.5 L
407.855 308.5 L
409.715 308.5 L
411.576 308.5 L
413.436 308.5 L
415.296 308.5 L
417.157 308.5 L
419.017 308.5 L
420.877 308.5 L
422.738 308.5 L
424.598 308.5 L
426.458 308.5 L
428.318 308.5 L
430.179 308.5 L
432.039 308.5 L
433.899 308.5 L
435.76 308.5 L
437.62 308.5 L
439.48 308.5 L
441.341 308.5 L
443.201 308.5 L
445.061 308.5 L
446.922 308.5 L
448.782 308.5 L
450.642 308.5 L
452.502 308.5 L
454.363 308.5 L
456.223 308.5 L
458.083 308.5 L
459.944 308.5 L
461.804 308.5 L
463.664 308.5 L
465.525 308.5 L
467.385 308.5 L
469.245 308.5 L
471.106 308.5 L
472.966 308.5 L
474.826 308.5 L
476.686 308.5 L
478.547 308.5 L
480.407 308.5 L
482.267 308.5 L
484.128 308.5 L
485.988 308.5 L
487.848 308.5 L
489.709 308.5 L
491.569 308.5 L
493.429 308.5 L
495.289 308.5 L
497.15 308.5 L
499.01 308.5 L
500.87 308.5 L
502.731 308.5 L
504.591 308.5 L
506.451 308.5 L
507.052 308.5 L
S
GR
GS
[0.75 0 0 0.75 155.98426 215.14533] CT
N
-5 -5 M
-5 5 L
5 5 L
5 -5 L
cp
f
GR
GS
[0.75 0 0 0.75 155.98426 215.14533] CT
1 1 0.863 RC
10.0 ML
1.333 LW
N
-5 -5 M
-5 5 L
5 5 L
5 -5 L
cp
S
GR
GS
[0.75 0 0 0.75 0 0] CT
1 GC
N
496 107 M
496 42 L
435 42 L
435 107 L
cp
f
GR
GS
[0.75 0 0 0.75 361.5 40.5] CT
/Helvetica 16.8 F
GS
[1 0 0 1 0 0] CT
0 6 moveto 
1 -1 scale
(x) t 
GR
GR
GS
[0.75 0 0 0.75 0 0] CT
0 0.447 0.741 RC
1 LJ
2.667 LW
N
439 54 M
479 54 L
S
GR
GS
[0.75 0 0 0.75 361.5 55.875] CT
/Helvetica 16.8 F
GS
[1 0 0 1 0 0] CT
0 6 moveto 
1 -1 scale
(y) t 
GR
GR
GS
[0.75 0 0 0.75 0 0] CT
0.851 0.325 0.098 RC
1 LJ
2.667 LW
N
439 74.5 M
479 74.5 L
S
GR
GS
[0.75 0 0 0.75 361.5 71.25] CT
/Helvetica 16.8 F
GS
[1 0 0 1 0 0] CT
0 6 moveto 
1 -1 scale
(z) t 
GR
GR
GS
[0.75 0 0 0.75 0 0] CT
0.929 0.694 0.125 RC
1 LJ
2.667 LW
N
439 95 M
479 95 L
S
GR
GS
[0.75 0 0 0.75 0 0] CT
0.149 GC
10.0 ML
0.667 LW
N
435 107 M
435 42 L
496 42 L
496 107 L
cp
S
GR
GS
[0.75 0 0 0.75 0 0] CT
1 1 0.933 RC
N
214.646 280.194 M
287.646 280.194 L
287.646 238.194 L
214.646 238.194 L
cp
f
GR
GS
[0.75 0 0 0.75 0 0] CT
0.8 GC
10.0 ML
0.667 LW
N
214.646 280.194 M
287.646 280.194 L
287.646 238.194 L
214.646 238.194 L
cp
S
GR
GS
[0.75 0 0 0.75 163.98427 207.14532] CT
/Helvetica 13.333 F
GS
[1 0 0 1 0 0] CT
0 -21 moveto 
1 -1 scale
(X: 0.2902) t 
GR
GR
GS
[0.75 0 0 0.75 163.98427 207.14532] CT
/Helvetica 13.333 F
GS
[1 0 0 1 0 0] CT
0 -4 moveto 
1 -1 scale
(Y: -1.805) t 
GR
GR
GS
[0.75 0 0 0.75 155.98426 215.14533] CT
0.608 GC
N
/f-719462112{-5 -5 M
-5 5 L
5 5 L
5 -5 L
cp}def
f-719462112
f
GR
GS
[0.75 0 0 0.75 155.98426 215.14533] CT
1 1 0.946 RC
10.0 ML
1.333 LW
N
-5 -5 M
-5 5 L
5 5 L
5 -5 L
cp
S
GR
%%Trailer
%%Pages: 1
%%EOF
