%!PS-Adobe-3.0 EPSF-3.0
%%Creator: (MATLAB, The Mathworks, Inc. Version 9.4.0.813654 \(R2018a\). Operating System: Linux)
%%Title: /home/isidro/google-drive/TFG/tilt-rotor-matlab/figuras/memoria/optimizacion/eul.eps
%%CreationDate: 2019-09-06T14:08:00
%%Pages: (atend)
%%BoundingBox: 0 0 428 304
%%LanguageLevel: 3
%%EndComments
%%BeginProlog
%%BeginResource: procset (Apache XML Graphics Std ProcSet) 1.2 0
%%Version: 1.2 0
%%Copyright: (Copyright 2001-2003,2010 The Apache Software Foundation. License terms: http://www.apache.org/licenses/LICENSE-2.0)
/bd{bind def}bind def
/ld{load def}bd
/GR/grestore ld
/GS/gsave ld
/RM/rmoveto ld
/C/curveto ld
/t/show ld
/L/lineto ld
/ML/setmiterlimit ld
/CT/concat ld
/f/fill ld
/N/newpath ld
/S/stroke ld
/CC/setcmykcolor ld
/A/ashow ld
/cp/closepath ld
/RC/setrgbcolor ld
/LJ/setlinejoin ld
/GC/setgray ld
/LW/setlinewidth ld
/M/moveto ld
/re {4 2 roll M
1 index 0 rlineto
0 exch rlineto
neg 0 rlineto
cp } bd
/_ctm matrix def
/_tm matrix def
/BT { _ctm currentmatrix pop matrix _tm copy pop 0 0 moveto } bd
/ET { _ctm setmatrix } bd
/iTm { _ctm setmatrix _tm concat } bd
/Tm { _tm astore pop iTm 0 0 moveto } bd
/ux 0.0 def
/uy 0.0 def
/F {
  /Tp exch def
  /Tf exch def
  Tf findfont Tp scalefont setfont
  /cf Tf def  /cs Tp def
} bd
/ULS {currentpoint /uy exch def /ux exch def} bd
/ULE {
  /Tcx currentpoint pop def
  gsave
  newpath
  cf findfont cs scalefont dup
  /FontMatrix get 0 get /Ts exch def /FontInfo get dup
  /UnderlinePosition get Ts mul /To exch def
  /UnderlineThickness get Ts mul /Tt exch def
  ux uy To add moveto  Tcx uy To add lineto
  Tt setlinewidth stroke
  grestore
} bd
/OLE {
  /Tcx currentpoint pop def
  gsave
  newpath
  cf findfont cs scalefont dup
  /FontMatrix get 0 get /Ts exch def /FontInfo get dup
  /UnderlinePosition get Ts mul /To exch def
  /UnderlineThickness get Ts mul /Tt exch def
  ux uy To add cs add moveto Tcx uy To add cs add lineto
  Tt setlinewidth stroke
  grestore
} bd
/SOE {
  /Tcx currentpoint pop def
  gsave
  newpath
  cf findfont cs scalefont dup
  /FontMatrix get 0 get /Ts exch def /FontInfo get dup
  /UnderlinePosition get Ts mul /To exch def
  /UnderlineThickness get Ts mul /Tt exch def
  ux uy To add cs 10 mul 26 idiv add moveto Tcx uy To add cs 10 mul 26 idiv add lineto
  Tt setlinewidth stroke
  grestore
} bd
/QT {
/Y22 exch store
/X22 exch store
/Y21 exch store
/X21 exch store
currentpoint
/Y21 load 2 mul add 3 div exch
/X21 load 2 mul add 3 div exch
/X21 load 2 mul /X22 load add 3 div
/Y21 load 2 mul /Y22 load add 3 div
/X22 load /Y22 load curveto
} bd
/SSPD {
dup length /d exch dict def
{
/v exch def
/k exch def
currentpagedevice k known {
/cpdv currentpagedevice k get def
v cpdv ne {
/upd false def
/nullv v type /nulltype eq def
/nullcpdv cpdv type /nulltype eq def
nullv nullcpdv or
{
/upd true def
} {
/sametype v type cpdv type eq def
sametype {
v type /arraytype eq {
/vlen v length def
/cpdvlen cpdv length def
vlen cpdvlen eq {
0 1 vlen 1 sub {
/i exch def
/obj v i get def
/cpdobj cpdv i get def
obj cpdobj ne {
/upd true def
exit
} if
} for
} {
/upd true def
} ifelse
} {
v type /dicttype eq {
v {
/dv exch def
/dk exch def
/cpddv cpdv dk get def
dv cpddv ne {
/upd true def
exit
} if
} forall
} {
/upd true def
} ifelse
} ifelse
} if
} ifelse
upd true eq {
d k v put
} if
} if
} if
} forall
d length 0 gt {
d setpagedevice
} if
} bd
/RE { % /NewFontName [NewEncodingArray] /FontName RE -
  findfont dup length dict begin
  {
    1 index /FID ne
    {def} {pop pop} ifelse
  } forall
  /Encoding exch def
  /FontName 1 index def
  currentdict definefont pop
  end
} bind def
%%EndResource
%%BeginResource: procset (Apache XML Graphics EPS ProcSet) 1.0 0
%%Version: 1.0 0
%%Copyright: (Copyright 2002-2003 The Apache Software Foundation. License terms: http://www.apache.org/licenses/LICENSE-2.0)
/BeginEPSF { %def
/b4_Inc_state save def         % Save state for cleanup
/dict_count countdictstack def % Count objects on dict stack
/op_count count 1 sub def      % Count objects on operand stack
userdict begin                 % Push userdict on dict stack
/showpage { } def              % Redefine showpage, { } = null proc
0 setgray 0 setlinecap         % Prepare graphics state
1 setlinewidth 0 setlinejoin
10 setmiterlimit [ ] 0 setdash newpath
/languagelevel where           % If level not equal to 1 then
{pop languagelevel             % set strokeadjust and
1 ne                           % overprint to their defaults.
{false setstrokeadjust false setoverprint
} if
} if
} bd
/EndEPSF { %def
count op_count sub {pop} repeat            % Clean up stacks
countdictstack dict_count sub {end} repeat
b4_Inc_state restore
} bd
%%EndResource
%FOPBeginFontDict
%%IncludeResource: font Courier-Oblique
%%IncludeResource: font Courier-BoldOblique
%%IncludeResource: font Courier-Bold
%%IncludeResource: font ZapfDingbats
%%IncludeResource: font Symbol
%%IncludeResource: font Helvetica
%%IncludeResource: font Helvetica-Oblique
%%IncludeResource: font Helvetica-Bold
%%IncludeResource: font Helvetica-BoldOblique
%%IncludeResource: font Times-Roman
%%IncludeResource: font Times-Italic
%%IncludeResource: font Times-Bold
%%IncludeResource: font Times-BoldItalic
%%IncludeResource: font Courier
%FOPEndFontDict
%%BeginResource: encoding WinAnsiEncoding
/WinAnsiEncoding [
/.notdef /.notdef /.notdef /.notdef /.notdef
/.notdef /.notdef /.notdef /.notdef /.notdef
/.notdef /.notdef /.notdef /.notdef /.notdef
/.notdef /.notdef /.notdef /.notdef /.notdef
/.notdef /.notdef /.notdef /.notdef /.notdef
/.notdef /.notdef /.notdef /.notdef /.notdef
/.notdef /.notdef /space /exclam /quotedbl
/numbersign /dollar /percent /ampersand /quotesingle
/parenleft /parenright /asterisk /plus /comma
/hyphen /period /slash /zero /one
/two /three /four /five /six
/seven /eight /nine /colon /semicolon
/less /equal /greater /question /at
/A /B /C /D /E
/F /G /H /I /J
/K /L /M /N /O
/P /Q /R /S /T
/U /V /W /X /Y
/Z /bracketleft /backslash /bracketright /asciicircum
/underscore /quoteleft /a /b /c
/d /e /f /g /h
/i /j /k /l /m
/n /o /p /q /r
/s /t /u /v /w
/x /y /z /braceleft /bar
/braceright /asciitilde /bullet /Euro /bullet
/quotesinglbase /florin /quotedblbase /ellipsis /dagger
/daggerdbl /circumflex /perthousand /Scaron /guilsinglleft
/OE /bullet /Zcaron /bullet /bullet
/quoteleft /quoteright /quotedblleft /quotedblright /bullet
/endash /emdash /asciitilde /trademark /scaron
/guilsinglright /oe /bullet /zcaron /Ydieresis
/space /exclamdown /cent /sterling /currency
/yen /brokenbar /section /dieresis /copyright
/ordfeminine /guillemotleft /logicalnot /sfthyphen /registered
/macron /degree /plusminus /twosuperior /threesuperior
/acute /mu /paragraph /middot /cedilla
/onesuperior /ordmasculine /guillemotright /onequarter /onehalf
/threequarters /questiondown /Agrave /Aacute /Acircumflex
/Atilde /Adieresis /Aring /AE /Ccedilla
/Egrave /Eacute /Ecircumflex /Edieresis /Igrave
/Iacute /Icircumflex /Idieresis /Eth /Ntilde
/Ograve /Oacute /Ocircumflex /Otilde /Odieresis
/multiply /Oslash /Ugrave /Uacute /Ucircumflex
/Udieresis /Yacute /Thorn /germandbls /agrave
/aacute /acircumflex /atilde /adieresis /aring
/ae /ccedilla /egrave /eacute /ecircumflex
/edieresis /igrave /iacute /icircumflex /idieresis
/eth /ntilde /ograve /oacute /ocircumflex
/otilde /odieresis /divide /oslash /ugrave
/uacute /ucircumflex /udieresis /yacute /thorn
/ydieresis
] def
%%EndResource
%FOPBeginFontReencode
/Courier-Oblique findfont
dup length dict begin
  {1 index /FID ne {def} {pop pop} ifelse} forall
  /Encoding WinAnsiEncoding def
  currentdict
end
/Courier-Oblique exch definefont pop
/Courier-BoldOblique findfont
dup length dict begin
  {1 index /FID ne {def} {pop pop} ifelse} forall
  /Encoding WinAnsiEncoding def
  currentdict
end
/Courier-BoldOblique exch definefont pop
/Courier-Bold findfont
dup length dict begin
  {1 index /FID ne {def} {pop pop} ifelse} forall
  /Encoding WinAnsiEncoding def
  currentdict
end
/Courier-Bold exch definefont pop
/Helvetica findfont
dup length dict begin
  {1 index /FID ne {def} {pop pop} ifelse} forall
  /Encoding WinAnsiEncoding def
  currentdict
end
/Helvetica exch definefont pop
/Helvetica-Oblique findfont
dup length dict begin
  {1 index /FID ne {def} {pop pop} ifelse} forall
  /Encoding WinAnsiEncoding def
  currentdict
end
/Helvetica-Oblique exch definefont pop
/Helvetica-Bold findfont
dup length dict begin
  {1 index /FID ne {def} {pop pop} ifelse} forall
  /Encoding WinAnsiEncoding def
  currentdict
end
/Helvetica-Bold exch definefont pop
/Helvetica-BoldOblique findfont
dup length dict begin
  {1 index /FID ne {def} {pop pop} ifelse} forall
  /Encoding WinAnsiEncoding def
  currentdict
end
/Helvetica-BoldOblique exch definefont pop
/Times-Roman findfont
dup length dict begin
  {1 index /FID ne {def} {pop pop} ifelse} forall
  /Encoding WinAnsiEncoding def
  currentdict
end
/Times-Roman exch definefont pop
/Times-Italic findfont
dup length dict begin
  {1 index /FID ne {def} {pop pop} ifelse} forall
  /Encoding WinAnsiEncoding def
  currentdict
end
/Times-Italic exch definefont pop
/Times-Bold findfont
dup length dict begin
  {1 index /FID ne {def} {pop pop} ifelse} forall
  /Encoding WinAnsiEncoding def
  currentdict
end
/Times-Bold exch definefont pop
/Times-BoldItalic findfont
dup length dict begin
  {1 index /FID ne {def} {pop pop} ifelse} forall
  /Encoding WinAnsiEncoding def
  currentdict
end
/Times-BoldItalic exch definefont pop
/Courier findfont
dup length dict begin
  {1 index /FID ne {def} {pop pop} ifelse} forall
  /Encoding WinAnsiEncoding def
  currentdict
end
/Courier exch definefont pop
%FOPEndFontReencode
%%EndProlog
%%Page: 1 1
%%PageBoundingBox: 0 0 428 304
%%BeginPageSetup
[1 0 0 -1 0 304] CT
%%EndPageSetup
GS
[0.75 0 0 0.75 0 0.25] CT
1 GC
N
0 0 570 405 re
f
GR
GS
[0.75 0 0 0.75 0 0.25] CT
1 GC
N
0 0 570 405 re
f
GR
GS
[0.75 0 0 0.75 0 0.25] CT
1 GC
N
74 350 M
516 350 L
516 31 L
74 31 L
cp
f
GR
GS
[0.75 0 0 0.75 0 0.25] CT
0.873 GC
1 LJ
0.667 LW
N
74 350 M
74 31 L
S
GR
GS
[0.75 0 0 0.75 0 0.25] CT
0.873 GC
1 LJ
0.667 LW
N
184.5 350 M
184.5 31 L
S
GR
GS
[0.75 0 0 0.75 0 0.25] CT
0.873 GC
1 LJ
0.667 LW
N
295 350 M
295 31 L
S
GR
GS
[0.75 0 0 0.75 0 0.25] CT
0.873 GC
1 LJ
0.667 LW
N
405.5 350 M
405.5 31 L
S
GR
GS
[0.75 0 0 0.75 0 0.25] CT
0.873 GC
1 LJ
0.667 LW
N
516 350 M
516 31 L
S
GR
GS
[0.75 0 0 0.75 0 0.25] CT
0.873 GC
1 LJ
0.667 LW
N
516 350 M
74 350 L
S
GR
GS
[0.75 0 0 0.75 0 0.25] CT
0.873 GC
1 LJ
0.667 LW
N
516 270.25 M
74 270.25 L
S
GR
GS
[0.75 0 0 0.75 0 0.25] CT
0.873 GC
1 LJ
0.667 LW
N
516 190.5 M
74 190.5 L
S
GR
GS
[0.75 0 0 0.75 0 0.25] CT
0.873 GC
1 LJ
0.667 LW
N
516 110.75 M
74 110.75 L
S
GR
GS
[0.75 0 0 0.75 0 0.25] CT
0.873 GC
1 LJ
0.667 LW
N
516 31 M
74 31 L
S
GR
GS
[0.75 0 0 0.75 0 0.25] CT
0.149 GC
2 setlinecap
1 LJ
0.667 LW
N
74 350 M
516 350 L
S
GR
GS
[0.75 0 0 0.75 0 0.25] CT
0.149 GC
2 setlinecap
1 LJ
0.667 LW
N
74 350 M
74 345.58 L
S
GR
GS
[0.75 0 0 0.75 0 0.25] CT
0.149 GC
2 setlinecap
1 LJ
0.667 LW
N
184.5 350 M
184.5 345.58 L
S
GR
GS
[0.75 0 0 0.75 0 0.25] CT
0.149 GC
2 setlinecap
1 LJ
0.667 LW
N
295 350 M
295 345.58 L
S
GR
GS
[0.75 0 0 0.75 0 0.25] CT
0.149 GC
2 setlinecap
1 LJ
0.667 LW
N
405.5 350 M
405.5 345.58 L
S
GR
GS
[0.75 0 0 0.75 0 0.25] CT
0.149 GC
2 setlinecap
1 LJ
0.667 LW
N
516 350 M
516 345.58 L
S
GR
GS
[0.75 0 0 0.75 55.5 267.55] CT
0.149 GC
/Helvetica 18.667 F
GS
[1 0 0 1 0 0] CT
-6 18 moveto 
1 -1 scale
(0) t 
GR
GR
GS
[0.75 0 0 0.75 138.375 267.55] CT
0.149 GC
/Helvetica 18.667 F
GS
[1 0 0 1 0 0] CT
-15 18 moveto 
1 -1 scale
(0.5) t 
GR
GR
GS
[0.75 0 0 0.75 221.25 267.55] CT
0.149 GC
/Helvetica 18.667 F
GS
[1 0 0 1 0 0] CT
-6 18 moveto 
1 -1 scale
(1) t 
GR
GR
GS
[0.75 0 0 0.75 304.125 267.55] CT
0.149 GC
/Helvetica 18.667 F
GS
[1 0 0 1 0 0] CT
-15 18 moveto 
1 -1 scale
(1.5) t 
GR
GR
GS
[0.75 0 0 0.75 387 267.55] CT
0.149 GC
/Helvetica 18.667 F
GS
[1 0 0 1 0 0] CT
-6 18 moveto 
1 -1 scale
(2) t 
GR
GR
GS
[0.75 0 0 0.75 221.25016 285.05] CT
0.149 GC
/Helvetica 20.533 F
GS
[1 0 0 1 0 0] CT
-17.5 20 moveto 
1 -1 scale
(t\(s\)) t 
GR
GR
GS
[0.75 0 0 0.75 0 0.25] CT
0.149 GC
2 setlinecap
1 LJ
0.667 LW
N
74 350 M
74 31 L
S
GR
GS
[0.75 0 0 0.75 0 0.25] CT
0.149 GC
2 setlinecap
1 LJ
0.667 LW
N
74 350 M
78.42 350 L
S
GR
GS
[0.75 0 0 0.75 0 0.25] CT
0.149 GC
2 setlinecap
1 LJ
0.667 LW
N
74 270.25 M
78.42 270.25 L
S
GR
GS
[0.75 0 0 0.75 0 0.25] CT
0.149 GC
2 setlinecap
1 LJ
0.667 LW
N
74 190.5 M
78.42 190.5 L
S
GR
GS
[0.75 0 0 0.75 0 0.25] CT
0.149 GC
2 setlinecap
1 LJ
0.667 LW
N
74 110.75 M
78.42 110.75 L
S
GR
GS
[0.75 0 0 0.75 0 0.25] CT
0.149 GC
2 setlinecap
1 LJ
0.667 LW
N
74 31 M
78.42 31 L
S
GR
GS
[0.75 0 0 0.75 50.7 262.75] CT
0.149 GC
/Helvetica 18.667 F
GS
[1 0 0 1 0 0] CT
-37 6.5 moveto 
1 -1 scale
(-0.8) t 
GR
GR
GS
[0.75 0 0 0.75 50.7 202.9375] CT
0.149 GC
/Helvetica 18.667 F
GS
[1 0 0 1 0 0] CT
-37 6.5 moveto 
1 -1 scale
(-0.6) t 
GR
GR
GS
[0.75 0 0 0.75 50.7 143.125] CT
0.149 GC
/Helvetica 18.667 F
GS
[1 0 0 1 0 0] CT
-37 6.5 moveto 
1 -1 scale
(-0.4) t 
GR
GR
GS
[0.75 0 0 0.75 50.7 83.3125] CT
0.149 GC
/Helvetica 18.667 F
GS
[1 0 0 1 0 0] CT
-37 6.5 moveto 
1 -1 scale
(-0.2) t 
GR
GR
GS
[0.75 0 0 0.75 50.7 23.5] CT
0.149 GC
/Helvetica 18.667 F
GS
[1 0 0 1 0 0] CT
-12 6.5 moveto 
1 -1 scale
(0) t 
GR
GR
GS
[0 -0.75 0.75 0 16.5 168.25] CT
0.149 GC
N
2.25 0.234 M
1.984 0.234 1.805 0.07 QT
1.625 -0.094 1.625 -0.359 QT
1.625 -0.484 1.641 -0.547 QT
3.203 -6.813 L
3.359 -7.391 3.359 -7.828 QT
3.359 -8.734 2.75 -8.734 QT
2.094 -8.734 1.773 -7.953 QT
1.453 -7.172 1.156 -5.969 QT
1.156 -5.906 1.094 -5.867 QT
1.031 -5.828 0.984 -5.828 QT
0.734 -5.828 L
0.672 -5.828 0.617 -5.906 QT
0.563 -5.984 0.563 -6.047 QT
0.797 -6.969 1 -7.602 QT
1.203 -8.234 1.656 -8.758 QT
2.109 -9.281 2.766 -9.281 QT
3.547 -9.281 4.156 -8.789 QT
4.766 -8.297 4.766 -7.516 QT
5.391 -8.344 6.219 -8.813 QT
7.047 -9.281 8.016 -9.281 QT
9.109 -9.281 9.773 -8.688 QT
10.438 -8.094 10.438 -7.016 QT
10.438 -6.391 10.297 -5.859 QT
7.859 3.859 L
7.797 4.156 7.547 4.344 QT
7.297 4.531 7 4.531 QT
6.734 4.531 6.555 4.375 QT
6.375 4.219 6.375 3.953 QT
6.375 3.828 6.391 3.781 QT
8.797 -5.891 L
9.016 -6.75 9.016 -7.328 QT
9.016 -7.922 8.766 -8.328 QT
8.516 -8.734 7.984 -8.734 QT
5.922 -8.734 4.547 -6.188 QT
3.125 -0.469 L
3.063 -0.172 2.805 0.031 QT
2.547 0.234 2.25 0.234 QT
cp
f
GR
GS
[0 -0.75 0.75 0 16.5 160] CT
0.149 GC
/Helvetica 20.533 F
GS
[1 0 0 1 0 0] CT
0 0 moveto 
1 -1 scale
( \(rad\)) t 
GR
GR
GS
[0.75 0 0 0.75 221.25021 20.6125] CT
/Helvetica-Bold 20.533 F
GS
[1 0 0 1 0 0] CT
-98 -5 moveto 
1 -1 scale
(\301ngulos de euler) t 
GR
GR
GS
[0.75 0 0 0.75 0 0.25] CT
0.851 0.325 0.098 RC
1 LJ
2.667 LW
N
74 31 M
74 31 L
74 31 L
74.002 31 L
74.009 31 L
74.045 31 L
74.223 31 L
74.884 31 L
75.768 31 L
76.652 31 L
77.536 31 L
78.42 31 L
78.94 31 L
79.196 31 L
79.304 31 L
79.401 31 L
79.886 31 L
80.188 31 L
80.766 31 L
81.072 31 L
81.319 31 L
81.956 31 L
82.84 31 L
83.556 31 L
83.724 31 L
84.608 31 L
85.492 31 L
86.376 31 L
87.26 31 L
88.144 31 L
89.028 31 L
89.912 31 L
90.796 31 L
91.68 31 L
92.564 31 L
93.448 31 L
94.332 31 L
95.216 31 L
96.1 31 L
96.1 31 L
96.1 31 L
96.449 31 L
96.513 31 L
96.531 31 L
96.538 31 L
96.545 31 L
96.551 31 L
96.581 31 L
96.73 31 L
96.984 31.003 L
97.321 31.017 L
97.321 31.017 L
97.868 31.079 L
98.415 31.208 L
98.752 31.329 L
99.636 31.817 L
100.52 32.581 L
101.404 33.644 L
102.288 35.02 L
103.172 36.719 L
104.056 38.745 L
104.94 41.102 L
105.824 43.793 L
106.708 46.819 L
107.592 50.181 L
108.476 53.881 L
109.36 57.917 L
110.244 62.292 L
111.128 67.005 L
112.012 72.056 L
112.896 77.445 L
113.78 83.172 L
114.664 89.238 L
115.548 95.642 L
116.432 102.384 L
117.316 109.465 L
118.2 116.885 L
119.084 124.642 L
119.968 132.738 L
120.852 141.173 L
121.736 149.946 L
122.62 159.055 L
123.504 168.486 L
123.946 173.306 L
123.946 173.306 L
124.388 178.181 L
124.83 183.091 L
125.189 187.091 L
125.272 188.016 L
125.452 190.019 L
126.156 197.831 L
127.04 207.501 L
127.924 216.951 L
128.808 226.135 L
129.692 235.027 L
130.576 243.61 L
131.46 251.874 L
132.25 258.982 L
132.25 258.982 L
132.344 259.812 L
132.438 260.638 L
132.627 262.279 L
133.003 265.517 L
133.228 267.419 L
134.112 274.694 L
134.996 281.633 L
135.88 288.237 L
136.764 294.504 L
137.648 300.433 L
138.532 306.025 L
139.416 311.279 L
140.3 316.195 L
141.184 320.772 L
142.068 325.012 L
142.952 328.913 L
143.836 332.475 L
144.72 335.7 L
145.604 338.586 L
146.488 341.133 L
147.372 343.342 L
148.256 345.213 L
149.14 346.745 L
150.024 347.939 L
150.908 348.798 L
151.792 349.337 L
152.676 349.593 L
153.56 349.618 L
154.444 349.482 L
155.328 349.258 L
156.212 349.009 L
157.096 348.78 L
157.98 348.586 L
158.864 348.418 L
159.748 348.251 L
160.632 348.051 L
161.074 347.929 L
161.074 347.929 L
161.516 347.789 L
161.958 347.63 L
162.4 347.451 L
163.284 347.042 L
164.168 346.584 L
165.052 346.11 L
165.936 345.66 L
166.82 345.266 L
167.704 344.949 L
168.588 344.71 L
169.472 344.535 L
170.356 344.399 L
171.24 344.27 L
172.124 344.123 L
173.008 343.941 L
173.892 343.721 L
174.776 343.478 L
175.66 343.232 L
176.544 343.01 L
177.428 342.834 L
178.312 342.715 L
179.196 342.656 L
180.08 342.643 L
180.964 342.657 L
181.848 342.674 L
182.732 342.674 L
183.616 342.643 L
184.5 342.581 L
185.384 342.496 L
186.268 342.404 L
187.152 342.324 L
188.036 342.272 L
188.92 342.259 L
189.804 342.285 L
190.688 342.341 L
191.572 342.411 L
192.456 342.48 L
193.34 342.531 L
194.224 342.556 L
195.108 342.553 L
195.992 342.53 L
196.876 342.498 L
197.76 342.472 L
198.644 342.464 L
199.528 342.482 L
200.412 342.525 L
201.296 342.589 L
202.18 342.662 L
203.064 342.731 L
203.948 342.786 L
204.832 342.819 L
205.716 342.831 L
206.6 342.825 L
207.484 342.812 L
208.368 342.802 L
209.252 342.804 L
210.136 342.825 L
211.02 342.864 L
211.904 342.917 L
212.788 342.977 L
213.672 343.033 L
214.556 343.078 L
215.44 343.106 L
216.324 343.118 L
217.208 343.116 L
218.092 343.109 L
218.976 343.103 L
219.86 343.107 L
220.744 343.124 L
221.628 343.155 L
222.512 343.195 L
223.396 343.241 L
224.28 343.284 L
225.164 343.318 L
226.048 343.34 L
226.932 343.35 L
227.816 343.349 L
228.7 343.344 L
229.584 343.341 L
230.468 343.344 L
231.352 343.357 L
232.236 343.381 L
233.12 343.412 L
234.004 343.446 L
234.888 343.478 L
235.772 343.504 L
236.656 343.521 L
237.54 343.529 L
238.424 343.529 L
239.308 343.526 L
240.192 343.524 L
241.076 343.527 L
241.96 343.537 L
242.844 343.555 L
243.728 343.578 L
244.612 343.604 L
245.496 343.629 L
246.38 343.649 L
247.264 343.662 L
248.148 343.668 L
249.032 343.669 L
249.916 343.667 L
250.8 343.666 L
251.684 343.668 L
252.568 343.676 L
253.452 343.69 L
254.336 343.708 L
255.22 343.728 L
256.104 343.746 L
256.988 343.762 L
257.872 343.772 L
258.756 343.777 L
259.64 343.777 L
260.524 343.776 L
261.408 343.776 L
262.292 343.778 L
263.176 343.785 L
264.06 343.795 L
264.944 343.809 L
265.828 343.824 L
266.712 343.838 L
267.596 343.85 L
268.48 343.858 L
269.364 343.862 L
270.248 343.863 L
271.132 343.863 L
272.016 343.863 L
272.9 343.865 L
273.784 343.87 L
274.668 343.878 L
275.552 343.888 L
276.436 343.9 L
277.32 343.911 L
278.204 343.92 L
279.088 343.926 L
279.972 343.929 L
280.856 343.93 L
281.74 343.93 L
282.624 343.93 L
283.508 343.932 L
284.392 343.936 L
285.276 343.942 L
286.16 343.95 L
287.044 343.959 L
287.928 343.968 L
288.812 343.975 L
289.696 343.979 L
290.58 343.982 L
291.464 343.983 L
292.348 343.983 L
293.232 343.984 L
294.116 343.985 L
295 343.988 L
295 343.988 L
295 343.988 L
295.884 343.953 L
296.768 343.84 L
297.652 343.654 L
298.536 343.411 L
299.42 343.14 L
300.304 342.874 L
301.188 342.644 L
302.072 342.471 L
302.956 342.361 L
303.84 342.308 L
304.724 342.291 L
305.608 342.286 L
306.492 342.267 L
307.376 342.217 L
308.26 342.129 L
309.144 342.009 L
310.028 341.875 L
310.912 341.747 L
311.796 341.646 L
312.68 341.585 L
313.564 341.571 L
314.448 341.598 L
315.332 341.651 L
316.216 341.713 L
317.1 341.765 L
317.984 341.794 L
318.868 341.794 L
319.752 341.77 L
320.636 341.731 L
321.52 341.693 L
322.404 341.67 L
323.288 341.672 L
324.172 341.704 L
325.056 341.762 L
325.94 341.837 L
326.824 341.917 L
327.708 341.988 L
328.592 342.041 L
329.476 342.072 L
330.36 342.083 L
331.244 342.081 L
332.128 342.076 L
333.012 342.08 L
333.896 342.099 L
334.78 342.138 L
335.664 342.194 L
336.548 342.262 L
337.432 342.332 L
338.316 342.395 L
339.2 342.445 L
340.084 342.479 L
340.968 342.497 L
341.852 342.504 L
342.736 342.509 L
343.62 342.518 L
344.504 342.538 L
345.388 342.571 L
346.272 342.616 L
347.156 342.668 L
348.04 342.723 L
348.924 342.773 L
349.808 342.813 L
350.692 342.841 L
351.576 342.858 L
352.46 342.867 L
353.344 342.874 L
354.228 342.883 L
355.112 342.899 L
355.996 342.924 L
356.88 342.958 L
357.764 342.998 L
358.648 343.039 L
359.532 343.076 L
360.416 343.108 L
361.3 343.13 L
362.184 343.145 L
363.068 343.153 L
363.952 343.16 L
364.836 343.168 L
365.72 343.18 L
366.604 343.2 L
367.488 343.225 L
368.372 343.254 L
369.256 343.285 L
370.14 343.313 L
371.024 343.337 L
371.908 343.355 L
372.792 343.367 L
373.676 343.375 L
374.56 343.381 L
375.444 343.388 L
376.328 343.398 L
377.212 343.413 L
378.096 343.431 L
378.98 343.453 L
379.864 343.476 L
380.748 343.498 L
381.632 343.517 L
382.516 343.531 L
383.4 343.541 L
384.284 343.548 L
385.168 343.553 L
386.052 343.559 L
386.936 343.567 L
387.82 343.578 L
388.704 343.593 L
389.588 343.609 L
390.472 343.626 L
391.356 343.643 L
392.24 343.657 L
393.124 343.668 L
394.008 343.677 L
394.892 343.683 L
395.776 343.688 L
396.66 343.693 L
397.544 343.699 L
398.428 343.708 L
399.312 343.719 L
400.196 343.731 L
401.08 343.744 L
401.964 343.757 L
402.848 343.768 L
403.732 343.777 L
404.616 343.784 L
405.5 343.789 L
406.384 343.793 L
407.268 343.797 L
408.152 343.802 L
409.036 343.809 L
409.92 343.818 L
410.804 343.827 L
411.688 343.837 L
412.572 343.847 L
413.456 343.855 L
414.34 343.862 L
415.224 343.868 L
416.108 343.872 L
416.992 343.876 L
417.876 343.879 L
418.76 343.883 L
419.644 343.889 L
420.528 343.895 L
421.412 343.902 L
422.296 343.91 L
423.18 343.917 L
424.064 343.924 L
424.948 343.929 L
425.832 343.934 L
426.716 343.937 L
427.6 343.94 L
428.484 343.943 L
429.368 343.947 L
430.252 343.951 L
431.136 343.956 L
432.02 343.961 L
432.904 343.967 L
433.788 343.973 L
434.672 343.978 L
435.556 343.982 L
436.44 343.986 L
437.324 343.989 L
438.208 343.991 L
439.092 343.994 L
439.976 343.997 L
440.86 344 L
441.744 344.004 L
442.628 344.008 L
443.512 344.012 L
444.396 344.016 L
445.28 344.02 L
446.164 344.024 L
447.048 344.027 L
447.932 344.029 L
448.816 344.031 L
449.7 344.033 L
450.584 344.035 L
451.468 344.038 L
452.352 344.041 L
453.236 344.044 L
454.12 344.048 L
455.004 344.051 L
455.888 344.054 L
456.772 344.057 L
457.656 344.059 L
458.54 344.061 L
459.424 344.063 L
460.308 344.064 L
461.192 344.066 L
462.076 344.068 L
462.96 344.07 L
463.844 344.073 L
464.728 344.075 L
465.612 344.078 L
466.496 344.08 L
467.38 344.082 L
468.264 344.084 L
469.148 344.086 L
470.032 344.087 L
470.916 344.089 L
471.8 344.09 L
472.684 344.092 L
473.568 344.093 L
474.452 344.095 L
475.336 344.097 L
476.22 344.099 L
477.104 344.101 L
477.988 344.103 L
478.872 344.104 L
479.756 344.105 L
480.64 344.107 L
481.524 344.108 L
482.408 344.109 L
483.292 344.11 L
484.176 344.111 L
485.06 344.113 L
485.944 344.114 L
486.828 344.116 L
487.712 344.117 L
488.596 344.119 L
489.48 344.12 L
490.364 344.121 L
491.248 344.122 L
492.132 344.123 L
493.016 344.124 L
493.9 344.125 L
494.784 344.126 L
495.668 344.127 L
496.552 344.128 L
497.436 344.129 L
498.32 344.13 L
499.204 344.131 L
500.088 344.132 L
500.972 344.133 L
501.856 344.134 L
502.74 344.134 L
503.624 344.135 L
504.508 344.136 L
505.392 344.137 L
506.276 344.138 L
506.34 344.138 L
506.34 344.138 L
507.16 344.139 L
508.044 344.139 L
508.928 344.14 L
509.812 344.141 L
510.696 344.142 L
511.58 344.142 L
512.464 344.143 L
513.348 344.143 L
514.232 344.144 L
515.116 344.144 L
516 344.145 L
S
GR
GS
[0.75 0 0 0.75 0 0.25] CT
0.851 0.325 0.098 RC
[8 8] 0 setdash
2 LJ
2.667 LW
N
74 31 M
74 31 L
74 31 L
74.002 31 L
74.009 31 L
74.045 31 L
74.223 31 L
74.884 31 L
75.768 31 L
76.652 31 L
77.536 31 L
78.42 31 L
78.94 31 L
79.196 31 L
79.304 31 L
79.401 31 L
79.886 31 L
80.188 31 L
80.766 31 L
81.072 31 L
81.319 31 L
81.956 31 L
82.84 31 L
83.556 31 L
83.724 31 L
84.608 31 L
85.492 31 L
86.376 31 L
87.26 31 L
88.144 31 L
89.028 31 L
89.912 31 L
90.796 31 L
91.68 31 L
92.564 31 L
93.448 31 L
94.332 31 L
95.216 31 L
96.1 31 L
96.1 344.178 L
96.1 344.178 L
96.449 344.178 L
96.513 344.178 L
96.531 344.178 L
96.538 344.178 L
96.545 344.178 L
96.551 344.178 L
96.581 344.178 L
96.73 344.178 L
96.984 344.178 L
97.321 344.178 L
97.321 344.178 L
97.868 344.178 L
98.415 344.178 L
98.752 344.178 L
99.636 344.178 L
100.52 344.178 L
101.404 344.178 L
102.288 344.178 L
103.172 344.178 L
104.056 344.178 L
104.94 344.178 L
105.824 344.178 L
106.708 344.178 L
107.592 344.178 L
108.476 344.178 L
109.36 344.178 L
110.244 344.178 L
111.128 344.178 L
112.012 344.178 L
112.896 344.178 L
113.78 344.178 L
114.664 344.178 L
115.548 344.178 L
116.432 344.178 L
117.316 344.178 L
118.2 344.178 L
119.084 344.178 L
119.968 344.178 L
120.852 344.178 L
121.736 344.178 L
122.62 344.178 L
123.504 344.178 L
123.946 344.178 L
123.946 344.178 L
124.388 344.178 L
124.83 344.178 L
125.189 344.178 L
125.272 344.178 L
125.452 344.178 L
126.156 344.178 L
127.04 344.178 L
127.924 344.178 L
128.808 344.178 L
129.692 344.178 L
130.576 344.178 L
131.46 344.178 L
132.25 344.178 L
132.25 344.178 L
132.344 344.178 L
132.438 344.178 L
132.627 344.178 L
133.003 344.178 L
133.228 344.178 L
134.112 344.178 L
134.996 344.178 L
135.88 344.178 L
136.764 344.178 L
137.648 344.178 L
138.532 344.178 L
139.416 344.178 L
140.3 344.178 L
141.184 344.178 L
142.068 344.178 L
142.952 344.178 L
143.836 344.178 L
144.72 344.178 L
145.604 344.178 L
146.488 344.178 L
147.372 344.178 L
148.256 344.178 L
149.14 344.178 L
150.024 344.178 L
150.908 344.178 L
151.792 344.178 L
152.676 344.178 L
153.56 344.178 L
154.444 344.178 L
155.328 344.178 L
156.212 344.178 L
157.096 344.178 L
157.98 344.178 L
158.864 344.178 L
159.748 344.178 L
160.632 344.178 L
161.074 344.178 L
161.074 344.178 L
161.516 344.178 L
161.958 344.178 L
162.4 344.178 L
163.284 344.178 L
164.168 344.178 L
165.052 344.178 L
165.936 344.178 L
166.82 344.178 L
167.704 344.178 L
168.588 344.178 L
169.472 344.178 L
170.356 344.178 L
171.24 344.178 L
172.124 344.178 L
173.008 344.178 L
173.892 344.178 L
174.776 344.178 L
175.66 344.178 L
176.544 344.178 L
177.428 344.178 L
178.312 344.178 L
179.196 344.178 L
180.08 344.178 L
180.964 344.178 L
181.848 344.178 L
182.732 344.178 L
183.616 344.178 L
184.5 344.178 L
185.384 344.178 L
186.268 344.178 L
187.152 344.178 L
188.036 344.178 L
188.92 344.178 L
189.804 344.178 L
190.688 344.178 L
191.572 344.178 L
192.456 344.178 L
193.34 344.178 L
194.224 344.178 L
195.108 344.178 L
195.992 344.178 L
196.876 344.178 L
197.76 344.178 L
198.644 344.178 L
199.528 344.178 L
200.412 344.178 L
201.296 344.178 L
202.18 344.178 L
203.064 344.178 L
203.948 344.178 L
204.832 344.178 L
205.716 344.178 L
206.6 344.178 L
207.484 344.178 L
208.368 344.178 L
209.252 344.178 L
210.136 344.178 L
211.02 344.178 L
211.904 344.178 L
212.788 344.178 L
213.672 344.178 L
214.556 344.178 L
215.44 344.178 L
216.324 344.178 L
217.208 344.178 L
218.092 344.178 L
218.976 344.178 L
219.86 344.178 L
220.744 344.178 L
221.628 344.178 L
222.512 344.178 L
223.396 344.178 L
224.28 344.178 L
225.164 344.178 L
226.048 344.178 L
226.932 344.178 L
227.816 344.178 L
228.7 344.178 L
229.584 344.178 L
230.468 344.178 L
231.352 344.178 L
232.236 344.178 L
233.12 344.178 L
234.004 344.178 L
234.888 344.178 L
235.772 344.178 L
236.656 344.178 L
237.54 344.178 L
238.424 344.178 L
239.308 344.178 L
240.192 344.178 L
241.076 344.178 L
241.96 344.178 L
242.844 344.178 L
243.728 344.178 L
244.612 344.178 L
245.496 344.178 L
246.38 344.178 L
247.264 344.178 L
248.148 344.178 L
249.032 344.178 L
249.916 344.178 L
250.8 344.178 L
251.684 344.178 L
252.568 344.178 L
253.452 344.178 L
254.336 344.178 L
255.22 344.178 L
256.104 344.178 L
256.988 344.178 L
257.872 344.178 L
258.756 344.178 L
259.64 344.178 L
260.524 344.178 L
261.408 344.178 L
262.292 344.178 L
263.176 344.178 L
264.06 344.178 L
264.944 344.178 L
265.828 344.178 L
266.712 344.178 L
267.596 344.178 L
268.48 344.178 L
269.364 344.178 L
270.248 344.178 L
271.132 344.178 L
272.016 344.178 L
272.9 344.178 L
273.784 344.178 L
274.668 344.178 L
275.552 344.178 L
276.436 344.178 L
277.32 344.178 L
278.204 344.178 L
279.088 344.178 L
279.972 344.178 L
280.856 344.178 L
281.74 344.178 L
282.624 344.178 L
283.508 344.178 L
284.392 344.178 L
285.276 344.178 L
286.16 344.178 L
287.044 344.178 L
287.928 344.178 L
288.812 344.178 L
289.696 344.178 L
290.58 344.178 L
291.464 344.178 L
292.348 344.178 L
293.232 344.178 L
294.116 344.178 L
295 344.178 L
295 344.178 L
295 344.178 L
295.884 344.178 L
296.768 344.178 L
297.652 344.178 L
298.536 344.178 L
299.42 344.178 L
300.304 344.178 L
301.188 344.178 L
302.072 344.178 L
302.956 344.178 L
303.84 344.178 L
304.724 344.178 L
305.608 344.178 L
306.492 344.178 L
307.376 344.178 L
308.26 344.178 L
309.144 344.178 L
310.028 344.178 L
310.912 344.178 L
311.796 344.178 L
312.68 344.178 L
313.564 344.178 L
314.448 344.178 L
315.332 344.178 L
316.216 344.178 L
317.1 344.178 L
317.984 344.178 L
318.868 344.178 L
319.752 344.178 L
320.636 344.178 L
321.52 344.178 L
322.404 344.178 L
323.288 344.178 L
324.172 344.178 L
325.056 344.178 L
325.94 344.178 L
326.824 344.178 L
327.708 344.178 L
328.592 344.178 L
329.476 344.178 L
330.36 344.178 L
331.244 344.178 L
332.128 344.178 L
333.012 344.178 L
333.896 344.178 L
334.78 344.178 L
335.664 344.178 L
336.548 344.178 L
337.432 344.178 L
338.316 344.178 L
339.2 344.178 L
340.084 344.178 L
340.968 344.178 L
341.852 344.178 L
342.736 344.178 L
343.62 344.178 L
344.504 344.178 L
345.388 344.178 L
346.272 344.178 L
347.156 344.178 L
348.04 344.178 L
348.924 344.178 L
349.808 344.178 L
350.692 344.178 L
351.576 344.178 L
352.46 344.178 L
353.344 344.178 L
354.228 344.178 L
355.112 344.178 L
355.996 344.178 L
356.88 344.178 L
357.764 344.178 L
358.648 344.178 L
359.532 344.178 L
360.416 344.178 L
361.3 344.178 L
362.184 344.178 L
363.068 344.178 L
363.952 344.178 L
364.836 344.178 L
365.72 344.178 L
366.604 344.178 L
367.488 344.178 L
368.372 344.178 L
369.256 344.178 L
370.14 344.178 L
371.024 344.178 L
371.908 344.178 L
372.792 344.178 L
373.676 344.178 L
374.56 344.178 L
375.444 344.178 L
376.328 344.178 L
377.212 344.178 L
378.096 344.178 L
378.98 344.178 L
379.864 344.178 L
380.748 344.178 L
381.632 344.178 L
382.516 344.178 L
383.4 344.178 L
384.284 344.178 L
385.168 344.178 L
386.052 344.178 L
386.936 344.178 L
387.82 344.178 L
388.704 344.178 L
389.588 344.178 L
390.472 344.178 L
391.356 344.178 L
392.24 344.178 L
393.124 344.178 L
394.008 344.178 L
394.892 344.178 L
395.776 344.178 L
396.66 344.178 L
397.544 344.178 L
398.428 344.178 L
399.312 344.178 L
400.196 344.178 L
401.08 344.178 L
401.964 344.178 L
402.848 344.178 L
403.732 344.178 L
404.616 344.178 L
405.5 344.178 L
406.384 344.178 L
407.268 344.178 L
408.152 344.178 L
409.036 344.178 L
409.92 344.178 L
410.804 344.178 L
411.688 344.178 L
412.572 344.178 L
413.456 344.178 L
414.34 344.178 L
415.224 344.178 L
416.108 344.178 L
416.992 344.178 L
417.876 344.178 L
418.76 344.178 L
419.644 344.178 L
420.528 344.178 L
421.412 344.178 L
422.296 344.178 L
423.18 344.178 L
424.064 344.178 L
424.948 344.178 L
425.832 344.178 L
426.716 344.178 L
427.6 344.178 L
428.484 344.178 L
429.368 344.178 L
430.252 344.178 L
431.136 344.178 L
432.02 344.178 L
432.904 344.178 L
433.788 344.178 L
434.672 344.178 L
435.556 344.178 L
436.44 344.178 L
437.324 344.178 L
438.208 344.178 L
439.092 344.178 L
439.976 344.178 L
440.86 344.178 L
441.744 344.178 L
442.628 344.178 L
443.512 344.178 L
444.396 344.178 L
445.28 344.178 L
446.164 344.178 L
447.048 344.178 L
447.932 344.178 L
448.816 344.178 L
449.7 344.178 L
450.584 344.178 L
451.468 344.178 L
452.352 344.178 L
453.236 344.178 L
454.12 344.178 L
455.004 344.178 L
455.888 344.178 L
456.772 344.178 L
457.656 344.178 L
458.54 344.178 L
459.424 344.178 L
460.308 344.178 L
461.192 344.178 L
462.076 344.178 L
462.96 344.178 L
463.844 344.178 L
464.728 344.178 L
465.612 344.178 L
466.496 344.178 L
467.38 344.178 L
468.264 344.178 L
469.148 344.178 L
470.032 344.178 L
470.916 344.178 L
471.8 344.178 L
472.684 344.178 L
473.568 344.178 L
474.452 344.178 L
475.336 344.178 L
476.22 344.178 L
477.104 344.178 L
477.988 344.178 L
478.872 344.178 L
479.756 344.178 L
480.64 344.178 L
481.524 344.178 L
482.408 344.178 L
483.292 344.178 L
484.176 344.178 L
485.06 344.178 L
485.944 344.178 L
486.828 344.178 L
487.712 344.178 L
488.596 344.178 L
489.48 344.178 L
490.364 344.178 L
491.248 344.178 L
492.132 344.178 L
493.016 344.178 L
493.9 344.178 L
494.784 344.178 L
495.668 344.178 L
496.552 344.178 L
497.436 344.178 L
498.32 344.178 L
499.204 344.178 L
500.088 344.178 L
500.972 344.178 L
501.856 344.178 L
502.74 344.178 L
503.624 344.178 L
504.508 344.178 L
505.392 344.178 L
506.276 344.178 L
506.34 344.178 L
506.34 344.178 L
507.16 344.178 L
508.044 344.178 L
508.928 344.178 L
509.812 344.178 L
510.696 344.178 L
511.58 344.178 L
512.464 344.178 L
513.348 344.178 L
514.232 344.178 L
515.116 344.178 L
516 344.178 L
S
GR
GS
[0.75 0 0 0.75 0 0.25] CT
0.851 0.325 0.098 RC
[4 4] 0 setdash
2 LJ
4 LW
N
74 31 M
74 31 L
74 31 L
74.002 31 L
74.009 31 L
74.045 31 L
74.223 31 L
74.884 31 L
75.768 31 L
76.652 31 L
77.536 31 L
78.42 31 L
78.94 31 L
79.196 31 L
79.304 31 L
79.401 31 L
79.886 31 L
80.188 31 L
80.766 31 L
81.072 31 L
81.319 31 L
81.956 31 L
82.84 31 L
83.556 31 L
83.724 31 L
84.608 31 L
85.492 31 L
86.376 31 L
87.26 31 L
88.144 31 L
89.028 31 L
89.912 31 L
90.796 31 L
91.68 31 L
92.564 31 L
93.448 31 L
94.332 31 L
95.216 31 L
96.1 31 L
96.1 31 L
96.1 31 L
96.449 31 L
96.513 31 L
96.531 31 L
96.538 31 L
96.545 31 L
96.551 31 L
96.581 31 L
96.73 31 L
96.984 31.003 L
97.868 31.079 L
98.752 31.329 L
99.636 31.817 L
100.52 32.581 L
101.404 33.644 L
102.288 35.02 L
103.172 36.719 L
104.056 38.745 L
104.94 41.102 L
105.824 43.793 L
106.708 46.819 L
107.592 50.181 L
108.476 53.881 L
109.36 57.918 L
110.244 62.292 L
111.128 67.005 L
112.012 72.056 L
112.896 77.445 L
113.78 83.172 L
114.664 89.238 L
115.548 95.642 L
116.432 102.385 L
117.316 109.465 L
118.2 116.885 L
119.084 124.642 L
119.968 132.734 L
120.852 141.137 L
121.736 149.8 L
122.62 158.638 L
123.504 167.545 L
124.388 176.407 L
125.272 185.127 L
126.156 193.634 L
127.04 201.884 L
127.924 209.856 L
128.808 217.541 L
129.692 224.94 L
130.576 232.059 L
131.46 238.904 L
132.344 245.48 L
133.228 251.786 L
134.112 257.823 L
134.996 263.586 L
135.88 269.073 L
136.764 274.282 L
137.648 279.214 L
138.532 283.87 L
139.416 288.256 L
140.3 292.378 L
141.184 296.245 L
142.068 299.869 L
142.952 303.259 L
143.836 306.427 L
144.72 309.384 L
145.604 312.142 L
146.488 314.712 L
147.372 317.103 L
148.256 319.325 L
149.14 321.388 L
150.024 323.3 L
150.908 325.071 L
151.792 326.708 L
152.676 328.221 L
153.56 329.617 L
154.444 330.904 L
155.328 332.09 L
156.212 333.181 L
157.096 334.185 L
157.98 335.108 L
158.864 335.955 L
159.748 336.732 L
160.632 337.444 L
161.516 338.096 L
162.4 338.692 L
163.284 339.236 L
164.168 339.733 L
165.052 340.186 L
165.936 340.598 L
166.82 340.973 L
167.704 341.314 L
168.588 341.624 L
169.472 341.904 L
170.356 342.159 L
171.24 342.389 L
172.124 342.597 L
173.008 342.784 L
173.892 342.953 L
174.776 343.105 L
175.66 343.242 L
176.544 343.365 L
177.428 343.474 L
178.312 343.572 L
179.196 343.66 L
180.08 343.738 L
180.964 343.807 L
181.848 343.868 L
182.732 343.923 L
183.616 343.97 L
184.5 344.013 L
185.384 344.05 L
186.268 344.082 L
187.152 344.11 L
188.036 344.134 L
188.92 344.155 L
189.804 344.173 L
190.688 344.188 L
191.572 344.201 L
192.456 344.212 L
193.34 344.221 L
194.224 344.228 L
195.108 344.234 L
195.992 344.238 L
196.876 344.242 L
197.76 344.244 L
198.644 344.246 L
199.528 344.247 L
200.412 344.247 L
201.296 344.247 L
202.18 344.246 L
203.064 344.245 L
203.948 344.244 L
204.832 344.242 L
205.716 344.24 L
206.6 344.238 L
207.484 344.236 L
208.368 344.234 L
209.252 344.232 L
210.136 344.229 L
211.02 344.227 L
211.904 344.225 L
212.788 344.222 L
213.672 344.22 L
214.556 344.218 L
215.44 344.216 L
216.324 344.214 L
217.208 344.212 L
218.092 344.21 L
218.976 344.208 L
219.86 344.206 L
220.744 344.204 L
221.628 344.202 L
222.512 344.201 L
223.396 344.199 L
224.28 344.198 L
225.164 344.197 L
226.048 344.195 L
226.932 344.194 L
227.816 344.193 L
228.7 344.192 L
229.584 344.191 L
230.468 344.19 L
231.352 344.189 L
232.236 344.188 L
233.12 344.187 L
234.004 344.187 L
234.888 344.186 L
235.772 344.185 L
236.656 344.185 L
237.54 344.184 L
238.424 344.184 L
239.308 344.183 L
240.192 344.183 L
241.076 344.182 L
241.96 344.182 L
242.844 344.181 L
243.728 344.181 L
244.612 344.181 L
245.496 344.181 L
246.38 344.18 L
247.264 344.18 L
248.148 344.18 L
249.032 344.18 L
249.916 344.179 L
250.8 344.179 L
251.684 344.179 L
252.568 344.179 L
253.452 344.179 L
254.336 344.179 L
255.22 344.179 L
256.104 344.178 L
256.988 344.178 L
257.872 344.178 L
258.756 344.178 L
259.64 344.178 L
260.524 344.178 L
261.408 344.178 L
262.292 344.178 L
263.176 344.178 L
264.06 344.178 L
264.944 344.178 L
265.828 344.178 L
266.712 344.178 L
267.596 344.178 L
268.48 344.178 L
269.364 344.178 L
270.248 344.178 L
271.132 344.178 L
272.016 344.178 L
272.9 344.178 L
273.784 344.178 L
274.668 344.178 L
275.552 344.178 L
276.436 344.178 L
277.32 344.178 L
278.204 344.178 L
279.088 344.178 L
279.972 344.178 L
280.856 344.178 L
281.74 344.178 L
282.624 344.178 L
283.508 344.178 L
284.392 344.177 L
285.276 344.177 L
286.16 344.177 L
287.044 344.177 L
287.928 344.177 L
288.812 344.177 L
289.696 344.177 L
290.58 344.177 L
291.464 344.177 L
292.348 344.177 L
293.232 344.177 L
294.116 344.177 L
295 344.177 L
295 344.177 L
295 344.177 L
295.884 344.138 L
296.768 344.018 L
297.652 343.822 L
298.536 343.561 L
299.42 343.251 L
300.304 342.913 L
301.188 342.57 L
302.072 342.237 L
302.956 341.926 L
303.84 341.642 L
304.724 341.383 L
305.608 341.143 L
306.492 340.916 L
307.376 340.694 L
308.26 340.473 L
309.144 340.25 L
310.028 340.025 L
310.912 339.8 L
311.796 339.58 L
312.68 339.367 L
313.564 339.165 L
314.448 338.976 L
315.332 338.801 L
316.216 338.639 L
317.1 338.489 L
317.984 338.349 L
318.868 338.218 L
319.752 338.094 L
320.636 337.975 L
321.52 337.861 L
322.404 337.753 L
323.288 337.65 L
324.172 337.553 L
325.056 337.463 L
325.94 337.379 L
326.824 337.301 L
327.708 337.229 L
328.592 337.163 L
329.476 337.103 L
330.36 337.046 L
331.244 336.994 L
332.128 336.945 L
333.012 336.9 L
333.896 336.858 L
334.78 336.818 L
335.664 336.781 L
336.548 336.747 L
337.432 336.716 L
338.316 336.688 L
339.2 336.662 L
340.084 336.638 L
340.968 336.616 L
341.852 336.596 L
342.736 336.578 L
343.62 336.561 L
344.504 336.546 L
345.388 336.532 L
346.272 336.519 L
347.156 336.507 L
348.04 336.497 L
348.924 336.487 L
349.808 336.478 L
350.692 336.47 L
351.576 336.463 L
352.46 336.456 L
353.344 336.45 L
354.228 336.445 L
355.112 336.44 L
355.996 336.436 L
356.88 336.432 L
357.764 336.429 L
358.648 336.426 L
359.532 336.423 L
360.416 336.42 L
361.3 336.418 L
362.184 336.416 L
363.068 336.414 L
363.952 336.413 L
364.836 336.412 L
365.72 336.41 L
366.604 336.409 L
367.488 336.409 L
368.372 336.408 L
369.256 336.407 L
370.14 336.406 L
371.024 336.406 L
371.908 336.406 L
372.792 336.405 L
373.676 336.405 L
374.56 336.405 L
375.444 336.405 L
376.328 336.404 L
377.212 336.404 L
378.096 336.404 L
378.98 336.404 L
379.864 336.404 L
380.748 336.404 L
381.632 336.404 L
382.516 336.404 L
383.4 336.404 L
384.284 336.404 L
385.168 336.404 L
386.052 336.405 L
386.936 336.405 L
387.82 336.405 L
388.704 336.405 L
389.588 336.405 L
390.472 336.405 L
391.356 336.405 L
392.24 336.405 L
393.124 336.405 L
394.008 336.405 L
394.892 336.405 L
395.776 336.405 L
396.66 336.405 L
397.544 336.405 L
398.428 336.406 L
399.312 336.406 L
400.196 336.406 L
401.08 336.406 L
401.964 336.406 L
402.848 336.406 L
403.732 336.406 L
404.616 336.406 L
405.5 336.406 L
406.384 336.406 L
407.268 336.406 L
408.152 336.406 L
409.036 336.406 L
409.92 336.406 L
410.804 336.406 L
411.688 336.406 L
412.572 336.406 L
413.456 336.406 L
414.34 336.406 L
415.224 336.406 L
416.108 336.406 L
416.992 336.406 L
417.876 336.406 L
418.76 336.406 L
419.644 336.406 L
420.528 336.406 L
421.412 336.406 L
422.296 336.406 L
423.18 336.406 L
424.064 336.407 L
424.948 336.407 L
425.832 336.407 L
426.716 336.407 L
427.6 336.407 L
428.484 336.407 L
429.368 336.407 L
430.252 336.407 L
431.136 336.407 L
432.02 336.407 L
432.904 336.407 L
433.788 336.407 L
434.672 336.407 L
435.556 336.407 L
436.44 336.407 L
437.324 336.407 L
438.208 336.407 L
439.092 336.407 L
439.976 336.407 L
440.86 336.407 L
441.744 336.407 L
442.628 336.407 L
443.512 336.407 L
444.396 336.407 L
445.28 336.407 L
446.164 336.407 L
447.048 336.407 L
447.932 336.407 L
448.816 336.407 L
449.7 336.407 L
450.584 336.407 L
451.468 336.407 L
452.352 336.407 L
453.236 336.407 L
454.12 336.407 L
455.004 336.407 L
455.888 336.407 L
456.772 336.407 L
457.656 336.407 L
458.54 336.407 L
459.424 336.407 L
460.308 336.407 L
461.192 336.407 L
462.076 336.407 L
462.96 336.407 L
463.844 336.407 L
464.728 336.407 L
465.612 336.407 L
466.496 336.407 L
467.38 336.407 L
468.264 336.407 L
469.148 336.407 L
470.032 336.407 L
470.916 336.407 L
471.8 336.407 L
472.684 336.407 L
473.568 336.407 L
474.452 336.407 L
475.336 336.407 L
476.22 336.407 L
477.104 336.407 L
477.988 336.407 L
478.872 336.407 L
479.756 336.407 L
480.64 336.407 L
481.524 336.407 L
482.408 336.407 L
483.292 336.407 L
484.176 336.407 L
485.06 336.407 L
485.944 336.407 L
486.828 336.407 L
487.712 336.407 L
488.596 336.407 L
489.48 336.407 L
490.364 336.407 L
491.248 336.407 L
492.132 336.407 L
493.016 336.407 L
493.9 336.407 L
494.784 336.407 L
495.668 336.407 L
496.552 336.407 L
497.436 336.407 L
498.32 336.407 L
499.204 336.407 L
500.088 336.407 L
500.972 336.407 L
501.856 336.407 L
502.74 336.407 L
503.624 336.407 L
504.508 336.407 L
505.392 336.407 L
506.276 336.407 L
507.16 336.407 L
508.044 336.407 L
508.928 336.407 L
509.812 336.407 L
510.696 336.407 L
511.58 336.407 L
512.464 336.407 L
513.348 336.407 L
514.232 336.407 L
515.116 336.407 L
516 336.407 L
S
GR
GS
[0.75 0 0 0.75 0 0.25] CT
1 GC
N
505 101 M
505 41 L
326 41 L
326 101 L
cp
f
GR
GS
[0.75 0 0 0.75 279.75 44.5] CT
/Helvetica 16.8 F
GS
[1 0 0 1 0 0] CT
0 0 moveto 
1 -1 scale
(pitch) t 
GR
GR
GS
[0.75 0 0 0.75 311.25 50.5] CT
/Helvetica 13.44 F
GS
[1 0 0 1 0 0] CT
0 0 moveto 
1 -1 scale
(optimizaci\363n) t 
GR
GR
GS
[0.75 0 0 0.75 0 0.25] CT
0.851 0.325 0.098 RC
1 LJ
2.667 LW
N
330 56.868 M
370 56.868 L
S
GR
GS
[0.75 0 0 0.75 279.75 65.5] CT
/Helvetica 16.8 F
GS
[1 0 0 1 0 0] CT
0 0 moveto 
1 -1 scale
(pitch) t 
GR
GR
GS
[0.75 0 0 0.75 311.25 71.5] CT
/Helvetica 13.44 F
GS
[1 0 0 1 0 0] CT
0 0 moveto 
1 -1 scale
(anal\355tico) t 
GR
GR
GS
[0.75 0 0 0.75 0 0.25] CT
0.851 0.325 0.098 RC
[4 4] 0 setdash
2 LJ
4 LW
N
330 85.132 M
370 85.132 L
S
GR
GS
[0.75 0 0 0.75 0 0.25] CT
0.149 GC
10.0 ML
0.667 LW
N
326 101 M
326 41 L
505 41 L
505 101 L
cp
S
GR
%%Trailer
%%Pages: 1
%%EOF
