%!PS-Adobe-3.0 EPSF-3.0
%%Creator: (MATLAB, The Mathworks, Inc. Version 9.4.0.813654 \(R2018a\). Operating System: Linux)
%%Title: /home/isidro/google-drive/TFG/tilt-rotor-matlab/figuras/memoria/optimizacion/omega.eps
%%CreationDate: 2019-09-06T14:08:56
%%Pages: (atend)
%%BoundingBox: 0 0 428 326
%%LanguageLevel: 3
%%EndComments
%%BeginProlog
%%BeginResource: procset (Apache XML Graphics Std ProcSet) 1.2 0
%%Version: 1.2 0
%%Copyright: (Copyright 2001-2003,2010 The Apache Software Foundation. License terms: http://www.apache.org/licenses/LICENSE-2.0)
/bd{bind def}bind def
/ld{load def}bd
/GR/grestore ld
/GS/gsave ld
/RM/rmoveto ld
/C/curveto ld
/t/show ld
/L/lineto ld
/ML/setmiterlimit ld
/CT/concat ld
/f/fill ld
/N/newpath ld
/S/stroke ld
/CC/setcmykcolor ld
/A/ashow ld
/cp/closepath ld
/RC/setrgbcolor ld
/LJ/setlinejoin ld
/GC/setgray ld
/LW/setlinewidth ld
/M/moveto ld
/re {4 2 roll M
1 index 0 rlineto
0 exch rlineto
neg 0 rlineto
cp } bd
/_ctm matrix def
/_tm matrix def
/BT { _ctm currentmatrix pop matrix _tm copy pop 0 0 moveto } bd
/ET { _ctm setmatrix } bd
/iTm { _ctm setmatrix _tm concat } bd
/Tm { _tm astore pop iTm 0 0 moveto } bd
/ux 0.0 def
/uy 0.0 def
/F {
  /Tp exch def
  /Tf exch def
  Tf findfont Tp scalefont setfont
  /cf Tf def  /cs Tp def
} bd
/ULS {currentpoint /uy exch def /ux exch def} bd
/ULE {
  /Tcx currentpoint pop def
  gsave
  newpath
  cf findfont cs scalefont dup
  /FontMatrix get 0 get /Ts exch def /FontInfo get dup
  /UnderlinePosition get Ts mul /To exch def
  /UnderlineThickness get Ts mul /Tt exch def
  ux uy To add moveto  Tcx uy To add lineto
  Tt setlinewidth stroke
  grestore
} bd
/OLE {
  /Tcx currentpoint pop def
  gsave
  newpath
  cf findfont cs scalefont dup
  /FontMatrix get 0 get /Ts exch def /FontInfo get dup
  /UnderlinePosition get Ts mul /To exch def
  /UnderlineThickness get Ts mul /Tt exch def
  ux uy To add cs add moveto Tcx uy To add cs add lineto
  Tt setlinewidth stroke
  grestore
} bd
/SOE {
  /Tcx currentpoint pop def
  gsave
  newpath
  cf findfont cs scalefont dup
  /FontMatrix get 0 get /Ts exch def /FontInfo get dup
  /UnderlinePosition get Ts mul /To exch def
  /UnderlineThickness get Ts mul /Tt exch def
  ux uy To add cs 10 mul 26 idiv add moveto Tcx uy To add cs 10 mul 26 idiv add lineto
  Tt setlinewidth stroke
  grestore
} bd
/QT {
/Y22 exch store
/X22 exch store
/Y21 exch store
/X21 exch store
currentpoint
/Y21 load 2 mul add 3 div exch
/X21 load 2 mul add 3 div exch
/X21 load 2 mul /X22 load add 3 div
/Y21 load 2 mul /Y22 load add 3 div
/X22 load /Y22 load curveto
} bd
/SSPD {
dup length /d exch dict def
{
/v exch def
/k exch def
currentpagedevice k known {
/cpdv currentpagedevice k get def
v cpdv ne {
/upd false def
/nullv v type /nulltype eq def
/nullcpdv cpdv type /nulltype eq def
nullv nullcpdv or
{
/upd true def
} {
/sametype v type cpdv type eq def
sametype {
v type /arraytype eq {
/vlen v length def
/cpdvlen cpdv length def
vlen cpdvlen eq {
0 1 vlen 1 sub {
/i exch def
/obj v i get def
/cpdobj cpdv i get def
obj cpdobj ne {
/upd true def
exit
} if
} for
} {
/upd true def
} ifelse
} {
v type /dicttype eq {
v {
/dv exch def
/dk exch def
/cpddv cpdv dk get def
dv cpddv ne {
/upd true def
exit
} if
} forall
} {
/upd true def
} ifelse
} ifelse
} if
} ifelse
upd true eq {
d k v put
} if
} if
} if
} forall
d length 0 gt {
d setpagedevice
} if
} bd
/RE { % /NewFontName [NewEncodingArray] /FontName RE -
  findfont dup length dict begin
  {
    1 index /FID ne
    {def} {pop pop} ifelse
  } forall
  /Encoding exch def
  /FontName 1 index def
  currentdict definefont pop
  end
} bind def
%%EndResource
%%BeginResource: procset (Apache XML Graphics EPS ProcSet) 1.0 0
%%Version: 1.0 0
%%Copyright: (Copyright 2002-2003 The Apache Software Foundation. License terms: http://www.apache.org/licenses/LICENSE-2.0)
/BeginEPSF { %def
/b4_Inc_state save def         % Save state for cleanup
/dict_count countdictstack def % Count objects on dict stack
/op_count count 1 sub def      % Count objects on operand stack
userdict begin                 % Push userdict on dict stack
/showpage { } def              % Redefine showpage, { } = null proc
0 setgray 0 setlinecap         % Prepare graphics state
1 setlinewidth 0 setlinejoin
10 setmiterlimit [ ] 0 setdash newpath
/languagelevel where           % If level not equal to 1 then
{pop languagelevel             % set strokeadjust and
1 ne                           % overprint to their defaults.
{false setstrokeadjust false setoverprint
} if
} if
} bd
/EndEPSF { %def
count op_count sub {pop} repeat            % Clean up stacks
countdictstack dict_count sub {end} repeat
b4_Inc_state restore
} bd
%%EndResource
%FOPBeginFontDict
%%IncludeResource: font Courier-Oblique
%%IncludeResource: font Courier-BoldOblique
%%IncludeResource: font Courier-Bold
%%IncludeResource: font ZapfDingbats
%%IncludeResource: font Symbol
%%IncludeResource: font Helvetica
%%IncludeResource: font Helvetica-Oblique
%%IncludeResource: font Helvetica-Bold
%%IncludeResource: font Helvetica-BoldOblique
%%IncludeResource: font Times-Roman
%%IncludeResource: font Times-Italic
%%IncludeResource: font Times-Bold
%%IncludeResource: font Times-BoldItalic
%%IncludeResource: font Courier
%FOPEndFontDict
%%BeginResource: encoding WinAnsiEncoding
/WinAnsiEncoding [
/.notdef /.notdef /.notdef /.notdef /.notdef
/.notdef /.notdef /.notdef /.notdef /.notdef
/.notdef /.notdef /.notdef /.notdef /.notdef
/.notdef /.notdef /.notdef /.notdef /.notdef
/.notdef /.notdef /.notdef /.notdef /.notdef
/.notdef /.notdef /.notdef /.notdef /.notdef
/.notdef /.notdef /space /exclam /quotedbl
/numbersign /dollar /percent /ampersand /quotesingle
/parenleft /parenright /asterisk /plus /comma
/hyphen /period /slash /zero /one
/two /three /four /five /six
/seven /eight /nine /colon /semicolon
/less /equal /greater /question /at
/A /B /C /D /E
/F /G /H /I /J
/K /L /M /N /O
/P /Q /R /S /T
/U /V /W /X /Y
/Z /bracketleft /backslash /bracketright /asciicircum
/underscore /quoteleft /a /b /c
/d /e /f /g /h
/i /j /k /l /m
/n /o /p /q /r
/s /t /u /v /w
/x /y /z /braceleft /bar
/braceright /asciitilde /bullet /Euro /bullet
/quotesinglbase /florin /quotedblbase /ellipsis /dagger
/daggerdbl /circumflex /perthousand /Scaron /guilsinglleft
/OE /bullet /Zcaron /bullet /bullet
/quoteleft /quoteright /quotedblleft /quotedblright /bullet
/endash /emdash /asciitilde /trademark /scaron
/guilsinglright /oe /bullet /zcaron /Ydieresis
/space /exclamdown /cent /sterling /currency
/yen /brokenbar /section /dieresis /copyright
/ordfeminine /guillemotleft /logicalnot /sfthyphen /registered
/macron /degree /plusminus /twosuperior /threesuperior
/acute /mu /paragraph /middot /cedilla
/onesuperior /ordmasculine /guillemotright /onequarter /onehalf
/threequarters /questiondown /Agrave /Aacute /Acircumflex
/Atilde /Adieresis /Aring /AE /Ccedilla
/Egrave /Eacute /Ecircumflex /Edieresis /Igrave
/Iacute /Icircumflex /Idieresis /Eth /Ntilde
/Ograve /Oacute /Ocircumflex /Otilde /Odieresis
/multiply /Oslash /Ugrave /Uacute /Ucircumflex
/Udieresis /Yacute /Thorn /germandbls /agrave
/aacute /acircumflex /atilde /adieresis /aring
/ae /ccedilla /egrave /eacute /ecircumflex
/edieresis /igrave /iacute /icircumflex /idieresis
/eth /ntilde /ograve /oacute /ocircumflex
/otilde /odieresis /divide /oslash /ugrave
/uacute /ucircumflex /udieresis /yacute /thorn
/ydieresis
] def
%%EndResource
%FOPBeginFontReencode
/Courier-Oblique findfont
dup length dict begin
  {1 index /FID ne {def} {pop pop} ifelse} forall
  /Encoding WinAnsiEncoding def
  currentdict
end
/Courier-Oblique exch definefont pop
/Courier-BoldOblique findfont
dup length dict begin
  {1 index /FID ne {def} {pop pop} ifelse} forall
  /Encoding WinAnsiEncoding def
  currentdict
end
/Courier-BoldOblique exch definefont pop
/Courier-Bold findfont
dup length dict begin
  {1 index /FID ne {def} {pop pop} ifelse} forall
  /Encoding WinAnsiEncoding def
  currentdict
end
/Courier-Bold exch definefont pop
/Helvetica findfont
dup length dict begin
  {1 index /FID ne {def} {pop pop} ifelse} forall
  /Encoding WinAnsiEncoding def
  currentdict
end
/Helvetica exch definefont pop
/Helvetica-Oblique findfont
dup length dict begin
  {1 index /FID ne {def} {pop pop} ifelse} forall
  /Encoding WinAnsiEncoding def
  currentdict
end
/Helvetica-Oblique exch definefont pop
/Helvetica-Bold findfont
dup length dict begin
  {1 index /FID ne {def} {pop pop} ifelse} forall
  /Encoding WinAnsiEncoding def
  currentdict
end
/Helvetica-Bold exch definefont pop
/Helvetica-BoldOblique findfont
dup length dict begin
  {1 index /FID ne {def} {pop pop} ifelse} forall
  /Encoding WinAnsiEncoding def
  currentdict
end
/Helvetica-BoldOblique exch definefont pop
/Times-Roman findfont
dup length dict begin
  {1 index /FID ne {def} {pop pop} ifelse} forall
  /Encoding WinAnsiEncoding def
  currentdict
end
/Times-Roman exch definefont pop
/Times-Italic findfont
dup length dict begin
  {1 index /FID ne {def} {pop pop} ifelse} forall
  /Encoding WinAnsiEncoding def
  currentdict
end
/Times-Italic exch definefont pop
/Times-Bold findfont
dup length dict begin
  {1 index /FID ne {def} {pop pop} ifelse} forall
  /Encoding WinAnsiEncoding def
  currentdict
end
/Times-Bold exch definefont pop
/Times-BoldItalic findfont
dup length dict begin
  {1 index /FID ne {def} {pop pop} ifelse} forall
  /Encoding WinAnsiEncoding def
  currentdict
end
/Times-BoldItalic exch definefont pop
/Courier findfont
dup length dict begin
  {1 index /FID ne {def} {pop pop} ifelse} forall
  /Encoding WinAnsiEncoding def
  currentdict
end
/Courier exch definefont pop
%FOPEndFontReencode
%%EndProlog
%%Page: 1 1
%%PageBoundingBox: 0 0 428 326
%%BeginPageSetup
[1 0 0 -1 0 326] CT
%%EndPageSetup
GS
[0.75 0 0 0.75 0 -0.25] CT
N
0 0 M
570 0 L
570 435 L
0 435 L
0 0 L
cp
clip
1 GC
N
0 0 570 435 re
f
GR
GS
[0.75 0 0 0.75 0 -0.25] CT
1 GC
N
0 0 570 435 re
f
GR
GS
[0.75 0 0 0.75 0 -0.25] CT
1 GC
N
74 379 M
516 379 L
516 33 L
74 33 L
cp
f
GR
GS
[0.75 0 0 0.75 0 -0.25] CT
0.873 GC
1 LJ
0.667 LW
N
74 379 M
74 33 L
S
GR
GS
[0.75 0 0 0.75 0 -0.25] CT
0.873 GC
1 LJ
0.667 LW
N
162.4 379 M
162.4 33 L
S
GR
GS
[0.75 0 0 0.75 0 -0.25] CT
0.873 GC
1 LJ
0.667 LW
N
250.8 379 M
250.8 33 L
S
GR
GS
[0.75 0 0 0.75 0 -0.25] CT
0.873 GC
1 LJ
0.667 LW
N
339.2 379 M
339.2 33 L
S
GR
GS
[0.75 0 0 0.75 0 -0.25] CT
0.873 GC
1 LJ
0.667 LW
N
427.6 379 M
427.6 33 L
S
GR
GS
[0.75 0 0 0.75 0 -0.25] CT
0.873 GC
1 LJ
0.667 LW
N
516 379 M
516 33 L
S
GR
GS
[0.75 0 0 0.75 0 -0.25] CT
0.873 GC
1 LJ
0.667 LW
N
516 379 M
74 379 L
S
GR
GS
[0.75 0 0 0.75 0 -0.25] CT
0.873 GC
1 LJ
0.667 LW
N
516 335.75 M
74 335.75 L
S
GR
GS
[0.75 0 0 0.75 0 -0.25] CT
0.873 GC
1 LJ
0.667 LW
N
516 292.5 M
74 292.5 L
S
GR
GS
[0.75 0 0 0.75 0 -0.25] CT
0.873 GC
1 LJ
0.667 LW
N
516 249.25 M
74 249.25 L
S
GR
GS
[0.75 0 0 0.75 0 -0.25] CT
0.873 GC
1 LJ
0.667 LW
N
516 206 M
74 206 L
S
GR
GS
[0.75 0 0 0.75 0 -0.25] CT
0.873 GC
1 LJ
0.667 LW
N
516 162.75 M
74 162.75 L
S
GR
GS
[0.75 0 0 0.75 0 -0.25] CT
0.873 GC
1 LJ
0.667 LW
N
516 119.5 M
74 119.5 L
S
GR
GS
[0.75 0 0 0.75 0 -0.25] CT
0.873 GC
1 LJ
0.667 LW
N
516 76.25 M
74 76.25 L
S
GR
GS
[0.75 0 0 0.75 0 -0.25] CT
0.873 GC
1 LJ
0.667 LW
N
516 33 M
74 33 L
S
GR
GS
[0.75 0 0 0.75 0 -0.25] CT
0.149 GC
2 setlinecap
1 LJ
0.667 LW
N
74 379 M
516 379 L
S
GR
GS
[0.75 0 0 0.75 0 -0.25] CT
0.149 GC
2 setlinecap
1 LJ
0.667 LW
N
74 379 M
74 374.58 L
S
GR
GS
[0.75 0 0 0.75 0 -0.25] CT
0.149 GC
2 setlinecap
1 LJ
0.667 LW
N
162.4 379 M
162.4 374.58 L
S
GR
GS
[0.75 0 0 0.75 0 -0.25] CT
0.149 GC
2 setlinecap
1 LJ
0.667 LW
N
250.8 379 M
250.8 374.58 L
S
GR
GS
[0.75 0 0 0.75 0 -0.25] CT
0.149 GC
2 setlinecap
1 LJ
0.667 LW
N
339.2 379 M
339.2 374.58 L
S
GR
GS
[0.75 0 0 0.75 0 -0.25] CT
0.149 GC
2 setlinecap
1 LJ
0.667 LW
N
427.6 379 M
427.6 374.58 L
S
GR
GS
[0.75 0 0 0.75 0 -0.25] CT
0.149 GC
2 setlinecap
1 LJ
0.667 LW
N
516 379 M
516 374.58 L
S
GR
GS
[0.75 0 0 0.75 55.5 288.8] CT
0.149 GC
/Helvetica 18.667 F
GS
[1 0 0 1 0 0] CT
-6 18 moveto 
1 -1 scale
(0) t 
GR
GR
GS
[0.75 0 0 0.75 121.8 288.8] CT
0.149 GC
/Helvetica 18.667 F
GS
[1 0 0 1 0 0] CT
-15 18 moveto 
1 -1 scale
(0.2) t 
GR
GR
GS
[0.75 0 0 0.75 188.1 288.8] CT
0.149 GC
/Helvetica 18.667 F
GS
[1 0 0 1 0 0] CT
-15 18 moveto 
1 -1 scale
(0.4) t 
GR
GR
GS
[0.75 0 0 0.75 254.40001 288.8] CT
0.149 GC
/Helvetica 18.667 F
GS
[1 0 0 1 0 0] CT
-15 18 moveto 
1 -1 scale
(0.6) t 
GR
GR
GS
[0.75 0 0 0.75 320.7 288.8] CT
0.149 GC
/Helvetica 18.667 F
GS
[1 0 0 1 0 0] CT
-15 18 moveto 
1 -1 scale
(0.8) t 
GR
GR
GS
[0.75 0 0 0.75 387 288.8] CT
0.149 GC
/Helvetica 18.667 F
GS
[1 0 0 1 0 0] CT
-6 18 moveto 
1 -1 scale
(1) t 
GR
GR
GS
[0.75 0 0 0.75 221.25016 307.05] CT
0.149 GC
/Helvetica 20.533 F
GS
[1 0 0 1 0 0] CT
-17.5 20 moveto 
1 -1 scale
(t\(s\)) t 
GR
GR
GS
[0.75 0 0 0.75 0 -0.25] CT
0.149 GC
2 setlinecap
1 LJ
0.667 LW
N
74 379 M
74 33 L
S
GR
GS
[0.75 0 0 0.75 0 -0.25] CT
0.149 GC
2 setlinecap
1 LJ
0.667 LW
N
74 379 M
78.42 379 L
S
GR
GS
[0.75 0 0 0.75 0 -0.25] CT
0.149 GC
2 setlinecap
1 LJ
0.667 LW
N
74 335.75 M
78.42 335.75 L
S
GR
GS
[0.75 0 0 0.75 0 -0.25] CT
0.149 GC
2 setlinecap
1 LJ
0.667 LW
N
74 292.5 M
78.42 292.5 L
S
GR
GS
[0.75 0 0 0.75 0 -0.25] CT
0.149 GC
2 setlinecap
1 LJ
0.667 LW
N
74 249.25 M
78.42 249.25 L
S
GR
GS
[0.75 0 0 0.75 0 -0.25] CT
0.149 GC
2 setlinecap
1 LJ
0.667 LW
N
74 206 M
78.42 206 L
S
GR
GS
[0.75 0 0 0.75 0 -0.25] CT
0.149 GC
2 setlinecap
1 LJ
0.667 LW
N
74 162.75 M
78.42 162.75 L
S
GR
GS
[0.75 0 0 0.75 0 -0.25] CT
0.149 GC
2 setlinecap
1 LJ
0.667 LW
N
74 119.5 M
78.42 119.5 L
S
GR
GS
[0.75 0 0 0.75 0 -0.25] CT
0.149 GC
2 setlinecap
1 LJ
0.667 LW
N
74 76.25 M
78.42 76.25 L
S
GR
GS
[0.75 0 0 0.75 0 -0.25] CT
0.149 GC
2 setlinecap
1 LJ
0.667 LW
N
74 33 M
78.42 33 L
S
GR
GS
[0.75 0 0 0.75 50.7 284] CT
0.149 GC
/Helvetica 18.667 F
GS
[1 0 0 1 0 0] CT
-12 6.5 moveto 
1 -1 scale
(0) t 
GR
GR
GS
[0.75 0 0 0.75 50.7 251.5625] CT
0.149 GC
/Helvetica 18.667 F
GS
[1 0 0 1 0 0] CT
-30 6.5 moveto 
1 -1 scale
(0.5) t 
GR
GR
GS
[0.75 0 0 0.75 50.7 219.125] CT
0.149 GC
/Helvetica 18.667 F
GS
[1 0 0 1 0 0] CT
-12 6.5 moveto 
1 -1 scale
(1) t 
GR
GR
GS
[0.75 0 0 0.75 50.7 186.6875] CT
0.149 GC
/Helvetica 18.667 F
GS
[1 0 0 1 0 0] CT
-30 6.5 moveto 
1 -1 scale
(1.5) t 
GR
GR
GS
[0.75 0 0 0.75 50.7 154.25] CT
0.149 GC
/Helvetica 18.667 F
GS
[1 0 0 1 0 0] CT
-12 6.5 moveto 
1 -1 scale
(2) t 
GR
GR
GS
[0.75 0 0 0.75 50.7 121.8125] CT
0.149 GC
/Helvetica 18.667 F
GS
[1 0 0 1 0 0] CT
-30 6.5 moveto 
1 -1 scale
(2.5) t 
GR
GR
GS
[0.75 0 0 0.75 50.7 89.375] CT
0.149 GC
/Helvetica 18.667 F
GS
[1 0 0 1 0 0] CT
-12 6.5 moveto 
1 -1 scale
(3) t 
GR
GR
GS
[0.75 0 0 0.75 50.7 56.9375] CT
0.149 GC
/Helvetica 18.667 F
GS
[1 0 0 1 0 0] CT
-30 6.5 moveto 
1 -1 scale
(3.5) t 
GR
GR
GS
[0.75 0 0 0.75 50.7 24.5] CT
0.149 GC
/Helvetica 18.667 F
GS
[1 0 0 1 0 0] CT
-12 6.5 moveto 
1 -1 scale
(4) t 
GR
GR
GS
[0 -0.75 0.75 0 21.75 188] CT
0.149 GC
N
1.625 0 M
0.922 -3.484 L
1.531 -3.484 L
1.656 -2.875 1.742 -2.414 QT
1.828 -1.953 1.984 -1.758 QT
2.141 -1.563 2.469 -1.508 QT
2.797 -1.453 3.547 -1.453 QT
4.828 -1.453 L
4.516 -2.641 3.297 -4.547 QT
2.078 -6.453 1.625 -7.32 QT
1.172 -8.188 1.172 -9.563 QT
1.172 -11.141 2.117 -12.336 QT
3.063 -13.531 4.555 -14.172 QT
6.047 -14.813 7.578 -14.813 QT
9.094 -14.813 10.586 -14.172 QT
12.078 -13.531 13.023 -12.328 QT
13.969 -11.125 13.969 -9.563 QT
13.969 -8.484 13.578 -7.547 QT
13.188 -6.609 12.586 -5.664 QT
11.984 -4.719 11.281 -3.563 QT
10.578 -2.406 10.313 -1.453 QT
11.594 -1.453 L
12.359 -1.453 12.695 -1.508 QT
13.031 -1.563 13.172 -1.758 QT
13.313 -1.953 13.406 -2.414 QT
13.5 -2.875 13.609 -3.484 QT
14.219 -3.484 L
13.531 0 L
9.797 0 L
9.594 0 9.594 -0.281 QT
9.594 -1.344 9.859 -2.367 QT
10.125 -3.391 10.633 -4.852 QT
11.141 -6.313 11.43 -7.422 QT
11.719 -8.531 11.719 -9.563 QT
11.719 -10.813 11.227 -11.891 QT
10.734 -12.969 9.789 -13.617 QT
8.844 -14.266 7.578 -14.266 QT
5.656 -14.266 4.539 -12.898 QT
3.422 -11.531 3.422 -9.563 QT
3.438 -8.484 3.68 -7.531 QT
3.922 -6.578 4.477 -4.984 QT
5.031 -3.391 5.289 -2.367 QT
5.547 -1.344 5.547 -0.281 QT
5.547 0 5.328 0 QT
1.625 0 L
cp
f
GR
GS
[0 -0.75 0.75 0 21.75 176.75] CT
0.149 GC
/Helvetica 20.533 F
GS
[1 0 0 1 0 0] CT
0 0 moveto 
1 -1 scale
( \(rad/s\)) t 
GR
GR
GS
[0.75 0 0 0.75 167.25 17.75] CT
/Helvetica-Bold 20.533 F
GS
[1 0 0 1 0 0] CT
0 0 moveto 
1 -1 scale
(Control de ) t 
GR
GR
GS
[0.75 0 0 0.75 263.25 17.75] CT
N
1.625 0 M
0.922 -3.484 L
2.531 -3.484 L
2.656 -2.875 2.742 -2.414 QT
2.828 -1.953 2.984 -1.758 QT
3.141 -1.563 3.469 -1.508 QT
3.797 -1.453 3.797 -1.453 QT
4.828 -1.453 L
4.516 -2.641 3.297 -4.547 QT
2.078 -6.453 1.625 -7.32 QT
1.172 -8.188 1.172 -9.563 QT
1.172 -11.141 2.117 -12.336 QT
3.063 -13.531 4.555 -14.172 QT
6.047 -14.813 7.578 -14.813 QT
10.094 -14.813 11.586 -14.172 QT
13.078 -13.531 14.023 -12.328 QT
14.969 -11.125 14.969 -9.563 QT
14.969 -8.484 14.578 -7.547 QT
14.188 -6.609 13.586 -5.664 QT
12.984 -4.719 12.281 -3.563 QT
11.578 -2.406 11.313 -1.453 QT
11.594 -1.453 L
12.359 -1.453 12.695 -1.508 QT
13.031 -1.563 13.172 -1.758 QT
13.313 -1.953 13.406 -2.414 QT
13.5 -2.875 13.609 -3.484 QT
15.219 -3.484 L
14.531 0 L
9.797 0 L
9.594 0 9.594 -0.281 QT
9.594 -1.344 9.859 -2.367 QT
10.125 -3.391 10.633 -4.852 QT
11.141 -6.313 11.43 -7.422 QT
11.719 -8.531 11.719 -9.563 QT
11.719 -10.813 11.227 -11.891 QT
10.734 -12.969 9.789 -13.617 QT
8.844 -14.266 7.578 -14.266 QT
6.656 -14.266 5.539 -12.898 QT
4.422 -11.531 4.422 -9.563 QT
4.438 -8.484 4.68 -7.531 QT
4.922 -6.578 5.477 -4.984 QT
6.031 -3.391 6.289 -2.367 QT
6.547 -1.344 6.547 -0.281 QT
6.547 0 5.328 0 QT
1.625 0 L
cp
f
GR
GS
[0.75 0 0 0.75 0 -0.25] CT
0.851 0.325 0.098 RC
[4 4] 0 setdash
2 LJ
4 LW
N
74 379 M
74 379 L
74.001 379 L
74.004 379 L
74.018 379 L
74.089 379 L
74.446 379 L
75.768 379 L
77.536 379 L
79.304 379 L
81.072 379 L
82.84 379 L
83.88 379 L
84.391 379 L
84.608 379 L
84.802 379 L
85.772 379 L
86.376 379 L
87.532 379 L
88.144 379 L
88.639 379 L
89.912 379 L
91.68 379 L
93.111 379 L
93.448 379 L
95.216 379 L
96.984 379 L
98.752 379 L
100.52 379 L
102.288 379 L
104.056 379 L
105.824 379 L
107.592 379 L
109.36 379 L
111.128 379 L
112.896 379 L
114.664 379 L
116.432 379 L
118.2 379 L
118.2 379 L
118.2 379 L
118.897 379 L
119.026 379 L
119.067 379 L
119.108 379 L
119.142 378.996 L
119.307 378.934 L
119.968 377.977 L
121.736 370.939 L
123.504 359.468 L
125.272 345.357 L
127.04 329.665 L
128.808 313.009 L
130.576 295.754 L
132.344 278.119 L
134.112 260.239 L
135.88 242.199 L
137.648 224.054 L
139.416 205.84 L
141.184 187.589 L
142.952 169.467 L
144.72 152.179 L
146.488 136.451 L
148.256 122.93 L
150.024 112.083 L
151.792 104.062 L
153.56 98.66 L
155.328 95.367 L
157.096 93.506 L
158.864 92.389 L
160.632 91.439 L
162.4 90.271 L
164.168 88.715 L
165.936 86.794 L
167.704 84.668 L
169.472 82.561 L
171.24 80.693 L
173.008 79.225 L
174.776 78.232 L
176.544 77.699 L
178.312 77.535 L
180.08 77.608 L
181.848 77.777 L
183.616 77.92 L
185.384 77.957 L
187.152 77.856 L
188.92 77.628 L
190.688 77.314 L
192.456 76.973 L
194.224 76.661 L
195.992 76.419 L
197.76 76.271 L
199.528 76.215 L
201.296 76.234 L
203.064 76.301 L
204.832 76.382 L
206.6 76.452 L
208.368 76.493 L
210.136 76.496 L
211.904 76.465 L
213.672 76.411 L
215.44 76.346 L
217.208 76.286 L
218.976 76.239 L
220.744 76.212 L
222.512 76.205 L
224.28 76.215 L
226.048 76.235 L
227.816 76.258 L
229.584 76.278 L
231.352 76.291 L
233.12 76.295 L
234.888 76.29 L
236.656 76.279 L
238.424 76.266 L
240.192 76.253 L
241.96 76.243 L
243.728 76.237 L
245.496 76.236 L
247.264 76.239 L
249.032 76.244 L
250.8 76.249 L
252.568 76.255 L
254.336 76.258 L
256.104 76.259 L
257.872 76.258 L
259.64 76.256 L
261.408 76.253 L
263.176 76.25 L
264.944 76.248 L
266.712 76.247 L
268.48 76.246 L
270.248 76.247 L
272.016 76.248 L
273.784 76.25 L
275.552 76.251 L
277.32 76.252 L
279.088 76.252 L
280.856 76.252 L
282.624 76.251 L
284.392 76.251 L
286.16 76.25 L
287.928 76.249 L
289.696 76.249 L
291.464 76.249 L
293.232 76.249 L
295 76.25 L
295 76.25 L
295 76.25 L
296.768 71.925 L
298.536 67.639 L
300.304 63.728 L
302.072 60.567 L
303.84 58.46 L
305.608 57.506 L
307.376 57.561 L
309.144 58.307 L
310.912 59.364 L
312.68 60.38 L
314.448 61.092 L
316.216 61.366 L
317.984 61.196 L
319.752 60.675 L
321.52 59.959 L
323.288 59.219 L
325.056 58.598 L
326.824 58.187 L
328.592 58.018 L
330.36 58.065 L
332.128 58.263 L
333.896 58.531 L
335.664 58.792 L
337.432 58.986 L
339.2 59.081 L
340.968 59.073 L
342.736 58.983 L
344.504 58.843 L
346.272 58.692 L
348.04 58.561 L
349.808 58.474 L
351.576 58.438 L
353.344 58.449 L
355.112 58.494 L
356.88 58.556 L
358.648 58.617 L
360.416 58.664 L
362.184 58.69 L
363.952 58.693 L
365.72 58.676 L
367.488 58.648 L
369.256 58.616 L
371.024 58.588 L
372.792 58.568 L
374.56 58.559 L
376.328 58.561 L
378.096 58.571 L
379.864 58.585 L
381.632 58.599 L
383.4 58.61 L
385.168 58.616 L
386.936 58.617 L
388.704 58.614 L
390.472 58.609 L
392.24 58.602 L
394.008 58.595 L
395.776 58.591 L
397.544 58.589 L
399.312 58.589 L
401.08 58.591 L
402.848 58.594 L
404.616 58.597 L
406.384 58.6 L
408.152 58.601 L
409.92 58.602 L
411.688 58.601 L
413.456 58.6 L
415.224 58.598 L
416.992 58.597 L
418.76 58.596 L
420.528 58.596 L
422.296 58.596 L
424.064 58.596 L
425.832 58.597 L
427.6 58.597 L
429.368 58.598 L
431.136 58.598 L
432.904 58.598 L
434.672 58.598 L
436.44 58.598 L
438.208 58.598 L
439.976 58.597 L
441.744 58.597 L
443.512 58.597 L
445.28 58.597 L
447.048 58.597 L
448.816 58.597 L
450.584 58.597 L
452.352 58.597 L
454.12 58.598 L
455.888 58.598 L
457.656 58.598 L
459.424 58.598 L
461.192 58.597 L
462.96 58.597 L
464.728 58.597 L
466.496 58.597 L
468.264 58.597 L
470.032 58.597 L
471.8 58.597 L
473.568 58.597 L
475.336 58.597 L
477.104 58.597 L
478.872 58.597 L
480.64 58.597 L
482.408 58.597 L
484.176 58.597 L
485.944 58.597 L
487.712 58.597 L
489.48 58.597 L
491.248 58.597 L
493.016 58.597 L
494.784 58.597 L
496.552 58.597 L
498.32 58.597 L
500.088 58.597 L
501.856 58.597 L
503.624 58.597 L
505.392 58.597 L
507.16 58.597 L
508.928 58.597 L
510.696 58.597 L
512.464 58.597 L
514.232 58.597 L
516 58.597 L
S
GR
GS
[0.75 0 0 0.75 0 -0.25] CT
0.851 0.325 0.098 RC
[8 8] 0 setdash
2 LJ
2.667 LW
N
74 379 M
74 379 L
74.001 379 L
74.004 379 L
74.018 379 L
74.089 379 L
74.446 379 L
75.768 379 L
77.536 379 L
79.304 379 L
81.072 379 L
82.84 379 L
83.88 379 L
84.391 379 L
84.608 379 L
84.802 379 L
85.772 379 L
86.376 379 L
87.532 379 L
88.144 379 L
88.639 379 L
89.912 379 L
91.68 379 L
93.111 379 L
93.448 379 L
95.216 379 L
96.984 379 L
98.752 379 L
100.52 379 L
102.288 379 L
104.056 379 L
105.824 379 L
107.592 379 L
109.36 379 L
111.128 379 L
112.896 379 L
114.664 379 L
116.432 379 L
118.2 379 L
118.2 76.25 L
118.2 76.25 L
118.897 76.25 L
119.026 76.25 L
119.067 76.25 L
119.108 76.25 L
119.142 76.25 L
119.307 76.25 L
119.968 76.25 L
121.736 76.25 L
123.504 76.25 L
125.272 76.25 L
127.04 76.25 L
128.808 76.25 L
130.576 76.25 L
132.344 76.25 L
134.112 76.25 L
135.88 76.25 L
137.648 76.25 L
139.416 76.25 L
141.184 76.25 L
142.952 76.25 L
144.72 76.25 L
146.488 76.25 L
148.256 76.25 L
150.024 76.25 L
151.792 76.25 L
153.56 76.25 L
155.328 76.25 L
157.096 76.25 L
158.864 76.25 L
160.632 76.25 L
162.4 76.25 L
164.168 76.25 L
165.936 76.25 L
167.704 76.25 L
169.472 76.25 L
171.24 76.25 L
173.008 76.25 L
174.776 76.25 L
176.544 76.25 L
178.312 76.25 L
180.08 76.25 L
181.848 76.25 L
183.616 76.25 L
185.384 76.25 L
187.152 76.25 L
188.92 76.25 L
190.688 76.25 L
192.456 76.25 L
194.224 76.25 L
195.992 76.25 L
197.76 76.25 L
199.528 76.25 L
201.296 76.25 L
203.064 76.25 L
204.832 76.25 L
206.6 76.25 L
208.368 76.25 L
210.136 76.25 L
211.904 76.25 L
213.672 76.25 L
215.44 76.25 L
217.208 76.25 L
218.976 76.25 L
220.744 76.25 L
222.512 76.25 L
224.28 76.25 L
226.048 76.25 L
227.816 76.25 L
229.584 76.25 L
231.352 76.25 L
233.12 76.25 L
234.888 76.25 L
236.656 76.25 L
238.424 76.25 L
240.192 76.25 L
241.96 76.25 L
243.728 76.25 L
245.496 76.25 L
247.264 76.25 L
249.032 76.25 L
250.8 76.25 L
252.568 76.25 L
254.336 76.25 L
256.104 76.25 L
257.872 76.25 L
259.64 76.25 L
261.408 76.25 L
263.176 76.25 L
264.944 76.25 L
266.712 76.25 L
268.48 76.25 L
270.248 76.25 L
272.016 76.25 L
273.784 76.25 L
275.552 76.25 L
277.32 76.25 L
279.088 76.25 L
280.856 76.25 L
282.624 76.25 L
284.392 76.25 L
286.16 76.25 L
287.928 76.25 L
289.696 76.25 L
291.464 76.25 L
293.232 76.25 L
295 76.25 L
295 76.25 L
295 76.25 L
296.768 76.25 L
298.536 76.25 L
300.304 76.25 L
302.072 76.25 L
303.84 76.25 L
305.608 76.25 L
307.376 76.25 L
309.144 76.25 L
310.912 76.25 L
312.68 76.25 L
314.448 76.25 L
316.216 76.25 L
317.984 76.25 L
319.752 76.25 L
321.52 76.25 L
323.288 76.25 L
325.056 76.25 L
326.824 76.25 L
328.592 76.25 L
330.36 76.25 L
332.128 76.25 L
333.896 76.25 L
335.664 76.25 L
337.432 76.25 L
339.2 76.25 L
340.968 76.25 L
342.736 76.25 L
344.504 76.25 L
346.272 76.25 L
348.04 76.25 L
349.808 76.25 L
351.576 76.25 L
353.344 76.25 L
355.112 76.25 L
356.88 76.25 L
358.648 76.25 L
360.416 76.25 L
362.184 76.25 L
363.952 76.25 L
365.72 76.25 L
367.488 76.25 L
369.256 76.25 L
371.024 76.25 L
372.792 76.25 L
374.56 76.25 L
376.328 76.25 L
378.096 76.25 L
379.864 76.25 L
381.632 76.25 L
383.4 76.25 L
385.168 76.25 L
386.936 76.25 L
388.704 76.25 L
390.472 76.25 L
392.24 76.25 L
394.008 76.25 L
395.776 76.25 L
397.544 76.25 L
399.312 76.25 L
401.08 76.25 L
402.848 76.25 L
404.616 76.25 L
406.384 76.25 L
408.152 76.25 L
409.92 76.25 L
411.688 76.25 L
413.456 76.25 L
415.224 76.25 L
416.992 76.25 L
418.76 76.25 L
420.528 76.25 L
422.296 76.25 L
424.064 76.25 L
425.832 76.25 L
427.6 76.25 L
429.368 76.25 L
431.136 76.25 L
432.904 76.25 L
434.672 76.25 L
436.44 76.25 L
438.208 76.25 L
439.976 76.25 L
441.744 76.25 L
443.512 76.25 L
445.28 76.25 L
447.048 76.25 L
448.816 76.25 L
450.584 76.25 L
452.352 76.25 L
454.12 76.25 L
455.888 76.25 L
457.656 76.25 L
459.424 76.25 L
461.192 76.25 L
462.96 76.25 L
464.728 76.25 L
466.496 76.25 L
468.264 76.25 L
470.032 76.25 L
471.8 76.25 L
473.568 76.25 L
475.336 76.25 L
477.104 76.25 L
478.872 76.25 L
480.64 76.25 L
482.408 76.25 L
484.176 76.25 L
485.944 76.25 L
487.712 76.25 L
489.48 76.25 L
491.248 76.25 L
493.016 76.25 L
494.784 76.25 L
496.552 76.25 L
498.32 76.25 L
500.088 76.25 L
501.856 76.25 L
503.624 76.25 L
505.392 76.25 L
507.16 76.25 L
508.928 76.25 L
510.696 76.25 L
512.464 76.25 L
514.232 76.25 L
516 76.25 L
S
GR
GS
[0.75 0 0 0.75 0 -0.25] CT
0.851 0.325 0.098 RC
1 LJ
2.667 LW
N
74 379 M
74 379 L
74.001 379 L
74.004 379 L
74.018 379 L
74.089 379 L
74.446 379 L
75.768 379 L
77.536 379 L
79.304 379 L
81.072 379 L
82.84 379 L
83.88 379 L
84.391 379 L
84.608 379 L
84.802 379 L
85.772 379 L
86.376 379 L
87.532 379 L
88.144 379 L
88.639 379 L
89.912 379 L
91.68 379 L
93.111 379 L
93.448 379 L
95.216 379 L
96.984 379 L
98.752 379 L
100.52 379 L
102.288 379 L
104.056 379 L
105.824 379 L
107.592 379 L
109.36 379 L
111.128 379 L
112.896 379 L
114.664 379 L
116.432 379 L
118.2 379 L
118.2 379 L
118.2 379 L
118.897 379 L
119.026 379 L
119.067 379 L
119.108 379 L
119.142 378.996 L
119.307 378.934 L
119.968 377.977 L
121.736 370.939 L
121.892 370.072 L
121.892 370.072 L
123.504 359.468 L
125.272 345.357 L
127.04 329.665 L
128.808 313.009 L
130.576 295.754 L
132.344 278.119 L
134.112 260.239 L
135.88 242.199 L
137.648 224.054 L
139.416 205.84 L
141.184 187.579 L
142.952 169.288 L
144.72 150.976 L
146.488 132.683 L
148.256 114.78 L
150.024 98.573 L
151.792 85.53 L
153.56 76.883 L
155.328 73.078 L
156.212 72.832 L
156.212 72.832 L
157.096 73.479 L
157.98 74.795 L
158.864 76.531 L
160.29 79.588 L
160.632 80.284 L
162.4 82.951 L
163.736 83.434 L
163.736 83.434 L
164.168 83.256 L
164.6 82.904 L
165.465 81.675 L
165.936 80.745 L
167.704 75.887 L
168.588 72.929 L
168.588 72.929 L
169.472 69.865 L
170.356 66.875 L
171.24 64.167 L
173.008 60.099 L
174.776 58.565 L
176.544 59.798 L
178.312 63.258 L
180.08 67.848 L
181.848 72.253 L
183.616 75.281 L
185.384 76.16 L
187.152 74.749 L
188.92 71.561 L
190.688 67.574 L
192.456 63.926 L
194.224 61.625 L
195.992 61.282 L
197.76 62.942 L
199.528 66.094 L
201.296 69.852 L
203.064 73.214 L
204.832 75.322 L
206.6 75.693 L
208.368 74.341 L
210.136 71.754 L
211.904 68.733 L
213.672 66.156 L
215.44 64.744 L
217.208 64.874 L
218.976 66.48 L
220.744 69.093 L
222.512 71.993 L
224.28 74.416 L
226.048 75.757 L
227.816 75.728 L
229.584 74.431 L
231.352 72.31 L
233.12 70.01 L
234.888 68.196 L
236.656 67.374 L
238.424 67.755 L
240.192 69.213 L
241.96 71.329 L
243.728 73.526 L
245.496 75.231 L
247.264 76.026 L
249.032 75.757 L
250.8 74.57 L
252.568 72.855 L
254.336 71.127 L
256.104 69.879 L
257.872 69.457 L
259.64 69.962 L
261.408 71.238 L
263.176 72.925 L
264.944 74.566 L
266.712 75.736 L
268.48 76.156 L
270.248 75.763 L
272.016 74.719 L
273.784 73.356 L
275.552 72.077 L
277.32 71.246 L
279.088 71.088 L
280.856 71.635 L
282.624 72.723 L
284.392 74.047 L
286.16 75.253 L
287.928 76.032 L
289.696 76.204 L
291.464 75.764 L
293.232 74.872 L
295 73.806 L
295 73.806 L
295 73.806 L
296.768 68.553 L
298.536 63.765 L
300.304 60.16 L
302.072 58.343 L
303.84 58.598 L
305.608 60.709 L
307.376 63.991 L
309.144 67.522 L
310.912 70.384 L
312.68 71.876 L
314.448 71.684 L
316.216 69.968 L
317.984 67.307 L
319.752 64.518 L
321.52 62.418 L
323.288 61.59 L
325.056 62.235 L
326.824 64.14 L
328.592 66.771 L
330.36 69.446 L
332.128 71.509 L
333.896 72.49 L
335.664 72.223 L
337.432 70.885 L
339.2 68.938 L
340.968 66.993 L
342.736 65.625 L
344.504 65.222 L
346.272 65.883 L
348.04 67.413 L
349.808 69.398 L
351.576 71.329 L
353.344 72.739 L
355.112 73.315 L
356.88 72.982 L
358.648 71.909 L
360.416 70.462 L
362.184 69.091 L
363.952 68.199 L
365.72 68.04 L
367.488 68.649 L
369.256 69.854 L
371.024 71.334 L
372.792 72.712 L
374.56 73.658 L
376.328 73.969 L
378.096 73.622 L
379.864 72.771 L
381.632 71.7 L
383.4 70.739 L
385.168 70.17 L
386.936 70.153 L
388.704 70.689 L
390.472 71.629 L
392.24 72.725 L
394.008 73.7 L
395.776 74.324 L
397.544 74.469 L
399.312 74.141 L
401.08 73.474 L
402.848 72.687 L
404.616 72.02 L
406.384 71.669 L
408.152 71.73 L
409.92 72.187 L
411.688 72.913 L
413.456 73.719 L
415.224 74.404 L
416.992 74.807 L
418.76 74.852 L
420.528 74.56 L
422.296 74.044 L
424.064 73.471 L
425.832 73.014 L
427.6 72.806 L
429.368 72.906 L
431.136 73.285 L
432.904 73.842 L
434.672 74.431 L
436.44 74.906 L
438.208 75.16 L
439.976 75.148 L
441.744 74.899 L
443.512 74.504 L
445.28 74.09 L
447.048 73.782 L
448.816 73.668 L
450.584 73.781 L
452.352 74.09 L
454.12 74.512 L
455.888 74.939 L
457.656 75.266 L
459.424 75.421 L
461.192 75.38 L
462.96 75.173 L
464.728 74.874 L
466.496 74.578 L
468.264 74.373 L
470.032 74.318 L
471.8 74.43 L
473.568 74.678 L
475.336 74.996 L
477.104 75.303 L
478.872 75.525 L
480.64 75.615 L
482.408 75.561 L
484.176 75.394 L
485.944 75.17 L
487.712 74.96 L
489.48 74.827 L
491.248 74.809 L
493.016 74.911 L
494.784 75.107 L
496.552 75.345 L
498.32 75.564 L
500.088 75.713 L
501.856 75.76 L
503.624 75.705 L
505.392 75.571 L
507.16 75.405 L
508.928 75.258 L
510.696 75.174 L
512.464 75.177 L
514.232 75.267 L
516 75.42 L
S
GR
GS
[0.75 0 0 0.75 0 -0.25] CT
1 GC
N
505 204 M
505 143 L
357 143 L
357 204 L
cp
f
GR
GS
[0.75 0 0 0.75 303 120.5] CT
/Helvetica 16.8 F
GS
[1 0 0 1 0 0] CT
0 0 moveto 
1 -1 scale
(q) t 
GR
GR
GS
[0.75 0 0 0.75 311.25 126.5] CT
/Helvetica 13.44 F
GS
[1 0 0 1 0 0] CT
0 0 moveto 
1 -1 scale
(anal\355tico) t 
GR
GR
GS
[0.75 0 0 0.75 0 -0.25] CT
0.851 0.325 0.098 RC
[4 4] 0 setdash
2 LJ
4 LW
N
361 159.132 M
401 159.132 L
S
GR
GS
[0.75 0 0 0.75 303 142.25] CT
/Helvetica 16.8 F
GS
[1 0 0 1 0 0] CT
0 0 moveto 
1 -1 scale
(q) t 
GR
GR
GS
[0.75 0 0 0.75 311.25 148.25] CT
/Helvetica 13.44 F
GS
[1 0 0 1 0 0] CT
0 0 moveto 
1 -1 scale
(optimizaci\363n) t 
GR
GR
GS
[0.75 0 0 0.75 0 -0.25] CT
0.851 0.325 0.098 RC
1 LJ
2.667 LW
N
361 187.868 M
401 187.868 L
S
GR
GS
[0.75 0 0 0.75 0 -0.25] CT
0.149 GC
10.0 ML
0.667 LW
N
357 204 M
357 143 L
505 143 L
505 204 L
cp
S
GR
%%Trailer
%%Pages: 1
%%EOF
